                           |canTro         |canSoj         |canVis         |canFri         |canNer         |canDub         |canAlb         |canMal         |debHan         |picFar         
canTro                    |  0,00000000000|1270716,09039639660|1478346,74317717020|1258945,76189774110|1258945,76189774110|1258945,76189774110|1465926,98018285300|1465926,98018285300|1261942,92035067760|1400906,42626096050
canSoj                    |1270716,09039639660|  0,00000000000|1478346,74317717020|1270716,09039639660|1270716,09039639660|1270716,09039639660|1465926,98018285300|1465926,98018285300|1270716,09039639660|1400906,42626096050
canVis                    |1478346,74317717020|1478346,74317717020|  0,00000000000|1478346,74317717020|1478346,74317717020|1478346,74317717020|1478346,74317717020|1478346,74317717020|1478346,74317717020|1478346,74317717020
canFri                    |1258945,76189774110|1270716,09039639660|1478346,74317717020|  0,00000000000|985911,88967842400|1174370,62707456800|1465926,98018285300|1465926,98018285300|1261942,92035067760|1400906,42626096050
canNer                    |1258945,76189774110|1270716,09039639660|1478346,74317717020|985911,88967842400|  0,00000000000|1174370,62707456800|1465926,98018285300|1465926,98018285300|1261942,92035067760|1400906,42626096050
canDub                    |1258945,76189774110|1270716,09039639660|1478346,74317717020|1174370,62707456800|1174370,62707456800|  0,00000000000|1465926,98018285300|1465926,98018285300|1261942,92035067760|1400906,42626096050
canAlb                    |1465926,98018285300|1465926,98018285300|1478346,74317717020|1465926,98018285300|1465926,98018285300|1465926,98018285300|  0,00000000000|1452883,28192794300|1465926,98018285300|1465926,98018285300
canMal                    |1465926,98018285300|1465926,98018285300|1478346,74317717020|1465926,98018285300|1465926,98018285300|1465926,98018285300|1452883,28192794300|  0,00000000000|1465926,98018285300|1465926,98018285300
debHan                    |1261942,92035067760|1270716,09039639660|1478346,74317717020|1261942,92035067760|1261942,92035067760|1261942,92035067760|1465926,98018285300|1465926,98018285300|  0,00000000000|1400906,42626096050
picFar                    |1400906,42626096050|1400906,42626096050|1478346,74317717020|1400906,42626096050|1400906,42626096050|1400906,42626096050|1465926,98018285300|1465926,98018285300|1400906,42626096050|  0,00000000000
                           |canTro         |canSoj         |canVis         |canFri         |canNer         |canDub         |canAlb         |canMal         |debHan         |picFar         
canTro                    |  0,00000000000|  9,03239749684| 10,83439220518|  8,93024461438|  8,93024461438|  8,93024461438| 10,72660297997| 10,72660297997|  8,95625649461| 10,16229952799
canSoj                    |  9,03239749684|  0,00000000000| 10,83439220518|  9,03239749684|  9,03239749684|  9,03239749684| 10,72660297997| 10,72660297997|  9,03239749684| 10,16229952799
canVis                    | 10,83439220518| 10,83439220518|  0,00000000000| 10,83439220518| 10,83439220518| 10,83439220518| 10,83439220518| 10,83439220518| 10,83439220518| 10,83439220518
canFri                    |  8,93024461438|  9,03239749684| 10,83439220518|  0,00000000000|  6,56062535851|  8,19622994281| 10,72660297997| 10,72660297997|  8,95625649461| 10,16229952799
canNer                    |  8,93024461438|  9,03239749684| 10,83439220518|  6,56062535851|  0,00000000000|  8,19622994281| 10,72660297997| 10,72660297997|  8,95625649461| 10,16229952799
canDub                    |  8,93024461438|  9,03239749684| 10,83439220518|  8,19622994281|  8,19622994281|  0,00000000000| 10,72660297997| 10,72660297997|  8,95625649461| 10,16229952799
canAlb                    | 10,72660297997| 10,72660297997| 10,83439220518| 10,72660297997| 10,72660297997| 10,72660297997|  0,00000000000| 10,61339871596| 10,72660297997| 10,72660297997
canMal                    | 10,72660297997| 10,72660297997| 10,83439220518| 10,72660297997| 10,72660297997| 10,72660297997| 10,61339871596|  0,00000000000| 10,72660297997| 10,72660297997
debHan                    |  8,95625649461|  9,03239749684| 10,83439220518|  8,95625649461|  8,95625649461|  8,95625649461| 10,72660297997| 10,72660297997|  0,00000000000| 10,16229952799
picFar                    | 10,16229952799| 10,16229952799| 10,83439220518| 10,16229952799| 10,16229952799| 10,16229952799| 10,72660297997| 10,72660297997| 10,16229952799|  0,00000000000
                           |canTro         |canSoj         |canVis         |canFri         |canNer         |canDub         |canAlb         |canMal         |debHan         |picFar         
canTro                    |  0,00000000000|  4,00000000000|  7,00000000000|  4,00000000000|  4,00000000000|  3,00000000000|  7,00000000000|  7,00000000000|  3,00000000000|  5,00000000000
canSoj                    |  4,00000000000|  0,00000000000|  5,00000000000|  6,00000000000|  6,00000000000|  5,00000000000|  5,00000000000|  5,00000000000|  3,00000000000|  3,00000000000
canVis                    |  7,00000000000|  5,00000000000|  0,00000000000|  9,00000000000|  9,00000000000|  8,00000000000|  4,00000000000|  4,00000000000|  6,00000000000|  4,00000000000
canFri                    |  4,00000000000|  6,00000000000|  9,00000000000|  0,00000000000|  2,00000000000|  3,00000000000|  9,00000000000|  9,00000000000|  5,00000000000|  7,00000000000
canNer                    |  4,00000000000|  6,00000000000|  9,00000000000|  2,00000000000|  0,00000000000|  3,00000000000|  9,00000000000|  9,00000000000|  5,00000000000|  7,00000000000
canDub                    |  3,00000000000|  5,00000000000|  8,00000000000|  3,00000000000|  3,00000000000|  0,00000000000|  8,00000000000|  8,00000000000|  4,00000000000|  6,00000000000
canAlb                    |  7,00000000000|  5,00000000000|  4,00000000000|  9,00000000000|  9,00000000000|  8,00000000000|  0,00000000000|  2,00000000000|  6,00000000000|  4,00000000000
canMal                    |  7,00000000000|  5,00000000000|  4,00000000000|  9,00000000000|  9,00000000000|  8,00000000000|  2,00000000000|  0,00000000000|  6,00000000000|  4,00000000000
debHan                    |  3,00000000000|  3,00000000000|  6,00000000000|  5,00000000000|  5,00000000000|  4,00000000000|  6,00000000000|  6,00000000000|  0,00000000000|  4,00000000000
picFar                    |  5,00000000000|  3,00000000000|  4,00000000000|  7,00000000000|  7,00000000000|  6,00000000000|  4,00000000000|  4,00000000000|  4,00000000000|  0,00000000000
