                           |canTro         |canSoj         |canVis         |canFri         |canNer         |canDub         |canAlb         |canMal         |debHan         |picFar         
canTro                    |  0,00000000000|  6,82931357366|  7,64903207021|  7,46004401987|  7,46004401987|  7,50539075189|  7,50539075189|  7,50539075189|  8,71497433465|  8,71497433465
canSoj                    |  6,82931357366|  0,00000000000|  7,64903207021|  7,46004401987|  7,46004401987|  7,50539075189|  7,50539075189|  7,50539075189|  8,71497433465|  8,71497433465
canVis                    |  7,64903207021|  7,64903207021|  0,00000000000|  7,64903207021|  7,64903207021|  7,64903207021|  7,64903207021|  7,64903207021|  8,71497433465|  8,71497433465
canFri                    |  7,46004401987|  7,46004401987|  7,64903207021|  0,00000000000|  5,62868725501|  7,50539075189|  7,50539075189|  7,50539075189|  8,71497433465|  8,71497433465
canNer                    |  7,46004401987|  7,46004401987|  7,64903207021|  5,62868725501|  0,00000000000|  7,50539075189|  7,50539075189|  7,50539075189|  8,71497433465|  8,71497433465
canDub                    |  7,50539075189|  7,50539075189|  7,64903207021|  7,50539075189|  7,50539075189|  0,00000000000|  6,41907883932|  7,29347476794|  8,71497433465|  8,71497433465
canAlb                    |  7,50539075189|  7,50539075189|  7,64903207021|  7,50539075189|  7,50539075189|  6,41907883932|  0,00000000000|  7,29347476794|  8,71497433465|  8,71497433465
canMal                    |  7,50539075189|  7,50539075189|  7,64903207021|  7,50539075189|  7,50539075189|  7,29347476794|  7,29347476794|  0,00000000000|  8,71497433465|  8,71497433465
debHan                    |  8,71497433465|  8,71497433465|  8,71497433465|  8,71497433465|  8,71497433465|  8,71497433465|  8,71497433465|  8,71497433465|  0,00000000000|  8,61798357942
picFar                    |  8,71497433465|  8,71497433465|  8,71497433465|  8,71497433465|  8,71497433465|  8,71497433465|  8,71497433465|  8,71497433465|  8,61798357942|  0,00000000000
                           |canTro         |canSoj         |canVis         |canFri         |canNer         |canDub         |canAlb         |canMal         |debHan         |picFar         
canTro                    |  0,00000000000|  8,53325953938|  9,66869465462|  9,40691738643|  9,40691738643|  9,46972952511|  9,46972952511|  9,46972952511| 11,14518723465| 11,14518723465
canSoj                    |  8,53325953938|  0,00000000000|  9,66869465462|  9,40691738643|  9,40691738643|  9,46972952511|  9,46972952511|  9,46972952511| 11,14518723465| 11,14518723465
canVis                    |  9,66869465462|  9,66869465462|  0,00000000000|  9,66869465462|  9,66869465462|  9,66869465462|  9,66869465462|  9,66869465462| 11,14518723465| 11,14518723465
canFri                    |  9,40691738643|  9,40691738643|  9,66869465462|  0,00000000000|  6,87020900650|  9,46972952511|  9,46972952511|  9,46972952511| 11,14518723465| 11,14518723465
canNer                    |  9,40691738643|  9,40691738643|  9,66869465462|  6,87020900650|  0,00000000000|  9,46972952511|  9,46972952511|  9,46972952511| 11,14518723465| 11,14518723465
canDub                    |  9,46972952511|  9,46972952511|  9,66869465462|  9,46972952511|  9,46972952511|  0,00000000000|  7,96502187629|  9,17619357263| 11,14518723465| 11,14518723465
canAlb                    |  9,46972952511|  9,46972952511|  9,66869465462|  9,46972952511|  9,46972952511|  7,96502187629|  0,00000000000|  9,17619357263| 11,14518723465| 11,14518723465
canMal                    |  9,46972952511|  9,46972952511|  9,66869465462|  9,46972952511|  9,46972952511|  9,17619357263|  9,17619357263|  0,00000000000| 11,14518723465| 11,14518723465
debHan                    | 11,14518723465| 11,14518723465| 11,14518723465| 11,14518723465| 11,14518723465| 11,14518723465| 11,14518723465| 11,14518723465|  0,00000000000| 11,01084024870
picFar                    | 11,14518723465| 11,14518723465| 11,14518723465| 11,14518723465| 11,14518723465| 11,14518723465| 11,14518723465| 11,14518723465| 11,01084024870|  0,00000000000
                           |canTro         |canSoj         |canVis         |canFri         |canNer         |canDub         |canAlb         |canMal         |debHan         |picFar         
canTro                    |  0,00000000000|  2,00000000000|  5,00000000000|  4,00000000000|  4,00000000000|  6,00000000000|  6,00000000000|  5,00000000000|  7,00000000000|  7,00000000000
canSoj                    |  2,00000000000|  0,00000000000|  5,00000000000|  4,00000000000|  4,00000000000|  6,00000000000|  6,00000000000|  5,00000000000|  7,00000000000|  7,00000000000
canVis                    |  5,00000000000|  5,00000000000|  0,00000000000|  5,00000000000|  5,00000000000|  5,00000000000|  5,00000000000|  4,00000000000|  4,00000000000|  4,00000000000
canFri                    |  4,00000000000|  4,00000000000|  5,00000000000|  0,00000000000|  2,00000000000|  6,00000000000|  6,00000000000|  5,00000000000|  7,00000000000|  7,00000000000
canNer                    |  4,00000000000|  4,00000000000|  5,00000000000|  2,00000000000|  0,00000000000|  6,00000000000|  6,00000000000|  5,00000000000|  7,00000000000|  7,00000000000
canDub                    |  6,00000000000|  6,00000000000|  5,00000000000|  6,00000000000|  6,00000000000|  0,00000000000|  2,00000000000|  3,00000000000|  7,00000000000|  7,00000000000
canAlb                    |  6,00000000000|  6,00000000000|  5,00000000000|  6,00000000000|  6,00000000000|  2,00000000000|  0,00000000000|  3,00000000000|  7,00000000000|  7,00000000000
canMal                    |  5,00000000000|  5,00000000000|  4,00000000000|  5,00000000000|  5,00000000000|  3,00000000000|  3,00000000000|  0,00000000000|  6,00000000000|  6,00000000000
debHan                    |  7,00000000000|  7,00000000000|  4,00000000000|  7,00000000000|  7,00000000000|  7,00000000000|  7,00000000000|  6,00000000000|  0,00000000000|  2,00000000000
picFar                    |  7,00000000000|  7,00000000000|  4,00000000000|  7,00000000000|  7,00000000000|  7,00000000000|  7,00000000000|  6,00000000000|  2,00000000000|  0,00000000000
