                           |canTro         |canSoj         |canVis         |canFri         |canNer         |canDub         |canAlb         |canMal         |debHan         |picFar         
canTro                    |  0,00000000000|  7,04614044814|  7,98872822143|  7,17047049952|  7,17047049952|  7,19094879779|  7,19094879779|  7,19094879779|  8,82792753945|  9,23846509556
canSoj                    |  7,04614044814|  0,00000000000|  7,98872822143|  7,17047049952|  7,17047049952|  7,19094879779|  7,19094879779|  7,19094879779|  8,82792753945|  9,23846509556
canVis                    |  7,98872822143|  7,98872822143|  0,00000000000|  7,98872822143|  7,98872822143|  7,98872822143|  7,98872822143|  7,98872822143|  8,82792753945|  9,23846509556
canFri                    |  7,17047049952|  7,17047049952|  7,98872822143|  0,00000000000|  6,04851385688|  7,19094879779|  7,19094879779|  7,19094879779|  8,82792753945|  9,23846509556
canNer                    |  7,17047049952|  7,17047049952|  7,98872822143|  6,04851385688|  0,00000000000|  7,19094879779|  7,19094879779|  7,19094879779|  8,82792753945|  9,23846509556
canDub                    |  7,19094879779|  7,19094879779|  7,98872822143|  7,19094879779|  7,19094879779|  0,00000000000|  5,98152511450|  7,03413507445|  8,82792753945|  9,23846509556
canAlb                    |  7,19094879779|  7,19094879779|  7,98872822143|  7,19094879779|  7,19094879779|  5,98152511450|  0,00000000000|  7,03413507445|  8,82792753945|  9,23846509556
canMal                    |  7,19094879779|  7,19094879779|  7,98872822143|  7,19094879779|  7,19094879779|  7,03413507445|  7,03413507445|  0,00000000000|  8,82792753945|  9,23846509556
debHan                    |  8,82792753945|  8,82792753945|  8,82792753945|  8,82792753945|  8,82792753945|  8,82792753945|  8,82792753945|  8,82792753945|  0,00000000000|  9,23846509556
picFar                    |  9,23846509556|  9,23846509556|  9,23846509556|  9,23846509556|  9,23846509556|  9,23846509556|  9,23846509556|  9,23846509556|  9,23846509556|  0,00000000000
                           |canTro         |canSoj         |canVis         |canFri         |canNer         |canDub         |canAlb         |canMal         |debHan         |picFar         
canTro                    |  0,00000000000|  9,04526030678| 10,03948028494|  9,17640079521|  9,17640079521|  9,19800083483|  9,19800083483|  9,19800083483| 10,92464849025| 11,35767409447
canSoj                    |  9,04526030678|  0,00000000000| 10,03948028494|  9,17640079521|  9,17640079521|  9,19800083483|  9,19800083483|  9,19800083483| 10,92464849025| 11,35767409447
canVis                    | 10,03948028494| 10,03948028494|  0,00000000000| 10,03948028494| 10,03948028494| 10,03948028494| 10,03948028494| 10,03948028494| 10,92464849025| 11,35767409447
canFri                    |  9,17640079521|  9,17640079521| 10,03948028494|  0,00000000000|  7,99298664498|  9,19800083483|  9,19800083483|  9,19800083483| 10,92464849025| 11,35767409447
canNer                    |  9,17640079521|  9,17640079521| 10,03948028494|  7,99298664498|  0,00000000000|  9,19800083483|  9,19800083483|  9,19800083483| 10,92464849025| 11,35767409447
canDub                    |  9,19800083483|  9,19800083483| 10,03948028494|  9,19800083483|  9,19800083483|  0,00000000000|  7,92232845497|  9,03259731379| 10,92464849025| 11,35767409447
canAlb                    |  9,19800083483|  9,19800083483| 10,03948028494|  9,19800083483|  9,19800083483|  7,92232845497|  0,00000000000|  9,03259731379| 10,92464849025| 11,35767409447
canMal                    |  9,19800083483|  9,19800083483| 10,03948028494|  9,19800083483|  9,19800083483|  9,03259731379|  9,03259731379|  0,00000000000| 10,92464849025| 11,35767409447
debHan                    | 10,92464849025| 10,92464849025| 10,92464849025| 10,92464849025| 10,92464849025| 10,92464849025| 10,92464849025| 10,92464849025|  0,00000000000| 11,35767409447
picFar                    | 11,35767409447| 11,35767409447| 11,35767409447| 11,35767409447| 11,35767409447| 11,35767409447| 11,35767409447| 11,35767409447| 11,35767409447|  0,00000000000
                           |canTro         |canSoj         |canVis         |canFri         |canNer         |canDub         |canAlb         |canMal         |debHan         |picFar         
canTro                    |  0,00000000000|  2,00000000000|  5,00000000000|  4,00000000000|  4,00000000000|  6,00000000000|  6,00000000000|  5,00000000000|  6,00000000000|  7,00000000000
canSoj                    |  2,00000000000|  0,00000000000|  5,00000000000|  4,00000000000|  4,00000000000|  6,00000000000|  6,00000000000|  5,00000000000|  6,00000000000|  7,00000000000
canVis                    |  5,00000000000|  5,00000000000|  0,00000000000|  5,00000000000|  5,00000000000|  5,00000000000|  5,00000000000|  4,00000000000|  3,00000000000|  4,00000000000
canFri                    |  4,00000000000|  4,00000000000|  5,00000000000|  0,00000000000|  2,00000000000|  6,00000000000|  6,00000000000|  5,00000000000|  6,00000000000|  7,00000000000
canNer                    |  4,00000000000|  4,00000000000|  5,00000000000|  2,00000000000|  0,00000000000|  6,00000000000|  6,00000000000|  5,00000000000|  6,00000000000|  7,00000000000
canDub                    |  6,00000000000|  6,00000000000|  5,00000000000|  6,00000000000|  6,00000000000|  0,00000000000|  2,00000000000|  3,00000000000|  6,00000000000|  7,00000000000
canAlb                    |  6,00000000000|  6,00000000000|  5,00000000000|  6,00000000000|  6,00000000000|  2,00000000000|  0,00000000000|  3,00000000000|  6,00000000000|  7,00000000000
canMal                    |  5,00000000000|  5,00000000000|  4,00000000000|  5,00000000000|  5,00000000000|  3,00000000000|  3,00000000000|  0,00000000000|  5,00000000000|  6,00000000000
debHan                    |  6,00000000000|  6,00000000000|  3,00000000000|  6,00000000000|  6,00000000000|  6,00000000000|  6,00000000000|  5,00000000000|  0,00000000000|  3,00000000000
picFar                    |  7,00000000000|  7,00000000000|  4,00000000000|  7,00000000000|  7,00000000000|  7,00000000000|  7,00000000000|  6,00000000000|  3,00000000000|  0,00000000000
