                           |canTro         |canSoj         |canVis         |canFri         |canNer         |canDub         |canAlb         |canMal         |debHan         |picFar         
canTro                    |  0,00000000000|2184,91641724651|2547,58837381326|2311,48591661755|2311,48591661755|2374,05321292904|2374,05321292904|2374,05321292904|2616,45518704155|2616,45518704155
canSoj                    |2184,91641724651|  0,00000000000|2547,58837381326|2311,48591661755|2311,48591661755|2374,05321292904|2374,05321292904|2374,05321292904|2616,45518704155|2616,45518704155
canVis                    |2547,58837381326|2547,58837381326|  0,00000000000|2547,58837381326|2547,58837381326|2547,58837381326|2547,58837381326|2547,58837381326|2616,45518704155|2616,45518704155
canFri                    |2311,48591661755|2311,48591661755|2547,58837381326|  0,00000000000|1908,51435558529|2374,05321292904|2374,05321292904|2374,05321292904|2616,45518704155|2616,45518704155
canNer                    |2311,48591661755|2311,48591661755|2547,58837381326|1908,51435558529|  0,00000000000|2374,05321292904|2374,05321292904|2374,05321292904|2616,45518704155|2616,45518704155
canDub                    |2374,05321292904|2374,05321292904|2547,58837381326|2374,05321292904|2374,05321292904|  0,00000000000|1909,11687183411|2357,18941519719|2616,45518704155|2616,45518704155
canAlb                    |2374,05321292904|2374,05321292904|2547,58837381326|2374,05321292904|2374,05321292904|1909,11687183411|  0,00000000000|2357,18941519719|2616,45518704155|2616,45518704155
canMal                    |2374,05321292904|2374,05321292904|2547,58837381326|2374,05321292904|2374,05321292904|2357,18941519719|2357,18941519719|  0,00000000000|2616,45518704155|2616,45518704155
debHan                    |2616,45518704155|2616,45518704155|2616,45518704155|2616,45518704155|2616,45518704155|2616,45518704155|2616,45518704155|2616,45518704155|  0,00000000000|2567,77767148491
picFar                    |2616,45518704155|2616,45518704155|2616,45518704155|2616,45518704155|2616,45518704155|2616,45518704155|2616,45518704155|2616,45518704155|2567,77767148491|  0,00000000000
                           |canTro         |canSoj         |canVis         |canFri         |canNer         |canDub         |canAlb         |canMal         |debHan         |picFar         
canTro                    |  0,00000000000|  8,40282664940| 10,50588495059|  9,13677652203|  9,13677652203|  9,49959109732|  9,49959109732|  9,49959109732| 10,90522909787| 10,90522909787
canSoj                    |  8,40282664940|  0,00000000000| 10,50588495059|  9,13677652203|  9,13677652203|  9,49959109732|  9,49959109732|  9,49959109732| 10,90522909787| 10,90522909787
canVis                    | 10,50588495059| 10,50588495059|  0,00000000000| 10,50588495059| 10,50588495059| 10,50588495059| 10,50588495059| 10,50588495059| 10,90522909787| 10,90522909787
canFri                    |  9,13677652203|  9,13677652203| 10,50588495059|  0,00000000000|  6,80002930122|  9,49959109732|  9,49959109732|  9,49959109732| 10,90522909787| 10,90522909787
canNer                    |  9,13677652203|  9,13677652203| 10,50588495059|  6,80002930122|  0,00000000000|  9,49959109732|  9,49959109732|  9,49959109732| 10,90522909787| 10,90522909787
canDub                    |  9,49959109732|  9,49959109732| 10,50588495059|  9,49959109732|  9,49959109732|  0,00000000000|  6,80352316607|  9,40180148561| 10,90522909787| 10,90522909787
canAlb                    |  9,49959109732|  9,49959109732| 10,50588495059|  9,49959109732|  9,49959109732|  6,80352316607|  0,00000000000|  9,40180148561| 10,90522909787| 10,90522909787
canMal                    |  9,49959109732|  9,49959109732| 10,50588495059|  9,49959109732|  9,49959109732|  9,40180148561|  9,40180148561|  0,00000000000| 10,90522909787| 10,90522909787
debHan                    | 10,90522909787| 10,90522909787| 10,90522909787| 10,90522909787| 10,90522909787| 10,90522909787| 10,90522909787| 10,90522909787|  0,00000000000| 10,62295843613
picFar                    | 10,90522909787| 10,90522909787| 10,90522909787| 10,90522909787| 10,90522909787| 10,90522909787| 10,90522909787| 10,90522909787| 10,62295843613|  0,00000000000
                           |canTro         |canSoj         |canVis         |canFri         |canNer         |canDub         |canAlb         |canMal         |debHan         |picFar         
canTro                    |  0,00000000000|  2,00000000000|  5,00000000000|  4,00000000000|  4,00000000000|  6,00000000000|  6,00000000000|  5,00000000000|  7,00000000000|  7,00000000000
canSoj                    |  2,00000000000|  0,00000000000|  5,00000000000|  4,00000000000|  4,00000000000|  6,00000000000|  6,00000000000|  5,00000000000|  7,00000000000|  7,00000000000
canVis                    |  5,00000000000|  5,00000000000|  0,00000000000|  5,00000000000|  5,00000000000|  5,00000000000|  5,00000000000|  4,00000000000|  4,00000000000|  4,00000000000
canFri                    |  4,00000000000|  4,00000000000|  5,00000000000|  0,00000000000|  2,00000000000|  6,00000000000|  6,00000000000|  5,00000000000|  7,00000000000|  7,00000000000
canNer                    |  4,00000000000|  4,00000000000|  5,00000000000|  2,00000000000|  0,00000000000|  6,00000000000|  6,00000000000|  5,00000000000|  7,00000000000|  7,00000000000
canDub                    |  6,00000000000|  6,00000000000|  5,00000000000|  6,00000000000|  6,00000000000|  0,00000000000|  2,00000000000|  3,00000000000|  7,00000000000|  7,00000000000
canAlb                    |  6,00000000000|  6,00000000000|  5,00000000000|  6,00000000000|  6,00000000000|  2,00000000000|  0,00000000000|  3,00000000000|  7,00000000000|  7,00000000000
canMal                    |  5,00000000000|  5,00000000000|  4,00000000000|  5,00000000000|  5,00000000000|  3,00000000000|  3,00000000000|  0,00000000000|  6,00000000000|  6,00000000000
debHan                    |  7,00000000000|  7,00000000000|  4,00000000000|  7,00000000000|  7,00000000000|  7,00000000000|  7,00000000000|  6,00000000000|  0,00000000000|  2,00000000000
picFar                    |  7,00000000000|  7,00000000000|  4,00000000000|  7,00000000000|  7,00000000000|  7,00000000000|  7,00000000000|  6,00000000000|  2,00000000000|  0,00000000000
