<?xml version="1.0" encoding="UTF-8"?>
<svg xmlns="http://www.w3.org/2000/svg" xmlns:xlink="http://www.w3.org/1999/xlink" contentScriptType="text/ecmascript" width="20cm" zoomAndPan="magnify" contentStyleType="text/css" height="15.037593984962406cm" viewBox="0 0 1.33 1.0" preserveAspectRatio="xMidYMid meet" version="1.0">
<defs/>
<style type="text/css" xml:space="preserve">
.axis-label{fill:black;
font-family:'Times New Roman', serif;
font-size:2.0;
}

.key-caption{font-size:0.7000000000000001;
font-family:'Times New Roman', serif;
fill:black;
font-weight:bold;
}

.key-hierarchy{stroke:black;
stroke-width:0.2885390081777927;
stroke-linecap:round;
fill:none;
}

.axis{stroke:black;
stroke-width:0.2;
}

.key-hierarchy_0{stroke:#ed420e;
stroke-width:0.2885390081777927;
stroke-linecap:round;
fill:none;
}

.key-hierarchy_1{stroke:#fdca19;
stroke-width:0.2885390081777927;
stroke-linecap:round;
fill:none;
}

.axis-tick{stroke:grey;
stroke-width:0.2;
}
</style>
<g transform="scale(0.0105055292) translate(13.3 10)">
<line y2="0" x1="0" x2="0" class="axis" y1="75.1879699248"/>
<line y2="75.1879699248" x1="0.7518796992" x2="-0.7518796992" class="axis-tick" y1="75.1879699248"/>
<text x="-1.8796992481" y="75.8879699248" class="axis-label" text-anchor="end">0</text>
<line y2="70.1754385965" x1="0.7518796992" x2="-0.7518796992" class="axis-tick" y1="70.1754385965"/>
<text x="-1.8796992481" y="70.8754385965" class="axis-label" text-anchor="end">10,000,000</text>
<line y2="65.1629072682" x1="0.7518796992" x2="-0.7518796992" class="axis-tick" y1="65.1629072682"/>
<text x="-1.8796992481" y="65.8629072682" class="axis-label" text-anchor="end">20,000,000</text>
<line y2="60.1503759398" x1="0.7518796992" x2="-0.7518796992" class="axis-tick" y1="60.1503759398"/>
<text x="-1.8796992481" y="60.8503759398" class="axis-label" text-anchor="end">30,000,000</text>
<line y2="55.1378446115" x1="0.7518796992" x2="-0.7518796992" class="axis-tick" y1="55.1378446115"/>
<text x="-1.8796992481" y="55.8378446115" class="axis-label" text-anchor="end">40,000,000</text>
<line y2="50.1253132832" x1="0.7518796992" x2="-0.7518796992" class="axis-tick" y1="50.1253132832"/>
<text x="-1.8796992481" y="50.8253132832" class="axis-label" text-anchor="end">50,000,000</text>
<line y2="45.1127819549" x1="0.7518796992" x2="-0.7518796992" class="axis-tick" y1="45.1127819549"/>
<text x="-1.8796992481" y="45.8127819549" class="axis-label" text-anchor="end">60,000,000</text>
<line y2="40.1002506266" x1="0.7518796992" x2="-0.7518796992" class="axis-tick" y1="40.1002506266"/>
<text x="-1.8796992481" y="40.8002506266" class="axis-label" text-anchor="end">70,000,000</text>
<line y2="35.0877192982" x1="0.7518796992" x2="-0.7518796992" class="axis-tick" y1="35.0877192982"/>
<text x="-1.8796992481" y="35.7877192982" class="axis-label" text-anchor="end">80,000,000</text>
<line y2="30.0751879699" x1="0.7518796992" x2="-0.7518796992" class="axis-tick" y1="30.0751879699"/>
<text x="-1.8796992481" y="30.7751879699" class="axis-label" text-anchor="end">90,000,000</text>
<line y2="25.0626566416" x1="0.7518796992" x2="-0.7518796992" class="axis-tick" y1="25.0626566416"/>
<text x="-1.8796992481" y="25.7626566416" class="axis-label" text-anchor="end">100,000,000</text>
<line y2="20.0501253133" x1="0.7518796992" x2="-0.7518796992" class="axis-tick" y1="20.0501253133"/>
<text x="-1.8796992481" y="20.7501253133" class="axis-label" text-anchor="end">110,000,000</text>
<line y2="15.037593985" x1="0.7518796992" x2="-0.7518796992" class="axis-tick" y1="15.037593985"/>
<text x="-1.8796992481" y="15.737593985" class="axis-label" text-anchor="end">120,000,000</text>
<line y2="10.0250626566" x1="0.7518796992" x2="-0.7518796992" class="axis-tick" y1="10.0250626566"/>
<text x="-1.8796992481" y="10.7250626566" class="axis-label" text-anchor="end">130,000,000</text>
<line y2="5.0125313283" x1="0.7518796992" x2="-0.7518796992" class="axis-tick" y1="5.0125313283"/>
<text x="-1.8796992481" y="5.7125313283" class="axis-label" text-anchor="end">140,000,000</text>
<line y2="0" x1="0.7518796992" x2="-0.7518796992" class="axis-tick" y1="0"/>
<text x="-1.8796992481" y="0.7" class="axis-label" text-anchor="end">150,000,000</text>
<text x="79.0322580645" y="78.9473684211" style="font-size: 2.5; font-family:'Times New Roman';" transform="rotate(60 79.03225806451611 78.94736842105263)">Brown_Bear</text>
<text x="62.9032258065" y="78.9473684211" style="font-size: 2.5; font-family:'Times New Roman';" transform="rotate(60 62.90322580645161 78.94736842105263)">Tiger</text>
<text x="69.3548387097" y="78.9473684211" style="font-size: 2.5; font-family:'Times New Roman';" transform="rotate(60 69.35483870967741 78.94736842105263)">Dog</text>
<text x="53.2258064516" y="78.9473684211" style="font-size: 2.5; font-family:'Times New Roman';" transform="rotate(60 53.2258064516129 78.94736842105263)">Sheep</text>
<text x="17.7419354839" y="78.9473684211" style="font-size: 2.5; font-family:'Times New Roman';" transform="rotate(60 17.741935483870968 78.94736842105263)">Pig_Chim</text>
<text x="4.8387096774" y="78.9473684211" style="font-size: 2.5; font-family:'Times New Roman';" transform="rotate(60 4.838709677419354 78.94736842105263)">Cow</text>
<text x="37.0967741935" y="78.9473684211" style="font-size: 2.5; font-family:'Times New Roman';" transform="rotate(60 37.096774193548384 78.94736842105263)">Bor_Oran</text>
<text x="20.9677419355" y="78.9473684211" style="font-size: 2.5; font-family:'Times New Roman';" transform="rotate(60 20.96774193548387 78.94736842105263)">Com_Chim</text>
<text x="75.8064516129" y="78.9473684211" style="font-size: 2.5; font-family:'Times New Roman';" transform="rotate(60 75.80645161290322 78.94736842105263)">Black_Bear</text>
<text x="27.4193548387" y="78.9473684211" style="font-size: 2.5; font-family:'Times New Roman';" transform="rotate(60 27.419354838709676 78.94736842105263)">Ver_Monkey</text>
<text x="91.935483871" y="78.9473684211" style="font-size: 2.5; font-family:'Times New Roman';" transform="rotate(60 91.93548387096773 78.94736842105263)">Indian_Rhino</text>
<text x="14.5161290323" y="78.9473684211" style="font-size: 2.5; font-family:'Times New Roman';" transform="rotate(60 14.516129032258064 78.94736842105263)">Human</text>
<text x="24.1935483871" y="78.9473684211" style="font-size: 2.5; font-family:'Times New Roman';" transform="rotate(60 24.193548387096772 78.94736842105263)">Baboon</text>
<text x="33.8709677419" y="78.9473684211" style="font-size: 2.5; font-family:'Times New Roman';" transform="rotate(60 33.87096774193548 78.94736842105263)">Gibbon</text>
<text x="59.6774193548" y="78.9473684211" style="font-size: 2.5; font-family:'Times New Roman';" transform="rotate(60 59.677419354838705 78.94736842105263)">Cat</text>
<text x="43.5483870968" y="78.9473684211" style="font-size: 2.5; font-family:'Times New Roman';" transform="rotate(60 43.548387096774185 78.94736842105263)">Dormouse</text>
<text x="30.6451612903" y="78.9473684211" style="font-size: 2.5; font-family:'Times New Roman';" transform="rotate(60 30.64516129032258 78.94736842105263)">Macaca_Thibet</text>
<text x="72.5806451613" y="78.9473684211" style="font-size: 2.5; font-family:'Times New Roman';" transform="rotate(60 72.58064516129032 78.94736842105263)">Wolf</text>
<text x="56.4516129032" y="78.9473684211" style="font-size: 2.5; font-family:'Times New Roman';" transform="rotate(60 56.4516129032258 78.94736842105263)">Goat</text>
<text x="95.1612903226" y="78.9473684211" style="font-size: 2.5; font-family:'Times New Roman';" transform="rotate(60 95.16129032258064 78.94736842105263)">White_Rhino</text>
<text x="66.1290322581" y="78.9473684211" style="font-size: 2.5; font-family:'Times New Roman';" transform="rotate(60 66.12903225806451 78.94736842105263)">Leopard</text>
<text x="88.7096774194" y="78.9473684211" style="font-size: 2.5; font-family:'Times New Roman';" transform="rotate(60 88.70967741935483 78.94736842105263)">Pig</text>
<text x="82.2580645161" y="78.9473684211" style="font-size: 2.5; font-family:'Times New Roman';" transform="rotate(60 82.25806451612902 78.94736842105263)">Polar_Bear</text>
<text x="50" y="78.9473684211" style="font-size: 2.5; font-family:'Times New Roman';" transform="rotate(60 49.99999999999999 78.94736842105263)">Giant_Panda</text>
<text x="85.4838709677" y="78.9473684211" style="font-size: 2.5; font-family:'Times New Roman';" transform="rotate(60 85.48387096774192 78.94736842105263)">Rabbit</text>
<text x="1.6129032258" y="78.9473684211" style="font-size: 2.5; font-family:'Times New Roman';" transform="rotate(60 1.6129032258064515 78.94736842105263)">Gorilla</text>
<text x="46.7741935484" y="78.9473684211" style="font-size: 2.5; font-family:'Times New Roman';" transform="rotate(60 46.77419354838709 78.94736842105263)">Squirrel</text>
<text x="40.3225806452" y="78.9473684211" style="font-size: 2.5; font-family:'Times New Roman';" transform="rotate(60 40.32258064516128 78.94736842105263)">Sum_Oran</text>
<text x="11.2903225806" y="78.9473684211" style="font-size: 2.5; font-family:'Times New Roman';" transform="rotate(60 11.29032258064516 78.94736842105263)">Hedgehog</text>
<text x="8.064516129" y="78.9473684211" style="font-size: 2.5; font-family:'Times New Roman';" transform="rotate(60 8.064516129032258 78.94736842105263)">Buffalo</text>
<text x="98.3870967742" y="78.9473684211" style="font-size: 2.5; font-family:'Times New Roman';" transform="rotate(60 98.38709677419354 78.94736842105263)">Blue_Whale</text>
<path class="key-hierarchy_0" d="M79.0322580645 75.1879699248 V74.861971052 H82.2580645161 V75.1879699248 M62.9032258065 75.1879699248 V74.73785432 H66.1290322581 V75.1879699248 M69.3548387097 75.1879699248 V74.6237063628 H72.5806451613 V75.1879699248 M53.2258064516 75.1879699248 V74.507384217 H56.4516129032 V75.1879699248 M17.7419354839 75.1879699248 V74.3146564456 H20.9677419355 V75.1879699248 M4.8387096774 75.1879699248 V74.1538903264 H8.064516129 V75.1879699248 M37.0967741935 75.1879699248 V73.6509433426 H40.3225806452 V75.1879699248 M19.3548387097 74.3146564456 V73.555486869 H24.1935483871 V75.1879699248 M75.8064516129 75.1879699248 V73.4372954244 H80.6451612903 V74.861971052 M27.4193548387 75.1879699248 V73.2885329957 H30.6451612903 V75.1879699248 M91.935483871 75.1879699248 V73.1669942655 H95.1612903226 V75.1879699248 M14.5161290323 75.1879699248 V73.1539503722 H21.7741935484 V73.555486869 M18.1451612903 73.1539503722 V72.9887211943 H29.0322580645 V73.2885329957 M33.8709677419 75.1879699248 V72.8136075342 H38.7096774194 V73.6509433426 M59.6774193548 75.1879699248 V72.4541110841 H64.5161290323 V74.73785432 M43.5483870968 75.1879699248 V71.903785389 H46.7741935484 V75.1879699248 M23.5887096774 72.9887211943 V71.8817448966 H36.2903225806 V72.8136075342 M70.9677419355 74.6237063628 V71.3691138641 H78.2258064516 V73.4372954244 M54.8387096774 74.507384217 V70.7901411802 H62.0967741935 V72.4541110841 M93.5483870968 73.1669942655 V69.9875276721 H98.3870967742 V75.1879699248 M58.4677419355 70.7901411802 V69.9235845957 H74.5967741935 V71.3691138641 M88.7096774194 75.1879699248 V69.8732158633 H95.9677419355 V69.9875276721 M66.5322580645 69.9235845957 V69.7620185109 H85.4838709677 V75.1879699248 M50 75.1879699248 V69.740665151 H76.0080645161 V69.7620185109 M63.0040322581 69.740665151 V69.3547837525 H92.3387096774 V69.8732158633 M1.6129032258 75.1879699248 V67.4299668877 H6.4516129032 V74.1538903264 M45.1612903226 71.903785389 V67.3145724392 H77.6713709677 V69.3547837525 M29.939516129 71.8817448966 V66.6788568565 H61.4163306452 V67.3145724392 M11.2903225806 75.1879699248 V59.4507337587 H45.6779233871 V66.6788568565 M4.0322580645 67.4299668877 V4.5651328872 H28.4841229839 V59.4507337587 M16.2581905242 4.5651328872 "/>
</g>
</svg>
