<?xml version="1.0" encoding="UTF-8"?>
<svg xmlns="http://www.w3.org/2000/svg" xmlns:xlink="http://www.w3.org/1999/xlink" contentScriptType="text/ecmascript" width="20cm" zoomAndPan="magnify" contentStyleType="text/css" height="15.037593984962406cm" viewBox="0 0 1.33 1.0" preserveAspectRatio="xMidYMid meet" version="1.0">
<defs/>
<style type="text/css" xml:space="preserve">
.axis-label{fill:black;
font-family:'Times New Roman', serif;
font-size:2.0;
}

.key-caption{font-size:0.7000000000000001;
font-family:'Times New Roman', serif;
fill:black;
font-weight:bold;
}

.key-hierarchy{stroke:black;
stroke-width:0.4024296043818446;
stroke-linecap:round;
fill:none;
}

.axis{stroke:black;
stroke-width:0.2;
}

.key-hierarchy_0{stroke:#ed420e;
stroke-width:0.4024296043818446;
stroke-linecap:round;
fill:none;
}

.key-hierarchy_1{stroke:#fdca19;
stroke-width:0.4024296043818446;
stroke-linecap:round;
fill:none;
}

.axis-tick{stroke:grey;
stroke-width:0.2;
}
</style>
<g transform="scale(0.0105055292) translate(13.3 10)">
<line y2="0" x1="0" x2="0" class="axis" y1="75.1879699248"/>
<line y2="75.1879699248" x1="0.7518796992" x2="-0.7518796992" class="axis-tick" y1="75.1879699248"/>
<text x="-1.8796992481" y="75.8879699248" class="axis-label" text-anchor="end">0</text>
<line y2="62.656641604" x1="0.7518796992" x2="-0.7518796992" class="axis-tick" y1="62.656641604"/>
<text x="-1.8796992481" y="63.356641604" class="axis-label" text-anchor="end">1,000</text>
<line y2="50.1253132832" x1="0.7518796992" x2="-0.7518796992" class="axis-tick" y1="50.1253132832"/>
<text x="-1.8796992481" y="50.8253132832" class="axis-label" text-anchor="end">2,000</text>
<line y2="37.5939849624" x1="0.7518796992" x2="-0.7518796992" class="axis-tick" y1="37.5939849624"/>
<text x="-1.8796992481" y="38.2939849624" class="axis-label" text-anchor="end">3,000</text>
<line y2="25.0626566416" x1="0.7518796992" x2="-0.7518796992" class="axis-tick" y1="25.0626566416"/>
<text x="-1.8796992481" y="25.7626566416" class="axis-label" text-anchor="end">4,000</text>
<line y2="12.5313283208" x1="0.7518796992" x2="-0.7518796992" class="axis-tick" y1="12.5313283208"/>
<text x="-1.8796992481" y="13.2313283208" class="axis-label" text-anchor="end">5,000</text>
<line y2="0" x1="0.7518796992" x2="-0.7518796992" class="axis-tick" y1="0"/>
<text x="-1.8796992481" y="0.7" class="axis-label" text-anchor="end">6,000</text>
<path class="key-hierarchy_0" d="M77.2727272727 75.1879699248 V45.1566047013 H86.3636363636 V75.1879699248 M40.9090909091 75.1879699248 V32.8709579406 H50 V75.1879699248 M45.4545454545 32.8709579406 V25.3128363255 H59.0909090909 V75.1879699248 M31.8181818182 75.1879699248 V24.4620390277 H52.2727272727 V25.3128363255 M81.8181818182 45.1566047013 V22.1697432665 H95.4545454545 V75.1879699248 M68.1818181818 75.1879699248 V19.1179285198 H88.6363636364 V22.1697432665 M42.0454545455 24.4620390277 V16.8400003518 H78.4090909091 V19.1179285198 M22.7272727273 75.1879699248 V15.7771101347 H60.2272727273 V16.8400003518 M13.6363636364 75.1879699248 V15.6059199348 H41.4772727273 V15.7771101347 M4.5454545455 75.1879699248 V6.2001761282 H27.5568181818 V15.6059199348 M16.0511363636 6.2001761282 "/>
</g>
</svg>
