                           |aspNig         |debHan         |canMal         |canAlb         |canDub         |canSoj         |canTro         |canPar         |sacPas         |sacCer         
aspNig                    |  0,00000000000|  0,38612502585|  0,25815949794|  0,11863069986|  0,11863069986|  0,25815949794|  0,25815949794|  0,32525692555|  0,32525692555|  0,07875630777
debHan                    |  0,38612502585|  0,00000000000|  0,38612502585|  0,38612502585|  0,38612502585|  0,38612502585|  0,38612502585|  0,38612502585|  0,38612502585|  0,38612502585
canMal                    |  0,25815949794|  0,38612502585|  0,00000000000|  0,25815949794|  0,25815949794|  0,21497011486|  0,22708145879|  0,32525692555|  0,32525692555|  0,25815949794
canAlb                    |  0,11863069986|  0,38612502585|  0,25815949794|  0,00000000000|  0,07581127634|  0,25815949794|  0,25815949794|  0,32525692555|  0,32525692555|  0,11863069986
canDub                    |  0,11863069986|  0,38612502585|  0,25815949794|  0,07581127634|  0,00000000000|  0,25815949794|  0,25815949794|  0,32525692555|  0,32525692555|  0,11863069986
canSoj                    |  0,25815949794|  0,38612502585|  0,21497011486|  0,25815949794|  0,25815949794|  0,00000000000|  0,22708145879|  0,32525692555|  0,32525692555|  0,25815949794
canTro                    |  0,25815949794|  0,38612502585|  0,22708145879|  0,25815949794|  0,25815949794|  0,22708145879|  0,00000000000|  0,32525692555|  0,32525692555|  0,25815949794
canPar                    |  0,32525692555|  0,38612502585|  0,32525692555|  0,32525692555|  0,32525692555|  0,32525692555|  0,32525692555|  0,00000000000|  0,12659690111|  0,32525692555
sacPas                    |  0,32525692555|  0,38612502585|  0,32525692555|  0,32525692555|  0,32525692555|  0,32525692555|  0,32525692555|  0,12659690111|  0,00000000000|  0,32525692555
sacCer                    |  0,07875630777|  0,38612502585|  0,25815949794|  0,11863069986|  0,11863069986|  0,25815949794|  0,25815949794|  0,32525692555|  0,32525692555|  0,00000000000
                           |aspNig         |debHan         |canMal         |canAlb         |canDub         |canSoj         |canTro         |canPar         |sacPas         |sacCer         
aspNig                    |  0,00000000000| 11,20626650264|  9,76638683390|  8,19639620564|  8,19639620564|  9,76638683390|  9,76638683390| 10,52137314487| 10,52137314487|  7,74772594717
debHan                    | 11,20626650264|  0,00000000000| 11,20626650264| 11,20626650264| 11,20626650264| 11,20626650264| 11,20626650264| 11,20626650264| 11,20626650264| 11,20626650264
canMal                    |  9,76638683390| 11,20626650264|  0,00000000000|  9,76638683390|  9,76638683390|  9,28041599767|  9,41669393257| 10,52137314487| 10,52137314487|  9,76638683390
canAlb                    |  8,19639620564| 11,20626650264|  9,76638683390|  0,00000000000|  7,71458818771|  9,76638683390|  9,76638683390| 10,52137314487| 10,52137314487|  8,19639620564
canDub                    |  8,19639620564| 11,20626650264|  9,76638683390|  7,71458818771|  0,00000000000|  9,76638683390|  9,76638683390| 10,52137314487| 10,52137314487|  8,19639620564
canSoj                    |  9,76638683390| 11,20626650264|  9,28041599767|  9,76638683390|  9,76638683390|  0,00000000000|  9,41669393257| 10,52137314487| 10,52137314487|  9,76638683390
canTro                    |  9,76638683390| 11,20626650264|  9,41669393257|  9,76638683390|  9,76638683390|  9,41669393257|  0,00000000000| 10,52137314487| 10,52137314487|  9,76638683390
canPar                    | 10,52137314487| 11,20626650264| 10,52137314487| 10,52137314487| 10,52137314487| 10,52137314487| 10,52137314487|  0,00000000000|  8,28603262099| 10,52137314487
sacPas                    | 10,52137314487| 11,20626650264| 10,52137314487| 10,52137314487| 10,52137314487| 10,52137314487| 10,52137314487|  8,28603262099|  0,00000000000| 10,52137314487
sacCer                    |  7,74772594717| 11,20626650264|  9,76638683390|  8,19639620564|  8,19639620564|  9,76638683390|  9,76638683390| 10,52137314487| 10,52137314487|  0,00000000000
                           |aspNig         |debHan         |canMal         |canAlb         |canDub         |canSoj         |canTro         |canPar         |sacPas         |sacCer         
aspNig                    |  0,00000000000|  6,00000000000|  6,00000000000|  4,00000000000|  4,00000000000|  6,00000000000|  5,00000000000|  6,00000000000|  6,00000000000|  2,00000000000
debHan                    |  6,00000000000|  0,00000000000|  6,00000000000|  6,00000000000|  6,00000000000|  6,00000000000|  5,00000000000|  4,00000000000|  4,00000000000|  6,00000000000
canMal                    |  6,00000000000|  6,00000000000|  0,00000000000|  6,00000000000|  6,00000000000|  2,00000000000|  3,00000000000|  6,00000000000|  6,00000000000|  6,00000000000
canAlb                    |  4,00000000000|  6,00000000000|  6,00000000000|  0,00000000000|  2,00000000000|  6,00000000000|  5,00000000000|  6,00000000000|  6,00000000000|  4,00000000000
canDub                    |  4,00000000000|  6,00000000000|  6,00000000000|  2,00000000000|  0,00000000000|  6,00000000000|  5,00000000000|  6,00000000000|  6,00000000000|  4,00000000000
canSoj                    |  6,00000000000|  6,00000000000|  2,00000000000|  6,00000000000|  6,00000000000|  0,00000000000|  3,00000000000|  6,00000000000|  6,00000000000|  6,00000000000
canTro                    |  5,00000000000|  5,00000000000|  3,00000000000|  5,00000000000|  5,00000000000|  3,00000000000|  0,00000000000|  5,00000000000|  5,00000000000|  5,00000000000
canPar                    |  6,00000000000|  4,00000000000|  6,00000000000|  6,00000000000|  6,00000000000|  6,00000000000|  5,00000000000|  0,00000000000|  2,00000000000|  6,00000000000
sacPas                    |  6,00000000000|  4,00000000000|  6,00000000000|  6,00000000000|  6,00000000000|  6,00000000000|  5,00000000000|  2,00000000000|  0,00000000000|  6,00000000000
sacCer                    |  2,00000000000|  6,00000000000|  6,00000000000|  4,00000000000|  4,00000000000|  6,00000000000|  5,00000000000|  6,00000000000|  6,00000000000|  0,00000000000
