                           |Human          |Pig_Chim       |Com_Chim       |Gibbon         |Baboon         |Ver_Monkey     |Macaca_Thibet  |Bor_Oran       |Bor_Oran_full_ |Bor_Oran_part_ |Sum_Oran       |Gorilla        |Cat            |Dog            |Pig            |Sheep          |Goat           |Cow            |Buffalo        |Wolf           |Tiger          |Leopard        |Indian_Rhino   |White_Rhino    |Black_Bear     |Brown_Bear     |Polar_Bear     |Giant_Panda    |Rabbit         |Hedgehog       |Dormouse       |Squirrel       |Blue_Whale     
Human                     |  0,00000000000|  9,09334730414|  9,09300637656|  9,17998533652|  9,24488338529|  9,26297272113|  9,25766645458|  9,17830322297| 12,09800219813| 13,00121035841|  9,19823101655|  9,08591409603|  9,75207752374|  9,82874668629|  9,80084306245|  9,77149066114|  9,78396253868|  9,73227634010|  9,69564884817|  9,84109969611|  9,73775908554|  9,76446646061|  9,58841141042|  9,54668999417|  9,87695948224|  9,96403966350|  9,96093079131| 10,12494885651|  9,74142638484| 10,89688714559| 10,25791643302| 10,06747341285|  9,50451097967
Pig_Chim                  |  9,09334730414|  0,00000000000|  8,99545727453|  9,25368828247|  9,26667419021|  9,26239168542|  9,25878955345|  9,27098292241| 12,08389309712| 13,01811875248|  9,32293959994|  9,09590469828|  9,65757309513|  9,73621108963|  9,70605936206|  9,66096721980|  9,66380619178|  9,63686403513|  9,60763795116|  9,75060937792|  9,64988670992|  9,68203225621|  9,49652232181|  9,48905388491|  9,80733168200|  9,91585114560|  9,90952043007| 10,04198603517|  9,65035617210| 10,77132432756| 10,15102831711|  9,96792232077|  9,42295629919
Com_Chim                  |  9,09300637656|  8,99545727453|  0,00000000000|  9,22541169332|  9,28253383781|  9,27036281151|  9,28049214497|  9,27241583831| 12,07488654135| 13,00960837095|  9,33043401504|  9,10516517290|  9,67318220324|  9,73108195493|  9,73988443411|  9,68565321714|  9,68561855409|  9,65478523421|  9,63191524260|  9,74555029858|  9,65965582024|  9,70221416937|  9,51901683390|  9,51242073724|  9,79945428874|  9,90738828505|  9,90534921637| 10,04275184593|  9,64817820487| 10,79169097546| 10,16439838067|  9,96828360545|  9,43472577071
Gibbon                    |  9,17998533652|  9,25368828247|  9,22541169332|  0,00000000000|  9,26568561506|  9,30866125790|  9,28464615777|  9,18600401441| 12,09899041119| 12,96822557625|  9,20964306188|  9,19212608053|  9,76908629401|  9,88672648224|  9,82695488697|  9,83272970798|  9,86041599558|  9,79235752635|  9,71582372959|  9,89099005277|  9,74060269416|  9,77828399202|  9,63106602737|  9,56781442823|  9,89765147277|  9,98250817758|  9,97784655792| 10,18675850540|  9,80566194906| 10,98930346408| 10,34101728667| 10,14698456958|  9,56393582104
Baboon                    |  9,24488338529|  9,26667419021|  9,28253383781|  9,26568561506|  0,00000000000|  9,17759164704|  9,17033830606|  9,37417386601| 12,08244006367| 12,96009797654|  9,38643946595|  9,25927481777|  9,64190222790|  9,75433179569|  9,65121317417|  9,67659463286|  9,69062198246|  9,62903176466|  9,56366448465|  9,76451420074|  9,64790669671|  9,66617522468|  9,47646088614|  9,40921055900|  9,78804080939|  9,89419961208|  9,89158773166| 10,03726959171|  9,69723267406| 10,83571918799| 10,16977481771|  9,97778792653|  9,41321769333
Ver_Monkey                |  9,26297272113|  9,26239168542|  9,27036281151|  9,30866125790|  9,17759164704|  0,00000000000|  9,15177881271|  9,41856561813| 12,10166523909| 13,00959743982|  9,42910052186|  9,24798053299|  9,63906225150|  9,73635043219|  9,63115837544|  9,65964689230|  9,66297949449|  9,61477203814|  9,56309134622|  9,74754477841|  9,66035191406|  9,65151066759|  9,44664882824|  9,41439348732|  9,78419648389|  9,89788214256|  9,89581136770| 10,01520674828|  9,68076096412| 10,79490049699| 10,15046598969|  9,96152548685|  9,40570947804
Macaca_Thibet             |  9,25766645458|  9,25878955345|  9,28049214497|  9,28464615777|  9,17033830606|  9,15177881271|  0,00000000000|  9,39944047193| 12,12223381839| 12,99244064973|  9,42048650221|  9,27156964243|  9,65045544817|  9,76707279439|  9,62715953174|  9,67175714526|  9,69584590881|  9,64196603986|  9,57567173528|  9,78515507797|  9,66708738961|  9,68592180975|  9,44728961804|  9,40530371451|  9,81831786563|  9,92819513318|  9,92455052778| 10,06325315160|  9,72630557048| 10,83682294726| 10,18500359490| 10,00040486078|  9,39435951353
Bor_Oran                  |  9,17830322297|  9,27098292241|  9,27241583831|  9,18600401441|  9,37417386601|  9,41856561813|  9,39944047193|  0,00000000000| 12,19210254425| 12,98115871594|  9,01178866815|  9,24188618814|  9,93591542034| 10,03706492979|  9,96421103657|  9,97100606652|  9,98585810691|  9,94168983442|  9,87516958296| 10,04917470846|  9,91358643522|  9,94259679381|  9,74522559480|  9,70161001334| 10,05774440844| 10,13035217297| 10,13096335625| 10,33544135062|  9,92445499621| 11,11141607026| 10,47860328642| 10,27217073061|  9,68001126055
Bor_Oran_full_rev         | 12,09800219813| 12,08389309712| 12,07488654135| 12,09899041119| 12,08244006367| 12,10166523909| 12,12223381839| 12,19210254425|  0,00000000000| 13,25464534577| 12,22142565325| 12,02839615552| 11,75362895934| 11,69736885910| 11,98498992943| 11,87551937393| 11,87583607396| 11,82868012005| 11,81038391264| 11,66966034837| 11,70062838725| 11,71446438648| 12,00765371527| 11,99851635675| 11,57761398759| 11,55532863264| 11,53588254883| 11,54439756286| 11,74689564159| 11,90877184322| 11,76778638210| 11,79694738168| 11,95267550598
Bor_Oran_part_rev         | 13,00121035841| 13,01811875248| 13,00960837095| 12,96822557625| 12,96009797654| 13,00959743982| 12,99244064973| 12,98115871594| 13,25464534577|  0,00000000000| 12,97725543982| 12,98587558502| 13,05742276647| 13,09436922514| 13,11860496627| 13,12445247634| 13,14727521521| 13,10827840351| 13,06509876731| 13,08367988381| 13,03432755937| 13,04702325674| 13,09029368158| 13,05696158604| 13,08031629564| 13,08711954513| 13,08408806296| 13,17670041658| 13,09093716364| 13,53669277547| 13,25482094761| 13,20741186214| 13,05638684204
Sum_Oran                  |  9,19823101655|  9,32293959994|  9,33043401504|  9,20964306188|  9,38643946595|  9,42910052186|  9,42048650221|  9,01178866815| 12,22142565325| 12,97725543982|  0,00000000000|  9,27802415707|  9,96253577062| 10,07930119711|  9,99157063864| 10,00081387485| 10,01937317251|  9,97267576696|  9,89833635034| 10,09077092750|  9,95249957962|  9,97045552566|  9,76492784949|  9,70651664044| 10,09100867215| 10,15804622657| 10,15694412105| 10,36650486605|  9,96710737746| 11,15150118336| 10,51908626919| 10,31560199531|  9,72319347654
Gorilla                   |  9,08591409603|  9,09590469828|  9,10516517290|  9,19212608053|  9,25927481777|  9,24798053299|  9,27156964243|  9,24188618814| 12,02839615552| 12,98587558502|  9,27802415707|  0,00000000000|  9,67335797492|  9,74457585209|  9,73626846849|  9,70589841288|  9,71697942183|  9,66369067956|  9,62145180582|  9,75276242058|  9,66806932825|  9,68447391064|  9,52321097526|  9,49710620532|  9,77634449889|  9,87683834800|  9,87579745663| 10,03953102126|  9,64202984698| 10,81017684072| 10,17471171089|  9,98546334702|  9,45043687614
Cat                       |  9,75207752374|  9,65757309513|  9,67318220324|  9,76908629401|  9,64190222790|  9,63906225150|  9,65045544817|  9,93591542034| 11,75362895934| 13,05742276647|  9,96253577062|  9,67335797492|  0,00000000000|  9,39057532458|  9,44237249217|  9,39031524469|  9,40624162999|  9,34640783919|  9,30374569309|  9,39335103406|  9,15769309078|  9,13632059583|  9,43508853673|  9,43468948269|  9,36842135652|  9,47108297829|  9,47299067351|  9,53187324123|  9,42558816999| 10,33357152762|  9,75078696665|  9,60949848879|  9,38173328382
Dog                       |  9,82874668629|  9,73621108963|  9,73108195493|  9,88672648224|  9,75433179569|  9,73635043219|  9,76707279439| 10,03706492979| 11,69736885910| 13,09436922514| 10,07930119711|  9,74457585209|  9,39057532458|  0,00000000000|  9,56134917607|  9,37549627018|  9,38636090303|  9,32062890883|  9,35430500619|  8,95733750776|  9,43089194912|  9,45659255614|  9,52374148686|  9,57559256698|  9,33488880235|  9,49544139543|  9,50603479482|  9,38677978354|  9,27816874118| 10,11700328725|  9,47016718624|  9,32355601500|  9,45329873487
Pig                       |  9,80084306245|  9,70605936206|  9,73988443411|  9,82695488697|  9,65121317417|  9,63115837544|  9,62715953174|  9,96421103657| 11,98498992943| 13,11860496627|  9,99157063864|  9,73626846849|  9,44237249217|  9,56134917607|  0,00000000000|  9,32239596409|  9,35532918499|  9,33330722765|  9,30079462792|  9,57599821906|  9,50888852408|  9,52146815602|  9,29437378458|  9,30663406999|  9,59768341731|  9,74691283758|  9,74338891712|  9,78328378254|  9,64242169889| 10,45129376115|  9,90796326076|  9,76123851597|  9,33686636086
Sheep                     |  9,77149066114|  9,66096721980|  9,68565321714|  9,83272970798|  9,67659463286|  9,65964689230|  9,67175714526|  9,97100606652| 11,87551937393| 13,12445247634| 10,00081387485|  9,70589841288|  9,39031524469|  9,37549627018|  9,32239596409|  0,00000000000|  9,12033097344|  9,16509299078|  9,19701368401|  9,38244559350|  9,45536370839|  9,46760777660|  9,31966924127|  9,39434659515|  9,47984561831|  9,63825690879|  9,63449448818|  9,61915007326|  9,43103796327| 10,23183451876|  9,66361070050|  9,53774412989|  9,36595745339
Goat                      |  9,78396253868|  9,66380619178|  9,68561855409|  9,86041599558|  9,69062198246|  9,66297949449|  9,69584590881|  9,98585810691| 11,87583607396| 13,14727521521| 10,01937317251|  9,71697942183|  9,40624162999|  9,38636090303|  9,35532918499|  9,12033097344|  0,00000000000|  9,17563296218|  9,23052745098|  9,39381669923|  9,45830908468|  9,46842372055|  9,35490036752|  9,41580396642|  9,48334838429|  9,63718496818|  9,63684569238|  9,58532896930|  9,42211766975| 10,16250767098|  9,63700159295|  9,53107569040|  9,37008048310
Cow                       |  9,73227634010|  9,63686403513|  9,65478523421|  9,79235752635|  9,62903176466|  9,61477203814|  9,64196603986|  9,94168983442| 11,82868012005| 13,10827840351|  9,97267576696|  9,66369067956|  9,34640783919|  9,32062890883|  9,33330722765|  9,16509299078|  9,17563296218|  0,00000000000|  9,15795081200|  9,32475740200|  9,39847905504|  9,40951295383|  9,34668883815|  9,38054415620|  9,39981180612|  9,56622327057|  9,56706429385|  9,53823299385|  9,37211070885| 10,23353742079|  9,64663850628|  9,51542065780|  9,30737629595
Buffalo                   |  9,69564884817|  9,60763795116|  9,63191524260|  9,71582372959|  9,56366448465|  9,56309134622|  9,57567173528|  9,87516958296| 11,81038391264| 13,06509876731|  9,89833635034|  9,62145180582|  9,30374569309|  9,35430500619|  9,30079462792|  9,19701368401|  9,23052745098|  9,15795081200|  0,00000000000|  9,35675159047|  9,37710842122|  9,37733456062|  9,28340847468|  9,30218822688|  9,38976870311|  9,55210844479|  9,55096451510|  9,59435681550|  9,36786723561| 10,31227265545|  9,70317487930|  9,56803432853|  9,30519194903
Wolf                      |  9,84109969611|  9,75060937792|  9,74555029858|  9,89099005277|  9,76451420074|  9,74754477841|  9,78515507797| 10,04917470846| 11,66966034837| 13,08367988381| 10,09077092750|  9,75276242058|  9,39335103406|  8,95733750776|  9,57599821906|  9,38244559350|  9,39381669923|  9,32475740200|  9,35675159047|  0,00000000000|  9,42325201629|  9,45060209905|  9,53888777168|  9,59006470555|  9,33226946664|  9,48996683212|  9,49966730323|  9,38084827625|  9,28023632204| 10,10744942656|  9,47107153861|  9,33610772784|  9,48863040094
Tiger                     |  9,73775908554|  9,64988670992|  9,65965582024|  9,74060269416|  9,64790669671|  9,66035191406|  9,66708738961|  9,91358643522| 11,70062838725| 13,03432755937|  9,95249957962|  9,66806932825|  9,15769309078|  9,43089194912|  9,50888852408|  9,45536370839|  9,45830908468|  9,39847905504|  9,37710842122|  9,42325201629|  0,00000000000|  9,08135965994|  9,52553174155|  9,52154263074|  9,37151986550|  9,48441478251|  9,48749238948|  9,56831411052|  9,46163594942| 10,36428969615|  9,80830631763|  9,68900047058|  9,43850047440
Leopard                   |  9,76446646061|  9,68203225621|  9,70221416937|  9,77828399202|  9,66617522468|  9,65151066759|  9,68592180975|  9,94259679381| 11,71446438648| 13,04702325674|  9,97045552566|  9,68447391064|  9,13632059583|  9,45659255614|  9,52146815602|  9,46760777660|  9,46842372055|  9,40951295383|  9,37733456062|  9,45060209905|  9,08135965994|  0,00000000000|  9,52925695678|  9,52001968811|  9,37778657352|  9,47688065130|  9,47813838597|  9,56132901204|  9,46488842060| 10,35751691516|  9,80024482200|  9,69022550272|  9,45632357700
Indian_Rhino              |  9,58841141042|  9,49652232181|  9,51901683390|  9,63106602737|  9,47646088614|  9,44664882824|  9,44728961804|  9,74522559480| 12,00765371527| 13,09029368158|  9,76492784949|  9,52321097526|  9,43508853673|  9,52374148686|  9,29437378458|  9,31966924127|  9,35490036752|  9,34668883815|  9,28340847468|  9,53888777168|  9,52553174155|  9,52925695678|  0,00000000000|  9,11233607416|  9,59255754435|  9,75176311188|  9,75596281604|  9,81322601253|  9,51917695770| 10,49922954441|  9,88033151689|  9,71061337581|  9,26616368860
White_Rhino               |  9,54668999417|  9,48905388491|  9,51242073724|  9,56781442823|  9,40921055900|  9,41439348732|  9,40530371451|  9,70161001334| 11,99851635675| 13,05696158604|  9,70651664044|  9,49710620532|  9,43468948269|  9,57559256698|  9,30663406999|  9,39434659515|  9,41580396642|  9,38054415620|  9,30218822688|  9,59006470555|  9,52154263074|  9,52001968811|  9,11233607416|  0,00000000000|  9,61641890552|  9,74058637617|  9,74025995673|  9,85513474651|  9,55683928572| 10,56779548338|  9,95156710917|  9,77165653242|  9,24567692958
Black_Bear                |  9,87695948224|  9,80733168200|  9,79945428874|  9,89765147277|  9,78804080939|  9,78419648389|  9,81831786563| 10,05774440844| 11,57761398759| 13,08031629564| 10,09100867215|  9,77634449889|  9,36842135652|  9,33488880235|  9,59768341731|  9,47984561831|  9,48334838429|  9,39981180612|  9,38976870311|  9,33226946664|  9,37151986550|  9,37778657352|  9,59255754435|  9,61641890552|  0,00000000000|  9,21534225559|  9,22638571664|  9,32130698904|  9,41809377938| 10,27810489653|  9,68865508598|  9,58165522153|  9,52574331346
Brown_Bear                |  9,96403966350|  9,91585114560|  9,90738828505|  9,98250817758|  9,89419961208|  9,89788214256|  9,92819513318| 10,13035217297| 11,55532863264| 13,08711954513| 10,15804622657|  9,87683834800|  9,47108297829|  9,49544139543|  9,74691283758|  9,63825690879|  9,63718496818|  9,56622327057|  9,55210844479|  9,48996683212|  9,48441478251|  9,47688065130|  9,75176311188|  9,74058637617|  9,21534225559|  0,00000000000|  8,93313024627|  9,36069593017|  9,54722436387| 10,35987450527|  9,80723264277|  9,70161001334|  9,66557249143
Polar_Bear                |  9,96093079131|  9,90952043007|  9,90534921637|  9,97784655792|  9,89158773166|  9,89581136770|  9,92455052778| 10,13096335625| 11,53588254883| 13,08408806296| 10,15694412105|  9,87579745663|  9,47299067351|  9,50603479482|  9,74338891712|  9,63449448818|  9,63684569238|  9,56706429385|  9,55096451510|  9,49966730323|  9,48749238948|  9,47813838597|  9,75596281604|  9,74025995673|  9,22638571664|  8,93313024627|  0,00000000000|  9,36009302842|  9,55867276832| 10,36031216174|  9,80618070179|  9,71022561163|  9,67262829081
Giant_Panda               | 10,12494885651| 10,04198603517| 10,04275184593| 10,18675850540| 10,03726959171| 10,01520674828| 10,06325315160| 10,33544135062| 11,54439756286| 13,17670041658| 10,36650486605| 10,03953102126|  9,53187324123|  9,38677978354|  9,78328378254|  9,61915007326|  9,58532896930|  9,53823299385|  9,59435681550|  9,38084827625|  9,56831411052|  9,56132901204|  9,81322601253|  9,85513474651|  9,32130698904|  9,36069593017|  9,36009302842|  0,00000000000|  9,54296962827| 10,05140234834|  9,54624782219|  9,51475509811|  9,76041585004
Rabbit                    |  9,74142638484|  9,65035617210|  9,64817820487|  9,80566194906|  9,69723267406|  9,68076096412|  9,72630557048|  9,92445499621| 11,74689564159| 13,09093716364|  9,96710737746|  9,64202984698|  9,42558816999|  9,27816874118|  9,64242169889|  9,43103796327|  9,42211766975|  9,37211070885|  9,36786723561|  9,28023632204|  9,46163594942|  9,46488842060|  9,51917695770|  9,55683928572|  9,41809377938|  9,54722436387|  9,55867276832|  9,54296962827|  0,00000000000| 10,18583427133|  9,54585684714|  9,39017215184|  9,45587893471
Hedgehog                  | 10,89688714559| 10,77132432756| 10,79169097546| 10,98930346408| 10,83571918799| 10,79490049699| 10,83682294726| 11,11141607026| 11,90877184322| 13,53669277547| 11,15150118336| 10,81017684072| 10,33357152762| 10,11700328725| 10,45129376115| 10,23183451876| 10,16250767098| 10,23353742079| 10,31227265545| 10,10744942656| 10,36428969615| 10,35751691516| 10,49922954441| 10,56779548338| 10,27810489653| 10,35987450527| 10,36031216174| 10,05140234834| 10,18583427133|  0,00000000000|  9,70761655002|  9,92252898500| 10,53077390603
Dormouse                  | 10,25791643302| 10,15102831711| 10,16439838067| 10,34101728667| 10,16977481771| 10,15046598969| 10,18500359490| 10,47860328642| 11,76778638210| 13,25482094761| 10,51908626919| 10,17471171089|  9,75078696665|  9,47016718624|  9,90796326076|  9,66361070050|  9,63700159295|  9,64663850628|  9,70317487930|  9,47107153861|  9,80830631763|  9,80024482200|  9,88033151689|  9,95156710917|  9,68865508598|  9,80723264277|  9,80618070179|  9,54624782219|  9,54585684714|  9,70761655002|  0,00000000000|  9,28288388298|  9,88688887444
Squirrel                  | 10,06747341285|  9,96792232077|  9,96828360545| 10,14698456958|  9,97778792653|  9,96152548685| 10,00040486078| 10,27217073061| 11,79694738168| 13,20741186214| 10,31560199531|  9,98546334702|  9,60949848879|  9,32355601500|  9,76123851597|  9,53774412989|  9,53107569040|  9,51542065780|  9,56803432853|  9,33610772784|  9,68900047058|  9,69022550272|  9,71061337581|  9,77165653242|  9,58165522153|  9,70161001334|  9,71022561163|  9,51475509811|  9,39017215184|  9,92252898500|  9,28288388298|  0,00000000000|  9,68070867995
Blue_Whale                |  9,50451097967|  9,42295629919|  9,43472577071|  9,56393582104|  9,41321769333|  9,40570947804|  9,39435951353|  9,68001126055| 11,95267550598| 13,05638684204|  9,72319347654|  9,45043687614|  9,38173328382|  9,45329873487|  9,33686636086|  9,36595745339|  9,37008048310|  9,30737629595|  9,30519194903|  9,48863040094|  9,43850047440|  9,45632357700|  9,26616368860|  9,24567692958|  9,52574331346|  9,66557249143|  9,67262829081|  9,76041585004|  9,45587893471| 10,53077390603|  9,88688887444|  9,68070867995|  0,00000000000
