                           |Human          |Pig_Chim       |Com_Chim       |Gibbon         |Baboon         |Ver_Monkey     |Macaca_Thibet  |Bor_Oran       |Bor_Oran_full_ |Bor_Oran_part_ |Sum_Oran       |Gorilla        |Cat            |Dog            |Pig            |Sheep          |Goat           |Cow            |Buffalo        |Wolf           |Tiger          |Leopard        |Indian_Rhino   |White_Rhino    |Black_Bear     |Brown_Bear     |Polar_Bear     |Giant_Panda    |Rabbit         |Hedgehog       |Dormouse       |Squirrel       |Blue_Whale     
Human                     |  0,00000000000| 13,19337971697| 13,19337971697| 17,12045285353| 20,05057968042| 20,05057968042| 20,05057968042| 17,04450594708|123,48848323203|187,79136923613| 17,04450594708| 12,87316544482| 26,79938063279| 26,79938063279| 26,79938063279| 26,79938063279| 26,79938063279| 26,79938063279| 26,79938063279| 26,79938063279| 26,79938063279| 26,79938063279| 26,79938063279| 26,79938063279| 26,79938063279| 26,79938063279| 26,79938063279| 26,79938063279| 26,79938063279| 40,94283892928| 26,79938063279| 26,79938063279| 26,79938063279
Pig_Chim                  | 13,19337971697|  0,00000000000|  8,78906793565| 17,12045285353| 20,05057968042| 20,05057968042| 20,05057968042| 17,04450594708|123,48848323203|187,79136923613| 17,04450594708| 13,19337971697| 26,79938063279| 26,79938063279| 26,79938063279| 26,79938063279| 26,79938063279| 26,79938063279| 26,79938063279| 26,79938063279| 26,79938063279| 26,79938063279| 26,79938063279| 26,79938063279| 26,79938063279| 26,79938063279| 26,79938063279| 26,79938063279| 26,79938063279| 40,94283892928| 26,79938063279| 26,79938063279| 26,79938063279
Com_Chim                  | 13,19337971697|  8,78906793565|  0,00000000000| 17,12045285353| 20,05057968042| 20,05057968042| 20,05057968042| 17,04450594708|123,48848323203|187,79136923613| 17,04450594708| 13,19337971697| 26,79938063279| 26,79938063279| 26,79938063279| 26,79938063279| 26,79938063279| 26,79938063279| 26,79938063279| 26,79938063279| 26,79938063279| 26,79938063279| 26,79938063279| 26,79938063279| 26,79938063279| 26,79938063279| 26,79938063279| 26,79938063279| 26,79938063279| 40,94283892928| 26,79938063279| 26,79938063279| 26,79938063279
Gibbon                    | 17,12045285353| 17,12045285353| 17,12045285353|  0,00000000000| 20,05057968042| 20,05057968042| 20,05057968042| 17,12045285353|123,48848323203|187,79136923613| 17,12045285353| 17,12045285353| 26,79938063279| 26,79938063279| 26,79938063279| 26,79938063279| 26,79938063279| 26,79938063279| 26,79938063279| 26,79938063279| 26,79938063279| 26,79938063279| 26,79938063279| 26,79938063279| 26,79938063279| 26,79938063279| 26,79938063279| 26,79938063279| 26,79938063279| 40,94283892928| 26,79938063279| 26,79938063279| 26,79938063279
Baboon                    | 20,05057968042| 20,05057968042| 20,05057968042| 20,05057968042|  0,00000000000| 16,68489241278| 16,68489241278| 20,05057968042|123,48848323203|187,79136923613| 20,05057968042| 20,05057968042| 26,79938063279| 26,79938063279| 26,79938063279| 26,79938063279| 26,79938063279| 26,79938063279| 26,79938063279| 26,79938063279| 26,79938063279| 26,79938063279| 26,79938063279| 26,79938063279| 26,79938063279| 26,79938063279| 26,79938063279| 26,79938063279| 26,79938063279| 40,94283892928| 26,79938063279| 26,79938063279| 26,79938063279
Ver_Monkey                | 20,05057968042| 20,05057968042| 20,05057968042| 20,05057968042| 16,68489241278|  0,00000000000| 15,84693702901| 20,05057968042|123,48848323203|187,79136923613| 20,05057968042| 20,05057968042| 26,79938063279| 26,79938063279| 26,79938063279| 26,79938063279| 26,79938063279| 26,79938063279| 26,79938063279| 26,79938063279| 26,79938063279| 26,79938063279| 26,79938063279| 26,79938063279| 26,79938063279| 26,79938063279| 26,79938063279| 26,79938063279| 26,79938063279| 40,94283892928| 26,79938063279| 26,79938063279| 26,79938063279
Macaca_Thibet             | 20,05057968042| 20,05057968042| 20,05057968042| 20,05057968042| 16,68489241278| 15,84693702901|  0,00000000000| 20,05057968042|123,48848323203|187,79136923613| 20,05057968042| 20,05057968042| 26,79938063279| 26,79938063279| 26,79938063279| 26,79938063279| 26,79938063279| 26,79938063279| 26,79938063279| 26,79938063279| 26,79938063279| 26,79938063279| 26,79938063279| 26,79938063279| 26,79938063279| 26,79938063279| 26,79938063279| 26,79938063279| 26,79938063279| 40,94283892928| 26,79938063279| 26,79938063279| 26,79938063279
Bor_Oran                  | 17,04450594708| 17,04450594708| 17,04450594708| 17,12045285353| 20,05057968042| 20,05057968042| 20,05057968042|  0,00000000000|123,48848323203|187,79136923613|  9,52642530552| 17,04450594708| 26,79938063279| 26,79938063279| 26,79938063279| 26,79938063279| 26,79938063279| 26,79938063279| 26,79938063279| 26,79938063279| 26,79938063279| 26,79938063279| 26,79938063279| 26,79938063279| 26,79938063279| 26,79938063279| 26,79938063279| 26,79938063279| 26,79938063279| 40,94283892928| 26,79938063279| 26,79938063279| 26,79938063279
Bor_Oran_full_rev         |123,48848323203|123,48848323203|123,48848323203|123,48848323203|123,48848323203|123,48848323203|123,48848323203|123,48848323203|  0,00000000000|187,79136923613|123,48848323203|123,48848323203|123,48848323203|123,48848323203|123,48848323203|123,48848323203|123,48848323203|123,48848323203|123,48848323203|123,48848323203|123,48848323203|123,48848323203|123,48848323203|123,48848323203|123,48848323203|123,48848323203|123,48848323203|123,48848323203|123,48848323203|123,48848323203|123,48848323203|123,48848323203|123,48848323203
Bor_Oran_part_rev         |187,79136923613|187,79136923613|187,79136923613|187,79136923613|187,79136923613|187,79136923613|187,79136923613|187,79136923613|187,79136923613|  0,00000000000|187,79136923613|187,79136923613|187,79136923613|187,79136923613|187,79136923613|187,79136923613|187,79136923613|187,79136923613|187,79136923613|187,79136923613|187,79136923613|187,79136923613|187,79136923613|187,79136923613|187,79136923613|187,79136923613|187,79136923613|187,79136923613|187,79136923613|187,79136923613|187,79136923613|187,79136923613|187,79136923613
Sum_Oran                  | 17,04450594708| 17,04450594708| 17,04450594708| 17,12045285353| 20,05057968042| 20,05057968042| 20,05057968042|  9,52642530552|123,48848323203|187,79136923613|  0,00000000000| 17,04450594708| 26,79938063279| 26,79938063279| 26,79938063279| 26,79938063279| 26,79938063279| 26,79938063279| 26,79938063279| 26,79938063279| 26,79938063279| 26,79938063279| 26,79938063279| 26,79938063279| 26,79938063279| 26,79938063279| 26,79938063279| 26,79938063279| 26,79938063279| 40,94283892928| 26,79938063279| 26,79938063279| 26,79938063279
Gorilla                   | 12,87316544482| 13,19337971697| 13,19337971697| 17,12045285353| 20,05057968042| 20,05057968042| 20,05057968042| 17,04450594708|123,48848323203|187,79136923613| 17,04450594708|  0,00000000000| 26,79938063279| 26,79938063279| 26,79938063279| 26,79938063279| 26,79938063279| 26,79938063279| 26,79938063279| 26,79938063279| 26,79938063279| 26,79938063279| 26,79938063279| 26,79938063279| 26,79938063279| 26,79938063279| 26,79938063279| 26,79938063279| 26,79938063279| 40,94283892928| 26,79938063279| 26,79938063279| 26,79938063279
Cat                       | 26,79938063279| 26,79938063279| 26,79938063279| 26,79938063279| 26,79938063279| 26,79938063279| 26,79938063279| 26,79938063279|123,48848323203|187,79136923613| 26,79938063279| 26,79938063279|  0,00000000000| 23,47046663757| 22,70819466978| 22,70819466978| 22,70819466978| 22,70819466978| 22,70819466978| 23,47046663757| 15,14900331854| 15,14900331854| 22,70819466978| 22,70819466978| 23,99603422190| 23,99603422190| 23,99603422190| 23,99603422190| 23,47046663757| 40,94283892928| 23,60262457594| 23,60262457594| 22,70819466978
Dog                       | 26,79938063279| 26,79938063279| 26,79938063279| 26,79938063279| 26,79938063279| 26,79938063279| 26,79938063279| 26,79938063279|123,48848323203|187,79136923613| 26,79938063279| 26,79938063279| 23,47046663757|  0,00000000000| 23,47046663757| 23,47046663757| 23,47046663757| 23,47046663757| 23,47046663757|  7,06797225735| 23,47046663757| 23,47046663757| 23,47046663757| 23,47046663757| 23,99603422190| 23,99603422190| 23,99603422190| 23,99603422190| 21,55340320261| 40,94283892928| 23,60262457594| 23,60262457594| 23,47046663757
Pig                       | 26,79938063279| 26,79938063279| 26,79938063279| 26,79938063279| 26,79938063279| 26,79938063279| 26,79938063279| 26,79938063279|123,48848323203|187,79136923613| 26,79938063279| 26,79938063279| 22,70819466978| 23,47046663757|  0,00000000000| 22,28505589928| 22,28505589928| 22,28505589928| 22,28505589928| 23,47046663757| 22,70819466978| 22,70819466978| 22,28505589928| 22,28505589928| 23,99603422190| 23,99603422190| 23,99603422190| 23,99603422190| 23,47046663757| 40,94283892928| 23,60262457594| 23,60262457594| 22,28505589928
Sheep                     | 26,79938063279| 26,79938063279| 26,79938063279| 26,79938063279| 26,79938063279| 26,79938063279| 26,79938063279| 26,79938063279|123,48848323203|187,79136923613| 26,79938063279| 26,79938063279| 22,70819466978| 23,47046663757| 22,28505589928|  0,00000000000| 14,42707681365| 16,44806805045| 16,44806805045| 23,47046663757| 22,70819466978| 22,70819466978| 21,78997554945| 21,78997554945| 23,99603422190| 23,99603422190| 23,99603422190| 23,99603422190| 23,47046663757| 40,94283892928| 23,60262457594| 23,60262457594| 21,78997554945
Goat                      | 26,79938063279| 26,79938063279| 26,79938063279| 26,79938063279| 26,79938063279| 26,79938063279| 26,79938063279| 26,79938063279|123,48848323203|187,79136923613| 26,79938063279| 26,79938063279| 22,70819466978| 23,47046663757| 22,28505589928| 14,42707681365|  0,00000000000| 16,44806805045| 16,44806805045| 23,47046663757| 22,70819466978| 22,70819466978| 21,78997554945| 21,78997554945| 23,99603422190| 23,99603422190| 23,99603422190| 23,99603422190| 23,47046663757| 40,94283892928| 23,60262457594| 23,60262457594| 21,78997554945
Cow                       | 26,79938063279| 26,79938063279| 26,79938063279| 26,79938063279| 26,79938063279| 26,79938063279| 26,79938063279| 26,79938063279|123,48848323203|187,79136923613| 26,79938063279| 26,79938063279| 22,70819466978| 23,47046663757| 22,28505589928| 16,44806805045| 16,44806805045|  0,00000000000| 16,12560088755| 23,47046663757| 22,70819466978| 22,70819466978| 21,78997554945| 21,78997554945| 23,99603422190| 23,99603422190| 23,99603422190| 23,99603422190| 23,47046663757| 40,94283892928| 23,60262457594| 23,60262457594| 21,78997554945
Buffalo                   | 26,79938063279| 26,79938063279| 26,79938063279| 26,79938063279| 26,79938063279| 26,79938063279| 26,79938063279| 26,79938063279|123,48848323203|187,79136923613| 26,79938063279| 26,79938063279| 22,70819466978| 23,47046663757| 22,28505589928| 16,44806805045| 16,44806805045| 16,12560088755|  0,00000000000| 23,47046663757| 22,70819466978| 22,70819466978| 21,78997554945| 21,78997554945| 23,99603422190| 23,99603422190| 23,99603422190| 23,99603422190| 23,47046663757| 40,94283892928| 23,60262457594| 23,60262457594| 21,78997554945
Wolf                      | 26,79938063279| 26,79938063279| 26,79938063279| 26,79938063279| 26,79938063279| 26,79938063279| 26,79938063279| 26,79938063279|123,48848323203|187,79136923613| 26,79938063279| 26,79938063279| 23,47046663757|  7,06797225735| 23,47046663757| 23,47046663757| 23,47046663757| 23,47046663757| 23,47046663757|  0,00000000000| 23,47046663757| 23,47046663757| 23,47046663757| 23,47046663757| 23,99603422190| 23,99603422190| 23,99603422190| 23,99603422190| 21,55340320261| 40,94283892928| 23,60262457594| 23,60262457594| 23,47046663757
Tiger                     | 26,79938063279| 26,79938063279| 26,79938063279| 26,79938063279| 26,79938063279| 26,79938063279| 26,79938063279| 26,79938063279|123,48848323203|187,79136923613| 26,79938063279| 26,79938063279| 15,14900331854| 23,47046663757| 22,70819466978| 22,70819466978| 22,70819466978| 22,70819466978| 22,70819466978| 23,47046663757|  0,00000000000| 12,66753406413| 22,70819466978| 22,70819466978| 23,99603422190| 23,99603422190| 23,99603422190| 23,99603422190| 23,47046663757| 40,94283892928| 23,60262457594| 23,60262457594| 22,70819466978
Leopard                   | 26,79938063279| 26,79938063279| 26,79938063279| 26,79938063279| 26,79938063279| 26,79938063279| 26,79938063279| 26,79938063279|123,48848323203|187,79136923613| 26,79938063279| 26,79938063279| 15,14900331854| 23,47046663757| 22,70819466978| 22,70819466978| 22,70819466978| 22,70819466978| 22,70819466978| 23,47046663757| 12,66753406413|  0,00000000000| 22,70819466978| 22,70819466978| 23,99603422190| 23,99603422190| 23,99603422190| 23,99603422190| 23,47046663757| 40,94283892928| 23,60262457594| 23,60262457594| 22,70819466978
Indian_Rhino              | 26,79938063279| 26,79938063279| 26,79938063279| 26,79938063279| 26,79938063279| 26,79938063279| 26,79938063279| 26,79938063279|123,48848323203|187,79136923613| 26,79938063279| 26,79938063279| 22,70819466978| 23,47046663757| 22,28505589928| 21,78997554945| 21,78997554945| 21,78997554945| 21,78997554945| 23,47046663757| 22,70819466978| 22,70819466978|  0,00000000000| 14,06610958416| 23,99603422190| 23,99603422190| 23,99603422190| 23,99603422190| 23,47046663757| 40,94283892928| 23,60262457594| 23,60262457594| 20,08640795999
White_Rhino               | 26,79938063279| 26,79938063279| 26,79938063279| 26,79938063279| 26,79938063279| 26,79938063279| 26,79938063279| 26,79938063279|123,48848323203|187,79136923613| 26,79938063279| 26,79938063279| 22,70819466978| 23,47046663757| 22,28505589928| 21,78997554945| 21,78997554945| 21,78997554945| 21,78997554945| 23,47046663757| 22,70819466978| 22,70819466978| 14,06610958416|  0,00000000000| 23,99603422190| 23,99603422190| 23,99603422190| 23,99603422190| 23,47046663757| 40,94283892928| 23,60262457594| 23,60262457594| 20,08640795999
Black_Bear                | 26,79938063279| 26,79938063279| 26,79938063279| 26,79938063279| 26,79938063279| 26,79938063279| 26,79938063279| 26,79938063279|123,48848323203|187,79136923613| 26,79938063279| 26,79938063279| 23,99603422190| 23,99603422190| 23,99603422190| 23,99603422190| 23,99603422190| 23,99603422190| 23,99603422190| 23,99603422190| 23,99603422190| 23,99603422190| 23,99603422190| 23,99603422190|  0,00000000000| 18,71680681248| 18,71680681248| 23,50108174956| 23,99603422190| 40,94283892928| 23,99603422190| 23,99603422190| 23,99603422190
Brown_Bear                | 26,79938063279| 26,79938063279| 26,79938063279| 26,79938063279| 26,79938063279| 26,79938063279| 26,79938063279| 26,79938063279|123,48848323203|187,79136923613| 26,79938063279| 26,79938063279| 23,99603422190| 23,99603422190| 23,99603422190| 23,99603422190| 23,99603422190| 23,99603422190| 23,99603422190| 23,99603422190| 23,99603422190| 23,99603422190| 23,99603422190| 23,99603422190| 18,71680681248|  0,00000000000|  5,97502188928| 23,50108174956| 23,99603422190| 40,94283892928| 23,99603422190| 23,99603422190| 23,99603422190
Polar_Bear                | 26,79938063279| 26,79938063279| 26,79938063279| 26,79938063279| 26,79938063279| 26,79938063279| 26,79938063279| 26,79938063279|123,48848323203|187,79136923613| 26,79938063279| 26,79938063279| 23,99603422190| 23,99603422190| 23,99603422190| 23,99603422190| 23,99603422190| 23,99603422190| 23,99603422190| 23,99603422190| 23,99603422190| 23,99603422190| 23,99603422190| 23,99603422190| 18,71680681248|  5,97502188928|  0,00000000000| 23,50108174956| 23,99603422190| 40,94283892928| 23,99603422190| 23,99603422190| 23,99603422190
Giant_Panda               | 26,79938063279| 26,79938063279| 26,79938063279| 26,79938063279| 26,79938063279| 26,79938063279| 26,79938063279| 26,79938063279|123,48848323203|187,79136923613| 26,79938063279| 26,79938063279| 23,99603422190| 23,99603422190| 23,99603422190| 23,99603422190| 23,99603422190| 23,99603422190| 23,99603422190| 23,99603422190| 23,99603422190| 23,99603422190| 23,99603422190| 23,99603422190| 23,50108174956| 23,50108174956| 23,50108174956|  0,00000000000| 23,99603422190| 40,94283892928| 23,99603422190| 23,99603422190| 23,99603422190
Rabbit                    | 26,79938063279| 26,79938063279| 26,79938063279| 26,79938063279| 26,79938063279| 26,79938063279| 26,79938063279| 26,79938063279|123,48848323203|187,79136923613| 26,79938063279| 26,79938063279| 23,47046663757| 21,55340320261| 23,47046663757| 23,47046663757| 23,47046663757| 23,47046663757| 23,47046663757| 21,55340320261| 23,47046663757| 23,47046663757| 23,47046663757| 23,47046663757| 23,99603422190| 23,99603422190| 23,99603422190| 23,99603422190|  0,00000000000| 40,94283892928| 23,60262457594| 23,60262457594| 23,47046663757
Hedgehog                  | 40,94283892928| 40,94283892928| 40,94283892928| 40,94283892928| 40,94283892928| 40,94283892928| 40,94283892928| 40,94283892928|123,48848323203|187,79136923613| 40,94283892928| 40,94283892928| 40,94283892928| 40,94283892928| 40,94283892928| 40,94283892928| 40,94283892928| 40,94283892928| 40,94283892928| 40,94283892928| 40,94283892928| 40,94283892928| 40,94283892928| 40,94283892928| 40,94283892928| 40,94283892928| 40,94283892928| 40,94283892928| 40,94283892928|  0,00000000000| 40,94283892928| 40,94283892928| 40,94283892928
Dormouse                  | 26,79938063279| 26,79938063279| 26,79938063279| 26,79938063279| 26,79938063279| 26,79938063279| 26,79938063279| 26,79938063279|123,48848323203|187,79136923613| 26,79938063279| 26,79938063279| 23,60262457594| 23,60262457594| 23,60262457594| 23,60262457594| 23,60262457594| 23,60262457594| 23,60262457594| 23,60262457594| 23,60262457594| 23,60262457594| 23,60262457594| 23,60262457594| 23,99603422190| 23,99603422190| 23,99603422190| 23,99603422190| 23,60262457594| 40,94283892928|  0,00000000000| 21,76629039635| 23,60262457594
Squirrel                  | 26,79938063279| 26,79938063279| 26,79938063279| 26,79938063279| 26,79938063279| 26,79938063279| 26,79938063279| 26,79938063279|123,48848323203|187,79136923613| 26,79938063279| 26,79938063279| 23,60262457594| 23,60262457594| 23,60262457594| 23,60262457594| 23,60262457594| 23,60262457594| 23,60262457594| 23,60262457594| 23,60262457594| 23,60262457594| 23,60262457594| 23,60262457594| 23,99603422190| 23,99603422190| 23,99603422190| 23,99603422190| 23,60262457594| 40,94283892928| 21,76629039635|  0,00000000000| 23,60262457594
Blue_Whale                | 26,79938063279| 26,79938063279| 26,79938063279| 26,79938063279| 26,79938063279| 26,79938063279| 26,79938063279| 26,79938063279|123,48848323203|187,79136923613| 26,79938063279| 26,79938063279| 22,70819466978| 23,47046663757| 22,28505589928| 21,78997554945| 21,78997554945| 21,78997554945| 21,78997554945| 23,47046663757| 22,70819466978| 22,70819466978| 20,08640795999| 20,08640795999| 23,99603422190| 23,99603422190| 23,99603422190| 23,99603422190| 23,47046663757| 40,94283892928| 23,60262457594| 23,60262457594|  0,00000000000
                           |Human          |Pig_Chim       |Com_Chim       |Gibbon         |Baboon         |Ver_Monkey     |Macaca_Thibet  |Bor_Oran       |Bor_Oran_full_ |Bor_Oran_part_ |Sum_Oran       |Gorilla        |Cat            |Dog            |Pig            |Sheep          |Goat           |Cow            |Buffalo        |Wolf           |Tiger          |Leopard        |Indian_Rhino   |White_Rhino    |Black_Bear     |Brown_Bear     |Polar_Bear     |Giant_Panda    |Rabbit         |Hedgehog       |Dormouse       |Squirrel       |Blue_Whale     
Human                     |  0,00000000000|  9,37559744154|  9,37559744154|  9,46448303482|  9,53080368949|  9,53080368949|  9,53080368949|  9,46276404828| 11,87202299066| 13,32745811323|  9,46276404828|  9,36834969377|  9,68355642816|  9,68355642816|  9,68355642816|  9,68355642816|  9,68355642816|  9,68355642816|  9,68355642816|  9,68355642816|  9,68355642816|  9,68355642816|  9,68355642816|  9,68355642816|  9,68355642816|  9,68355642816|  9,68355642816|  9,68355642816|  9,68355642816| 10,00368025523|  9,68355642816|  9,68355642816|  9,68355642816
Pig_Chim                  |  9,37559744154|  0,00000000000|  9,27591000205|  9,46448303482|  9,53080368949|  9,53080368949|  9,53080368949|  9,46276404828| 11,87202299066| 13,32745811323|  9,46276404828|  9,37559744154|  9,68355642816|  9,68355642816|  9,68355642816|  9,68355642816|  9,68355642816|  9,68355642816|  9,68355642816|  9,68355642816|  9,68355642816|  9,68355642816|  9,68355642816|  9,68355642816|  9,68355642816|  9,68355642816|  9,68355642816|  9,68355642816|  9,68355642816| 10,00368025523|  9,68355642816|  9,68355642816|  9,68355642816
Com_Chim                  |  9,37559744154|  9,27591000205|  0,00000000000|  9,46448303482|  9,53080368949|  9,53080368949|  9,53080368949|  9,46276404828| 11,87202299066| 13,32745811323|  9,46276404828|  9,37559744154|  9,68355642816|  9,68355642816|  9,68355642816|  9,68355642816|  9,68355642816|  9,68355642816|  9,68355642816|  9,68355642816|  9,68355642816|  9,68355642816|  9,68355642816|  9,68355642816|  9,68355642816|  9,68355642816|  9,68355642816|  9,68355642816|  9,68355642816| 10,00368025523|  9,68355642816|  9,68355642816|  9,68355642816
Gibbon                    |  9,46448303482|  9,46448303482|  9,46448303482|  0,00000000000|  9,53080368949|  9,53080368949|  9,53080368949|  9,46448303482| 11,87202299066| 13,32745811323|  9,46448303482|  9,46448303482|  9,68355642816|  9,68355642816|  9,68355642816|  9,68355642816|  9,68355642816|  9,68355642816|  9,68355642816|  9,68355642816|  9,68355642816|  9,68355642816|  9,68355642816|  9,68355642816|  9,68355642816|  9,68355642816|  9,68355642816|  9,68355642816|  9,68355642816| 10,00368025523|  9,68355642816|  9,68355642816|  9,68355642816
Baboon                    |  9,53080368949|  9,53080368949|  9,53080368949|  9,53080368949|  0,00000000000|  9,45462453541|  9,45462453541|  9,53080368949| 11,87202299066| 13,32745811323|  9,53080368949|  9,53080368949|  9,68355642816|  9,68355642816|  9,68355642816|  9,68355642816|  9,68355642816|  9,68355642816|  9,68355642816|  9,68355642816|  9,68355642816|  9,68355642816|  9,68355642816|  9,68355642816|  9,68355642816|  9,68355642816|  9,68355642816|  9,68355642816|  9,68355642816| 10,00368025523|  9,68355642816|  9,68355642816|  9,68355642816
Ver_Monkey                |  9,53080368949|  9,53080368949|  9,53080368949|  9,53080368949|  9,45462453541|  0,00000000000|  9,43565820633|  9,53080368949| 11,87202299066| 13,32745811323|  9,53080368949|  9,53080368949|  9,68355642816|  9,68355642816|  9,68355642816|  9,68355642816|  9,68355642816|  9,68355642816|  9,68355642816|  9,68355642816|  9,68355642816|  9,68355642816|  9,68355642816|  9,68355642816|  9,68355642816|  9,68355642816|  9,68355642816|  9,68355642816|  9,68355642816| 10,00368025523|  9,68355642816|  9,68355642816|  9,68355642816
Macaca_Thibet             |  9,53080368949|  9,53080368949|  9,53080368949|  9,53080368949|  9,45462453541|  9,43565820633|  0,00000000000|  9,53080368949| 11,87202299066| 13,32745811323|  9,53080368949|  9,53080368949|  9,68355642816|  9,68355642816|  9,68355642816|  9,68355642816|  9,68355642816|  9,68355642816|  9,68355642816|  9,68355642816|  9,68355642816|  9,68355642816|  9,68355642816|  9,68355642816|  9,68355642816|  9,68355642816|  9,68355642816|  9,68355642816|  9,68355642816| 10,00368025523|  9,68355642816|  9,68355642816|  9,68355642816
Bor_Oran                  |  9,46276404828|  9,46276404828|  9,46276404828|  9,46448303482|  9,53080368949|  9,53080368949|  9,53080368949|  0,00000000000| 11,87202299066| 13,32745811323|  9,29259939005|  9,46276404828|  9,68355642816|  9,68355642816|  9,68355642816|  9,68355642816|  9,68355642816|  9,68355642816|  9,68355642816|  9,68355642816|  9,68355642816|  9,68355642816|  9,68355642816|  9,68355642816|  9,68355642816|  9,68355642816|  9,68355642816|  9,68355642816|  9,68355642816| 10,00368025523|  9,68355642816|  9,68355642816|  9,68355642816
Bor_Oran_full_rev         | 11,87202299066| 11,87202299066| 11,87202299066| 11,87202299066| 11,87202299066| 11,87202299066| 11,87202299066| 11,87202299066|  0,00000000000| 13,32745811323| 11,87202299066| 11,87202299066| 11,87202299066| 11,87202299066| 11,87202299066| 11,87202299066| 11,87202299066| 11,87202299066| 11,87202299066| 11,87202299066| 11,87202299066| 11,87202299066| 11,87202299066| 11,87202299066| 11,87202299066| 11,87202299066| 11,87202299066| 11,87202299066| 11,87202299066| 11,87202299066| 11,87202299066| 11,87202299066| 11,87202299066
Bor_Oran_part_rev         | 13,32745811323| 13,32745811323| 13,32745811323| 13,32745811323| 13,32745811323| 13,32745811323| 13,32745811323| 13,32745811323| 13,32745811323|  0,00000000000| 13,32745811323| 13,32745811323| 13,32745811323| 13,32745811323| 13,32745811323| 13,32745811323| 13,32745811323| 13,32745811323| 13,32745811323| 13,32745811323| 13,32745811323| 13,32745811323| 13,32745811323| 13,32745811323| 13,32745811323| 13,32745811323| 13,32745811323| 13,32745811323| 13,32745811323| 13,32745811323| 13,32745811323| 13,32745811323| 13,32745811323
Sum_Oran                  |  9,46276404828|  9,46276404828|  9,46276404828|  9,46448303482|  9,53080368949|  9,53080368949|  9,53080368949|  9,29259939005| 11,87202299066| 13,32745811323|  0,00000000000|  9,46276404828|  9,68355642816|  9,68355642816|  9,68355642816|  9,68355642816|  9,68355642816|  9,68355642816|  9,68355642816|  9,68355642816|  9,68355642816|  9,68355642816|  9,68355642816|  9,68355642816|  9,68355642816|  9,68355642816|  9,68355642816|  9,68355642816|  9,68355642816| 10,00368025523|  9,68355642816|  9,68355642816|  9,68355642816
Gorilla                   |  9,36834969377|  9,37559744154|  9,37559744154|  9,46448303482|  9,53080368949|  9,53080368949|  9,53080368949|  9,46276404828| 11,87202299066| 13,32745811323|  9,46276404828|  0,00000000000|  9,68355642816|  9,68355642816|  9,68355642816|  9,68355642816|  9,68355642816|  9,68355642816|  9,68355642816|  9,68355642816|  9,68355642816|  9,68355642816|  9,68355642816|  9,68355642816|  9,68355642816|  9,68355642816|  9,68355642816|  9,68355642816|  9,68355642816| 10,00368025523|  9,68355642816|  9,68355642816|  9,68355642816
Cat                       |  9,68355642816|  9,68355642816|  9,68355642816|  9,68355642816|  9,68355642816|  9,68355642816|  9,68355642816|  9,68355642816| 11,87202299066| 13,32745811323|  9,68355642816|  9,68355642816|  0,00000000000|  9,60820960238|  9,59095629598|  9,59095629598|  9,59095629598|  9,59095629598|  9,59095629598|  9,60820960238|  9,41986113565|  9,41986113565|  9,59095629598|  9,59095629598|  9,62010532852|  9,62010532852|  9,62010532852|  9,62010532852|  9,60820960238| 10,00368025523|  9,61120087256|  9,61120087256|  9,59095629598
Dog                       |  9,68355642816|  9,68355642816|  9,68355642816|  9,68355642816|  9,68355642816|  9,68355642816|  9,68355642816|  9,68355642816| 11,87202299066| 13,32745811323|  9,68355642816|  9,68355642816|  9,60820960238|  0,00000000000|  9,60820960238|  9,60820960238|  9,60820960238|  9,60820960238|  9,60820960238|  9,23695462610|  9,60820960238|  9,60820960238|  9,60820960238|  9,60820960238|  9,62010532852|  9,62010532852|  9,62010532852|  9,62010532852|  9,56481868125| 10,00368025523|  9,61120087256|  9,61120087256|  9,60820960238
Pig                       |  9,68355642816|  9,68355642816|  9,68355642816|  9,68355642816|  9,68355642816|  9,68355642816|  9,68355642816|  9,68355642816| 11,87202299066| 13,32745811323|  9,68355642816|  9,68355642816|  9,59095629598|  9,60820960238|  0,00000000000|  9,58137894935|  9,58137894935|  9,58137894935|  9,58137894935|  9,60820960238|  9,59095629598|  9,59095629598|  9,58137894935|  9,58137894935|  9,62010532852|  9,62010532852|  9,62010532852|  9,62010532852|  9,60820960238| 10,00368025523|  9,61120087256|  9,61120087256|  9,58137894935
Sheep                     |  9,68355642816|  9,68355642816|  9,68355642816|  9,68355642816|  9,68355642816|  9,68355642816|  9,68355642816|  9,68355642816| 11,87202299066| 13,32745811323|  9,68355642816|  9,68355642816|  9,59095629598|  9,60820960238|  9,58137894935|  0,00000000000|  9,40352101071|  9,44926423953|  9,44926423953|  9,60820960238|  9,59095629598|  9,59095629598|  9,57017327299|  9,57017327299|  9,62010532852|  9,62010532852|  9,62010532852|  9,62010532852|  9,60820960238| 10,00368025523|  9,61120087256|  9,61120087256|  9,57017327299
Goat                      |  9,68355642816|  9,68355642816|  9,68355642816|  9,68355642816|  9,68355642816|  9,68355642816|  9,68355642816|  9,68355642816| 11,87202299066| 13,32745811323|  9,68355642816|  9,68355642816|  9,59095629598|  9,60820960238|  9,58137894935|  9,40352101071|  0,00000000000|  9,44926423953|  9,44926423953|  9,60820960238|  9,59095629598|  9,59095629598|  9,57017327299|  9,57017327299|  9,62010532852|  9,62010532852|  9,62010532852|  9,62010532852|  9,60820960238| 10,00368025523|  9,61120087256|  9,61120087256|  9,57017327299
Cow                       |  9,68355642816|  9,68355642816|  9,68355642816|  9,68355642816|  9,68355642816|  9,68355642816|  9,68355642816|  9,68355642816| 11,87202299066| 13,32745811323|  9,68355642816|  9,68355642816|  9,59095629598|  9,60820960238|  9,58137894935|  9,44926423953|  9,44926423953|  0,00000000000|  9,44196549971|  9,60820960238|  9,59095629598|  9,59095629598|  9,57017327299|  9,57017327299|  9,62010532852|  9,62010532852|  9,62010532852|  9,62010532852|  9,60820960238| 10,00368025523|  9,61120087256|  9,61120087256|  9,57017327299
Buffalo                   |  9,68355642816|  9,68355642816|  9,68355642816|  9,68355642816|  9,68355642816|  9,68355642816|  9,68355642816|  9,68355642816| 11,87202299066| 13,32745811323|  9,68355642816|  9,68355642816|  9,59095629598|  9,60820960238|  9,58137894935|  9,44926423953|  9,44926423953|  9,44196549971|  0,00000000000|  9,60820960238|  9,59095629598|  9,59095629598|  9,57017327299|  9,57017327299|  9,62010532852|  9,62010532852|  9,62010532852|  9,62010532852|  9,60820960238| 10,00368025523|  9,61120087256|  9,61120087256|  9,57017327299
Wolf                      |  9,68355642816|  9,68355642816|  9,68355642816|  9,68355642816|  9,68355642816|  9,68355642816|  9,68355642816|  9,68355642816| 11,87202299066| 13,32745811323|  9,68355642816|  9,68355642816|  9,60820960238|  9,23695462610|  9,60820960238|  9,60820960238|  9,60820960238|  9,60820960238|  9,60820960238|  0,00000000000|  9,60820960238|  9,60820960238|  9,60820960238|  9,60820960238|  9,62010532852|  9,62010532852|  9,62010532852|  9,62010532852|  9,56481868125| 10,00368025523|  9,61120087256|  9,61120087256|  9,60820960238
Tiger                     |  9,68355642816|  9,68355642816|  9,68355642816|  9,68355642816|  9,68355642816|  9,68355642816|  9,68355642816|  9,68355642816| 11,87202299066| 13,32745811323|  9,68355642816|  9,68355642816|  9,41986113565|  9,60820960238|  9,59095629598|  9,59095629598|  9,59095629598|  9,59095629598|  9,59095629598|  9,60820960238|  0,00000000000|  9,36369542159|  9,59095629598|  9,59095629598|  9,62010532852|  9,62010532852|  9,62010532852|  9,62010532852|  9,60820960238| 10,00368025523|  9,61120087256|  9,61120087256|  9,59095629598
Leopard                   |  9,68355642816|  9,68355642816|  9,68355642816|  9,68355642816|  9,68355642816|  9,68355642816|  9,68355642816|  9,68355642816| 11,87202299066| 13,32745811323|  9,68355642816|  9,68355642816|  9,41986113565|  9,60820960238|  9,59095629598|  9,59095629598|  9,59095629598|  9,59095629598|  9,59095629598|  9,60820960238|  9,36369542159|  0,00000000000|  9,59095629598|  9,59095629598|  9,62010532852|  9,62010532852|  9,62010532852|  9,62010532852|  9,60820960238| 10,00368025523|  9,61120087256|  9,61120087256|  9,59095629598
Indian_Rhino              |  9,68355642816|  9,68355642816|  9,68355642816|  9,68355642816|  9,68355642816|  9,68355642816|  9,68355642816|  9,68355642816| 11,87202299066| 13,32745811323|  9,68355642816|  9,68355642816|  9,59095629598|  9,60820960238|  9,58137894935|  9,57017327299|  9,57017327299|  9,57017327299|  9,57017327299|  9,60820960238|  9,59095629598|  9,59095629598|  0,00000000000|  9,39535085822|  9,62010532852|  9,62010532852|  9,62010532852|  9,62010532852|  9,60820960238| 10,00368025523|  9,61120087256|  9,61120087256|  9,53161462878
White_Rhino               |  9,68355642816|  9,68355642816|  9,68355642816|  9,68355642816|  9,68355642816|  9,68355642816|  9,68355642816|  9,68355642816| 11,87202299066| 13,32745811323|  9,68355642816|  9,68355642816|  9,59095629598|  9,60820960238|  9,58137894935|  9,57017327299|  9,57017327299|  9,57017327299|  9,57017327299|  9,60820960238|  9,59095629598|  9,59095629598|  9,39535085822|  0,00000000000|  9,62010532852|  9,62010532852|  9,62010532852|  9,62010532852|  9,60820960238| 10,00368025523|  9,61120087256|  9,61120087256|  9,53161462878
Black_Bear                |  9,68355642816|  9,68355642816|  9,68355642816|  9,68355642816|  9,68355642816|  9,68355642816|  9,68355642816|  9,68355642816| 11,87202299066| 13,32745811323|  9,68355642816|  9,68355642816|  9,62010532852|  9,62010532852|  9,62010532852|  9,62010532852|  9,62010532852|  9,62010532852|  9,62010532852|  9,62010532852|  9,62010532852|  9,62010532852|  9,62010532852|  9,62010532852|  0,00000000000|  9,50061499971|  9,50061499971|  9,60890254654|  9,62010532852| 10,00368025523|  9,62010532852|  9,62010532852|  9,62010532852
Brown_Bear                |  9,68355642816|  9,68355642816|  9,68355642816|  9,68355642816|  9,68355642816|  9,68355642816|  9,68355642816|  9,68355642816| 11,87202299066| 13,32745811323|  9,68355642816|  9,68355642816|  9,62010532852|  9,62010532852|  9,62010532852|  9,62010532852|  9,62010532852|  9,62010532852|  9,62010532852|  9,62010532852|  9,62010532852|  9,62010532852|  9,62010532852|  9,62010532852|  9,50061499971|  0,00000000000|  9,21221672626|  9,60890254654|  9,62010532852| 10,00368025523|  9,62010532852|  9,62010532852|  9,62010532852
Polar_Bear                |  9,68355642816|  9,68355642816|  9,68355642816|  9,68355642816|  9,68355642816|  9,68355642816|  9,68355642816|  9,68355642816| 11,87202299066| 13,32745811323|  9,68355642816|  9,68355642816|  9,62010532852|  9,62010532852|  9,62010532852|  9,62010532852|  9,62010532852|  9,62010532852|  9,62010532852|  9,62010532852|  9,62010532852|  9,62010532852|  9,62010532852|  9,62010532852|  9,50061499971|  9,21221672626|  0,00000000000|  9,60890254654|  9,62010532852| 10,00368025523|  9,62010532852|  9,62010532852|  9,62010532852
Giant_Panda               |  9,68355642816|  9,68355642816|  9,68355642816|  9,68355642816|  9,68355642816|  9,68355642816|  9,68355642816|  9,68355642816| 11,87202299066| 13,32745811323|  9,68355642816|  9,68355642816|  9,62010532852|  9,62010532852|  9,62010532852|  9,62010532852|  9,62010532852|  9,62010532852|  9,62010532852|  9,62010532852|  9,62010532852|  9,62010532852|  9,62010532852|  9,62010532852|  9,60890254654|  9,60890254654|  9,60890254654|  0,00000000000|  9,62010532852| 10,00368025523|  9,62010532852|  9,62010532852|  9,62010532852
Rabbit                    |  9,68355642816|  9,68355642816|  9,68355642816|  9,68355642816|  9,68355642816|  9,68355642816|  9,68355642816|  9,68355642816| 11,87202299066| 13,32745811323|  9,68355642816|  9,68355642816|  9,60820960238|  9,56481868125|  9,60820960238|  9,60820960238|  9,60820960238|  9,60820960238|  9,60820960238|  9,56481868125|  9,60820960238|  9,60820960238|  9,60820960238|  9,60820960238|  9,62010532852|  9,62010532852|  9,62010532852|  9,62010532852|  0,00000000000| 10,00368025523|  9,61120087256|  9,61120087256|  9,60820960238
Hedgehog                  | 10,00368025523| 10,00368025523| 10,00368025523| 10,00368025523| 10,00368025523| 10,00368025523| 10,00368025523| 10,00368025523| 11,87202299066| 13,32745811323| 10,00368025523| 10,00368025523| 10,00368025523| 10,00368025523| 10,00368025523| 10,00368025523| 10,00368025523| 10,00368025523| 10,00368025523| 10,00368025523| 10,00368025523| 10,00368025523| 10,00368025523| 10,00368025523| 10,00368025523| 10,00368025523| 10,00368025523| 10,00368025523| 10,00368025523|  0,00000000000| 10,00368025523| 10,00368025523| 10,00368025523
Dormouse                  |  9,68355642816|  9,68355642816|  9,68355642816|  9,68355642816|  9,68355642816|  9,68355642816|  9,68355642816|  9,68355642816| 11,87202299066| 13,32745811323|  9,68355642816|  9,68355642816|  9,61120087256|  9,61120087256|  9,61120087256|  9,61120087256|  9,61120087256|  9,61120087256|  9,61120087256|  9,61120087256|  9,61120087256|  9,61120087256|  9,61120087256|  9,61120087256|  9,62010532852|  9,62010532852|  9,62010532852|  9,62010532852|  9,61120087256| 10,00368025523|  0,00000000000|  9,56963718191|  9,61120087256
Squirrel                  |  9,68355642816|  9,68355642816|  9,68355642816|  9,68355642816|  9,68355642816|  9,68355642816|  9,68355642816|  9,68355642816| 11,87202299066| 13,32745811323|  9,68355642816|  9,68355642816|  9,61120087256|  9,61120087256|  9,61120087256|  9,61120087256|  9,61120087256|  9,61120087256|  9,61120087256|  9,61120087256|  9,61120087256|  9,61120087256|  9,61120087256|  9,61120087256|  9,62010532852|  9,62010532852|  9,62010532852|  9,62010532852|  9,61120087256| 10,00368025523|  9,56963718191|  0,00000000000|  9,61120087256
Blue_Whale                |  9,68355642816|  9,68355642816|  9,68355642816|  9,68355642816|  9,68355642816|  9,68355642816|  9,68355642816|  9,68355642816| 11,87202299066| 13,32745811323|  9,68355642816|  9,68355642816|  9,59095629598|  9,60820960238|  9,58137894935|  9,57017327299|  9,57017327299|  9,57017327299|  9,57017327299|  9,60820960238|  9,59095629598|  9,59095629598|  9,53161462878|  9,53161462878|  9,62010532852|  9,62010532852|  9,62010532852|  9,62010532852|  9,60820960238| 10,00368025523|  9,61120087256|  9,61120087256|  0,00000000000
                           |Human          |Pig_Chim       |Com_Chim       |Gibbon         |Baboon         |Ver_Monkey     |Macaca_Thibet  |Bor_Oran       |Bor_Oran_full_ |Bor_Oran_part_ |Sum_Oran       |Gorilla        |Cat            |Dog            |Pig            |Sheep          |Goat           |Cow            |Buffalo        |Wolf           |Tiger          |Leopard        |Indian_Rhino   |White_Rhino    |Black_Bear     |Brown_Bear     |Polar_Bear     |Giant_Panda    |Rabbit         |Hedgehog       |Dormouse       |Squirrel       |Blue_Whale     
Human                     |  0,00000000000|  4,00000000000|  4,00000000000|  5,00000000000|  7,00000000000|  8,00000000000|  8,00000000000|  5,00000000000|  9,00000000000| 10,00000000000|  5,00000000000|  2,00000000000| 12,00000000000| 12,00000000000| 12,00000000000| 15,00000000000| 15,00000000000| 15,00000000000| 15,00000000000| 12,00000000000| 13,00000000000| 13,00000000000| 15,00000000000| 15,00000000000| 10,00000000000| 11,00000000000| 11,00000000000|  9,00000000000| 11,00000000000|  8,00000000000| 10,00000000000| 10,00000000000| 14,00000000000
Pig_Chim                  |  4,00000000000|  0,00000000000|  2,00000000000|  5,00000000000|  7,00000000000|  8,00000000000|  8,00000000000|  5,00000000000|  9,00000000000| 10,00000000000|  5,00000000000|  4,00000000000| 12,00000000000| 12,00000000000| 12,00000000000| 15,00000000000| 15,00000000000| 15,00000000000| 15,00000000000| 12,00000000000| 13,00000000000| 13,00000000000| 15,00000000000| 15,00000000000| 10,00000000000| 11,00000000000| 11,00000000000|  9,00000000000| 11,00000000000|  8,00000000000| 10,00000000000| 10,00000000000| 14,00000000000
Com_Chim                  |  4,00000000000|  2,00000000000|  0,00000000000|  5,00000000000|  7,00000000000|  8,00000000000|  8,00000000000|  5,00000000000|  9,00000000000| 10,00000000000|  5,00000000000|  4,00000000000| 12,00000000000| 12,00000000000| 12,00000000000| 15,00000000000| 15,00000000000| 15,00000000000| 15,00000000000| 12,00000000000| 13,00000000000| 13,00000000000| 15,00000000000| 15,00000000000| 10,00000000000| 11,00000000000| 11,00000000000|  9,00000000000| 11,00000000000|  8,00000000000| 10,00000000000| 10,00000000000| 14,00000000000
Gibbon                    |  5,00000000000|  5,00000000000|  5,00000000000|  0,00000000000|  4,00000000000|  5,00000000000|  5,00000000000|  4,00000000000|  6,00000000000|  7,00000000000|  4,00000000000|  5,00000000000|  9,00000000000|  9,00000000000|  9,00000000000| 12,00000000000| 12,00000000000| 12,00000000000| 12,00000000000|  9,00000000000| 10,00000000000| 10,00000000000| 12,00000000000| 12,00000000000|  7,00000000000|  8,00000000000|  8,00000000000|  6,00000000000|  8,00000000000|  5,00000000000|  7,00000000000|  7,00000000000| 11,00000000000
Baboon                    |  7,00000000000|  7,00000000000|  7,00000000000|  4,00000000000|  0,00000000000|  3,00000000000|  3,00000000000|  6,00000000000|  6,00000000000|  7,00000000000|  6,00000000000|  7,00000000000|  9,00000000000|  9,00000000000|  9,00000000000| 12,00000000000| 12,00000000000| 12,00000000000| 12,00000000000|  9,00000000000| 10,00000000000| 10,00000000000| 12,00000000000| 12,00000000000|  7,00000000000|  8,00000000000|  8,00000000000|  6,00000000000|  8,00000000000|  5,00000000000|  7,00000000000|  7,00000000000| 11,00000000000
Ver_Monkey                |  8,00000000000|  8,00000000000|  8,00000000000|  5,00000000000|  3,00000000000|  0,00000000000|  2,00000000000|  7,00000000000|  7,00000000000|  8,00000000000|  7,00000000000|  8,00000000000| 10,00000000000| 10,00000000000| 10,00000000000| 13,00000000000| 13,00000000000| 13,00000000000| 13,00000000000| 10,00000000000| 11,00000000000| 11,00000000000| 13,00000000000| 13,00000000000|  8,00000000000|  9,00000000000|  9,00000000000|  7,00000000000|  9,00000000000|  6,00000000000|  8,00000000000|  8,00000000000| 12,00000000000
Macaca_Thibet             |  8,00000000000|  8,00000000000|  8,00000000000|  5,00000000000|  3,00000000000|  2,00000000000|  0,00000000000|  7,00000000000|  7,00000000000|  8,00000000000|  7,00000000000|  8,00000000000| 10,00000000000| 10,00000000000| 10,00000000000| 13,00000000000| 13,00000000000| 13,00000000000| 13,00000000000| 10,00000000000| 11,00000000000| 11,00000000000| 13,00000000000| 13,00000000000|  8,00000000000|  9,00000000000|  9,00000000000|  7,00000000000|  9,00000000000|  6,00000000000|  8,00000000000|  8,00000000000| 12,00000000000
Bor_Oran                  |  5,00000000000|  5,00000000000|  5,00000000000|  4,00000000000|  6,00000000000|  7,00000000000|  7,00000000000|  0,00000000000|  8,00000000000|  9,00000000000|  2,00000000000|  5,00000000000| 11,00000000000| 11,00000000000| 11,00000000000| 14,00000000000| 14,00000000000| 14,00000000000| 14,00000000000| 11,00000000000| 12,00000000000| 12,00000000000| 14,00000000000| 14,00000000000|  9,00000000000| 10,00000000000| 10,00000000000|  8,00000000000| 10,00000000000|  7,00000000000|  9,00000000000|  9,00000000000| 13,00000000000
Bor_Oran_full_rev         |  9,00000000000|  9,00000000000|  9,00000000000|  6,00000000000|  6,00000000000|  7,00000000000|  7,00000000000|  8,00000000000|  0,00000000000|  3,00000000000|  8,00000000000|  9,00000000000|  9,00000000000|  9,00000000000|  9,00000000000| 12,00000000000| 12,00000000000| 12,00000000000| 12,00000000000|  9,00000000000| 10,00000000000| 10,00000000000| 12,00000000000| 12,00000000000|  7,00000000000|  8,00000000000|  8,00000000000|  6,00000000000|  8,00000000000|  3,00000000000|  7,00000000000|  7,00000000000| 11,00000000000
Bor_Oran_part_rev         | 10,00000000000| 10,00000000000| 10,00000000000|  7,00000000000|  7,00000000000|  8,00000000000|  8,00000000000|  9,00000000000|  3,00000000000|  0,00000000000|  9,00000000000| 10,00000000000| 10,00000000000| 10,00000000000| 10,00000000000| 13,00000000000| 13,00000000000| 13,00000000000| 13,00000000000| 10,00000000000| 11,00000000000| 11,00000000000| 13,00000000000| 13,00000000000|  8,00000000000|  9,00000000000|  9,00000000000|  7,00000000000|  9,00000000000|  4,00000000000|  8,00000000000|  8,00000000000| 12,00000000000
Sum_Oran                  |  5,00000000000|  5,00000000000|  5,00000000000|  4,00000000000|  6,00000000000|  7,00000000000|  7,00000000000|  2,00000000000|  8,00000000000|  9,00000000000|  0,00000000000|  5,00000000000| 11,00000000000| 11,00000000000| 11,00000000000| 14,00000000000| 14,00000000000| 14,00000000000| 14,00000000000| 11,00000000000| 12,00000000000| 12,00000000000| 14,00000000000| 14,00000000000|  9,00000000000| 10,00000000000| 10,00000000000|  8,00000000000| 10,00000000000|  7,00000000000|  9,00000000000|  9,00000000000| 13,00000000000
Gorilla                   |  2,00000000000|  4,00000000000|  4,00000000000|  5,00000000000|  7,00000000000|  8,00000000000|  8,00000000000|  5,00000000000|  9,00000000000| 10,00000000000|  5,00000000000|  0,00000000000| 12,00000000000| 12,00000000000| 12,00000000000| 15,00000000000| 15,00000000000| 15,00000000000| 15,00000000000| 12,00000000000| 13,00000000000| 13,00000000000| 15,00000000000| 15,00000000000| 10,00000000000| 11,00000000000| 11,00000000000|  9,00000000000| 11,00000000000|  8,00000000000| 10,00000000000| 10,00000000000| 14,00000000000
Cat                       | 12,00000000000| 12,00000000000| 12,00000000000|  9,00000000000|  9,00000000000| 10,00000000000| 10,00000000000| 11,00000000000|  9,00000000000| 10,00000000000| 11,00000000000| 12,00000000000|  0,00000000000|  6,00000000000|  4,00000000000|  7,00000000000|  7,00000000000|  7,00000000000|  7,00000000000|  6,00000000000|  3,00000000000|  3,00000000000|  7,00000000000|  7,00000000000|  8,00000000000|  9,00000000000|  9,00000000000|  7,00000000000|  5,00000000000|  8,00000000000|  6,00000000000|  6,00000000000|  6,00000000000
Dog                       | 12,00000000000| 12,00000000000| 12,00000000000|  9,00000000000|  9,00000000000| 10,00000000000| 10,00000000000| 11,00000000000|  9,00000000000| 10,00000000000| 11,00000000000| 12,00000000000|  6,00000000000|  0,00000000000|  6,00000000000|  9,00000000000|  9,00000000000|  9,00000000000|  9,00000000000|  2,00000000000|  7,00000000000|  7,00000000000|  9,00000000000|  9,00000000000|  8,00000000000|  9,00000000000|  9,00000000000|  7,00000000000|  3,00000000000|  8,00000000000|  6,00000000000|  6,00000000000|  8,00000000000
Pig                       | 12,00000000000| 12,00000000000| 12,00000000000|  9,00000000000|  9,00000000000| 10,00000000000| 10,00000000000| 11,00000000000|  9,00000000000| 10,00000000000| 11,00000000000| 12,00000000000|  4,00000000000|  6,00000000000|  0,00000000000|  5,00000000000|  5,00000000000|  5,00000000000|  5,00000000000|  6,00000000000|  5,00000000000|  5,00000000000|  5,00000000000|  5,00000000000|  8,00000000000|  9,00000000000|  9,00000000000|  7,00000000000|  5,00000000000|  8,00000000000|  6,00000000000|  6,00000000000|  4,00000000000
Sheep                     | 15,00000000000| 15,00000000000| 15,00000000000| 12,00000000000| 12,00000000000| 13,00000000000| 13,00000000000| 14,00000000000| 12,00000000000| 13,00000000000| 14,00000000000| 15,00000000000|  7,00000000000|  9,00000000000|  5,00000000000|  0,00000000000|  2,00000000000|  4,00000000000|  4,00000000000|  9,00000000000|  8,00000000000|  8,00000000000|  6,00000000000|  6,00000000000| 11,00000000000| 12,00000000000| 12,00000000000| 10,00000000000|  8,00000000000| 11,00000000000|  9,00000000000|  9,00000000000|  5,00000000000
Goat                      | 15,00000000000| 15,00000000000| 15,00000000000| 12,00000000000| 12,00000000000| 13,00000000000| 13,00000000000| 14,00000000000| 12,00000000000| 13,00000000000| 14,00000000000| 15,00000000000|  7,00000000000|  9,00000000000|  5,00000000000|  2,00000000000|  0,00000000000|  4,00000000000|  4,00000000000|  9,00000000000|  8,00000000000|  8,00000000000|  6,00000000000|  6,00000000000| 11,00000000000| 12,00000000000| 12,00000000000| 10,00000000000|  8,00000000000| 11,00000000000|  9,00000000000|  9,00000000000|  5,00000000000
Cow                       | 15,00000000000| 15,00000000000| 15,00000000000| 12,00000000000| 12,00000000000| 13,00000000000| 13,00000000000| 14,00000000000| 12,00000000000| 13,00000000000| 14,00000000000| 15,00000000000|  7,00000000000|  9,00000000000|  5,00000000000|  4,00000000000|  4,00000000000|  0,00000000000|  2,00000000000|  9,00000000000|  8,00000000000|  8,00000000000|  6,00000000000|  6,00000000000| 11,00000000000| 12,00000000000| 12,00000000000| 10,00000000000|  8,00000000000| 11,00000000000|  9,00000000000|  9,00000000000|  5,00000000000
Buffalo                   | 15,00000000000| 15,00000000000| 15,00000000000| 12,00000000000| 12,00000000000| 13,00000000000| 13,00000000000| 14,00000000000| 12,00000000000| 13,00000000000| 14,00000000000| 15,00000000000|  7,00000000000|  9,00000000000|  5,00000000000|  4,00000000000|  4,00000000000|  2,00000000000|  0,00000000000|  9,00000000000|  8,00000000000|  8,00000000000|  6,00000000000|  6,00000000000| 11,00000000000| 12,00000000000| 12,00000000000| 10,00000000000|  8,00000000000| 11,00000000000|  9,00000000000|  9,00000000000|  5,00000000000
Wolf                      | 12,00000000000| 12,00000000000| 12,00000000000|  9,00000000000|  9,00000000000| 10,00000000000| 10,00000000000| 11,00000000000|  9,00000000000| 10,00000000000| 11,00000000000| 12,00000000000|  6,00000000000|  2,00000000000|  6,00000000000|  9,00000000000|  9,00000000000|  9,00000000000|  9,00000000000|  0,00000000000|  7,00000000000|  7,00000000000|  9,00000000000|  9,00000000000|  8,00000000000|  9,00000000000|  9,00000000000|  7,00000000000|  3,00000000000|  8,00000000000|  6,00000000000|  6,00000000000|  8,00000000000
Tiger                     | 13,00000000000| 13,00000000000| 13,00000000000| 10,00000000000| 10,00000000000| 11,00000000000| 11,00000000000| 12,00000000000| 10,00000000000| 11,00000000000| 12,00000000000| 13,00000000000|  3,00000000000|  7,00000000000|  5,00000000000|  8,00000000000|  8,00000000000|  8,00000000000|  8,00000000000|  7,00000000000|  0,00000000000|  2,00000000000|  8,00000000000|  8,00000000000|  9,00000000000| 10,00000000000| 10,00000000000|  8,00000000000|  6,00000000000|  9,00000000000|  7,00000000000|  7,00000000000|  7,00000000000
Leopard                   | 13,00000000000| 13,00000000000| 13,00000000000| 10,00000000000| 10,00000000000| 11,00000000000| 11,00000000000| 12,00000000000| 10,00000000000| 11,00000000000| 12,00000000000| 13,00000000000|  3,00000000000|  7,00000000000|  5,00000000000|  8,00000000000|  8,00000000000|  8,00000000000|  8,00000000000|  7,00000000000|  2,00000000000|  0,00000000000|  8,00000000000|  8,00000000000|  9,00000000000| 10,00000000000| 10,00000000000|  8,00000000000|  6,00000000000|  9,00000000000|  7,00000000000|  7,00000000000|  7,00000000000
Indian_Rhino              | 15,00000000000| 15,00000000000| 15,00000000000| 12,00000000000| 12,00000000000| 13,00000000000| 13,00000000000| 14,00000000000| 12,00000000000| 13,00000000000| 14,00000000000| 15,00000000000|  7,00000000000|  9,00000000000|  5,00000000000|  6,00000000000|  6,00000000000|  6,00000000000|  6,00000000000|  9,00000000000|  8,00000000000|  8,00000000000|  0,00000000000|  2,00000000000| 11,00000000000| 12,00000000000| 12,00000000000| 10,00000000000|  8,00000000000| 11,00000000000|  9,00000000000|  9,00000000000|  3,00000000000
White_Rhino               | 15,00000000000| 15,00000000000| 15,00000000000| 12,00000000000| 12,00000000000| 13,00000000000| 13,00000000000| 14,00000000000| 12,00000000000| 13,00000000000| 14,00000000000| 15,00000000000|  7,00000000000|  9,00000000000|  5,00000000000|  6,00000000000|  6,00000000000|  6,00000000000|  6,00000000000|  9,00000000000|  8,00000000000|  8,00000000000|  2,00000000000|  0,00000000000| 11,00000000000| 12,00000000000| 12,00000000000| 10,00000000000|  8,00000000000| 11,00000000000|  9,00000000000|  9,00000000000|  3,00000000000
Black_Bear                | 10,00000000000| 10,00000000000| 10,00000000000|  7,00000000000|  7,00000000000|  8,00000000000|  8,00000000000|  9,00000000000|  7,00000000000|  8,00000000000|  9,00000000000| 10,00000000000|  8,00000000000|  8,00000000000|  8,00000000000| 11,00000000000| 11,00000000000| 11,00000000000| 11,00000000000|  8,00000000000|  9,00000000000|  9,00000000000| 11,00000000000| 11,00000000000|  0,00000000000|  3,00000000000|  3,00000000000|  3,00000000000|  7,00000000000|  6,00000000000|  6,00000000000|  6,00000000000| 10,00000000000
Brown_Bear                | 11,00000000000| 11,00000000000| 11,00000000000|  8,00000000000|  8,00000000000|  9,00000000000|  9,00000000000| 10,00000000000|  8,00000000000|  9,00000000000| 10,00000000000| 11,00000000000|  9,00000000000|  9,00000000000|  9,00000000000| 12,00000000000| 12,00000000000| 12,00000000000| 12,00000000000|  9,00000000000| 10,00000000000| 10,00000000000| 12,00000000000| 12,00000000000|  3,00000000000|  0,00000000000|  2,00000000000|  4,00000000000|  8,00000000000|  7,00000000000|  7,00000000000|  7,00000000000| 11,00000000000
Polar_Bear                | 11,00000000000| 11,00000000000| 11,00000000000|  8,00000000000|  8,00000000000|  9,00000000000|  9,00000000000| 10,00000000000|  8,00000000000|  9,00000000000| 10,00000000000| 11,00000000000|  9,00000000000|  9,00000000000|  9,00000000000| 12,00000000000| 12,00000000000| 12,00000000000| 12,00000000000|  9,00000000000| 10,00000000000| 10,00000000000| 12,00000000000| 12,00000000000|  3,00000000000|  2,00000000000|  0,00000000000|  4,00000000000|  8,00000000000|  7,00000000000|  7,00000000000|  7,00000000000| 11,00000000000
Giant_Panda               |  9,00000000000|  9,00000000000|  9,00000000000|  6,00000000000|  6,00000000000|  7,00000000000|  7,00000000000|  8,00000000000|  6,00000000000|  7,00000000000|  8,00000000000|  9,00000000000|  7,00000000000|  7,00000000000|  7,00000000000| 10,00000000000| 10,00000000000| 10,00000000000| 10,00000000000|  7,00000000000|  8,00000000000|  8,00000000000| 10,00000000000| 10,00000000000|  3,00000000000|  4,00000000000|  4,00000000000|  0,00000000000|  6,00000000000|  5,00000000000|  5,00000000000|  5,00000000000|  9,00000000000
Rabbit                    | 11,00000000000| 11,00000000000| 11,00000000000|  8,00000000000|  8,00000000000|  9,00000000000|  9,00000000000| 10,00000000000|  8,00000000000|  9,00000000000| 10,00000000000| 11,00000000000|  5,00000000000|  3,00000000000|  5,00000000000|  8,00000000000|  8,00000000000|  8,00000000000|  8,00000000000|  3,00000000000|  6,00000000000|  6,00000000000|  8,00000000000|  8,00000000000|  7,00000000000|  8,00000000000|  8,00000000000|  6,00000000000|  0,00000000000|  7,00000000000|  5,00000000000|  5,00000000000|  7,00000000000
Hedgehog                  |  8,00000000000|  8,00000000000|  8,00000000000|  5,00000000000|  5,00000000000|  6,00000000000|  6,00000000000|  7,00000000000|  3,00000000000|  4,00000000000|  7,00000000000|  8,00000000000|  8,00000000000|  8,00000000000|  8,00000000000| 11,00000000000| 11,00000000000| 11,00000000000| 11,00000000000|  8,00000000000|  9,00000000000|  9,00000000000| 11,00000000000| 11,00000000000|  6,00000000000|  7,00000000000|  7,00000000000|  5,00000000000|  7,00000000000|  0,00000000000|  6,00000000000|  6,00000000000| 10,00000000000
Dormouse                  | 10,00000000000| 10,00000000000| 10,00000000000|  7,00000000000|  7,00000000000|  8,00000000000|  8,00000000000|  9,00000000000|  7,00000000000|  8,00000000000|  9,00000000000| 10,00000000000|  6,00000000000|  6,00000000000|  6,00000000000|  9,00000000000|  9,00000000000|  9,00000000000|  9,00000000000|  6,00000000000|  7,00000000000|  7,00000000000|  9,00000000000|  9,00000000000|  6,00000000000|  7,00000000000|  7,00000000000|  5,00000000000|  5,00000000000|  6,00000000000|  0,00000000000|  2,00000000000|  8,00000000000
Squirrel                  | 10,00000000000| 10,00000000000| 10,00000000000|  7,00000000000|  7,00000000000|  8,00000000000|  8,00000000000|  9,00000000000|  7,00000000000|  8,00000000000|  9,00000000000| 10,00000000000|  6,00000000000|  6,00000000000|  6,00000000000|  9,00000000000|  9,00000000000|  9,00000000000|  9,00000000000|  6,00000000000|  7,00000000000|  7,00000000000|  9,00000000000|  9,00000000000|  6,00000000000|  7,00000000000|  7,00000000000|  5,00000000000|  5,00000000000|  6,00000000000|  2,00000000000|  0,00000000000|  8,00000000000
Blue_Whale                | 14,00000000000| 14,00000000000| 14,00000000000| 11,00000000000| 11,00000000000| 12,00000000000| 12,00000000000| 13,00000000000| 11,00000000000| 12,00000000000| 13,00000000000| 14,00000000000|  6,00000000000|  8,00000000000|  4,00000000000|  5,00000000000|  5,00000000000|  5,00000000000|  5,00000000000|  8,00000000000|  7,00000000000|  7,00000000000|  3,00000000000|  3,00000000000| 10,00000000000| 11,00000000000| 11,00000000000|  9,00000000000|  7,00000000000| 10,00000000000|  8,00000000000|  8,00000000000|  0,00000000000
