                           |Human          |Pig_Chim       |Com_Chim       |Gibbon         |Baboon         |Ver_Monkey     |Macaca_Thibet  |Bor_Oran       |Sum_Oran       |Gorilla        |Cat            |Dog            |Pig            |Sheep          |Goat           |Cow            |Buffalo        |Wolf           |Tiger          |Leopard        |Indian_Rhino   |White_Rhino    |Black_Bear     |Brown_Bear     |Polar_Bear     |Giant_Panda    |Rabbit         |Hedgehog       |Dormouse       |Squirrel       |Blue_Whale     
Human                     |  0,00000000000|  7,78046231219|  7,81165669783|  8,86172074793|  9,26411110800|  9,30899241725|  9,26104038780|  8,74853447239|  8,70748247948|  8,21050266582| 10,44989051199|  9,75094206300|  9,68130913637|  9,72796404136|  9,66149937469|  9,59637697316|  9,65181654409|  9,75667541328| 10,66854208681| 10,44530424313|  9,57755775342|  9,50598813057|  9,98942203141| 12,13010963155| 12,29521261752| 10,54776601640|  9,65084755364| 10,34086313533|  9,95577873798|  9,81044804525|  9,61587770127
Pig_Chim                  |  7,78046231219|  0,00000000000|  6,27728290929|  8,84267574903|  9,24489663367|  9,22279781522|  9,19985291742|  8,67819598250|  8,68294681067|  8,10754814280| 10,37024393044|  9,65399630186|  9,63605445730|  9,66561069093|  9,58807322988|  9,57241671532|  9,56531115514|  9,64600066806| 10,63424505078| 10,41860856978|  9,54837658113|  9,49980606798|  9,94717000361| 12,12757838684| 12,29734569134| 10,49387396170|  9,56506601082| 10,26883199789|  9,86336450586|  9,78479998122|  9,57511009697
Com_Chim                  |  7,81165669783|  6,27728290929|  0,00000000000|  8,88883150156|  9,25233258322|  9,27178193896|  9,24976936939|  8,75185145479|  8,75268043143|  8,13697626155| 10,37927945840|  9,66826972173|  9,68782014129|  9,69191669609|  9,60662139962|  9,57902594888|  9,58953928949|  9,67527526017| 10,64704314939| 10,39797929025|  9,56310455586|  9,49089448083|  9,94064878629| 12,11599861805| 12,28454037075| 10,49908391836|  9,62901111386| 10,29803442127|  9,88991783530|  9,78575148950|  9,58245057743
Gibbon                    |  8,86172074793|  8,84267574903|  8,88883150156|  0,00000000000|  9,26973721683|  9,32853707975|  9,21867855003|  8,93949725306|  8,90045456959|  8,88016832714| 10,45621965923|  9,74448672232|  9,75165897502|  9,78955630381|  9,72292803877|  9,66077360793|  9,66681946127|  9,75691420642| 10,67682878177| 10,49300531107|  9,62974005209|  9,50401045268| 10,01553807656| 12,18005793606| 12,33902648107| 10,59079723829|  9,71860872158| 10,46864530768| 10,05305369233|  9,90468132249|  9,69095300682
Baboon                    |  9,26411110800|  9,24489663367|  9,25233258322|  9,26973721683|  0,00000000000|  8,80715718174|  8,70553425225|  9,20140218392|  9,25771223136|  9,26257591869| 10,41751259783|  9,66222506931|  9,67213567651|  9,71404668968|  9,64454597342|  9,60393973609|  9,62244737683|  9,66440172052| 10,65109176167| 10,47757129224|  9,52450230731|  9,50005345327|  9,94879943221| 12,12016167913| 12,28151448017| 10,51556015430|  9,61855495365| 10,31847893328|  9,97157480165|  9,79359678485|  9,55181580674
Ver_Monkey                |  9,30899241725|  9,22279781522|  9,27178193896|  9,32853707975|  8,80715718174|  0,00000000000|  8,80085273149|  9,31432822814|  9,26743618082|  9,25156371919| 10,46799180100|  9,71380650433|  9,64042275992|  9,73179868621|  9,61952825514|  9,64309098819|  9,63435496440|  9,73036092823| 10,72046324023| 10,53135472771|  9,53632630962|  9,56212362803|  9,96623568726| 12,12414207646| 12,29787888824| 10,52335307876|  9,67261877713| 10,34749982303|  9,98340036702|  9,84851955140|  9,62658079155
Macaca_Thibet             |  9,26104038780|  9,19985291742|  9,24976936939|  9,21867855003|  8,70553425225|  8,80085273149|  0,00000000000|  9,25489484400|  9,23385610662|  9,24951299555| 10,37971995542|  9,71020278209|  9,61027661482|  9,72484692205|  9,67841349675|  9,62512220787|  9,64939382641|  9,69793688618| 10,68531938673| 10,49734763682|  9,51611515009|  9,45463827230|  9,97134274413| 12,09533803298| 12,26369640768| 10,50754299145|  9,61490390995| 10,32136359768|  9,91520900518|  9,79787254851|  9,55967072365
Bor_Oran                  |  8,74853447239|  8,67819598250|  8,75185145479|  8,93949725306|  9,20140218392|  9,31432822814|  9,25489484400|  0,00000000000|  7,19190525724|  8,80934858915| 10,48453109959|  9,81826735859|  9,74496508924|  9,81352936020|  9,74305143555|  9,68902524807|  9,70755892892|  9,82962629116| 10,73481693228| 10,55983752435|  9,62269058401|  9,59515643223| 10,04570311191| 12,19587289328| 12,36765852705| 10,62933386064|  9,70034357952| 10,57296665291| 10,11707411597|  9,93435515147|  9,69601096295
Sum_Oran                  |  8,70748247948|  8,68294681067|  8,75268043143|  8,90045456959|  9,25771223136|  9,26743618082|  9,23385610662|  7,19190525724|  0,00000000000|  8,82248142585| 10,50775977527|  9,82489550343|  9,74831279034|  9,79977209901|  9,69962165439|  9,67889618292|  9,65738574180|  9,81992494699| 10,75125122304| 10,54150769878|  9,62998301526|  9,59906143872| 10,09678220766| 12,22527856387| 12,38969528279| 10,65002652911|  9,73898327339| 10,55488173575| 10,12913287938|  9,98015596109|  9,68492707594
Gorilla                   |  8,21050266582|  8,10754814280|  8,13697626155|  8,88016832714|  9,26257591869|  9,25156371919|  9,24951299555|  8,80934858915|  8,82248142585|  0,00000000000| 10,42693308989|  9,66536891286|  9,70587598140|  9,70683771291|  9,59881743754|  9,58391777831|  9,63823893639|  9,66561069093| 10,64149973529| 10,43437406886|  9,52672079392|  9,49906386067|  9,93458834233| 12,08844141960| 12,26565796472| 10,49170216112|  9,60174490900| 10,32158545164|  9,88123370618|  9,75428705766|  9,60198881153
Cat                       | 10,44989051199| 10,37024393044| 10,37927945840| 10,45621965923| 10,41751259783| 10,46799180100| 10,37971995542| 10,48453109959| 10,50775977527| 10,42693308989|  0,00000000000| 10,05718530858| 10,14503091753| 10,25049761173| 10,17017431037| 10,15455417361| 10,16632877297| 10,01392285793|  8,56308443180|  8,33773620253| 10,12617680283| 10,06177339344| 10,26860866386| 12,40658669121| 12,56583371844| 10,77185391611| 10,27262771175| 10,71835032389| 10,42518127347| 10,29892440804| 10,16316043660
Dog                       |  9,75094206300|  9,65399630186|  9,66826972173|  9,74448672232|  9,66222506931|  9,71380650433|  9,71020278209|  9,81826735859|  9,82489550343|  9,66536891286| 10,05718530858|  0,00000000000|  9,42219866949|  9,42944809771|  9,37627948452|  9,32929745058|  9,40466930828|  5,75600126195| 10,39072452721| 10,11548004717|  9,37502064283|  9,29652622737|  9,47874689157| 11,77792974115| 11,96511051342|  9,95810374838|  9,43519236168|  9,83411776553|  9,53361836406|  9,49361864711|  9,46434126430
Pig                       |  9,68130913637|  9,63605445730|  9,68782014129|  9,75165897502|  9,67213567651|  9,64042275992|  9,61027661482|  9,74496508924|  9,74831279034|  9,70587598140| 10,14503091753|  9,42219866949|  0,00000000000|  9,29881761503|  9,20140218392|  9,20424159487|  9,22279781522|  9,39965290080| 10,47212978742| 10,23772783396|  9,16671788185|  9,16048708592|  9,71740846117| 11,93140028339| 12,10404256670| 10,21774755384|  9,52721369768|  9,95019580685|  9,72316792653|  9,56089728030|  9,29448880260
Sheep                     |  9,72796404136|  9,66561069093|  9,69191669609|  9,78955630381|  9,71404668968|  9,73179868621|  9,72484692205|  9,81352936020|  9,79977209901|  9,70683771291| 10,25049761173|  9,42944809771|  9,29881761503|  0,00000000000|  8,13391783200|  8,73136921552|  8,76592946547|  9,45364234308| 10,51599328992| 10,25788120264|  9,31432822814|  9,34448748096|  9,76216570624| 11,99815308306| 12,15213992286| 10,24937828292|  9,50574095078|  9,93715296797|  9,63726813776|  9,59393568534|  9,31965994752
Goat                      |  9,66149937469|  9,58807322988|  9,60662139962|  9,72292803877|  9,64454597342|  9,61952825514|  9,67841349675|  9,74305143555|  9,69962165439|  9,59881743754| 10,17017431037|  9,37627948452|  9,20140218392|  8,13391783200|  0,00000000000|  8,58497190284|  8,66952349687|  9,38759891088| 10,44355640855| 10,19884303865|  9,24951299555|  9,22974347336|  9,66464353062| 11,88775087512| 12,04951092509| 10,17944105988|  9,44766382848|  9,83080851994|  9,52030995692|  9,47105096328|  9,22511381552
Cow                       |  9,59637697316|  9,57241671532|  9,57902594888|  9,66077360793|  9,60393973609|  9,64309098819|  9,62512220787|  9,68902524807|  9,67889618292|  9,58391777831| 10,15455417361|  9,32929745058|  9,20424159487|  8,73136921552|  8,58497190284|  0,00000000000|  8,36515398853|  9,33183142099| 10,43546775211| 10,23369096923|  9,23642525316|  9,17916239132|  9,63435496440| 11,90349506641| 12,04641160651| 10,11502453875|  9,38106102420|  9,84946296312|  9,54739364292|  9,45538512746|  9,20269297135
Buffalo                   |  9,65181654409|  9,56531115514|  9,58953928949|  9,66681946127|  9,62244737683|  9,63435496440|  9,64939382641|  9,70755892892|  9,65738574180|  9,63823893639| 10,16632877297|  9,40466930828|  9,22279781522|  8,76592946547|  8,66952349687|  8,36515398853|  0,00000000000|  9,41644382637| 10,45731039144| 10,19704022998|  9,22871493022|  9,25079476936|  9,67672384434| 11,92826270236| 12,07899601727| 10,23795204356|  9,43993410740|  9,91964962418|  9,58709569156|  9,51364646744|  9,23616838171
Wolf                      |  9,75667541328|  9,64600066806|  9,67527526017|  9,75691420642|  9,66440172052|  9,73036092823|  9,69793688618|  9,82962629116|  9,81992494699|  9,66561069093| 10,01392285793|  5,75600126195|  9,39965290080|  9,45364234308|  9,38759891088|  9,33183142099|  9,41644382637|  0,00000000000| 10,37729692227| 10,09723879021|  9,37376157517|  9,31178787667|  9,50425769236| 11,78392913479| 11,96621376376|  9,96786103183|  9,43319488602|  9,83718932483|  9,54542736306|  9,47949121727|  9,45662971137
Tiger                     | 10,66854208681| 10,63424505078| 10,64704314939| 10,67682878177| 10,65109176167| 10,72046324023| 10,68531938673| 10,73481693228| 10,75125122304| 10,64149973529|  8,56308443180| 10,39072452721| 10,47212978742| 10,51599328992| 10,44355640855| 10,43546775211| 10,45731039144| 10,37729692227|  0,00000000000|  8,02988403446| 10,44574114273| 10,39402295901| 10,60987395888| 12,64324439306| 12,79549691257| 11,04866404456| 10,56629709811| 10,97024921786| 10,70798930239| 10,61308479375| 10,45861907616
Leopard                   | 10,44530424313| 10,41860856978| 10,39797929025| 10,49300531107| 10,47757129224| 10,53135472771| 10,49734763682| 10,55983752435| 10,54150769878| 10,43437406886|  8,33773620253| 10,11548004717| 10,23772783396| 10,25788120264| 10,19884303865| 10,23369096923| 10,19704022998| 10,09723879021|  8,02988403446|  0,00000000000| 10,18124792577| 10,14412333303| 10,36495010790| 12,42888907234| 12,59676471922| 10,76954388408| 10,33599272081| 10,76450161002| 10,47561277087| 10,36892080290| 10,22314049471
Indian_Rhino              |  9,57755775342|  9,54837658113|  9,56310455586|  9,62974005209|  9,52450230731|  9,53632630962|  9,51611515009|  9,62269058401|  9,62998301526|  9,52672079392| 10,12617680283|  9,37502064283|  9,16671788185|  9,31432822814|  9,24951299555|  9,23642525316|  9,22871493022|  9,37376157517| 10,44574114273| 10,18124792577|  0,00000000000|  8,22075890531|  9,68420363102| 11,92604731962| 12,09987261512| 10,24915439810|  9,48172372752| 10,03029001629|  9,64139313789|  9,53411079384|  9,28480284730
White_Rhino               |  9,50598813057|  9,49980606798|  9,49089448083|  9,50401045268|  9,50005345327|  9,56212362803|  9,45463827230|  9,59515643223|  9,59906143872|  9,49906386067| 10,06177339344|  9,29652622737|  9,16048708592|  9,34448748096|  9,22974347336|  9,17916239132|  9,25079476936|  9,31178787667| 10,39402295901| 10,14412333303|  8,22075890531|  0,00000000000|  9,64600066806| 11,87105214463| 12,04622926277| 10,23369096923|  9,45140099086| 10,04179525478|  9,67503380159|  9,57339624320|  9,20166036089
Black_Bear                |  9,98942203141|  9,94717000361|  9,94064878629| 10,01553807656|  9,94879943221|  9,96623568726|  9,97134274413| 10,04570311191| 10,09678220766|  9,93458834233| 10,26860866386|  9,47874689157|  9,71740846117|  9,76216570624|  9,66464353062|  9,63435496440|  9,67672384434|  9,50425769236| 10,60987395888| 10,36495010790|  9,68420363102|  9,64600066806|  0,00000000000| 10,78884465428| 11,00259980748|  9,82110871320|  9,74998607210| 10,15296777256|  9,87841507743|  9,75357040051|  9,72124860551
Brown_Bear                | 12,13010963155| 12,12757838684| 12,11599861805| 12,18005793606| 12,12016167913| 12,12414207646| 12,09533803298| 12,19587289328| 12,22527856387| 12,08844141960| 12,40658669121| 11,77792974115| 11,93140028339| 11,99815308306| 11,88775087512| 11,90349506641| 11,92826270236| 11,78392913479| 12,64324439306| 12,42888907234| 11,92604731962| 11,87105214463| 10,78884465428|  0,00000000000|  5,35872784625|  9,93598733668| 11,94633582919| 12,28454037075| 12,07172407135| 11,99961901258| 11,93656582273
Polar_Bear                | 12,29521261752| 12,29734569134| 12,28454037075| 12,33902648107| 12,28151448017| 12,29787888824| 12,26369640768| 12,36765852705| 12,38969528279| 12,26565796472| 12,56583371844| 11,96511051342| 12,10404256670| 12,15213992286| 12,04951092509| 12,04641160651| 12,07899601727| 11,96621376376| 12,79549691257| 12,59676471922| 12,09987261512| 12,04622926277| 11,00259980748|  5,35872784625|  0,00000000000| 10,06635874632| 12,12396118452| 12,45429216859| 12,23708784531| 12,15358280058| 12,09461230379
Giant_Panda               | 10,54776601640| 10,49387396170| 10,49908391836| 10,59079723829| 10,51556015430| 10,52335307876| 10,50754299145| 10,62933386064| 10,65002652911| 10,49170216112| 10,77185391611|  9,95810374838| 10,21774755384| 10,24937828292| 10,17944105988| 10,11502453875| 10,23795204356|  9,96786103183| 11,04866404456| 10,76954388408| 10,24915439810| 10,23369096923|  9,82110871320|  9,93598733668| 10,06635874632|  0,00000000000| 10,24400329224| 10,46733824163| 10,31892279587| 10,22426355850| 10,21010121129
Rabbit                    |  9,65084755364|  9,56506601082|  9,62901111386|  9,71860872158|  9,61855495365|  9,67261877713|  9,61490390995|  9,70034357952|  9,73898327339|  9,60174490900| 10,27262771175|  9,43519236168|  9,52721369768|  9,50574095078|  9,44766382848|  9,38106102420|  9,43993410740|  9,43319488602| 10,56629709811| 10,33599272081|  9,48172372752|  9,45140099086|  9,74998607210| 11,94633582919| 12,12396118452| 10,24400329224|  0,00000000000|  9,88475550718|  9,48643450762|  9,42194855645|  9,50104290872
Hedgehog                  | 10,34086313533| 10,26883199789| 10,29803442127| 10,46864530768| 10,31847893328| 10,34749982303| 10,32136359768| 10,57296665291| 10,55488173575| 10,32158545164| 10,71835032389|  9,83411776553|  9,95019580685|  9,93715296797|  9,83080851994|  9,84946296312|  9,91964962418|  9,83718932483| 10,97024921786| 10,76450161002| 10,03029001629| 10,04179525478| 10,15296777256| 12,28454037075| 12,45429216859| 10,46733824163|  9,88475550718|  0,00000000000|  9,61709475663|  9,67044457290| 10,06590033383
Dormouse                  |  9,95577873798|  9,86336450586|  9,88991783530| 10,05305369233|  9,97157480165|  9,98340036702|  9,91520900518| 10,11707411597| 10,12913287938|  9,88123370618| 10,42518127347|  9,53361836406|  9,72316792653|  9,63726813776|  9,52030995692|  9,54739364292|  9,58709569156|  9,54542736306| 10,70798930239| 10,47561277087|  9,64139313789|  9,67503380159|  9,87841507743| 12,07172407135| 12,23708784531| 10,31892279587|  9,48643450762|  9,61709475663|  0,00000000000|  9,43444337441|  9,75500364535
Squirrel                  |  9,81044804525|  9,78479998122|  9,78575148950|  9,90468132249|  9,79359678485|  9,84851955140|  9,79787254851|  9,93435515147|  9,98015596109|  9,75428705766| 10,29892440804|  9,49361864711|  9,56089728030|  9,59393568534|  9,47105096328|  9,45538512746|  9,51364646744|  9,47949121727| 10,61308479375| 10,36892080290|  9,53411079384|  9,57339624320|  9,75357040051| 11,99961901258| 12,15358280058| 10,22426355850|  9,42194855645|  9,67044457290|  9,43444337441|  0,00000000000|  9,59002790995
Blue_Whale                |  9,61587770127|  9,57511009697|  9,58245057743|  9,69095300682|  9,55181580674|  9,62658079155|  9,55967072365|  9,69601096295|  9,68492707594|  9,60198881153| 10,16316043660|  9,46434126430|  9,29448880260|  9,31965994752|  9,22511381552|  9,20269297135|  9,23616838171|  9,45662971137| 10,45861907616| 10,22314049471|  9,28480284730|  9,20166036089|  9,72124860551| 11,93656582273| 12,09461230379| 10,21010121129|  9,50104290872| 10,06590033383|  9,75500364535|  9,59002790995|  0,00000000000
