                           |Human          |Hum_shortened  |Pig_Chim       |Com_Chim       |Gibbon         |Baboon         |Ver_Monkey     |Macaca_Thibet  |Bor_Oran       |Sum_Oran       |Gorilla        |Cat            |Dog            |Pig            |Sheep          |Goat           |Cow            |Buffalo        |Wolf           |Tiger          |Leopard        |Indian_Rhino   |White_Rhino    |Black_Bear     |Brown_Bear     |Polar_Bear     |Giant_Panda    |Rabbit         |Hedgehog       |Dormouse       |Squirrel       |Blue_Whale     
Human                     |  0,00000000000|28968128,84819500000|4788697,31103871300|4788697,31103871300|6045218,07417743600|4788697,31103871300|4788697,31103871300|4788697,31103871300|6045218,07417743600|6045218,07417743600|4788697,31103871300|15267053,30117203500|15267053,30117203300|15267053,30117203500|15267053,30117203500|15267053,30117203500|15267053,30117203500|15267053,30117203500|15267053,30117203300|15267053,30117203500|15267053,30117203500|15267053,30117203500|15267053,30117203500|15267053,30117203300|15267053,30117203300|15267053,30117203300|15267053,30117203700|15267053,30117203300|22688677,63760829700|15267053,30117203700|15267053,30117203700|15267053,30117203500
Hum_shortened             |28968128,84819500000|  0,00000000000|28968128,84819500000|28968128,84819500000|28968128,84819500000|28968128,84819500000|28968128,84819500000|28968128,84819500000|28968128,84819500000|28968128,84819500000|28968128,84819500000|28968128,84819500000|28968128,84819499800|28968128,84819500000|28968128,84819500000|28968128,84819500000|28968128,84819500000|28968128,84819500000|28968128,84819499800|28968128,84819500000|28968128,84819500000|28968128,84819499800|28968128,84819499800|28968128,84819499800|28968128,84819499800|28968128,84819499800|28968128,84819499800|28968128,84819499800|28968128,84819499800|28968128,84819499800|28968128,84819499800|28968128,84819499800
Pig_Chim                  |4788697,31103871300|28968128,84819500000|  0,00000000000|1632900,53464423960|6045218,07417743500|3880521,04173797280|3880521,04173797280|3880521,04173797280|6045218,07417743500|6045218,07417743500|2531212,93051702580|15267053,30117203500|15267053,30117203300|15267053,30117203500|15267053,30117203500|15267053,30117203500|15267053,30117203500|15267053,30117203500|15267053,30117203300|15267053,30117203500|15267053,30117203500|15267053,30117203500|15267053,30117203500|15267053,30117203300|15267053,30117203300|15267053,30117203300|15267053,30117203700|15267053,30117203300|22688677,63760829700|15267053,30117203700|15267053,30117203700|15267053,30117203500
Com_Chim                  |4788697,31103871300|28968128,84819500000|1632900,53464423960|  0,00000000000|6045218,07417743500|3880521,04173797280|3880521,04173797280|3880521,04173797280|6045218,07417743500|6045218,07417743500|2531212,93051702580|15267053,30117203500|15267053,30117203300|15267053,30117203500|15267053,30117203500|15267053,30117203500|15267053,30117203500|15267053,30117203500|15267053,30117203300|15267053,30117203500|15267053,30117203500|15267053,30117203500|15267053,30117203500|15267053,30117203300|15267053,30117203300|15267053,30117203300|15267053,30117203700|15267053,30117203300|22688677,63760829700|15267053,30117203700|15267053,30117203700|15267053,30117203500
Gibbon                    |6045218,07417743600|28968128,84819500000|6045218,07417743500|6045218,07417743500|  0,00000000000|6045218,07417743600|6045218,07417743600|6045218,07417743600|5485682,43590545800|5485682,43590545800|6045218,07417743500|15267053,30117203500|15267053,30117203300|15267053,30117203500|15267053,30117203500|15267053,30117203500|15267053,30117203500|15267053,30117203500|15267053,30117203300|15267053,30117203500|15267053,30117203500|15267053,30117203500|15267053,30117203500|15267053,30117203300|15267053,30117203300|15267053,30117203300|15267053,30117203700|15267053,30117203300|22688677,63760829700|15267053,30117203700|15267053,30117203700|15267053,30117203500
Baboon                    |4788697,31103871300|28968128,84819500000|3880521,04173797280|3880521,04173797280|6045218,07417743600|  0,00000000000|3475568,86609302930|3475568,86609302930|6045218,07417743600|6045218,07417743600|3880521,04173797280|15267053,30117203500|15267053,30117203300|15267053,30117203500|15267053,30117203500|15267053,30117203500|15267053,30117203500|15267053,30117203500|15267053,30117203300|15267053,30117203500|15267053,30117203500|15267053,30117203500|15267053,30117203500|15267053,30117203300|15267053,30117203300|15267053,30117203300|15267053,30117203700|15267053,30117203300|22688677,63760829700|15267053,30117203700|15267053,30117203700|15267053,30117203500
Ver_Monkey                |4788697,31103871300|28968128,84819500000|3880521,04173797280|3880521,04173797280|6045218,07417743600|3475568,86609302930|  0,00000000000|2250884,90547699500|6045218,07417743600|6045218,07417743600|3880521,04173797280|15267053,30117203500|15267053,30117203300|15267053,30117203500|15267053,30117203500|15267053,30117203500|15267053,30117203500|15267053,30117203500|15267053,30117203300|15267053,30117203500|15267053,30117203500|15267053,30117203500|15267053,30117203500|15267053,30117203300|15267053,30117203300|15267053,30117203300|15267053,30117203700|15267053,30117203300|22688677,63760829700|15267053,30117203700|15267053,30117203700|15267053,30117203500
Macaca_Thibet             |4788697,31103871300|28968128,84819500000|3880521,04173797280|3880521,04173797280|6045218,07417743600|3475568,86609302930|2250884,90547699500|  0,00000000000|6045218,07417743600|6045218,07417743600|3880521,04173797280|15267053,30117203500|15267053,30117203300|15267053,30117203500|15267053,30117203500|15267053,30117203500|15267053,30117203500|15267053,30117203500|15267053,30117203300|15267053,30117203500|15267053,30117203500|15267053,30117203500|15267053,30117203500|15267053,30117203300|15267053,30117203300|15267053,30117203300|15267053,30117203700|15267053,30117203300|22688677,63760829700|15267053,30117203700|15267053,30117203700|15267053,30117203500
Bor_Oran                  |6045218,07417743600|28968128,84819500000|6045218,07417743500|6045218,07417743500|5485682,43590545800|6045218,07417743600|6045218,07417743600|6045218,07417743600|  0,00000000000|1960154,64426595250|6045218,07417743500|15267053,30117203500|15267053,30117203300|15267053,30117203500|15267053,30117203500|15267053,30117203500|15267053,30117203500|15267053,30117203500|15267053,30117203300|15267053,30117203500|15267053,30117203500|15267053,30117203500|15267053,30117203500|15267053,30117203300|15267053,30117203300|15267053,30117203300|15267053,30117203700|15267053,30117203300|22688677,63760829700|15267053,30117203700|15267053,30117203700|15267053,30117203500
Sum_Oran                  |6045218,07417743600|28968128,84819500000|6045218,07417743500|6045218,07417743500|5485682,43590545800|6045218,07417743600|6045218,07417743600|6045218,07417743600|1960154,64426595250|  0,00000000000|6045218,07417743500|15267053,30117203500|15267053,30117203300|15267053,30117203500|15267053,30117203500|15267053,30117203500|15267053,30117203500|15267053,30117203500|15267053,30117203300|15267053,30117203500|15267053,30117203500|15267053,30117203500|15267053,30117203500|15267053,30117203300|15267053,30117203300|15267053,30117203300|15267053,30117203700|15267053,30117203300|22688677,63760829700|15267053,30117203700|15267053,30117203700|15267053,30117203500
Gorilla                   |4788697,31103871300|28968128,84819500000|2531212,93051702580|2531212,93051702580|6045218,07417743500|3880521,04173797280|3880521,04173797280|3880521,04173797280|6045218,07417743500|6045218,07417743500|  0,00000000000|15267053,30117203500|15267053,30117203300|15267053,30117203500|15267053,30117203500|15267053,30117203500|15267053,30117203500|15267053,30117203500|15267053,30117203300|15267053,30117203500|15267053,30117203500|15267053,30117203500|15267053,30117203500|15267053,30117203300|15267053,30117203300|15267053,30117203300|15267053,30117203700|15267053,30117203300|22688677,63760829700|15267053,30117203700|15267053,30117203700|15267053,30117203500
Cat                       |15267053,30117203500|28968128,84819500000|15267053,30117203500|15267053,30117203500|15267053,30117203500|15267053,30117203500|15267053,30117203500|15267053,30117203500|15267053,30117203500|15267053,30117203500|15267053,30117203500|  0,00000000000|9786965,56601777900|9894183,40711621600|4760282,83926164400|4760282,83926164400|4760282,83926164400|4760282,83926164400|9786965,56601777900|4333972,82628841600|4333972,82628841600|9478356,70934578400|9478356,70934578400|9786965,56601777900|9786965,56601777900|9786965,56601777900|11399835,64716833300|9786965,56601777900|22688677,63760829700|14565647,07423182000|14565647,07423182000|9478356,70934578400
Dog                       |15267053,30117203300|28968128,84819499800|15267053,30117203300|15267053,30117203300|15267053,30117203300|15267053,30117203300|15267053,30117203300|15267053,30117203300|15267053,30117203300|15267053,30117203300|15267053,30117203300|9786965,56601777900|  0,00000000000|9894183,40711621600|9786965,56601777900|9786965,56601777900|9786965,56601777900|9786965,56601777900|1065804,15474928100|9786965,56601777900|9786965,56601777900|9786965,56601777900|9786965,56601777900|8471035,69265653800|8471035,69265653800|8471035,69265653800|11399835,64716833300|6108154,62101751200|22688677,63760829700|14565647,07423181800|14565647,07423181800|9786965,56601777900
Pig                       |15267053,30117203500|28968128,84819500000|15267053,30117203500|15267053,30117203500|15267053,30117203500|15267053,30117203500|15267053,30117203500|15267053,30117203500|15267053,30117203500|15267053,30117203500|15267053,30117203500|9894183,40711621600|9894183,40711621600|  0,00000000000|9894183,40711621600|9894183,40711621600|9894183,40711621600|9894183,40711621600|9894183,40711621600|9894183,40711621600|9894183,40711621600|9894183,40711621600|9894183,40711621600|9894183,40711621600|9894183,40711621600|9894183,40711621600|11399835,64716833300|9894183,40711621600|22688677,63760829700|14565647,07423182000|14565647,07423182000|9894183,40711621600
Sheep                     |15267053,30117203500|28968128,84819500000|15267053,30117203500|15267053,30117203500|15267053,30117203500|15267053,30117203500|15267053,30117203500|15267053,30117203500|15267053,30117203500|15267053,30117203500|15267053,30117203500|4760282,83926164400|9786965,56601777900|9894183,40711621600|  0,00000000000|786007,37388315040|3493547,71703929700|3951614,07011577350|9786965,56601777900|4760282,83926164400|4760282,83926164400|9478356,70934578400|9478356,70934578400|9786965,56601777900|9786965,56601777900|9786965,56601777900|11399835,64716833300|9786965,56601777900|22688677,63760829700|14565647,07423182000|14565647,07423182000|9478356,70934578400
Goat                      |15267053,30117203500|28968128,84819500000|15267053,30117203500|15267053,30117203500|15267053,30117203500|15267053,30117203500|15267053,30117203500|15267053,30117203500|15267053,30117203500|15267053,30117203500|15267053,30117203500|4760282,83926164400|9786965,56601777900|9894183,40711621600|786007,37388315040|  0,00000000000|3493547,71703929700|3951614,07011577350|9786965,56601777900|4760282,83926164400|4760282,83926164400|9478356,70934578400|9478356,70934578400|9786965,56601777900|9786965,56601777900|9786965,56601777900|11399835,64716833300|9786965,56601777900|22688677,63760829700|14565647,07423182000|14565647,07423182000|9478356,70934578400
Cow                       |15267053,30117203500|28968128,84819500000|15267053,30117203500|15267053,30117203500|15267053,30117203500|15267053,30117203500|15267053,30117203500|15267053,30117203500|15267053,30117203500|15267053,30117203500|15267053,30117203500|4760282,83926164400|9786965,56601777900|9894183,40711621600|3493547,71703929700|3493547,71703929700|  0,00000000000|3951614,07011577350|9786965,56601777900|4760282,83926164400|4760282,83926164400|9478356,70934578400|9478356,70934578400|9786965,56601777900|9786965,56601777900|9786965,56601777900|11399835,64716833300|9786965,56601777900|22688677,63760829700|14565647,07423182000|14565647,07423182000|9478356,70934578400
Buffalo                   |15267053,30117203500|28968128,84819500000|15267053,30117203500|15267053,30117203500|15267053,30117203500|15267053,30117203500|15267053,30117203500|15267053,30117203500|15267053,30117203500|15267053,30117203500|15267053,30117203500|4760282,83926164400|9786965,56601777900|9894183,40711621600|3951614,07011577350|3951614,07011577350|3951614,07011577350|  0,00000000000|9786965,56601777900|4760282,83926164400|4760282,83926164400|9478356,70934578400|9478356,70934578400|9786965,56601777900|9786965,56601777900|9786965,56601777900|11399835,64716833300|9786965,56601777900|22688677,63760829700|14565647,07423182000|14565647,07423182000|9478356,70934578400
Wolf                      |15267053,30117203300|28968128,84819499800|15267053,30117203300|15267053,30117203300|15267053,30117203300|15267053,30117203300|15267053,30117203300|15267053,30117203300|15267053,30117203300|15267053,30117203300|15267053,30117203300|9786965,56601777900|1065804,15474928100|9894183,40711621600|9786965,56601777900|9786965,56601777900|9786965,56601777900|9786965,56601777900|  0,00000000000|9786965,56601777900|9786965,56601777900|9786965,56601777900|9786965,56601777900|8471035,69265653800|8471035,69265653800|8471035,69265653800|11399835,64716833300|6108154,62101751200|22688677,63760829700|14565647,07423181800|14565647,07423181800|9786965,56601777900
Tiger                     |15267053,30117203500|28968128,84819500000|15267053,30117203500|15267053,30117203500|15267053,30117203500|15267053,30117203500|15267053,30117203500|15267053,30117203500|15267053,30117203500|15267053,30117203500|15267053,30117203500|4333972,82628841600|9786965,56601777900|9894183,40711621600|4760282,83926164400|4760282,83926164400|4760282,83926164400|4760282,83926164400|9786965,56601777900|  0,00000000000|922576,17766438120|9478356,70934578400|9478356,70934578400|9786965,56601777900|9786965,56601777900|9786965,56601777900|11399835,64716833300|9786965,56601777900|22688677,63760829700|14565647,07423182000|14565647,07423182000|9478356,70934578400
Leopard                   |15267053,30117203500|28968128,84819500000|15267053,30117203500|15267053,30117203500|15267053,30117203500|15267053,30117203500|15267053,30117203500|15267053,30117203500|15267053,30117203500|15267053,30117203500|15267053,30117203500|4333972,82628841600|9786965,56601777900|9894183,40711621600|4760282,83926164400|4760282,83926164400|4760282,83926164400|4760282,83926164400|9786965,56601777900|922576,17766438120|  0,00000000000|9478356,70934578400|9478356,70934578400|9786965,56601777900|9786965,56601777900|9786965,56601777900|11399835,64716833300|9786965,56601777900|22688677,63760829700|14565647,07423182000|14565647,07423182000|9478356,70934578400
Indian_Rhino              |15267053,30117203500|28968128,84819499800|15267053,30117203500|15267053,30117203500|15267053,30117203500|15267053,30117203500|15267053,30117203500|15267053,30117203500|15267053,30117203500|15267053,30117203500|15267053,30117203500|9478356,70934578400|9786965,56601777900|9894183,40711621600|9478356,70934578400|9478356,70934578400|9478356,70934578400|9478356,70934578400|9786965,56601777900|9478356,70934578400|9478356,70934578400|  0,00000000000|4229556,30050123400|9786965,56601777900|9786965,56601777900|9786965,56601777900|11399835,64716833300|9786965,56601777900|22688677,63760829700|14565647,07423182000|14565647,07423182000|4391230,53934495400
White_Rhino               |15267053,30117203500|28968128,84819499800|15267053,30117203500|15267053,30117203500|15267053,30117203500|15267053,30117203500|15267053,30117203500|15267053,30117203500|15267053,30117203500|15267053,30117203500|15267053,30117203500|9478356,70934578400|9786965,56601777900|9894183,40711621600|9478356,70934578400|9478356,70934578400|9478356,70934578400|9478356,70934578400|9786965,56601777900|9478356,70934578400|9478356,70934578400|4229556,30050123400|  0,00000000000|9786965,56601777900|9786965,56601777900|9786965,56601777900|11399835,64716833300|9786965,56601777900|22688677,63760829700|14565647,07423182000|14565647,07423182000|4391230,53934495400
Black_Bear                |15267053,30117203300|28968128,84819499800|15267053,30117203300|15267053,30117203300|15267053,30117203300|15267053,30117203300|15267053,30117203300|15267053,30117203300|15267053,30117203300|15267053,30117203300|15267053,30117203300|9786965,56601777900|8471035,69265653800|9894183,40711621600|9786965,56601777900|9786965,56601777900|9786965,56601777900|9786965,56601777900|8471035,69265653800|9786965,56601777900|9786965,56601777900|9786965,56601777900|9786965,56601777900|  0,00000000000|2680134,61776528130|2680134,61776528130|11399835,64716833300|8471035,69265653800|22688677,63760829700|14565647,07423181800|14565647,07423181800|9786965,56601777900
Brown_Bear                |15267053,30117203300|28968128,84819499800|15267053,30117203300|15267053,30117203300|15267053,30117203300|15267053,30117203300|15267053,30117203300|15267053,30117203300|15267053,30117203300|15267053,30117203300|15267053,30117203300|9786965,56601777900|8471035,69265653800|9894183,40711621600|9786965,56601777900|9786965,56601777900|9786965,56601777900|9786965,56601777900|8471035,69265653800|9786965,56601777900|9786965,56601777900|9786965,56601777900|9786965,56601777900|2680134,61776528130|  0,00000000000|747925,09248952160|11399835,64716833300|8471035,69265653800|22688677,63760829700|14565647,07423181800|14565647,07423181800|9786965,56601777900
Polar_Bear                |15267053,30117203300|28968128,84819499800|15267053,30117203300|15267053,30117203300|15267053,30117203300|15267053,30117203300|15267053,30117203300|15267053,30117203300|15267053,30117203300|15267053,30117203300|15267053,30117203300|9786965,56601777900|8471035,69265653800|9894183,40711621600|9786965,56601777900|9786965,56601777900|9786965,56601777900|9786965,56601777900|8471035,69265653800|9786965,56601777900|9786965,56601777900|9786965,56601777900|9786965,56601777900|2680134,61776528130|747925,09248952160|  0,00000000000|11399835,64716833300|8471035,69265653800|22688677,63760829700|14565647,07423181800|14565647,07423181800|9786965,56601777900
Giant_Panda               |15267053,30117203700|28968128,84819499800|15267053,30117203700|15267053,30117203700|15267053,30117203700|15267053,30117203700|15267053,30117203700|15267053,30117203700|15267053,30117203700|15267053,30117203700|15267053,30117203700|11399835,64716833300|11399835,64716833300|11399835,64716833300|11399835,64716833300|11399835,64716833300|11399835,64716833300|11399835,64716833300|11399835,64716833300|11399835,64716833300|11399835,64716833300|11399835,64716833300|11399835,64716833300|11399835,64716833300|11399835,64716833300|11399835,64716833300|  0,00000000000|11399835,64716833300|22688677,63760829700|14565647,07423181800|14565647,07423181800|11399835,64716833300
Rabbit                    |15267053,30117203300|28968128,84819499800|15267053,30117203300|15267053,30117203300|15267053,30117203300|15267053,30117203300|15267053,30117203300|15267053,30117203300|15267053,30117203300|15267053,30117203300|15267053,30117203300|9786965,56601777900|6108154,62101751200|9894183,40711621600|9786965,56601777900|9786965,56601777900|9786965,56601777900|9786965,56601777900|6108154,62101751200|9786965,56601777900|9786965,56601777900|9786965,56601777900|9786965,56601777900|8471035,69265653800|8471035,69265653800|8471035,69265653800|11399835,64716833300|  0,00000000000|22688677,63760829700|14565647,07423181800|14565647,07423181800|9786965,56601777900
Hedgehog                  |22688677,63760829700|28968128,84819499800|22688677,63760829700|22688677,63760829700|22688677,63760829700|22688677,63760829700|22688677,63760829700|22688677,63760829700|22688677,63760829700|22688677,63760829700|22688677,63760829700|22688677,63760829700|22688677,63760829700|22688677,63760829700|22688677,63760829700|22688677,63760829700|22688677,63760829700|22688677,63760829700|22688677,63760829700|22688677,63760829700|22688677,63760829700|22688677,63760829700|22688677,63760829700|22688677,63760829700|22688677,63760829700|22688677,63760829700|22688677,63760829700|22688677,63760829700|  0,00000000000|22688677,63760829700|22688677,63760829700|22688677,63760829700
Dormouse                  |15267053,30117203700|28968128,84819499800|15267053,30117203700|15267053,30117203700|15267053,30117203700|15267053,30117203700|15267053,30117203700|15267053,30117203700|15267053,30117203700|15267053,30117203700|15267053,30117203700|14565647,07423182000|14565647,07423181800|14565647,07423182000|14565647,07423182000|14565647,07423182000|14565647,07423182000|14565647,07423182000|14565647,07423181800|14565647,07423182000|14565647,07423182000|14565647,07423182000|14565647,07423182000|14565647,07423181800|14565647,07423181800|14565647,07423181800|14565647,07423181800|14565647,07423181800|22688677,63760829700|  0,00000000000|6613133,38336778700|14565647,07423182000
Squirrel                  |15267053,30117203700|28968128,84819499800|15267053,30117203700|15267053,30117203700|15267053,30117203700|15267053,30117203700|15267053,30117203700|15267053,30117203700|15267053,30117203700|15267053,30117203700|15267053,30117203700|14565647,07423182000|14565647,07423181800|14565647,07423182000|14565647,07423182000|14565647,07423182000|14565647,07423182000|14565647,07423182000|14565647,07423181800|14565647,07423182000|14565647,07423182000|14565647,07423182000|14565647,07423182000|14565647,07423181800|14565647,07423181800|14565647,07423181800|14565647,07423181800|14565647,07423181800|22688677,63760829700|6613133,38336778700|  0,00000000000|14565647,07423182000
Blue_Whale                |15267053,30117203500|28968128,84819499800|15267053,30117203500|15267053,30117203500|15267053,30117203500|15267053,30117203500|15267053,30117203500|15267053,30117203500|15267053,30117203500|15267053,30117203500|15267053,30117203500|9478356,70934578400|9786965,56601777900|9894183,40711621600|9478356,70934578400|9478356,70934578400|9478356,70934578400|9478356,70934578400|9786965,56601777900|9478356,70934578400|9478356,70934578400|4391230,53934495400|4391230,53934495400|9786965,56601777900|9786965,56601777900|9786965,56601777900|11399835,64716833300|9786965,56601777900|22688677,63760829700|14565647,07423182000|14565647,07423182000|  0,00000000000
                           |Human          |Hum_shortened  |Pig_Chim       |Com_Chim       |Gibbon         |Baboon         |Ver_Monkey     |Macaca_Thibet  |Bor_Oran       |Sum_Oran       |Gorilla        |Cat            |Dog            |Pig            |Sheep          |Goat           |Cow            |Buffalo        |Wolf           |Tiger          |Leopard        |Indian_Rhino   |White_Rhino    |Black_Bear     |Brown_Bear     |Polar_Bear     |Giant_Panda    |Rabbit         |Hedgehog       |Dormouse       |Squirrel       |Blue_Whale     
Human                     |  0,00000000000| 12,52237736070|  8,56922804650|  8,56922804650|  8,77465943497|  8,56922804650|  8,56922804650|  8,56922804650|  8,77465943497|  8,77465943497|  8,56922804650| 10,28235789129| 10,28235789129| 10,28235789129| 10,28235789129| 10,28235789129| 10,28235789129| 10,28235789129| 10,28235789129| 10,28235789129| 10,28235789129| 10,28235789129| 10,28235789129| 10,28235789129| 10,28235789129| 10,28235789129| 10,28235789129| 10,28235789129| 11,49573584481| 10,28235789129| 10,28235789129| 10,28235789129
Hum_shortened             | 12,52237736070|  0,00000000000| 12,52237736070| 12,52237736070| 12,52237736070| 12,52237736070| 12,52237736070| 12,52237736070| 12,52237736070| 12,52237736070| 12,52237736070| 12,52237736070| 12,52237736070| 12,52237736070| 12,52237736070| 12,52237736070| 12,52237736070| 12,52237736070| 12,52237736070| 12,52237736070| 12,52237736070| 12,52237736070| 12,52237736070| 12,52237736070| 12,52237736070| 12,52237736070| 12,52237736070| 12,52237736070| 12,52237736070| 12,52237736070| 12,52237736070| 12,52237736070
Pig_Chim                  |  8,56922804650| 12,52237736070|  0,00000000000|  8,05327977687|  8,77465943497|  8,42074827804|  8,42074827804|  8,42074827804|  8,77465943497|  8,77465943497|  8,20014687861| 10,28235789129| 10,28235789129| 10,28235789129| 10,28235789129| 10,28235789129| 10,28235789129| 10,28235789129| 10,28235789129| 10,28235789129| 10,28235789129| 10,28235789129| 10,28235789129| 10,28235789129| 10,28235789129| 10,28235789129| 10,28235789129| 10,28235789129| 11,49573584481| 10,28235789129| 10,28235789129| 10,28235789129
Com_Chim                  |  8,56922804650| 12,52237736070|  8,05327977687|  0,00000000000|  8,77465943497|  8,42074827804|  8,42074827804|  8,42074827804|  8,77465943497|  8,77465943497|  8,20014687861| 10,28235789129| 10,28235789129| 10,28235789129| 10,28235789129| 10,28235789129| 10,28235789129| 10,28235789129| 10,28235789129| 10,28235789129| 10,28235789129| 10,28235789129| 10,28235789129| 10,28235789129| 10,28235789129| 10,28235789129| 10,28235789129| 10,28235789129| 11,49573584481| 10,28235789129| 10,28235789129| 10,28235789129
Gibbon                    |  8,77465943497| 12,52237736070|  8,77465943497|  8,77465943497|  0,00000000000|  8,77465943497|  8,77465943497|  8,77465943497|  8,68317970265|  8,68317970265|  8,77465943497| 10,28235789129| 10,28235789129| 10,28235789129| 10,28235789129| 10,28235789129| 10,28235789129| 10,28235789129| 10,28235789129| 10,28235789129| 10,28235789129| 10,28235789129| 10,28235789129| 10,28235789129| 10,28235789129| 10,28235789129| 10,28235789129| 10,28235789129| 11,49573584481| 10,28235789129| 10,28235789129| 10,28235789129
Baboon                    |  8,56922804650| 12,52237736070|  8,42074827804|  8,42074827804|  8,77465943497|  0,00000000000|  8,35454174159|  8,35454174159|  8,77465943497|  8,77465943497|  8,42074827804| 10,28235789129| 10,28235789129| 10,28235789129| 10,28235789129| 10,28235789129| 10,28235789129| 10,28235789129| 10,28235789129| 10,28235789129| 10,28235789129| 10,28235789129| 10,28235789129| 10,28235789129| 10,28235789129| 10,28235789129| 10,28235789129| 10,28235789129| 11,49573584481| 10,28235789129| 10,28235789129| 10,28235789129
Ver_Monkey                |  8,56922804650| 12,52237736070|  8,42074827804|  8,42074827804|  8,77465943497|  8,35454174159|  0,00000000000|  8,15431542313|  8,77465943497|  8,77465943497|  8,42074827804| 10,28235789129| 10,28235789129| 10,28235789129| 10,28235789129| 10,28235789129| 10,28235789129| 10,28235789129| 10,28235789129| 10,28235789129| 10,28235789129| 10,28235789129| 10,28235789129| 10,28235789129| 10,28235789129| 10,28235789129| 10,28235789129| 10,28235789129| 11,49573584481| 10,28235789129| 10,28235789129| 10,28235789129
Macaca_Thibet             |  8,56922804650| 12,52237736070|  8,42074827804|  8,42074827804|  8,77465943497|  8,35454174159|  8,15431542313|  0,00000000000|  8,77465943497|  8,77465943497|  8,42074827804| 10,28235789129| 10,28235789129| 10,28235789129| 10,28235789129| 10,28235789129| 10,28235789129| 10,28235789129| 10,28235789129| 10,28235789129| 10,28235789129| 10,28235789129| 10,28235789129| 10,28235789129| 10,28235789129| 10,28235789129| 10,28235789129| 10,28235789129| 11,49573584481| 10,28235789129| 10,28235789129| 10,28235789129
Bor_Oran                  |  8,77465943497| 12,52237736070|  8,77465943497|  8,77465943497|  8,68317970265|  8,77465943497|  8,77465943497|  8,77465943497|  0,00000000000|  8,10678328281|  8,77465943497| 10,28235789129| 10,28235789129| 10,28235789129| 10,28235789129| 10,28235789129| 10,28235789129| 10,28235789129| 10,28235789129| 10,28235789129| 10,28235789129| 10,28235789129| 10,28235789129| 10,28235789129| 10,28235789129| 10,28235789129| 10,28235789129| 10,28235789129| 11,49573584481| 10,28235789129| 10,28235789129| 10,28235789129
Sum_Oran                  |  8,77465943497| 12,52237736070|  8,77465943497|  8,77465943497|  8,68317970265|  8,77465943497|  8,77465943497|  8,77465943497|  8,10678328281|  0,00000000000|  8,77465943497| 10,28235789129| 10,28235789129| 10,28235789129| 10,28235789129| 10,28235789129| 10,28235789129| 10,28235789129| 10,28235789129| 10,28235789129| 10,28235789129| 10,28235789129| 10,28235789129| 10,28235789129| 10,28235789129| 10,28235789129| 10,28235789129| 10,28235789129| 11,49573584481| 10,28235789129| 10,28235789129| 10,28235789129
Gorilla                   |  8,56922804650| 12,52237736070|  8,20014687861|  8,20014687861|  8,77465943497|  8,42074827804|  8,42074827804|  8,42074827804|  8,77465943497|  8,77465943497|  0,00000000000| 10,28235789129| 10,28235789129| 10,28235789129| 10,28235789129| 10,28235789129| 10,28235789129| 10,28235789129| 10,28235789129| 10,28235789129| 10,28235789129| 10,28235789129| 10,28235789129| 10,28235789129| 10,28235789129| 10,28235789129| 10,28235789129| 10,28235789129| 11,49573584481| 10,28235789129| 10,28235789129| 10,28235789129
Cat                       | 10,28235789129| 12,52237736070| 10,28235789129| 10,28235789129| 10,28235789129| 10,28235789129| 10,28235789129| 10,28235789129| 10,28235789129| 10,28235789129| 10,28235789129|  0,00000000000|  9,38640609694|  9,40393538147|  8,56458250099|  8,56458250099|  8,56458250099|  8,56458250099|  9,38640609694|  8,49488412397|  8,49488412397|  9,33595094508|  9,33595094508|  9,38640609694|  9,38640609694|  9,38640609694|  9,65009783202|  9,38640609694| 11,49573584481| 10,16768341928| 10,16768341928|  9,33595094508
Dog                       | 10,28235789129| 12,52237736070| 10,28235789129| 10,28235789129| 10,28235789129| 10,28235789129| 10,28235789129| 10,28235789129| 10,28235789129| 10,28235789129| 10,28235789129|  9,38640609694|  0,00000000000|  9,40393538147|  9,38640609694|  9,38640609694|  9,38640609694|  9,38640609694|  7,96056392200|  9,38640609694|  9,38640609694|  9,38640609694|  9,38640609694|  9,17126178024|  9,17126178024|  9,17126178024|  9,65009783202|  8,78494907171| 11,49573584481| 10,16768341928| 10,16768341928|  9,38640609694
Pig                       | 10,28235789129| 12,52237736070| 10,28235789129| 10,28235789129| 10,28235789129| 10,28235789129| 10,28235789129| 10,28235789129| 10,28235789129| 10,28235789129| 10,28235789129|  9,40393538147|  9,40393538147|  0,00000000000|  9,40393538147|  9,40393538147|  9,40393538147|  9,40393538147|  9,40393538147|  9,40393538147|  9,40393538147|  9,40393538147|  9,40393538147|  9,40393538147|  9,40393538147|  9,40393538147|  9,65009783202|  9,40393538147| 11,49573584481| 10,16768341928| 10,16768341928|  9,40393538147
Sheep                     | 10,28235789129| 12,52237736070| 10,28235789129| 10,28235789129| 10,28235789129| 10,28235789129| 10,28235789129| 10,28235789129| 10,28235789129| 10,28235789129| 10,28235789129|  8,56458250099|  9,38640609694|  9,40393538147|  0,00000000000|  7,91481932082|  8,35748114412|  8,43237143618|  9,38640609694|  8,56458250099|  8,56458250099|  9,33595094508|  9,33595094508|  9,38640609694|  9,38640609694|  9,38640609694|  9,65009783202|  9,38640609694| 11,49573584481| 10,16768341928| 10,16768341928|  9,33595094508
Goat                      | 10,28235789129| 12,52237736070| 10,28235789129| 10,28235789129| 10,28235789129| 10,28235789129| 10,28235789129| 10,28235789129| 10,28235789129| 10,28235789129| 10,28235789129|  8,56458250099|  9,38640609694|  9,40393538147|  7,91481932082|  0,00000000000|  8,35748114412|  8,43237143618|  9,38640609694|  8,56458250099|  8,56458250099|  9,33595094508|  9,33595094508|  9,38640609694|  9,38640609694|  9,38640609694|  9,65009783202|  9,38640609694| 11,49573584481| 10,16768341928| 10,16768341928|  9,33595094508
Cow                       | 10,28235789129| 12,52237736070| 10,28235789129| 10,28235789129| 10,28235789129| 10,28235789129| 10,28235789129| 10,28235789129| 10,28235789129| 10,28235789129| 10,28235789129|  8,56458250099|  9,38640609694|  9,40393538147|  8,35748114412|  8,35748114412|  0,00000000000|  8,43237143618|  9,38640609694|  8,56458250099|  8,56458250099|  9,33595094508|  9,33595094508|  9,38640609694|  9,38640609694|  9,38640609694|  9,65009783202|  9,38640609694| 11,49573584481| 10,16768341928| 10,16768341928|  9,33595094508
Buffalo                   | 10,28235789129| 12,52237736070| 10,28235789129| 10,28235789129| 10,28235789129| 10,28235789129| 10,28235789129| 10,28235789129| 10,28235789129| 10,28235789129| 10,28235789129|  8,56458250099|  9,38640609694|  9,40393538147|  8,43237143618|  8,43237143618|  8,43237143618|  0,00000000000|  9,38640609694|  8,56458250099|  8,56458250099|  9,33595094508|  9,33595094508|  9,38640609694|  9,38640609694|  9,38640609694|  9,65009783202|  9,38640609694| 11,49573584481| 10,16768341928| 10,16768341928|  9,33595094508
Wolf                      | 10,28235789129| 12,52237736070| 10,28235789129| 10,28235789129| 10,28235789129| 10,28235789129| 10,28235789129| 10,28235789129| 10,28235789129| 10,28235789129| 10,28235789129|  9,38640609694|  7,96056392200|  9,40393538147|  9,38640609694|  9,38640609694|  9,38640609694|  9,38640609694|  0,00000000000|  9,38640609694|  9,38640609694|  9,38640609694|  9,38640609694|  9,17126178024|  9,17126178024|  9,17126178024|  9,65009783202|  8,78494907171| 11,49573584481| 10,16768341928| 10,16768341928|  9,38640609694
Tiger                     | 10,28235789129| 12,52237736070| 10,28235789129| 10,28235789129| 10,28235789129| 10,28235789129| 10,28235789129| 10,28235789129| 10,28235789129| 10,28235789129| 10,28235789129|  8,49488412397|  9,38640609694|  9,40393538147|  8,56458250099|  8,56458250099|  8,56458250099|  8,56458250099|  9,38640609694|  0,00000000000|  7,93714725984|  9,33595094508|  9,33595094508|  9,38640609694|  9,38640609694|  9,38640609694|  9,65009783202|  9,38640609694| 11,49573584481| 10,16768341928| 10,16768341928|  9,33595094508
Leopard                   | 10,28235789129| 12,52237736070| 10,28235789129| 10,28235789129| 10,28235789129| 10,28235789129| 10,28235789129| 10,28235789129| 10,28235789129| 10,28235789129| 10,28235789129|  8,49488412397|  9,38640609694|  9,40393538147|  8,56458250099|  8,56458250099|  8,56458250099|  8,56458250099|  9,38640609694|  7,93714725984|  0,00000000000|  9,33595094508|  9,33595094508|  9,38640609694|  9,38640609694|  9,38640609694|  9,65009783202|  9,38640609694| 11,49573584481| 10,16768341928| 10,16768341928|  9,33595094508
Indian_Rhino              | 10,28235789129| 12,52237736070| 10,28235789129| 10,28235789129| 10,28235789129| 10,28235789129| 10,28235789129| 10,28235789129| 10,28235789129| 10,28235789129| 10,28235789129|  9,33595094508|  9,38640609694|  9,40393538147|  9,33595094508|  9,33595094508|  9,33595094508|  9,33595094508|  9,38640609694|  9,33595094508|  9,33595094508|  0,00000000000|  8,47781283275|  9,38640609694|  9,38640609694|  9,38640609694|  9,65009783202|  9,38640609694| 11,49573584481| 10,16768341928| 10,16768341928|  8,50424531548
White_Rhino               | 10,28235789129| 12,52237736070| 10,28235789129| 10,28235789129| 10,28235789129| 10,28235789129| 10,28235789129| 10,28235789129| 10,28235789129| 10,28235789129| 10,28235789129|  9,33595094508|  9,38640609694|  9,40393538147|  9,33595094508|  9,33595094508|  9,33595094508|  9,33595094508|  9,38640609694|  9,33595094508|  9,33595094508|  8,47781283275|  0,00000000000|  9,38640609694|  9,38640609694|  9,38640609694|  9,65009783202|  9,38640609694| 11,49573584481| 10,16768341928| 10,16768341928|  8,50424531548
Black_Bear                | 10,28235789129| 12,52237736070| 10,28235789129| 10,28235789129| 10,28235789129| 10,28235789129| 10,28235789129| 10,28235789129| 10,28235789129| 10,28235789129| 10,28235789129|  9,38640609694|  9,17126178024|  9,40393538147|  9,38640609694|  9,38640609694|  9,38640609694|  9,38640609694|  9,17126178024|  9,38640609694|  9,38640609694|  9,38640609694|  9,38640609694|  0,00000000000|  8,22449441817|  8,22449441817|  9,65009783202|  9,17126178024| 11,49573584481| 10,16768341928| 10,16768341928|  9,38640609694
Brown_Bear                | 10,28235789129| 12,52237736070| 10,28235789129| 10,28235789129| 10,28235789129| 10,28235789129| 10,28235789129| 10,28235789129| 10,28235789129| 10,28235789129| 10,28235789129|  9,38640609694|  9,17126178024|  9,40393538147|  9,38640609694|  9,38640609694|  9,38640609694|  9,38640609694|  9,17126178024|  9,38640609694|  9,38640609694|  9,38640609694|  9,38640609694|  8,22449441817|  0,00000000000|  7,90859316350|  9,65009783202|  9,17126178024| 11,49573584481| 10,16768341928| 10,16768341928|  9,38640609694
Polar_Bear                | 10,28235789129| 12,52237736070| 10,28235789129| 10,28235789129| 10,28235789129| 10,28235789129| 10,28235789129| 10,28235789129| 10,28235789129| 10,28235789129| 10,28235789129|  9,38640609694|  9,17126178024|  9,40393538147|  9,38640609694|  9,38640609694|  9,38640609694|  9,38640609694|  9,17126178024|  9,38640609694|  9,38640609694|  9,38640609694|  9,38640609694|  8,22449441817|  7,90859316350|  0,00000000000|  9,65009783202|  9,17126178024| 11,49573584481| 10,16768341928| 10,16768341928|  9,38640609694
Giant_Panda               | 10,28235789129| 12,52237736070| 10,28235789129| 10,28235789129| 10,28235789129| 10,28235789129| 10,28235789129| 10,28235789129| 10,28235789129| 10,28235789129| 10,28235789129|  9,65009783202|  9,65009783202|  9,65009783202|  9,65009783202|  9,65009783202|  9,65009783202|  9,65009783202|  9,65009783202|  9,65009783202|  9,65009783202|  9,65009783202|  9,65009783202|  9,65009783202|  9,65009783202|  9,65009783202|  0,00000000000|  9,65009783202| 11,49573584481| 10,16768341928| 10,16768341928|  9,65009783202
Rabbit                    | 10,28235789129| 12,52237736070| 10,28235789129| 10,28235789129| 10,28235789129| 10,28235789129| 10,28235789129| 10,28235789129| 10,28235789129| 10,28235789129| 10,28235789129|  9,38640609694|  8,78494907171|  9,40393538147|  9,38640609694|  9,38640609694|  9,38640609694|  9,38640609694|  8,78494907171|  9,38640609694|  9,38640609694|  9,38640609694|  9,38640609694|  9,17126178024|  9,17126178024|  9,17126178024|  9,65009783202|  0,00000000000| 11,49573584481| 10,16768341928| 10,16768341928|  9,38640609694
Hedgehog                  | 11,49573584481| 12,52237736070| 11,49573584481| 11,49573584481| 11,49573584481| 11,49573584481| 11,49573584481| 11,49573584481| 11,49573584481| 11,49573584481| 11,49573584481| 11,49573584481| 11,49573584481| 11,49573584481| 11,49573584481| 11,49573584481| 11,49573584481| 11,49573584481| 11,49573584481| 11,49573584481| 11,49573584481| 11,49573584481| 11,49573584481| 11,49573584481| 11,49573584481| 11,49573584481| 11,49573584481| 11,49573584481|  0,00000000000| 11,49573584481| 11,49573584481| 11,49573584481
Dormouse                  | 10,28235789129| 12,52237736070| 10,28235789129| 10,28235789129| 10,28235789129| 10,28235789129| 10,28235789129| 10,28235789129| 10,28235789129| 10,28235789129| 10,28235789129| 10,16768341928| 10,16768341928| 10,16768341928| 10,16768341928| 10,16768341928| 10,16768341928| 10,16768341928| 10,16768341928| 10,16768341928| 10,16768341928| 10,16768341928| 10,16768341928| 10,16768341928| 10,16768341928| 10,16768341928| 10,16768341928| 10,16768341928| 11,49573584481|  0,00000000000|  8,86750917842| 10,16768341928
Squirrel                  | 10,28235789129| 12,52237736070| 10,28235789129| 10,28235789129| 10,28235789129| 10,28235789129| 10,28235789129| 10,28235789129| 10,28235789129| 10,28235789129| 10,28235789129| 10,16768341928| 10,16768341928| 10,16768341928| 10,16768341928| 10,16768341928| 10,16768341928| 10,16768341928| 10,16768341928| 10,16768341928| 10,16768341928| 10,16768341928| 10,16768341928| 10,16768341928| 10,16768341928| 10,16768341928| 10,16768341928| 10,16768341928| 11,49573584481|  8,86750917842|  0,00000000000| 10,16768341928
Blue_Whale                | 10,28235789129| 12,52237736070| 10,28235789129| 10,28235789129| 10,28235789129| 10,28235789129| 10,28235789129| 10,28235789129| 10,28235789129| 10,28235789129| 10,28235789129|  9,33595094508|  9,38640609694|  9,40393538147|  9,33595094508|  9,33595094508|  9,33595094508|  9,33595094508|  9,38640609694|  9,33595094508|  9,33595094508|  8,50424531548|  8,50424531548|  9,38640609694|  9,38640609694|  9,38640609694|  9,65009783202|  9,38640609694| 11,49573584481| 10,16768341928| 10,16768341928|  0,00000000000
                           |Human          |Hum_shortened  |Pig_Chim       |Com_Chim       |Gibbon         |Baboon         |Ver_Monkey     |Macaca_Thibet  |Bor_Oran       |Sum_Oran       |Gorilla        |Cat            |Dog            |Pig            |Sheep          |Goat           |Cow            |Buffalo        |Wolf           |Tiger          |Leopard        |Indian_Rhino   |White_Rhino    |Black_Bear     |Brown_Bear     |Polar_Bear     |Giant_Panda    |Rabbit         |Hedgehog       |Dormouse       |Squirrel       |Blue_Whale     
Human                     |  0,00000000000|  6,00000000000|  5,00000000000|  5,00000000000|  4,00000000000|  4,00000000000|  5,00000000000|  5,00000000000|  5,00000000000|  5,00000000000|  4,00000000000| 11,00000000000| 11,00000000000|  7,00000000000| 13,00000000000| 13,00000000000| 12,00000000000| 11,00000000000| 11,00000000000| 12,00000000000| 12,00000000000| 11,00000000000| 11,00000000000| 10,00000000000| 11,00000000000| 11,00000000000|  6,00000000000| 10,00000000000|  5,00000000000|  6,00000000000|  6,00000000000| 10,00000000000
Hum_shortened             |  6,00000000000|  0,00000000000|  9,00000000000|  9,00000000000|  6,00000000000|  8,00000000000|  9,00000000000|  9,00000000000|  7,00000000000|  7,00000000000|  8,00000000000| 11,00000000000| 11,00000000000|  7,00000000000| 13,00000000000| 13,00000000000| 12,00000000000| 11,00000000000| 11,00000000000| 12,00000000000| 12,00000000000| 11,00000000000| 11,00000000000| 10,00000000000| 11,00000000000| 11,00000000000|  6,00000000000| 10,00000000000|  3,00000000000|  6,00000000000|  6,00000000000| 10,00000000000
Pig_Chim                  |  5,00000000000|  9,00000000000|  0,00000000000|  2,00000000000|  7,00000000000|  5,00000000000|  6,00000000000|  6,00000000000|  8,00000000000|  8,00000000000|  3,00000000000| 14,00000000000| 14,00000000000| 10,00000000000| 16,00000000000| 16,00000000000| 15,00000000000| 14,00000000000| 14,00000000000| 15,00000000000| 15,00000000000| 14,00000000000| 14,00000000000| 13,00000000000| 14,00000000000| 14,00000000000|  9,00000000000| 13,00000000000|  8,00000000000|  9,00000000000|  9,00000000000| 13,00000000000
Com_Chim                  |  5,00000000000|  9,00000000000|  2,00000000000|  0,00000000000|  7,00000000000|  5,00000000000|  6,00000000000|  6,00000000000|  8,00000000000|  8,00000000000|  3,00000000000| 14,00000000000| 14,00000000000| 10,00000000000| 16,00000000000| 16,00000000000| 15,00000000000| 14,00000000000| 14,00000000000| 15,00000000000| 15,00000000000| 14,00000000000| 14,00000000000| 13,00000000000| 14,00000000000| 14,00000000000|  9,00000000000| 13,00000000000|  8,00000000000|  9,00000000000|  9,00000000000| 13,00000000000
Gibbon                    |  4,00000000000|  6,00000000000|  7,00000000000|  7,00000000000|  0,00000000000|  6,00000000000|  7,00000000000|  7,00000000000|  3,00000000000|  3,00000000000|  6,00000000000| 11,00000000000| 11,00000000000|  7,00000000000| 13,00000000000| 13,00000000000| 12,00000000000| 11,00000000000| 11,00000000000| 12,00000000000| 12,00000000000| 11,00000000000| 11,00000000000| 10,00000000000| 11,00000000000| 11,00000000000|  6,00000000000| 10,00000000000|  5,00000000000|  6,00000000000|  6,00000000000| 10,00000000000
Baboon                    |  4,00000000000|  8,00000000000|  5,00000000000|  5,00000000000|  6,00000000000|  0,00000000000|  3,00000000000|  3,00000000000|  7,00000000000|  7,00000000000|  4,00000000000| 13,00000000000| 13,00000000000|  9,00000000000| 15,00000000000| 15,00000000000| 14,00000000000| 13,00000000000| 13,00000000000| 14,00000000000| 14,00000000000| 13,00000000000| 13,00000000000| 12,00000000000| 13,00000000000| 13,00000000000|  8,00000000000| 12,00000000000|  7,00000000000|  8,00000000000|  8,00000000000| 12,00000000000
Ver_Monkey                |  5,00000000000|  9,00000000000|  6,00000000000|  6,00000000000|  7,00000000000|  3,00000000000|  0,00000000000|  2,00000000000|  8,00000000000|  8,00000000000|  5,00000000000| 14,00000000000| 14,00000000000| 10,00000000000| 16,00000000000| 16,00000000000| 15,00000000000| 14,00000000000| 14,00000000000| 15,00000000000| 15,00000000000| 14,00000000000| 14,00000000000| 13,00000000000| 14,00000000000| 14,00000000000|  9,00000000000| 13,00000000000|  8,00000000000|  9,00000000000|  9,00000000000| 13,00000000000
Macaca_Thibet             |  5,00000000000|  9,00000000000|  6,00000000000|  6,00000000000|  7,00000000000|  3,00000000000|  2,00000000000|  0,00000000000|  8,00000000000|  8,00000000000|  5,00000000000| 14,00000000000| 14,00000000000| 10,00000000000| 16,00000000000| 16,00000000000| 15,00000000000| 14,00000000000| 14,00000000000| 15,00000000000| 15,00000000000| 14,00000000000| 14,00000000000| 13,00000000000| 14,00000000000| 14,00000000000|  9,00000000000| 13,00000000000|  8,00000000000|  9,00000000000|  9,00000000000| 13,00000000000
Bor_Oran                  |  5,00000000000|  7,00000000000|  8,00000000000|  8,00000000000|  3,00000000000|  7,00000000000|  8,00000000000|  8,00000000000|  0,00000000000|  2,00000000000|  7,00000000000| 12,00000000000| 12,00000000000|  8,00000000000| 14,00000000000| 14,00000000000| 13,00000000000| 12,00000000000| 12,00000000000| 13,00000000000| 13,00000000000| 12,00000000000| 12,00000000000| 11,00000000000| 12,00000000000| 12,00000000000|  7,00000000000| 11,00000000000|  6,00000000000|  7,00000000000|  7,00000000000| 11,00000000000
Sum_Oran                  |  5,00000000000|  7,00000000000|  8,00000000000|  8,00000000000|  3,00000000000|  7,00000000000|  8,00000000000|  8,00000000000|  2,00000000000|  0,00000000000|  7,00000000000| 12,00000000000| 12,00000000000|  8,00000000000| 14,00000000000| 14,00000000000| 13,00000000000| 12,00000000000| 12,00000000000| 13,00000000000| 13,00000000000| 12,00000000000| 12,00000000000| 11,00000000000| 12,00000000000| 12,00000000000|  7,00000000000| 11,00000000000|  6,00000000000|  7,00000000000|  7,00000000000| 11,00000000000
Gorilla                   |  4,00000000000|  8,00000000000|  3,00000000000|  3,00000000000|  6,00000000000|  4,00000000000|  5,00000000000|  5,00000000000|  7,00000000000|  7,00000000000|  0,00000000000| 13,00000000000| 13,00000000000|  9,00000000000| 15,00000000000| 15,00000000000| 14,00000000000| 13,00000000000| 13,00000000000| 14,00000000000| 14,00000000000| 13,00000000000| 13,00000000000| 12,00000000000| 13,00000000000| 13,00000000000|  8,00000000000| 12,00000000000|  7,00000000000|  8,00000000000|  8,00000000000| 12,00000000000
Cat                       | 11,00000000000| 11,00000000000| 14,00000000000| 14,00000000000| 11,00000000000| 13,00000000000| 14,00000000000| 14,00000000000| 12,00000000000| 12,00000000000| 13,00000000000|  0,00000000000|  8,00000000000|  6,00000000000|  6,00000000000|  6,00000000000|  5,00000000000|  4,00000000000|  8,00000000000|  3,00000000000|  3,00000000000|  6,00000000000|  6,00000000000|  7,00000000000|  8,00000000000|  8,00000000000|  7,00000000000|  7,00000000000| 10,00000000000|  9,00000000000|  9,00000000000|  5,00000000000
Dog                       | 11,00000000000| 11,00000000000| 14,00000000000| 14,00000000000| 11,00000000000| 13,00000000000| 14,00000000000| 14,00000000000| 12,00000000000| 12,00000000000| 13,00000000000|  8,00000000000|  0,00000000000|  6,00000000000| 10,00000000000| 10,00000000000|  9,00000000000|  8,00000000000|  2,00000000000|  9,00000000000|  9,00000000000|  8,00000000000|  8,00000000000|  5,00000000000|  6,00000000000|  6,00000000000|  7,00000000000|  3,00000000000| 10,00000000000|  9,00000000000|  9,00000000000|  7,00000000000
Pig                       |  7,00000000000|  7,00000000000| 10,00000000000| 10,00000000000|  7,00000000000|  9,00000000000| 10,00000000000| 10,00000000000|  8,00000000000|  8,00000000000|  9,00000000000|  6,00000000000|  6,00000000000|  0,00000000000|  8,00000000000|  8,00000000000|  7,00000000000|  6,00000000000|  6,00000000000|  7,00000000000|  7,00000000000|  6,00000000000|  6,00000000000|  5,00000000000|  6,00000000000|  6,00000000000|  3,00000000000|  5,00000000000|  6,00000000000|  5,00000000000|  5,00000000000|  5,00000000000
Sheep                     | 13,00000000000| 13,00000000000| 16,00000000000| 16,00000000000| 13,00000000000| 15,00000000000| 16,00000000000| 16,00000000000| 14,00000000000| 14,00000000000| 15,00000000000|  6,00000000000| 10,00000000000|  8,00000000000|  0,00000000000|  2,00000000000|  3,00000000000|  4,00000000000| 10,00000000000|  7,00000000000|  7,00000000000|  8,00000000000|  8,00000000000|  9,00000000000| 10,00000000000| 10,00000000000|  9,00000000000|  9,00000000000| 12,00000000000| 11,00000000000| 11,00000000000|  7,00000000000
Goat                      | 13,00000000000| 13,00000000000| 16,00000000000| 16,00000000000| 13,00000000000| 15,00000000000| 16,00000000000| 16,00000000000| 14,00000000000| 14,00000000000| 15,00000000000|  6,00000000000| 10,00000000000|  8,00000000000|  2,00000000000|  0,00000000000|  3,00000000000|  4,00000000000| 10,00000000000|  7,00000000000|  7,00000000000|  8,00000000000|  8,00000000000|  9,00000000000| 10,00000000000| 10,00000000000|  9,00000000000|  9,00000000000| 12,00000000000| 11,00000000000| 11,00000000000|  7,00000000000
Cow                       | 12,00000000000| 12,00000000000| 15,00000000000| 15,00000000000| 12,00000000000| 14,00000000000| 15,00000000000| 15,00000000000| 13,00000000000| 13,00000000000| 14,00000000000|  5,00000000000|  9,00000000000|  7,00000000000|  3,00000000000|  3,00000000000|  0,00000000000|  3,00000000000|  9,00000000000|  6,00000000000|  6,00000000000|  7,00000000000|  7,00000000000|  8,00000000000|  9,00000000000|  9,00000000000|  8,00000000000|  8,00000000000| 11,00000000000| 10,00000000000| 10,00000000000|  6,00000000000
Buffalo                   | 11,00000000000| 11,00000000000| 14,00000000000| 14,00000000000| 11,00000000000| 13,00000000000| 14,00000000000| 14,00000000000| 12,00000000000| 12,00000000000| 13,00000000000|  4,00000000000|  8,00000000000|  6,00000000000|  4,00000000000|  4,00000000000|  3,00000000000|  0,00000000000|  8,00000000000|  5,00000000000|  5,00000000000|  6,00000000000|  6,00000000000|  7,00000000000|  8,00000000000|  8,00000000000|  7,00000000000|  7,00000000000| 10,00000000000|  9,00000000000|  9,00000000000|  5,00000000000
Wolf                      | 11,00000000000| 11,00000000000| 14,00000000000| 14,00000000000| 11,00000000000| 13,00000000000| 14,00000000000| 14,00000000000| 12,00000000000| 12,00000000000| 13,00000000000|  8,00000000000|  2,00000000000|  6,00000000000| 10,00000000000| 10,00000000000|  9,00000000000|  8,00000000000|  0,00000000000|  9,00000000000|  9,00000000000|  8,00000000000|  8,00000000000|  5,00000000000|  6,00000000000|  6,00000000000|  7,00000000000|  3,00000000000| 10,00000000000|  9,00000000000|  9,00000000000|  7,00000000000
Tiger                     | 12,00000000000| 12,00000000000| 15,00000000000| 15,00000000000| 12,00000000000| 14,00000000000| 15,00000000000| 15,00000000000| 13,00000000000| 13,00000000000| 14,00000000000|  3,00000000000|  9,00000000000|  7,00000000000|  7,00000000000|  7,00000000000|  6,00000000000|  5,00000000000|  9,00000000000|  0,00000000000|  2,00000000000|  7,00000000000|  7,00000000000|  8,00000000000|  9,00000000000|  9,00000000000|  8,00000000000|  8,00000000000| 11,00000000000| 10,00000000000| 10,00000000000|  6,00000000000
Leopard                   | 12,00000000000| 12,00000000000| 15,00000000000| 15,00000000000| 12,00000000000| 14,00000000000| 15,00000000000| 15,00000000000| 13,00000000000| 13,00000000000| 14,00000000000|  3,00000000000|  9,00000000000|  7,00000000000|  7,00000000000|  7,00000000000|  6,00000000000|  5,00000000000|  9,00000000000|  2,00000000000|  0,00000000000|  7,00000000000|  7,00000000000|  8,00000000000|  9,00000000000|  9,00000000000|  8,00000000000|  8,00000000000| 11,00000000000| 10,00000000000| 10,00000000000|  6,00000000000
Indian_Rhino              | 11,00000000000| 11,00000000000| 14,00000000000| 14,00000000000| 11,00000000000| 13,00000000000| 14,00000000000| 14,00000000000| 12,00000000000| 12,00000000000| 13,00000000000|  6,00000000000|  8,00000000000|  6,00000000000|  8,00000000000|  8,00000000000|  7,00000000000|  6,00000000000|  8,00000000000|  7,00000000000|  7,00000000000|  0,00000000000|  2,00000000000|  7,00000000000|  8,00000000000|  8,00000000000|  7,00000000000|  7,00000000000| 10,00000000000|  9,00000000000|  9,00000000000|  3,00000000000
White_Rhino               | 11,00000000000| 11,00000000000| 14,00000000000| 14,00000000000| 11,00000000000| 13,00000000000| 14,00000000000| 14,00000000000| 12,00000000000| 12,00000000000| 13,00000000000|  6,00000000000|  8,00000000000|  6,00000000000|  8,00000000000|  8,00000000000|  7,00000000000|  6,00000000000|  8,00000000000|  7,00000000000|  7,00000000000|  2,00000000000|  0,00000000000|  7,00000000000|  8,00000000000|  8,00000000000|  7,00000000000|  7,00000000000| 10,00000000000|  9,00000000000|  9,00000000000|  3,00000000000
Black_Bear                | 10,00000000000| 10,00000000000| 13,00000000000| 13,00000000000| 10,00000000000| 12,00000000000| 13,00000000000| 13,00000000000| 11,00000000000| 11,00000000000| 12,00000000000|  7,00000000000|  5,00000000000|  5,00000000000|  9,00000000000|  9,00000000000|  8,00000000000|  7,00000000000|  5,00000000000|  8,00000000000|  8,00000000000|  7,00000000000|  7,00000000000|  0,00000000000|  3,00000000000|  3,00000000000|  6,00000000000|  4,00000000000|  9,00000000000|  8,00000000000|  8,00000000000|  6,00000000000
Brown_Bear                | 11,00000000000| 11,00000000000| 14,00000000000| 14,00000000000| 11,00000000000| 13,00000000000| 14,00000000000| 14,00000000000| 12,00000000000| 12,00000000000| 13,00000000000|  8,00000000000|  6,00000000000|  6,00000000000| 10,00000000000| 10,00000000000|  9,00000000000|  8,00000000000|  6,00000000000|  9,00000000000|  9,00000000000|  8,00000000000|  8,00000000000|  3,00000000000|  0,00000000000|  2,00000000000|  7,00000000000|  5,00000000000| 10,00000000000|  9,00000000000|  9,00000000000|  7,00000000000
Polar_Bear                | 11,00000000000| 11,00000000000| 14,00000000000| 14,00000000000| 11,00000000000| 13,00000000000| 14,00000000000| 14,00000000000| 12,00000000000| 12,00000000000| 13,00000000000|  8,00000000000|  6,00000000000|  6,00000000000| 10,00000000000| 10,00000000000|  9,00000000000|  8,00000000000|  6,00000000000|  9,00000000000|  9,00000000000|  8,00000000000|  8,00000000000|  3,00000000000|  2,00000000000|  0,00000000000|  7,00000000000|  5,00000000000| 10,00000000000|  9,00000000000|  9,00000000000|  7,00000000000
Giant_Panda               |  6,00000000000|  6,00000000000|  9,00000000000|  9,00000000000|  6,00000000000|  8,00000000000|  9,00000000000|  9,00000000000|  7,00000000000|  7,00000000000|  8,00000000000|  7,00000000000|  7,00000000000|  3,00000000000|  9,00000000000|  9,00000000000|  8,00000000000|  7,00000000000|  7,00000000000|  8,00000000000|  8,00000000000|  7,00000000000|  7,00000000000|  6,00000000000|  7,00000000000|  7,00000000000|  0,00000000000|  6,00000000000|  5,00000000000|  4,00000000000|  4,00000000000|  6,00000000000
Rabbit                    | 10,00000000000| 10,00000000000| 13,00000000000| 13,00000000000| 10,00000000000| 12,00000000000| 13,00000000000| 13,00000000000| 11,00000000000| 11,00000000000| 12,00000000000|  7,00000000000|  3,00000000000|  5,00000000000|  9,00000000000|  9,00000000000|  8,00000000000|  7,00000000000|  3,00000000000|  8,00000000000|  8,00000000000|  7,00000000000|  7,00000000000|  4,00000000000|  5,00000000000|  5,00000000000|  6,00000000000|  0,00000000000|  9,00000000000|  8,00000000000|  8,00000000000|  6,00000000000
Hedgehog                  |  5,00000000000|  3,00000000000|  8,00000000000|  8,00000000000|  5,00000000000|  7,00000000000|  8,00000000000|  8,00000000000|  6,00000000000|  6,00000000000|  7,00000000000| 10,00000000000| 10,00000000000|  6,00000000000| 12,00000000000| 12,00000000000| 11,00000000000| 10,00000000000| 10,00000000000| 11,00000000000| 11,00000000000| 10,00000000000| 10,00000000000|  9,00000000000| 10,00000000000| 10,00000000000|  5,00000000000|  9,00000000000|  0,00000000000|  5,00000000000|  5,00000000000|  9,00000000000
Dormouse                  |  6,00000000000|  6,00000000000|  9,00000000000|  9,00000000000|  6,00000000000|  8,00000000000|  9,00000000000|  9,00000000000|  7,00000000000|  7,00000000000|  8,00000000000|  9,00000000000|  9,00000000000|  5,00000000000| 11,00000000000| 11,00000000000| 10,00000000000|  9,00000000000|  9,00000000000| 10,00000000000| 10,00000000000|  9,00000000000|  9,00000000000|  8,00000000000|  9,00000000000|  9,00000000000|  4,00000000000|  8,00000000000|  5,00000000000|  0,00000000000|  2,00000000000|  8,00000000000
Squirrel                  |  6,00000000000|  6,00000000000|  9,00000000000|  9,00000000000|  6,00000000000|  8,00000000000|  9,00000000000|  9,00000000000|  7,00000000000|  7,00000000000|  8,00000000000|  9,00000000000|  9,00000000000|  5,00000000000| 11,00000000000| 11,00000000000| 10,00000000000|  9,00000000000|  9,00000000000| 10,00000000000| 10,00000000000|  9,00000000000|  9,00000000000|  8,00000000000|  9,00000000000|  9,00000000000|  4,00000000000|  8,00000000000|  5,00000000000|  2,00000000000|  0,00000000000|  8,00000000000
Blue_Whale                | 10,00000000000| 10,00000000000| 13,00000000000| 13,00000000000| 10,00000000000| 12,00000000000| 13,00000000000| 13,00000000000| 11,00000000000| 11,00000000000| 12,00000000000|  5,00000000000|  7,00000000000|  5,00000000000|  7,00000000000|  7,00000000000|  6,00000000000|  5,00000000000|  7,00000000000|  6,00000000000|  6,00000000000|  3,00000000000|  3,00000000000|  6,00000000000|  7,00000000000|  7,00000000000|  6,00000000000|  6,00000000000|  9,00000000000|  8,00000000000|  8,00000000000|  0,00000000000
