                           |Human          |Pig_Chim       |Com_Chim       |Gibbon         |Baboon         |Ver_Monkey     |Macaca_Thibet  |Bor_Oran       |Sum_Oran       |Gorilla        |Cat            |Dog            |Pig            |Sheep          |Goat           |Cow            |Buffalo        |Wolf           |Tiger          |Leopard        |Indian_Rhino   |White_Rhino    |Black_Bear     |Brown_Bear     |Polar_Bear     |Giant_Panda    |Rabbit         |Hedgehog       |Dormouse       |Squirrel       |Blue_Whale     
Human                     |  0,00000000000| 11,01174714708| 10,80612131662| 10,39486965571|  9,98361799480|  9,98361799480| 10,80612131662| 10,46341159919|  9,64090827737| 10,66903742965| 10,66903742965| 11,14883103405| 10,80612131662| 10,60049548616| 10,60049548616| 10,25778576874| 10,53195354268|  9,75692805488|  9,43528244692| 10,60049548616| 10,73757937313| 10,94320520359| 10,39486965571| 10,60049548616| 10,87466326010| 10,39486965571|  9,84653410783| 10,66903742965| 10,32632771222| 11,01174714708| 10,25778576874
Pig_Chim                  | 11,01174714708|  0,00000000000|  3,93133987662|  7,27975650008|  8,33992630451|  7,34753619617|  9,39495446193|  8,94956746752|  9,65324419330|  7,59176207870| 11,13420766350|  9,80322732168|  9,71195403615|  9,84575255773|  9,77209868746| 11,04682260172|  9,23555537766| 10,65231988246| 10,35760098667| 11,29177185383|  9,99357566213|  9,75676522676| 10,83775605977|  9,99357566213| 10,53627376215| 10,14658485343| 10,53684357432| 10,13735693346|  9,65255337382|  9,50970850156| 10,80612131662
Com_Chim                  | 10,80612131662|  3,93133987662|  0,00000000000|  7,29716594526|  9,22028757383|  8,57617985134| 10,52835897115|  9,51861115056| 10,25909288566|  4,26792248349| 10,12445984291| 10,59567549252|  9,45129462919|  9,24934506507|  9,31666158644| 11,13420766350| 10,60473262449| 10,65231988246| 10,66299201390| 10,93225809939| 11,15596736230|  9,51861115056| 11,58446780946| 10,19870360922| 11,56315669727| 10,79762505664| 10,52835897115| 10,59567549252|  9,24934506507| 10,39372592840| 10,73757937313
Gibbon                    | 10,39486965571|  7,27975650008|  7,29716594526|  0,00000000000|  8,94940718327|  9,44418812867|  9,68171830809|  8,81589039905| 10,12445984291|  8,18860691392| 10,32640940703|  9,87030399797| 10,52565083523| 10,13614351501|  9,37295691056|  9,98619234009|  9,64630855171|  9,61917546602| 10,22408192892| 10,50915899334| 10,19870360922| 10,02380334228| 10,90563894610| 10,47220753867| 10,46781489981| 10,87066897435| 10,20106140172|  9,93941804993|  9,35712887458| 10,03387148469| 10,18924382525
Baboon                    |  9,98361799480|  8,33992630451|  9,22028757383|  8,94940718327|  0,00000000000|  8,00132581631|  9,01712728091|  9,82976845259|  9,35572776911|  9,01712728091| 10,30380913607|  9,89748855023|  9,69432825731|  9,82976845259|  9,55888806203| 10,64240962427|  9,37247310234|  9,82580434931| 10,37152923371| 10,91329001483|  9,51494378559|  8,81396698799| 10,70199028709| 10,88246343285| 10,53627376215| 10,37152923371|  9,49116796439|  9,76204835495|  9,69432825731| 10,03292874551| 10,32632771222
Ver_Monkey                |  9,98361799480|  7,34753619617|  8,57617985134|  9,44418812867|  8,00132581631|  0,00000000000|  9,18210663711| 10,48685375501|  8,37423028722|  8,46138253531|  9,58592767193| 10,27276405568|  9,31314738289|  9,70626962023|  9,77209868746| 10,45021807956|  9,71476741405|  9,82580434931| 10,75815815995| 10,75459558648|  9,72007173268|  9,69000569788| 10,49834162809|  9,78844771504| 10,26243831278| 10,80484314518|  9,26087131843| 10,00539767778|  9,18210663711|  9,96835111180| 10,46341159919
Macaca_Thibet             | 10,80612131662|  9,39495446193| 10,52835897115|  9,68171830809|  9,01712728091|  9,18210663711|  0,00000000000| 10,35317668654|  9,98982680017|  9,91015228570| 10,93225809939| 10,33984073196|  8,55143565056| 10,68294902137|  9,17338602211| 10,38392868820|  8,96171992829|  9,41254658274| 11,09195580434|  9,85698160961|  9,78844771504|  9,35620805349| 10,15892719640| 11,15596736230| 10,87856807385| 10,60736565766|  9,32802775295|  9,60951991073| 10,16775119759| 10,03387148469| 10,60049548616
Bor_Oran                  | 10,46341159919|  8,94956746752|  9,51861115056|  8,81589039905|  9,82976845259| 10,48685375501| 10,35317668654|  0,00000000000|  8,84544593683|  8,34802065938| 10,32640940703| 10,40691740825|  9,55111427567|  9,21692160448|  9,68479134415| 10,28633815230| 10,26243831278| 10,10130952703| 10,88788496045| 10,75420789197| 10,13032762686| 10,08582254958| 10,49834162809| 10,74571146812| 11,42623897259| 10,35317668654| 11,00693861596| 10,62053082349| 10,62053082349|  9,88530694687|  9,43528244692
Sum_Oran                  |  9,64090827737|  9,65324419330| 10,25909288566| 10,12445984291|  9,35572776911|  8,37423028722|  9,98982680017|  8,84544593683|  0,00000000000| 10,05714332154| 10,66299201390|  9,92251027880|  8,98007897958| 10,73030853527|  9,45129462919| 10,25909288566|  9,71476741405| 10,51456729360| 10,32640940703| 10,12445984291| 10,26707959158|  8,64349637271| 10,56622451442| 10,81408745049| 11,15240352322| 10,05714332154|  9,98982680017|  9,85519375742| 10,32640940703| 10,59567549252| 10,60049548616
Gorilla                   | 10,66903742965|  7,59176207870|  4,26792248349|  8,18860691392|  9,01712728091|  8,46138253531|  9,91015228570|  8,34802065938| 10,05714332154|  0,00000000000| 10,59567549252| 10,13861070311|  9,51853430522|  9,42160514300|  9,30643328107| 10,64908625361|  9,71476741405|  9,48142287717|  9,75676522676| 11,03090090034|  9,92519967977|  9,95704381340| 10,29469296908| 11,08759137994| 10,60473262449| 10,01493319509| 10,26821783624|  9,60951991073| 10,21641360465| 10,09939185758| 10,32632771222
Cat                       | 10,66903742965| 11,13420766350| 10,12445984291| 10,32640940703| 10,30380913607|  9,58592767193| 10,93225809939| 10,32640940703| 10,66299201390| 10,59567549252|  0,00000000000| 10,79762505664| 10,25909288566| 10,86494157801| 10,73030853527| 10,32640940703| 10,12552058810| 10,85894876574|  6,55668421016|  9,45129462919| 10,67733548576| 10,52835897115| 10,76987317343|  9,51494378559|  9,92014400107| 10,32640940703| 10,59567549252| 10,59567549252|  9,31666158644| 10,66299201390| 10,39486965571
Dog                       | 11,14883103405|  9,80322732168| 10,59567549252|  9,87030399797|  9,89748855023| 10,27276405568| 10,33984073196| 10,40691740825|  9,92251027880| 10,13861070311| 10,79762505664|  0,00000000000|  9,73615064540|  9,33369058769| 10,60814743710| 10,60814743710|  9,03017879064| -1,40103164260| 10,60814743710|  9,80322732168|  9,99357566213|  9,60199729283| 10,29469296908| 10,74571146812| 10,53627376215| 11,07768417109|  9,05940201487|  9,53492061655|  9,60199729283|  9,60199729283| 10,66903742965
Pig                       | 10,80612131662|  9,71195403615|  9,45129462919| 10,52565083523|  9,69432825731|  9,31314738289|  8,55143565056|  9,55111427567|  8,98007897958|  9,51853430522| 10,25909288566|  9,73615064540|  0,00000000000|  9,32511457428|  8,97381513365| 10,11877112280|  9,16709651532| 10,30793841031| 10,15732240004| 10,37872351660|  8,89955994433|  8,55509370694|  9,88739565106|  9,58331976796| 10,05706172576| 10,01493319509|  9,59665349103|  9,01570326016|  9,71195403615|  9,90283073890|  9,77799216434
Sheep                     | 10,60049548616|  9,84575255773|  9,24934506507| 10,13614351501|  9,82976845259|  9,70626962023| 10,68294902137|  9,21692160448| 10,73030853527|  9,42160514300| 10,86494157801|  9,33369058769|  9,32511457428|  0,00000000000|  7,17767713759| 10,45021807956|  8,27713130488|  9,34367028831| 10,69139863107|  9,92219934798|  9,65169575032|  8,82213182246|  9,34433256037|  9,92519967977| 10,33089717512| 10,47571399931|  9,59665349103|  9,60951991073|  9,80581304390| 10,29595297625| 10,18924382525
Goat                      | 10,60049548616|  9,77209868746|  9,31666158644|  9,37295691056|  9,55888806203|  9,77209868746|  9,17338602211|  9,68479134415|  9,45129462919|  9,30643328107| 10,73030853527| 10,60814743710|  8,97381513365|  7,17767713759|  0,00000000000| 10,63690587075|  5,88107112293| 10,17018582146| 10,62463910219| 10,10471683488|  9,78844771504|  9,75676522676| 10,83775605977| 10,47220753867| 10,39935603746| 10,10471683488| 10,26821783624|  9,23990965159|  9,30643328107| 10,43733498230| 11,08028909056
Cow                       | 10,25778576874| 11,04682260172| 11,13420766350|  9,98619234009| 10,64240962427| 10,45021807956| 10,38392868820| 10,28633815230| 10,25909288566| 10,64908625361| 10,32640940703| 10,60814743710| 10,11877112280| 10,45021807956| 10,63690587075|  0,00000000000| 11,01548579854| 10,85894876574| 10,35760098667| 11,31198016713| 10,88246343285|  9,95704381340| 11,10928760511| 10,13032762686| 11,28932124790| 10,31763929685|  9,86527922911|  9,85361355739| 10,71537564496| 10,78166503632|  9,57236633389
Buffalo                   | 10,53195354268|  9,23555537766| 10,60473262449|  9,64630855171|  9,37247310234|  9,71476741405|  8,96171992829| 10,26243831278|  9,71476741405|  9,71476741405| 10,12552058810|  9,03017879064|  9,16709651532|  8,27713130488|  5,88107112293| 11,01548579854|  0,00000000000|  9,20591769945| 10,12552058810| 10,60473262449| 10,46781489981|  9,37247310234| 10,26243831278| 10,12552058810| 10,60473262449| 10,33089717512|  9,50939082703|  9,64630855171|  9,92014400107|  9,44093196468| 10,25778576874
Wolf                      |  9,75692805488| 10,65231988246| 10,65231988246|  9,61917546602|  9,82580434931|  9,82580434931|  9,41254658274| 10,10130952703| 10,51456729360|  9,48142287717| 10,85894876574| -1,40103164260| 10,30793841031|  9,34367028831| 10,17018582146| 10,85894876574|  9,20591769945|  0,00000000000| 10,72119617689|  9,89468064374|  9,96355693817|  9,13704140502| 11,20333023789| 10,44569099917| 11,20333023789|  9,48142287717|  9,20591769945|  9,89468064374|  9,13704140502|  9,68805176045| 10,51456729360
Tiger                     |  9,43528244692| 10,35760098667| 10,66299201390| 10,22408192892| 10,37152923371| 10,75815815995| 11,09195580434| 10,88788496045| 10,32640940703|  9,75676522676|  6,55668421016| 10,60814743710| 10,15732240004| 10,69139863107| 10,62463910219| 10,35760098667| 10,12552058810| 10,72119617689|  0,00000000000|  8,68861276470| 10,33545557395| 10,89167721771|  9,34433256037|  9,99357566213|  9,92014400107| 10,89167721771| 10,67115644336| 10,22408192892|  9,95704381340| 10,22408192892| 10,05215993828
Leopard                   | 10,60049548616| 11,29177185383| 10,93225809939| 10,50915899334| 10,91329001483| 10,75459558648|  9,85698160961| 10,75420789197| 10,12445984291| 11,03090090034|  9,45129462919|  9,80322732168| 10,37872351660|  9,92219934798| 10,10471683488| 11,31198016713| 10,60473262449|  9,89468064374|  8,68861276470|  0,00000000000| 10,13032762686| 10,29084145780|  9,95527853740|  9,78844771504|  9,50939082703| 10,67319148683| 10,87262574692|  9,41158102721| 10,24828803985| 10,49251409492| 10,18924382525
Indian_Rhino              | 10,73757937313|  9,99357566213| 11,15596736230| 10,19870360922|  9,51494378559|  9,72007173268|  9,78844771504| 10,13032762686| 10,26707959158|  9,92519967977| 10,67733548576|  9,99357566213|  8,89955994433|  9,65169575032|  9,78844771504| 10,88246343285| 10,46781489981|  9,96355693817| 10,33545557395| 10,13032762686|  0,00000000000|  7,19016038526| 11,01921539758| 10,81408745049| 10,05706172576| 10,60895950340|  9,85682369741|  9,44656780323|  9,17306387378|  9,44656780323| 10,53195354268
White_Rhino               | 10,94320520359|  9,75676522676|  9,51861115056| 10,02380334228|  8,81396698799|  9,69000569788|  9,35620805349| 10,08582254958|  8,64349637271|  9,95704381340| 10,52835897115|  9,60199729283|  8,55509370694|  8,82213182246|  9,75676522676|  9,95704381340|  9,37247310234|  9,13704140502| 10,89167721771| 10,29084145780|  7,19016038526|  0,00000000000| 11,17717049145| 10,88246343285| 10,53627376215| 10,15732240004|  9,59665349103|  9,35620805349| 10,09056287116| 10,22408192892|  9,84653410783
Black_Bear                | 10,39486965571| 10,83775605977| 11,58446780946| 10,90563894610| 10,70199028709| 10,49834162809| 10,15892719640| 10,49834162809| 10,56622451442| 10,29469296908| 10,76987317343| 10,29469296908|  9,88739565106|  9,34433256037| 10,83775605977| 11,10928760511| 10,26243831278| 11,20333023789|  9,34433256037|  9,95527853740| 11,01921539758| 11,17717049145|  0,00000000000|  9,78844771504| 10,39935603746| 10,02316142373| 10,56622451442| 10,43045874175| 10,56622451442| 10,83775605977|  9,84653410783
Brown_Bear                | 10,60049548616|  9,99357566213| 10,19870360922| 10,47220753867| 10,88246343285|  9,78844771504| 11,15596736230| 10,74571146812| 10,81408745049| 11,08759137994|  9,51494378559| 10,74571146812|  9,58331976796|  9,92519967977| 10,47220753867| 10,13032762686| 10,12552058810| 10,44569099917|  9,99357566213|  9,78844771504| 10,81408745049| 10,88246343285|  9,78844771504|  0,00000000000|  7,59254268146| 10,06195164450| 10,54058352104| 10,74571146812|  9,65169575032| 11,01921539758| 10,87466326010
Polar_Bear                | 10,87466326010| 10,53627376215| 11,56315669727| 10,46781489981| 10,53627376215| 10,26243831278| 10,87856807385| 11,42623897259| 11,15240352322| 10,60473262449|  9,92014400107| 10,53627376215| 10,05706172576| 10,33089717512| 10,39935603746| 11,28932124790| 10,60473262449| 11,20333023789|  9,92014400107|  9,50939082703| 10,05706172576| 10,53627376215| 10,39935603746|  7,59254268146|  0,00000000000| 10,53627376215| 11,35778011025|  9,78322627639| 10,12552058810| 11,42623897259| 10,94320520359
Giant_Panda               | 10,39486965571| 10,14658485343| 10,79762505664| 10,87066897435| 10,37152923371| 10,80484314518| 10,60736565766| 10,35317668654| 10,05714332154| 10,01493319509| 10,32640940703| 11,07768417109| 10,01493319509| 10,47571399931| 10,10471683488| 10,31763929685| 10,33089717512|  9,48142287717| 10,89167721771| 10,67319148683| 10,60895950340| 10,15732240004| 10,02316142373| 10,06195164450| 10,53627376215|  0,00000000000| 11,20840791952| 10,46725507266| 10,27823651178| 10,40988817013| 10,53195354268
Rabbit                    |  9,84653410783| 10,53684357432| 10,52835897115| 10,20106140172|  9,49116796439|  9,26087131843|  9,32802775295| 11,00693861596|  9,98982680017| 10,26821783624| 10,59567549252|  9,05940201487|  9,59665349103|  9,59665349103| 10,26821783624|  9,86527922911|  9,50939082703|  9,20591769945| 10,67115644336| 10,87262574692|  9,85682369741|  9,59665349103| 10,56622451442| 10,54058352104| 11,35778011025| 11,20840791952|  0,00000000000|  9,46234062199|  9,93243566364| 10,06674853268| 10,12070188177
Hedgehog                  | 10,66903742965| 10,13735693346| 10,59567549252|  9,93941804993|  9,76204835495| 10,00539767778|  9,60951991073| 10,62053082349|  9,85519375742|  9,60951991073| 10,59567549252|  9,53492061655|  9,01570326016|  9,60951991073|  9,23990965159|  9,85361355739|  9,64630855171|  9,89468064374| 10,22408192892|  9,41158102721|  9,44656780323|  9,35620805349| 10,43045874175| 10,74571146812|  9,78322627639| 10,46725507266|  9,46234062199|  0,00000000000|  9,93941804993|  9,74147916641|  9,70945022086
Dormouse                  | 10,32632771222|  9,65255337382|  9,24934506507|  9,35712887458|  9,69432825731|  9,18210663711| 10,16775119759| 10,62053082349| 10,32640940703| 10,21641360465|  9,31666158644|  9,60199729283|  9,71195403615|  9,80581304390|  9,30643328107| 10,71537564496|  9,92014400107|  9,13704140502|  9,95704381340| 10,24828803985|  9,17306387378| 10,09056287116| 10,56622451442|  9,65169575032| 10,12552058810| 10,27823651178|  9,93243566364|  9,93941804993|  0,00000000000| 10,23043260336| 10,32632771222
Squirrel                  | 11,01174714708|  9,50970850156| 10,39372592840| 10,03387148469| 10,03292874551|  9,96835111180| 10,03387148469|  9,88530694687| 10,59567549252| 10,09939185758| 10,66299201390|  9,60199729283|  9,90283073890| 10,29595297625| 10,43733498230| 10,78166503632|  9,44093196468|  9,68805176045| 10,22408192892| 10,49251409492|  9,44656780323| 10,22408192892| 10,83775605977| 11,01921539758| 11,42623897259| 10,40988817013| 10,06674853268|  9,74147916641| 10,23043260336|  0,00000000000|  9,77799216434
Blue_Whale                | 10,25778576874| 10,80612131662| 10,73757937313| 10,18924382525| 10,32632771222| 10,46341159919| 10,60049548616|  9,43528244692| 10,60049548616| 10,32632771222| 10,39486965571| 10,66903742965|  9,77799216434| 10,18924382525| 11,08028909056|  9,57236633389| 10,25778576874| 10,51456729360| 10,05215993828| 10,18924382525| 10,53195354268|  9,84653410783|  9,84653410783| 10,87466326010| 10,94320520359| 10,53195354268| 10,12070188177|  9,70945022086| 10,32632771222|  9,77799216434|  0,00000000000
