                           |Human          |Pig_Chim       |Com_Chim       |Gibbon         |Baboon         |Ver_Monkey     |Macaca_Thibet  |Bor_Oran       |Sum_Oran       |Gorilla        |Cat            |Dog            |Pig            |Sheep          |Goat           |Cow            |Buffalo        |Wolf           |Tiger          |Leopard        |Indian_Rhino   |White_Rhino    |Black_Bear     |Brown_Bear     |Polar_Bear     |Giant_Panda    |Rabbit         |Hedgehog       |Dormouse       |Squirrel       |Blue_Whale     
Human                     |  0,00000000000|  7,10460330173|  5,22382001458|  9,31122063531| 10,05046251770| 10,00679504764| 10,13169495463|  9,63943247239|  9,90627148589|  8,04912064248| 10,38919430666| 10,40937869754| 10,31504057881| 10,06653509307| 10,07563173113| 10,42271896672| 10,18052871195| 10,27384678727| 10,44220075712| 10,30459953588| 10,37838774397| 10,28974359569| 10,63284626311| 10,70885597899| 10,86110219868| 10,41405302244| 10,49277850527| 10,39770817077| 10,25981955927| 10,60396002737| 10,69408583684
Pig_Chim                  |  7,10460330173|  0,00000000000|  2,54000989251|  9,05906958471|  9,53304949300|  9,40680671973| 10,18209500406|  9,73245810928|  9,82734785553|  6,27467485384| 10,57173293036| 10,45981993587| 10,59167488718| 10,19677812068| 10,35798366942| 10,50368043280| 10,28059804692| 10,15422473079| 10,35966745270| 10,81819280241| 10,44483464764| 10,32742931211| 10,95883332902| 11,04283675016| 11,11016932227| 10,74541227040| 10,53179194443| 10,53133928858| 10,04991058580| 10,77239699335| 10,88674441290
Com_Chim                  |  5,22382001458|  2,54000989251|  0,00000000000|  9,18080863808| 10,17518967318|  9,58873757654| 10,33514152133|  9,86378637229| 10,09733617950|  6,20596983407| 10,70576609351| 10,68887484413| 10,32913821797| 10,49242738400| 10,58475155680| 10,62450540820| 10,54584251095| 10,49308701871| 10,41274617974| 10,74698949044| 10,24995758180| 10,25289227130| 10,87149937505| 10,93864697361| 11,14426132008| 10,72574225640| 10,50978912232| 10,37369342111| 10,19331686483| 10,44938888623| 10,66828820071
Gibbon                    |  9,31122063531|  9,05906958471|  9,18080863808|  0,00000000000| 10,49453875684|  9,81608983233|  9,86387638312| 10,20436279558| 10,25760938071|  8,55085122925| 10,60476271237| 10,48923774839| 10,72801036814| 10,65152058099| 10,46085135349| 10,66242748065| 10,46511294121| 10,06681115346| 10,55669273491| 10,79788759465| 10,45854305261| 10,61341948312| 10,80011417713| 10,88486745550| 11,06534614872| 10,82633333005| 10,67361730901| 10,60655511549| 10,05825215146| 10,44226041959| 10,74444467296
Baboon                    | 10,05046251770|  9,53304949300| 10,17518967318| 10,49453875684|  0,00000000000| 10,06714805937| 10,00527238668| 10,32027026652| 10,62266451817| 10,04695291961| 10,49962806076| 10,59528444579| 10,32882207170| 10,61889447229| 10,20728422239| 10,70113218397| 10,40262578553| 10,72213331935| 10,72946094187| 10,70096927375| 10,28118635881| 10,17028024080| 10,63161647189| 10,70370523167| 10,85926913138| 10,64326688500| 10,25503650170|  9,94063702358| 10,51044077622| 10,64562054678| 10,86828378446
Ver_Monkey                | 10,00679504764|  9,40680671973|  9,58873757654|  9,81608983233| 10,06714805937|  0,00000000000| 10,44311348299| 10,33548960441|  9,94452546098|  9,93932231161| 10,74820431279| 10,61094588844| 10,47950583060| 10,64588049100| 10,68256606747| 10,75572136051| 10,62399134068| 10,74369721249| 10,84933706041| 10,78687006602| 10,86610687795| 10,81845382503| 10,55649458918| 10,80855214393| 11,04266688768| 10,36393654639| 10,58468872071| 10,38656208434| 10,50996457025| 10,51783150286| 10,87686170591
Macaca_Thibet             | 10,13169495463| 10,18209500406| 10,33514152133|  9,86387638312| 10,00527238668| 10,44311348299|  0,00000000000| 10,62756731367| 10,58819671029| 10,29668611749| 10,54769517131| 10,57227900343| 10,62117397821| 10,57890834348| 10,36391828795| 10,14226528266| 10,21046467106| 10,53128068959| 10,66822517122| 10,65554398762| 10,73343985863| 10,23116149070| 10,93516560338| 10,90093733655| 11,11339729363| 10,84780694141| 10,32578497936| 10,60574199591| 10,35932554097| 10,44421122301| 10,67975578549
Bor_Oran                  |  9,63943247239|  9,73245810928|  9,86378637229| 10,20436279558| 10,32027026652| 10,33548960441| 10,62756731367|  0,00000000000|  8,64084992511|  9,86060663419| 10,36289440102| 10,08524455883| 10,24475064245| 10,41844632336| 10,35138692289| 10,45801667620| 10,80704004896| 10,41074998832| 10,55961109753| 10,37225129676| 10,58028538272| 10,62767948878| 10,32179530378| 10,57780857001| 10,77774570678| 10,29024363064| 10,21063637292| 10,60241182843| 10,40310653890| 10,24183150630| 10,59704192393
Sum_Oran                  |  9,90627148589|  9,82734785553| 10,09733617950| 10,25760938071| 10,62266451817|  9,94452546098| 10,58819671029|  8,64084992511|  0,00000000000| 10,04440707469| 10,73014926613| 10,45844103582| 10,64057097046| 10,33475360398| 10,29328003133| 10,26928412218| 10,48769869814| 10,74649547451| 10,66515174494| 10,94350391374| 10,43310856491| 10,36756517666| 10,73614979231| 10,77916909198| 10,79141744365| 10,39745704795| 10,45469603662| 10,57500503637|  9,81270616230| 10,41533663802| 10,67395096851
Gorilla                   |  8,04912064248|  6,27467485384|  6,20596983407|  8,55085122925| 10,04695291961|  9,93932231161| 10,29668611749|  9,86060663419| 10,04440707469|  0,00000000000| 10,76089628763| 10,51176442071| 10,88908882914| 10,44213060923| 10,69143346564| 10,62755063424| 10,60077996613| 10,74026193347| 10,60128791706| 10,80617212009| 10,42041503951| 10,29017765947| 10,74794415866| 10,55329944079| 10,65079149307| 10,54746955383| 10,06463606489| 10,34299744828| 10,31362880453| 10,65890868421| 10,52700667571
Cat                       | 10,38919430666| 10,57173293036| 10,70576609351| 10,60476271237| 10,49962806076| 10,74820431279| 10,54769517131| 10,36289440102| 10,73014926613| 10,76089628763|  0,00000000000|  9,60393530302|  9,23830334981|  9,77901542354|  9,59462895546|  9,42868233173|  9,70396423780|  9,80172247986|  7,52720988247|  4,28383759629|  9,85602439647|  9,87429996493|  9,27278284700|  9,60900883275|  9,66955998782|  9,13363441045|  9,43161300995|  9,89858046278|  9,98622139530|  9,81421029479| 10,21416807056
Dog                       | 10,40937869754| 10,45981993587| 10,68887484413| 10,48923774839| 10,59528444579| 10,61094588844| 10,57227900343| 10,08524455883| 10,45844103582| 10,51176442071|  9,60393530302|  0,00000000000| 10,03893949681|  9,89851505751| 10,19802776053| 10,12528058536|  9,77677594457|  4,22132337646|  9,91664173561|  9,94590666153| 10,06794418765| 10,11972723333|  9,98465129551|  9,99127738331| 10,01490353171|  9,93036062381| 10,32005322089| 10,09828825973| 10,11349712446| 10,18535207369| 10,33576111222
Pig                       | 10,31504057881| 10,59167488718| 10,32913821797| 10,72801036814| 10,32882207170| 10,47950583060| 10,62117397821| 10,24475064245| 10,64057097046| 10,88908882914|  9,23830334981| 10,03893949681|  0,00000000000|  9,41363781549|  9,79939084745|  9,52155518059|  9,08788129935|  9,80197302710|  9,62472127811|  9,40280257887|  9,61294304108|  9,54888623536|  9,08639343289|  9,41310799289|  9,74390490528|  9,51447838070|  9,71208602416|  9,80266915628|  9,86525338616|  9,54745133501|  9,72883501683
Sheep                     | 10,06653509307| 10,19677812068| 10,49242738400| 10,65152058099| 10,61889447229| 10,64588049100| 10,57890834348| 10,41844632336| 10,33475360398| 10,44213060923|  9,77901542354|  9,89851505751|  9,41363781549|  0,00000000000|  7,64926749451|  8,69715468319|  9,06604596126|  9,56836660532|  9,88224846512| 10,09501512548|  9,75135105645|  9,90393628394|  9,48573215226|  9,75362911237| 10,15228017284|  9,38317598826| 10,00707224105|  9,74310808505|  9,71584198234| 10,11936620611|  9,45971278849
Goat                      | 10,07563173113| 10,35798366942| 10,58475155680| 10,46085135349| 10,20728422239| 10,68256606747| 10,36391828795| 10,35138692289| 10,29328003133| 10,69143346564|  9,59462895546| 10,19802776053|  9,79939084745|  7,64926749451|  0,00000000000|  8,74571296833|  8,49122444608|  9,77446759995|  9,81289844932|  9,54672235457|  9,91334583049| 10,00435260977|  9,99796087451| 10,12167402278|  9,95673664100| 10,13327499930|  9,88354104409|  9,69335430673|  9,74805592969| 10,15835306877|  9,19721391982
Cow                       | 10,42271896672| 10,50368043280| 10,62450540820| 10,66242748065| 10,70113218397| 10,75572136051| 10,14226528266| 10,45801667620| 10,26928412218| 10,62755063424|  9,42868233173| 10,12528058536|  9,52155518059|  8,69715468319|  8,74571296833|  0,00000000000|  7,54033089451|  9,80650082523|  9,44988994955|  9,85120061157|  9,66764776788|  9,67206325003|  9,93626849030| 10,14060903851|  9,96982573052|  9,57205323813|  9,78367584249| 10,10232984497|  9,70404786551| 10,11737425536|  9,73671925628
Buffalo                   | 10,18052871195| 10,28059804692| 10,54584251095| 10,46511294121| 10,40262578553| 10,62399134068| 10,21046467106| 10,80704004896| 10,48769869814| 10,60077996613|  9,70396423780|  9,77677594457|  9,08788129935|  9,06604596126|  8,49122444608|  7,54033089451|  0,00000000000|  9,61641627265|  9,86174005377| 10,00524188046|  9,87061383552|  9,78661429967|  9,61911427396|  9,79852045362| 10,02556640678|  9,91978431638| 10,23259372543|  9,96232287035|  9,95199929937|  9,75722485686|  9,34452386751
Wolf                      | 10,27384678727| 10,15422473079| 10,49308701871| 10,06681115346| 10,72213331935| 10,74369721249| 10,53128068959| 10,41074998832| 10,74649547451| 10,74026193347|  9,80172247986|  4,22132337646|  9,80197302710|  9,56836660532|  9,77446759995|  9,80650082523|  9,61641627265|  0,00000000000|  9,80724305902|  9,86667131339|  9,59236433664|  9,68135218679|  9,41282622624|  9,62889048325|  9,84782410162|  9,59433063242|  9,93016569476|  9,85381899522| 10,10833401469| 10,07708688048| 10,31787764925
Tiger                     | 10,44220075712| 10,35966745270| 10,41274617974| 10,55669273491| 10,72946094187| 10,84933706041| 10,66822517122| 10,55961109753| 10,66515174494| 10,60128791706|  7,52720988247|  9,91664173561|  9,62472127811|  9,88224846512|  9,81289844932|  9,44988994955|  9,86174005377|  9,80724305902|  0,00000000000|  7,30306790874|  9,75034328676|  9,24205781213|  9,69973674856|  9,55301939660|  9,65582079411|  9,65933328503|  9,66459727129| 10,24929911102|  9,99136226596|  9,48460458991| 10,48479188767
Leopard                   | 10,30459953588| 10,81819280241| 10,74698949044| 10,79788759465| 10,70096927375| 10,78687006602| 10,65554398762| 10,37225129676| 10,94350391374| 10,80617212009|  4,28383759629|  9,94590666153|  9,40280257887| 10,09501512548|  9,54672235457|  9,85120061157| 10,00524188046|  9,86667131339|  7,30306790874|  0,00000000000|  9,82424176796|  9,72331450190|  9,33630943959|  9,82074959918|  9,90944596359|  9,39195589106|  9,25874833980| 10,05518168547| 10,16953097847| 10,21213697318| 10,04809539441
Indian_Rhino              | 10,37838774397| 10,44483464764| 10,24995758180| 10,45854305261| 10,28118635881| 10,86610687795| 10,73343985863| 10,58028538272| 10,43310856491| 10,42041503951|  9,85602439647| 10,06794418765|  9,61294304108|  9,75135105645|  9,91334583049|  9,66764776788|  9,87061383552|  9,59236433664|  9,75034328676|  9,82424176796|  0,00000000000|  6,76294640653|  9,51856372268| 10,01524052215| 10,33639522067|  9,84716166324| 10,18781228599|  9,85007232997| 10,15445011278| 10,41614885303| 10,04962617371
White_Rhino               | 10,28974359569| 10,32742931211| 10,25289227130| 10,61341948312| 10,17028024080| 10,81845382503| 10,23116149070| 10,62767948878| 10,36756517666| 10,29017765947|  9,87429996493| 10,11972723333|  9,54888623536|  9,90393628394| 10,00435260977|  9,67206325003|  9,78661429967|  9,68135218679|  9,24205781213|  9,72331450190|  6,76294640653|  0,00000000000|  9,69660882268|  9,71097827732| 10,15079376073|  9,29366305883| 10,03719506272|  9,93271171534| 10,18484974993| 10,15692560326|  9,93629751860
Black_Bear                | 10,63284626311| 10,95883332902| 10,87149937505| 10,80011417713| 10,63161647189| 10,55649458918| 10,93516560338| 10,32179530378| 10,73614979231| 10,74794415866|  9,27278284700|  9,98465129551|  9,08639343289|  9,48573215226|  9,99796087451|  9,93626849030|  9,61911427396|  9,41282622624|  9,69973674856|  9,33630943959|  9,51856372268|  9,69660882268|  0,00000000000|  3,27429018263|  6,21072588856|  8,16717086392|  9,72706402464|  9,83236018586| 10,15702991144|  9,74848801617|  9,99788879089
Brown_Bear                | 10,70885597899| 11,04283675016| 10,93864697361| 10,88486745550| 10,70370523167| 10,80855214393| 10,90093733655| 10,57780857001| 10,77916909198| 10,55329944079|  9,60900883275|  9,99127738331|  9,41310799289|  9,75362911237| 10,12167402278| 10,14060903851|  9,79852045362|  9,62889048325|  9,55301939660|  9,82074959918| 10,01524052215|  9,71097827732|  3,27429018263|  0,00000000000|  2,18001490734|  7,95498038655| 10,12097212934| 10,18950763211| 10,08416832513|  9,97035671447|  9,95644059683
Polar_Bear                | 10,86110219868| 11,11016932227| 11,14426132008| 11,06534614872| 10,85926913138| 11,04266688768| 11,11339729363| 10,77774570678| 10,79141744365| 10,65079149307|  9,66955998782| 10,01490353171|  9,74390490528| 10,15228017284|  9,95673664100|  9,96982573052| 10,02556640678|  9,84782410162|  9,65582079411|  9,90944596359| 10,33639522067| 10,15079376073|  6,21072588856|  2,18001490734|  0,00000000000|  7,57860878810| 10,25404772854| 10,37635292814| 10,00492457055|  9,98025947809| 10,15908269619
Giant_Panda               | 10,41405302244| 10,74541227040| 10,72574225640| 10,82633333005| 10,64326688500| 10,36393654639| 10,84780694141| 10,29024363064| 10,39745704795| 10,54746955383|  9,13363441045|  9,93036062381|  9,51447838070|  9,38317598826| 10,13327499930|  9,57205323813|  9,91978431638|  9,59433063242|  9,65933328503|  9,39195589106|  9,84716166324|  9,29366305883|  8,16717086392|  7,95498038655|  7,57860878810|  0,00000000000|  9,70371326680| 10,00791929938|  9,44351546057|  9,64491772264|  9,87643227156
Rabbit                    | 10,49277850527| 10,53179194443| 10,50978912232| 10,67361730901| 10,25503650170| 10,58468872071| 10,32578497936| 10,21063637292| 10,45469603662| 10,06463606489|  9,43161300995| 10,32005322089|  9,71208602416| 10,00707224105|  9,88354104409|  9,78367584249| 10,23259372543|  9,93016569476|  9,66459727129|  9,25874833980| 10,18781228599| 10,03719506272|  9,72706402464| 10,12097212934| 10,25404772854|  9,70371326680|  0,00000000000|  9,77336354592| 10,09719062733|  9,89475550934| 10,14138543696
Hedgehog                  | 10,39770817077| 10,53133928858| 10,37369342111| 10,60655511549|  9,94063702358| 10,38656208434| 10,60574199591| 10,60241182843| 10,57500503637| 10,34299744828|  9,89858046278| 10,09828825973|  9,80266915628|  9,74310808505|  9,69335430673| 10,10232984497|  9,96232287035|  9,85381899522| 10,24929911102| 10,05518168547|  9,85007232997|  9,93271171534|  9,83236018586| 10,18950763211| 10,37635292814| 10,00791929938|  9,77336354592|  0,00000000000|  9,25137230635|  9,53305284762| 10,13413815429
Dormouse                  | 10,25981955927| 10,04991058580| 10,19331686483| 10,05825215146| 10,51044077622| 10,50996457025| 10,35932554097| 10,40310653890|  9,81270616230| 10,31362880453|  9,98622139530| 10,11349712446|  9,86525338616|  9,71584198234|  9,74805592969|  9,70404786551|  9,95199929937| 10,10833401469|  9,99136226596| 10,16953097847| 10,15445011278| 10,18484974993| 10,15702991144| 10,08416832513| 10,00492457055|  9,44351546057| 10,09719062733|  9,25137230635|  0,00000000000| 10,03740341890|  9,91246377411
Squirrel                  | 10,60396002737| 10,77239699335| 10,44938888623| 10,44226041959| 10,64562054678| 10,51783150286| 10,44421122301| 10,24183150630| 10,41533663802| 10,65890868421|  9,81421029479| 10,18535207369|  9,54745133501| 10,11936620611| 10,15835306877| 10,11737425536|  9,75722485686| 10,07708688048|  9,48460458991| 10,21213697318| 10,41614885303| 10,15692560326|  9,74848801617|  9,97035671447|  9,98025947809|  9,64491772264|  9,89475550934|  9,53305284762| 10,03740341890|  0,00000000000|  9,72860858699
Blue_Whale                | 10,69408583684| 10,88674441290| 10,66828820071| 10,74444467296| 10,86828378446| 10,87686170591| 10,67975578549| 10,59704192393| 10,67395096851| 10,52700667571| 10,21416807056| 10,33576111222|  9,72883501683|  9,45971278849|  9,19721391982|  9,73671925628|  9,34452386751| 10,31787764925| 10,48479188767| 10,04809539441| 10,04962617371|  9,93629751860|  9,99788879089|  9,95644059683| 10,15908269619|  9,87643227156| 10,14138543696| 10,13413815429|  9,91246377411|  9,72860858699|  0,00000000000
