                           |Human          |Pig_Chim       |Com_Chim       |Gibbon         |Baboon         |Ver_Monkey     |Macaca_Thibet  |Bor_Oran       |Sum_Oran       |Gorilla        |Cat            |Dog            |Pig            |Sheep          |Goat           |Cow            |Buffalo        |Wolf           |Tiger          |Leopard        |Indian_Rhino   |White_Rhino    |Black_Bear     |Brown_Bear     |Polar_Bear     |Giant_Panda    |Rabbit         |Hedgehog       |Dormouse       |Squirrel       |Blue_Whale     
Human                     |  0,00000000000| 10,05521603650|  9,78802566488|  9,87652837986| 10,16194444866| 10,34947903294|  9,98170577265|  9,68569041526|  9,70944115055|  9,91411941890|  9,83482233930| 10,18107587203| 10,54589195142| 10,64819015138| 10,12691545659| 10,15301629839| 10,44276485111|  9,69672077274| 10,01342154399|  9,88416151738| 10,16586973412| 10,24976355419|  9,99757775394|  9,90714735424|  9,62812993677| 10,29750043992| 10,34444571559| 10,27620571156|  9,81115261743|  9,97382301329| 10,08391677655
Pig_Chim                  | 10,05521603650|  0,00000000000|  9,97154014952|  4,97008865969| 10,00198679335|  9,78594241918|  9,90491780434|  9,83266983801| 10,00542618801|  8,84189767390| 10,23458272553|  9,94734169447|  9,99165689019| 10,23917592628|  9,97112676568| 10,40040331857|  9,62058346482|  9,67213109916| 10,31445031620|  9,91556460104| 10,53460103133| 10,28732406628|  9,95820634850| 10,21131691488| 10,15717748106| 10,36853000632|  9,89365753486| 10,24778964740|  8,98014469504| 10,20194564129| 10,08568629222
Com_Chim                  |  9,78802566488|  9,97154014952|  0,00000000000|  8,70276520988|  8,62983137534|  7,25534092054|  9,40848668741|  9,24241716906|  9,24565704220|  3,18807733039|  9,89015090485|  9,73903324120| 10,59322543823| 10,24360363037|  9,94865509098| 10,32504489858| 10,39854001898|  9,58591019042| 10,06676339359| 10,19478574782|  9,95337139168| 10,19877154025|  9,85273731971|  9,96495234703|  9,76790041618|  9,91133339122|  9,27461099738| 10,59531129223|  9,63436389600|  9,86500993137|  9,84161942633
Gibbon                    |  9,87652837986|  4,97008865969|  8,70276520988|  0,00000000000|  9,54513228132|  9,20654844804|  7,09420351889|  9,18910634690|  9,45369761311|  8,67943581857| 10,26712350996|  9,22105423999| 10,04197707006|  9,56310603480| 10,44649802393| 10,33212650649| 10,25232031645|  9,51364021383| 10,28421422227|  9,97976007993| 10,25710955212| 10,03810237333|  9,82992070378|  9,84193634273|  9,82854380063|  9,97414719273|  9,81874835310| 10,25978030495|  9,35298478550|  8,90456893133| 10,20411631202
Baboon                    | 10,16194444866| 10,00198679335|  8,62983137534|  9,54513228132|  0,00000000000|  8,84553049514|  9,64763028865|  9,66023698939|  9,51295935762|  9,42707574774| 10,31121750716|  9,55296155948| 10,49137753094| 10,39286652051|  9,82730587529| 10,14248590713| 10,57101325475|  9,57696769510| 10,27514426392| 10,40948423527|  9,87879516212| 10,23764254835| 10,20141269568| 10,26428227520|  9,94636157198| 10,28877748012|  9,48458055057| 10,40734106720|  8,55089475973|  9,78347143021| 10,56645779250
Ver_Monkey                | 10,34947903294|  9,78594241918|  7,25534092054|  9,20654844804|  8,84553049514|  0,00000000000| 10,53764818382|  9,39755661069|  7,78005650100|  9,79475650105| 10,14288916784|  9,34345353706| 10,03068457742| 10,59373068748| 10,36069822011| 10,36264122298| 10,73455583447|  9,62742967076| 10,28579870563| 10,40685979041| 10,25608164902| 10,25463928790| 10,16896327361| 10,08864637399|  9,87806703381| 10,17113821880| 10,15284323081| 10,32480087181|  9,83213890079|  9,98528367426| 10,43389680114
Macaca_Thibet             |  9,98170577265|  9,90491780434|  9,40848668741|  7,09420351889|  9,64763028865| 10,53764818382|  0,00000000000|  9,76332648729| 10,03774738584| 10,08984573466| 10,86323564936| 10,37950953606| 10,27692466508| 10,53002867837| 10,43110673957| 10,27845675764| 10,54404652754| 10,13337791729|  9,91066722209|  9,78157961446| 10,40730583672| 10,33869335357| 10,26676573612| 10,50265568051| 10,43507755160| 10,18127078487|  9,98040128830| 10,20009487944| 10,18765192941| 10,30601746673| 10,18825090519
Bor_Oran                  |  9,68569041526|  9,83266983801|  9,24241716906|  9,18910634690|  9,66023698939|  9,39755661069|  9,76332648729|  0,00000000000|  7,66449030349|  9,38469822285| 10,29201770324|  9,19230033460| 10,07141654439|  7,93789358020| 10,07944533655| 10,37619003997| 10,49823552264|  9,25168186745|  9,82275674837|  9,74735257551|  9,65732338231|  9,83862258909|  9,95132130837|  9,72576564965|  9,81451315298|  9,76223376535|  9,42172006911|  9,91189656163| 10,06005192371|  9,63238107732| 10,24897785382
Sum_Oran                  |  9,70944115055| 10,00542618801|  9,24565704220|  9,45369761311|  9,51295935762|  7,78005650100| 10,03774738584|  7,66449030349|  0,00000000000|  9,37429316971| 10,38214601828|  9,12637632513|  9,96507480239|  9,98394815239| 10,05470402865| 10,44573468341| 10,40680718659|  9,30291219247|  9,58712471563| 10,00157475986|  9,42714020958| 10,03104416224|  9,68925815117|  9,65399419569|  9,72245801472| 10,02317443637|  9,14968753406| 10,11744065415| 10,09665251032|  9,80562921711| 10,17743190997
Gorilla                   |  9,91411941890|  8,84189767390|  3,18807733039|  8,67943581857|  9,42707574774|  9,79475650105| 10,08984573466|  9,38469822285|  9,37429316971|  0,00000000000| 10,00423041178|  9,64485752442|  8,52013951157|  9,98849463777|  9,80115201811| 10,17292489457|  9,24633609565|  9,61473107368| 10,02005373324| 10,06699770197| 10,52187863059|  9,68004797906|  9,98396192487|  9,78479472774|  9,96147878750| 10,30409905416|  9,56465208248|  9,93795787316|  9,79735423633|  9,47625995074| 10,17147529426
Cat                       |  9,83482233930| 10,23458272553|  9,89015090485| 10,26712350996| 10,31121750716| 10,14288916784| 10,86323564936| 10,29201770324| 10,38214601828| 10,00423041178|  0,00000000000| 10,38647278186| 11,10129457121| 11,10106746713| 10,65011691284| 10,77709946789| 10,59909703968| 10,36905026068| 10,58580244766| 10,28404983563| 10,77229498530| 10,66887398552| 10,48687232685|  9,96014616268| 10,46505946590| 10,72573426957| 10,26316133107| 10,69319347142| 10,33945498663| 10,11965314121| 10,39643693897
Dog                       | 10,18107587203|  9,94734169447|  9,73903324120|  9,22105423999|  9,55296155948|  9,34345353706| 10,37950953606|  9,19230033460|  9,12637632513|  9,64485752442| 10,38647278186|  0,00000000000| 10,07171031871|  9,97778813441| 10,03391959582| 10,35397619510| 10,22398675576| -4,82853503744| 10,21489952804|  9,83570024500| 10,42177186831| 10,40811897583|  9,97791690011| 10,13529260161|  9,76878984319| 10,11374940366|  9,60747231414|  9,70647236150| 10,38137182624|  9,95397086141| 10,18514202110
Pig                       | 10,54589195142|  9,99165689019| 10,59322543823| 10,04197707006| 10,49137753094| 10,03068457742| 10,27692466508| 10,07141654439|  9,96507480239|  8,52013951157| 11,10129457121| 10,07171031871|  0,00000000000|  8,52867809536| 10,13581834020| 10,57901120199| 10,61500757732| 10,07961795807| 10,38479099952| 10,86712746889| 10,72447705578| 10,77942123809| 10,72834198947| 10,51983816464| 10,69842216071| 10,92435627288| 10,66238655871|  9,53453507321|  8,44838254286| 10,11752365978| 10,69173510683
Sheep                     | 10,64819015138| 10,23917592628| 10,24360363037|  9,56310603480| 10,39286652051| 10,59373068748| 10,53002867837|  7,93789358020|  9,98394815239|  9,98849463777| 11,10106746713|  9,97778813441|  8,52867809536|  0,00000000000| 11,21905779253| 11,00322840763| 10,38766347001|  9,84385945384| 10,43742096084| 10,51863446074| 10,44009077544| 10,59249157668| 10,58544624961| 10,61375745286| 10,16894445964| 10,64396292660|  9,86383100558|  9,91347077083| 10,59231330926| 10,16862808522| 10,96188446156
Goat                      | 10,12691545659|  9,97112676568|  9,94865509098| 10,44649802393|  9,82730587529| 10,36069822011| 10,43110673957| 10,07944533655| 10,05470402865|  9,80115201811| 10,65011691284| 10,03391959582| 10,13581834020| 11,21905779253|  0,00000000000| 10,75758204172|  3,83941691936|  9,66884851486| 10,33167652404| 10,84744485265| 10,96080537198| 10,45235625756| 10,42015974145| 10,55607196266| 10,62153185031| 10,73251737206| 10,26507158748|  9,54585481670| 10,18390639954| 10,20393465360| 10,62312459833
Cow                       | 10,15301629839| 10,40040331857| 10,32504489858| 10,33212650649| 10,14248590713| 10,36264122298| 10,27845675764| 10,37619003997| 10,44573468341| 10,17292489457| 10,77709946789| 10,35397619510| 10,57901120199| 11,00322840763| 10,75758204172|  0,00000000000| 11,05339655264| 10,28878338095| 10,63566868554| 10,62289677533| 10,36311367622| 10,70451040020| 10,29660581763| 10,39361484708| 10,52649399955| 10,48760798135| 10,16096359191| 11,01069725648| 10,57453876076| 10,23257855192| 10,56225915716
Buffalo                   | 10,44276485111|  9,62058346482| 10,39854001898| 10,25232031645| 10,57101325475| 10,73455583447| 10,54404652754| 10,49823552264| 10,40680718659|  9,24633609565| 10,59909703968| 10,22398675576| 10,61500757732| 10,38766347001|  3,83941691936| 11,05339655264|  0,00000000000| 10,07773594483| 10,45893305142| 10,25776753835| 11,16205084364| 10,03947543246| 10,09991258482| 10,54094880851| 10,47952495038| 10,61896621905|  9,55483212821| 10,47006295572|  9,78797099765| 10,79880192294| 10,34906376348
Wolf                      |  9,69672077274|  9,67213109916|  9,58591019042|  9,51364021383|  9,57696769510|  9,62742967076| 10,13337791729|  9,25168186745|  9,30291219247|  9,61473107368| 10,36905026068| -4,82853503744| 10,07961795807|  9,84385945384|  9,66884851486| 10,28878338095| 10,07773594483|  0,00000000000| 10,26526631174| 10,09646697442|  9,64536715294| 10,49755800859|  9,73694627835| 10,12560733005| 10,08473772002| 10,16426129549|  9,50161067122|  9,22892929885|  9,99975340779|  9,99093078788| 10,26184418204
Tiger                     | 10,01342154399| 10,31445031620| 10,06676339359| 10,28421422227| 10,27514426392| 10,28579870563|  9,91066722209|  9,82275674837|  9,58712471563| 10,02005373324| 10,58580244766| 10,21489952804| 10,38479099952| 10,43742096084| 10,33167652404| 10,63566868554| 10,45893305142| 10,26526631174|  0,00000000000|  9,12016730675| 10,09895456760| 10,69569306318|  9,92608682437|  9,79131647923|  9,96063777398|  9,96158460029| 10,28152084907| 10,83812928963| 10,12986977605| 10,61105418072| 10,54686127126
Leopard                   |  9,88416151738|  9,91556460104| 10,19478574782|  9,97976007993| 10,40948423527| 10,40685979041|  9,78157961446|  9,74735257551| 10,00157475986| 10,06699770197| 10,28404983563|  9,83570024500| 10,86712746889| 10,51863446074| 10,84744485265| 10,62289677533| 10,25776753835| 10,09646697442|  9,12016730675|  0,00000000000| 10,51011273774| 10,70954725566|  9,99365414638| 10,02849964471|  9,94670978717| 10,05636795276| 10,04509782264| 10,55845509592| 10,23797559591| 10,41683258665| 10,52711538967
Indian_Rhino              | 10,16586973412| 10,53460103133|  9,95337139168| 10,25710955212|  9,87879516212| 10,25608164902| 10,40730583672|  9,65732338231|  9,42714020958| 10,52187863059| 10,77229498530| 10,42177186831| 10,72447705578| 10,44009077544| 10,96080537198| 10,36311367622| 11,16205084364|  9,64536715294| 10,09895456760| 10,51011273774|  0,00000000000| 10,29863696241| 10,59861604490| 10,35293510738| 10,27758003914| 10,73583370052|  8,40707938078| 10,35982133863| 10,43536810660| 10,65650107223| 10,71820679262
White_Rhino               | 10,24976355419| 10,28732406628| 10,19877154025| 10,03810237333| 10,23764254835| 10,25463928790| 10,33869335357|  9,83862258909| 10,03104416224|  9,68004797906| 10,66887398552| 10,40811897583| 10,77942123809| 10,59249157668| 10,45235625756| 10,70451040020| 10,03947543246| 10,49755800859| 10,69569306318| 10,70954725566| 10,29863696241|  0,00000000000| 10,49257213137| 10,38878388688| 10,14516848842| 10,45411409740|  9,64603063717| 10,53390452065| 10,43950159140|  8,48063981718| 10,94675200515
Black_Bear                |  9,99757775394|  9,95820634850|  9,85273731971|  9,82992070378| 10,20141269568| 10,16896327361| 10,26676573612|  9,95132130837|  9,68925815117|  9,98396192487| 10,48687232685|  9,97791690011| 10,72834198947| 10,58544624961| 10,42015974145| 10,29660581763| 10,09991258482|  9,73694627835|  9,92608682437|  9,99365414638| 10,59861604490| 10,49257213137|  0,00000000000|  9,76749321892|  9,34331764663|  9,93314877261|  9,99201910306| 10,39285063376|  9,97702610523| 10,04333498717| 10,39259484362
Brown_Bear                |  9,90714735424| 10,21131691488|  9,96495234703|  9,84193634273| 10,26428227520| 10,08864637399| 10,50265568051|  9,72576564965|  9,65399419569|  9,78479472774|  9,96014616268| 10,13529260161| 10,51983816464| 10,61375745286| 10,55607196266| 10,39361484708| 10,54094880851| 10,12560733005|  9,79131647923| 10,02849964471| 10,35293510738| 10,38878388688|  9,76749321892|  0,00000000000|  9,38861968257| 10,31273373778| 10,08926887691| 10,40897467253| 10,38836870939| 10,04381439895| 10,33032700916
Polar_Bear                |  9,62812993677| 10,15717748106|  9,76790041618|  9,82854380063|  9,94636157198|  9,87806703381| 10,43507755160|  9,81451315298|  9,72245801472|  9,96147878750| 10,46505946590|  9,76878984319| 10,69842216071| 10,16894445964| 10,62153185031| 10,52649399955| 10,47952495038| 10,08473772002|  9,96063777398|  9,94670978717| 10,27758003914| 10,14516848842|  9,34331764663|  9,38861968257|  0,00000000000|  9,82532368475|  9,99428691603| 10,55517066206| 10,12496741275| 10,06354330592| 10,12717931308
Giant_Panda               | 10,29750043992| 10,36853000632|  9,91133339122|  9,97414719273| 10,28877748012| 10,17113821880| 10,18127078487|  9,76223376535| 10,02317443637| 10,30409905416| 10,72573426957| 10,11374940366| 10,92435627288| 10,64396292660| 10,73251737206| 10,48760798135| 10,61896621905| 10,16426129549|  9,96158460029| 10,05636795276| 10,73583370052| 10,45411409740|  9,93314877261| 10,31273373778|  9,82532368475|  0,00000000000| 10,04549101016| 10,67732144302| 10,52648351599| 10,02564043328| 10,25760951684
Rabbit                    | 10,34444571559|  9,89365753486|  9,27461099738|  9,81874835310|  9,48458055057| 10,15284323081|  9,98040128830|  9,42172006911|  9,14968753406|  9,56465208248| 10,26316133107|  9,60747231414| 10,66238655871|  9,86383100558| 10,26507158748| 10,16096359191|  9,55483212821|  9,50161067122| 10,28152084907| 10,04509782264|  8,40707938078|  9,64603063717|  9,99201910306| 10,08926887691|  9,99428691603| 10,04549101016|  0,00000000000| 10,37865405517|  9,43626704818|  9,57148887404| 10,20924672085
Hedgehog                  | 10,27620571156| 10,24778964740| 10,59531129223| 10,25978030495| 10,40734106720| 10,32480087181| 10,20009487944|  9,91189656163| 10,11744065415|  9,93795787316| 10,69319347142|  9,70647236150|  9,53453507321|  9,91347077083|  9,54585481670| 11,01069725648| 10,47006295572|  9,22892929885| 10,83812928963| 10,55845509592| 10,35982133863| 10,53390452065| 10,39285063376| 10,40897467253| 10,55517066206| 10,67732144302| 10,37865405517|  0,00000000000| 10,59727393831|  9,93087010484| 10,99822938113
Dormouse                  |  9,81115261743|  8,98014469504|  9,63436389600|  9,35298478550|  8,55089475973|  9,83213890079| 10,18765192941| 10,06005192371| 10,09665251032|  9,79735423633| 10,33945498663| 10,38137182624|  8,44838254286| 10,59231330926| 10,18390639954| 10,57453876076|  9,78797099765|  9,99975340779| 10,12986977605| 10,23797559591| 10,43536810660| 10,43950159140|  9,97702610523| 10,38836870939| 10,12496741275| 10,52648351599|  9,43626704818| 10,59727393831|  0,00000000000|  9,13717303616| 10,65681962377
Squirrel                  |  9,97382301329| 10,20194564129|  9,86500993137|  8,90456893133|  9,78347143021|  9,98528367426| 10,30601746673|  9,63238107732|  9,80562921711|  9,47625995074| 10,11965314121|  9,95397086141| 10,11752365978| 10,16862808522| 10,20393465360| 10,23257855192| 10,79880192294|  9,99093078788| 10,61105418072| 10,41683258665| 10,65650107223|  8,48063981718| 10,04333498717| 10,04381439895| 10,06354330592| 10,02564043328|  9,57148887404|  9,93087010484|  9,13717303616|  0,00000000000| 10,63876927448
Blue_Whale                | 10,08391677655| 10,08568629222|  9,84161942633| 10,20411631202| 10,56645779250| 10,43389680114| 10,18825090519| 10,24897785382| 10,17743190997| 10,17147529426| 10,39643693897| 10,18514202110| 10,69173510683| 10,96188446156| 10,62312459833| 10,56225915716| 10,34906376348| 10,26184418204| 10,54686127126| 10,52711538967| 10,71820679262| 10,94675200515| 10,39259484362| 10,33032700916| 10,12717931308| 10,25760951684| 10,20924672085| 10,99822938113| 10,65681962377| 10,63876927448|  0,00000000000
