                           |Human          |Pig_Chim       |Com_Chim       |Gibbon         |Baboon         |Ver_Monkey     |Macaca_Thibet  |Bor_Oran       |Sum_Oran       |Gorilla        |Cat            |Dog            |Pig            |Sheep          |Goat           |Cow            |Buffalo        |Wolf           |Tiger          |Leopard        |Indian_Rhino   |White_Rhino    |Black_Bear     |Brown_Bear     |Polar_Bear     |Giant_Panda    |Rabbit         |Hedgehog       |Dormouse       |Squirrel       |Blue_Whale     
Human                     |  0,00000000000|307,84076473507|307,84076473507|307,84076473507|307,84076473507|307,84076473507|307,84076473507|307,84076473507|307,84076473507|307,84076473507|311,98932019190|307,84076473507|307,84076473507|307,84076473507|307,84076473507|307,84076473507|307,84076473507|307,84076473507|307,84076473507|307,84076473507|307,84076473507|307,84076473507|307,84076473507|307,84076473507|307,84076473507|307,84076473507|307,84076473507|294,92544744536|307,84076473507|307,84076473507|320,15048208038
Pig_Chim                  |307,84076473507|  0,00000000000|298,70628817816|295,41320638887|298,70628817816|298,70628817816|295,41320638887|303,21139199092|303,21139199092|298,70628817816|311,98932019190|300,52773826469|275,79995799286|275,79995799286|302,08837872157|298,70628817816|302,08837872157|300,52773826469|306,94317920854|302,08837872157|306,94317920854|305,15195813519|289,29754017961|303,21139199092|298,70628817816|306,94317920854|298,70628817816|307,84076473507|263,28216537672|305,15195813519|320,15048208038
Com_Chim                  |307,84076473507|298,70628817816|  0,00000000000|298,70628817816|293,30580030963|250,64702560240|298,70628817816|303,21139199092|303,21139199092|273,61035809086|311,98932019190|300,52773826469|298,70628817816|298,70628817816|302,08837872157|293,30580030963|302,08837872157|300,52773826469|306,94317920854|302,08837872157|306,94317920854|305,15195813519|298,70628817816|303,21139199092|278,89373703582|306,94317920854|294,55823506759|307,84076473507|298,70628817816|305,15195813519|320,15048208038
Gibbon                    |307,84076473507|295,41320638887|298,70628817816|  0,00000000000|298,70628817816|298,70628817816|237,38847967632|303,21139199092|303,21139199092|298,70628817816|311,98932019190|300,52773826469|295,41320638887|295,41320638887|302,08837872157|298,70628817816|302,08837872157|300,52773826469|306,94317920854|302,08837872157|306,94317920854|305,15195813519|295,41320638887|303,21139199092|298,70628817816|306,94317920854|298,70628817816|307,84076473507|295,41320638887|305,15195813519|320,15048208038
Baboon                    |307,84076473507|298,70628817816|293,30580030963|298,70628817816|  0,00000000000|293,30580030963|298,70628817816|303,21139199092|303,21139199092|293,30580030963|311,98932019190|300,52773826469|298,70628817816|298,70628817816|302,08837872157|292,77532748795|302,08837872157|300,52773826469|306,94317920854|302,08837872157|306,94317920854|305,15195813519|298,70628817816|303,21139199092|293,30580030963|306,94317920854|294,55823506759|307,84076473507|298,70628817816|305,15195813519|320,15048208038
Ver_Monkey                |307,84076473507|298,70628817816|250,64702560240|298,70628817816|293,30580030963|  0,00000000000|298,70628817816|303,21139199092|303,21139199092|273,61035809086|311,98932019190|300,52773826469|298,70628817816|298,70628817816|302,08837872157|293,30580030963|302,08837872157|300,52773826469|306,94317920854|302,08837872157|306,94317920854|305,15195813519|298,70628817816|303,21139199092|278,89373703582|306,94317920854|294,55823506759|307,84076473507|298,70628817816|305,15195813519|320,15048208038
Macaca_Thibet             |307,84076473507|295,41320638887|298,70628817816|237,38847967632|298,70628817816|298,70628817816|  0,00000000000|303,21139199092|303,21139199092|298,70628817816|311,98932019190|300,52773826469|295,41320638887|295,41320638887|302,08837872157|298,70628817816|302,08837872157|300,52773826469|306,94317920854|302,08837872157|306,94317920854|305,15195813519|295,41320638887|303,21139199092|298,70628817816|306,94317920854|298,70628817816|307,84076473507|295,41320638887|305,15195813519|320,15048208038
Bor_Oran                  |307,84076473507|303,21139199092|303,21139199092|303,21139199092|303,21139199092|303,21139199092|303,21139199092|  0,00000000000|268,01463262010|303,21139199092|311,98932019190|303,21139199092|303,21139199092|303,21139199092|303,21139199092|303,21139199092|303,21139199092|303,21139199092|306,94317920854|303,21139199092|306,94317920854|305,15195813519|303,21139199092|303,05013146766|303,21139199092|306,94317920854|303,21139199092|307,84076473507|303,21139199092|305,15195813519|320,15048208038
Sum_Oran                  |307,84076473507|303,21139199092|303,21139199092|303,21139199092|303,21139199092|303,21139199092|303,21139199092|268,01463262010|  0,00000000000|303,21139199092|311,98932019190|303,21139199092|303,21139199092|303,21139199092|303,21139199092|303,21139199092|303,21139199092|303,21139199092|306,94317920854|303,21139199092|306,94317920854|305,15195813519|303,21139199092|303,05013146766|303,21139199092|306,94317920854|303,21139199092|307,84076473507|303,21139199092|305,15195813519|320,15048208038
Gorilla                   |307,84076473507|298,70628817816|273,61035809086|298,70628817816|293,30580030963|273,61035809086|298,70628817816|303,21139199092|303,21139199092|  0,00000000000|311,98932019190|300,52773826469|298,70628817816|298,70628817816|302,08837872157|293,30580030963|302,08837872157|300,52773826469|306,94317920854|302,08837872157|306,94317920854|305,15195813519|298,70628817816|303,21139199092|278,89373703582|306,94317920854|294,55823506759|307,84076473507|298,70628817816|305,15195813519|320,15048208038
Cat                       |311,98932019190|311,98932019190|311,98932019190|311,98932019190|311,98932019190|311,98932019190|311,98932019190|311,98932019190|311,98932019190|311,98932019190|  0,00000000000|311,98932019190|311,98932019190|311,98932019190|311,98932019190|311,98932019190|311,98932019190|311,98932019190|311,98932019190|311,98932019190|311,98932019190|311,98932019190|311,98932019190|311,98932019190|311,98932019190|311,98932019190|311,98932019190|311,98932019190|311,98932019190|311,98932019190|320,15048208038
Dog                       |307,84076473507|300,52773826469|300,52773826469|300,52773826469|300,52773826469|300,52773826469|300,52773826469|303,21139199092|303,21139199092|300,52773826469|311,98932019190|  0,00000000000|300,52773826469|300,52773826469|302,08837872157|300,52773826469|302,08837872157|169,61332598326|306,94317920854|302,08837872157|306,94317920854|305,15195813519|300,52773826469|303,21139199092|300,52773826469|306,94317920854|300,52773826469|307,84076473507|300,52773826469|305,15195813519|320,15048208038
Pig                       |307,84076473507|275,79995799286|298,70628817816|295,41320638887|298,70628817816|298,70628817816|295,41320638887|303,21139199092|303,21139199092|298,70628817816|311,98932019190|300,52773826469|  0,00000000000|272,59638072428|302,08837872157|298,70628817816|302,08837872157|300,52773826469|306,94317920854|302,08837872157|306,94317920854|305,15195813519|289,29754017961|303,21139199092|298,70628817816|306,94317920854|298,70628817816|307,84076473507|275,79995799286|305,15195813519|320,15048208038
Sheep                     |307,84076473507|275,79995799286|298,70628817816|295,41320638887|298,70628817816|298,70628817816|295,41320638887|303,21139199092|303,21139199092|298,70628817816|311,98932019190|300,52773826469|272,59638072428|  0,00000000000|302,08837872157|298,70628817816|302,08837872157|300,52773826469|306,94317920854|302,08837872157|306,94317920854|305,15195813519|289,29754017961|303,21139199092|298,70628817816|306,94317920854|298,70628817816|307,84076473507|275,79995799286|305,15195813519|320,15048208038
Goat                      |307,84076473507|302,08837872157|302,08837872157|302,08837872157|302,08837872157|302,08837872157|302,08837872157|303,21139199092|303,21139199092|302,08837872157|311,98932019190|302,08837872157|302,08837872157|302,08837872157|  0,00000000000|302,08837872157|206,86990162598|302,08837872157|306,94317920854|285,59084018078|306,94317920854|305,15195813519|302,08837872157|303,21139199092|302,08837872157|306,94317920854|302,08837872157|307,84076473507|302,08837872157|305,15195813519|320,15048208038
Cow                       |307,84076473507|298,70628817816|293,30580030963|298,70628817816|292,77532748795|293,30580030963|298,70628817816|303,21139199092|303,21139199092|293,30580030963|311,98932019190|300,52773826469|298,70628817816|298,70628817816|302,08837872157|  0,00000000000|302,08837872157|300,52773826469|306,94317920854|302,08837872157|306,94317920854|305,15195813519|298,70628817816|303,21139199092|293,30580030963|306,94317920854|294,55823506759|307,84076473507|298,70628817816|305,15195813519|320,15048208038
Buffalo                   |307,84076473507|302,08837872157|302,08837872157|302,08837872157|302,08837872157|302,08837872157|302,08837872157|303,21139199092|303,21139199092|302,08837872157|311,98932019190|302,08837872157|302,08837872157|302,08837872157|206,86990162598|302,08837872157|  0,00000000000|302,08837872157|306,94317920854|285,59084018078|306,94317920854|305,15195813519|302,08837872157|303,21139199092|302,08837872157|306,94317920854|302,08837872157|307,84076473507|302,08837872157|305,15195813519|320,15048208038
Wolf                      |307,84076473507|300,52773826469|300,52773826469|300,52773826469|300,52773826469|300,52773826469|300,52773826469|303,21139199092|303,21139199092|300,52773826469|311,98932019190|169,61332598326|300,52773826469|300,52773826469|302,08837872157|300,52773826469|302,08837872157|  0,00000000000|306,94317920854|302,08837872157|306,94317920854|305,15195813519|300,52773826469|303,21139199092|300,52773826469|306,94317920854|300,52773826469|307,84076473507|300,52773826469|305,15195813519|320,15048208038
Tiger                     |307,84076473507|306,94317920854|306,94317920854|306,94317920854|306,94317920854|306,94317920854|306,94317920854|306,94317920854|306,94317920854|306,94317920854|311,98932019190|306,94317920854|306,94317920854|306,94317920854|306,94317920854|306,94317920854|306,94317920854|306,94317920854|  0,00000000000|306,94317920854|275,17909308958|306,94317920854|306,94317920854|306,94317920854|306,94317920854|304,88345134569|306,94317920854|307,84076473507|306,94317920854|306,94317920854|320,15048208038
Leopard                   |307,84076473507|302,08837872157|302,08837872157|302,08837872157|302,08837872157|302,08837872157|302,08837872157|303,21139199092|303,21139199092|302,08837872157|311,98932019190|302,08837872157|302,08837872157|302,08837872157|285,59084018078|302,08837872157|285,59084018078|302,08837872157|306,94317920854|  0,00000000000|306,94317920854|305,15195813519|302,08837872157|303,21139199092|302,08837872157|306,94317920854|302,08837872157|307,84076473507|302,08837872157|305,15195813519|320,15048208038
Indian_Rhino              |307,84076473507|306,94317920854|306,94317920854|306,94317920854|306,94317920854|306,94317920854|306,94317920854|306,94317920854|306,94317920854|306,94317920854|311,98932019190|306,94317920854|306,94317920854|306,94317920854|306,94317920854|306,94317920854|306,94317920854|306,94317920854|275,17909308958|306,94317920854|  0,00000000000|306,94317920854|306,94317920854|306,94317920854|306,94317920854|304,88345134569|306,94317920854|307,84076473507|306,94317920854|306,94317920854|320,15048208038
White_Rhino               |307,84076473507|305,15195813519|305,15195813519|305,15195813519|305,15195813519|305,15195813519|305,15195813519|305,15195813519|305,15195813519|305,15195813519|311,98932019190|305,15195813519|305,15195813519|305,15195813519|305,15195813519|305,15195813519|305,15195813519|305,15195813519|306,94317920854|305,15195813519|306,94317920854|  0,00000000000|305,15195813519|305,15195813519|305,15195813519|306,94317920854|305,15195813519|307,84076473507|305,15195813519|288,29693068086|320,15048208038
Black_Bear                |307,84076473507|289,29754017961|298,70628817816|295,41320638887|298,70628817816|298,70628817816|295,41320638887|303,21139199092|303,21139199092|298,70628817816|311,98932019190|300,52773826469|289,29754017961|289,29754017961|302,08837872157|298,70628817816|302,08837872157|300,52773826469|306,94317920854|302,08837872157|306,94317920854|305,15195813519|  0,00000000000|303,21139199092|298,70628817816|306,94317920854|298,70628817816|307,84076473507|289,29754017961|305,15195813519|320,15048208038
Brown_Bear                |307,84076473507|303,21139199092|303,21139199092|303,21139199092|303,21139199092|303,21139199092|303,21139199092|303,05013146766|303,05013146766|303,21139199092|311,98932019190|303,21139199092|303,21139199092|303,21139199092|303,21139199092|303,21139199092|303,21139199092|303,21139199092|306,94317920854|303,21139199092|306,94317920854|305,15195813519|303,21139199092|  0,00000000000|303,21139199092|306,94317920854|303,21139199092|307,84076473507|303,21139199092|305,15195813519|320,15048208038
Polar_Bear                |307,84076473507|298,70628817816|278,89373703582|298,70628817816|293,30580030963|278,89373703582|298,70628817816|303,21139199092|303,21139199092|278,89373703582|311,98932019190|300,52773826469|298,70628817816|298,70628817816|302,08837872157|293,30580030963|302,08837872157|300,52773826469|306,94317920854|302,08837872157|306,94317920854|305,15195813519|298,70628817816|303,21139199092|  0,00000000000|306,94317920854|294,55823506759|307,84076473507|298,70628817816|305,15195813519|320,15048208038
Giant_Panda               |307,84076473507|306,94317920854|306,94317920854|306,94317920854|306,94317920854|306,94317920854|306,94317920854|306,94317920854|306,94317920854|306,94317920854|311,98932019190|306,94317920854|306,94317920854|306,94317920854|306,94317920854|306,94317920854|306,94317920854|306,94317920854|304,88345134569|306,94317920854|304,88345134569|306,94317920854|306,94317920854|306,94317920854|306,94317920854|  0,00000000000|306,94317920854|307,84076473507|306,94317920854|306,94317920854|320,15048208038
Rabbit                    |307,84076473507|298,70628817816|294,55823506759|298,70628817816|294,55823506759|294,55823506759|298,70628817816|303,21139199092|303,21139199092|294,55823506759|311,98932019190|300,52773826469|298,70628817816|298,70628817816|302,08837872157|294,55823506759|302,08837872157|300,52773826469|306,94317920854|302,08837872157|306,94317920854|305,15195813519|298,70628817816|303,21139199092|294,55823506759|306,94317920854|  0,00000000000|307,84076473507|298,70628817816|305,15195813519|320,15048208038
Hedgehog                  |294,92544744536|307,84076473507|307,84076473507|307,84076473507|307,84076473507|307,84076473507|307,84076473507|307,84076473507|307,84076473507|307,84076473507|311,98932019190|307,84076473507|307,84076473507|307,84076473507|307,84076473507|307,84076473507|307,84076473507|307,84076473507|307,84076473507|307,84076473507|307,84076473507|307,84076473507|307,84076473507|307,84076473507|307,84076473507|307,84076473507|307,84076473507|  0,00000000000|307,84076473507|307,84076473507|320,15048208038
Dormouse                  |307,84076473507|263,28216537672|298,70628817816|295,41320638887|298,70628817816|298,70628817816|295,41320638887|303,21139199092|303,21139199092|298,70628817816|311,98932019190|300,52773826469|275,79995799286|275,79995799286|302,08837872157|298,70628817816|302,08837872157|300,52773826469|306,94317920854|302,08837872157|306,94317920854|305,15195813519|289,29754017961|303,21139199092|298,70628817816|306,94317920854|298,70628817816|307,84076473507|  0,00000000000|305,15195813519|320,15048208038
Squirrel                  |307,84076473507|305,15195813519|305,15195813519|305,15195813519|305,15195813519|305,15195813519|305,15195813519|305,15195813519|305,15195813519|305,15195813519|311,98932019190|305,15195813519|305,15195813519|305,15195813519|305,15195813519|305,15195813519|305,15195813519|305,15195813519|306,94317920854|305,15195813519|306,94317920854|288,29693068086|305,15195813519|305,15195813519|305,15195813519|306,94317920854|305,15195813519|307,84076473507|305,15195813519|  0,00000000000|320,15048208038
Blue_Whale                |320,15048208038|320,15048208038|320,15048208038|320,15048208038|320,15048208038|320,15048208038|320,15048208038|320,15048208038|320,15048208038|320,15048208038|320,15048208038|320,15048208038|320,15048208038|320,15048208038|320,15048208038|320,15048208038|320,15048208038|320,15048208038|320,15048208038|320,15048208038|320,15048208038|320,15048208038|320,15048208038|320,15048208038|320,15048208038|320,15048208038|320,15048208038|320,15048208038|320,15048208038|320,15048208038|  0,00000000000
                           |Human          |Pig_Chim       |Com_Chim       |Gibbon         |Baboon         |Ver_Monkey     |Macaca_Thibet  |Bor_Oran       |Sum_Oran       |Gorilla        |Cat            |Dog            |Pig            |Sheep          |Goat           |Cow            |Buffalo        |Wolf           |Tiger          |Leopard        |Indian_Rhino   |White_Rhino    |Black_Bear     |Brown_Bear     |Polar_Bear     |Giant_Panda    |Rabbit         |Hedgehog       |Dormouse       |Squirrel       |Blue_Whale     
Human                     |  0,00000000000| 10,40344834192| 10,40344834192| 10,40344834192| 10,40344834192| 10,40344834192| 10,40344834192| 10,40344834192| 10,40344834192| 10,40344834192| 10,75879307516| 10,40344834192| 10,40344834192| 10,40344834192| 10,40344834192| 10,40344834192| 10,40344834192| 10,40344834192| 10,40344834192| 10,40344834192| 10,40344834192| 10,40344834192| 10,40344834192| 10,40344834192| 10,40344834192| 10,40344834192| 10,40344834192|  9,29718616834| 10,40344834192| 10,40344834192| 11,45783782080
Pig_Chim                  | 10,40344834192|  0,00000000000|  9,62103427778|  9,33896518599|  9,62103427778|  9,62103427778|  9,33896518599| 10,00691917896| 10,00691917896|  9,62103427778| 10,75879307516|  9,77705067959|  7,65899137545|  7,65899137545|  9,91072741902|  9,62103427778|  9,91072741902|  9,77705067959| 10,32656560701|  9,91072741902| 10,32656560701| 10,17313847289|  8,81512747904| 10,00691917896|  9,62103427778| 10,32656560701|  9,62103427778| 10,40344834192|  6,58677919844| 10,17313847289| 11,45783782080
Com_Chim                  | 10,40344834192|  9,62103427778|  0,00000000000|  9,62103427778|  9,15845520877|  5,50451564449|  9,62103427778| 10,00691917896| 10,00691917896|  7,47144108206| 10,75879307516|  9,77705067959|  9,62103427778|  9,62103427778|  9,91072741902|  9,15845520877|  9,91072741902|  9,77705067959| 10,32656560701|  9,91072741902| 10,32656560701| 10,17313847289|  9,62103427778| 10,00691917896|  7,92398918014| 10,32656560701|  9,26573257304| 10,40344834192|  9,62103427778| 10,17313847289| 11,45783782080
Gibbon                    | 10,40344834192|  9,33896518599|  9,62103427778|  0,00000000000|  9,62103427778|  9,62103427778|  4,36885420423| 10,00691917896| 10,00691917896|  9,62103427778| 10,75879307516|  9,77705067959|  9,33896518599|  9,33896518599|  9,91072741902|  9,62103427778|  9,91072741902|  9,77705067959| 10,32656560701|  9,91072741902| 10,32656560701| 10,17313847289|  9,33896518599| 10,00691917896|  9,62103427778| 10,32656560701|  9,62103427778| 10,40344834192|  9,33896518599| 10,17313847289| 11,45783782080
Baboon                    | 10,40344834192|  9,62103427778|  9,15845520877|  9,62103427778|  0,00000000000|  9,15845520877|  9,62103427778| 10,00691917896| 10,00691917896|  9,15845520877| 10,75879307516|  9,77705067959|  9,62103427778|  9,62103427778|  9,91072741902|  9,11301753166|  9,91072741902|  9,77705067959| 10,32656560701|  9,91072741902| 10,32656560701| 10,17313847289|  9,62103427778| 10,00691917896|  9,15845520877| 10,32656560701|  9,26573257304| 10,40344834192|  9,62103427778| 10,17313847289| 11,45783782080
Ver_Monkey                | 10,40344834192|  9,62103427778|  5,50451564449|  9,62103427778|  9,15845520877|  0,00000000000|  9,62103427778| 10,00691917896| 10,00691917896|  7,47144108206| 10,75879307516|  9,77705067959|  9,62103427778|  9,62103427778|  9,91072741902|  9,15845520877|  9,91072741902|  9,77705067959| 10,32656560701|  9,91072741902| 10,32656560701| 10,17313847289|  9,62103427778| 10,00691917896|  7,92398918014| 10,32656560701|  9,26573257304| 10,40344834192|  9,62103427778| 10,17313847289| 11,45783782080
Macaca_Thibet             | 10,40344834192|  9,33896518599|  9,62103427778|  4,36885420423|  9,62103427778|  9,62103427778|  0,00000000000| 10,00691917896| 10,00691917896|  9,62103427778| 10,75879307516|  9,77705067959|  9,33896518599|  9,33896518599|  9,91072741902|  9,62103427778|  9,91072741902|  9,77705067959| 10,32656560701|  9,91072741902| 10,32656560701| 10,17313847289|  9,33896518599| 10,00691917896|  9,62103427778| 10,32656560701|  9,62103427778| 10,40344834192|  9,33896518599| 10,17313847289| 11,45783782080
Bor_Oran                  | 10,40344834192| 10,00691917896| 10,00691917896| 10,00691917896| 10,00691917896| 10,00691917896| 10,00691917896|  0,00000000000|  6,99213892609| 10,00691917896| 10,75879307516| 10,00691917896| 10,00691917896| 10,00691917896| 10,00691917896| 10,00691917896| 10,00691917896| 10,00691917896| 10,32656560701| 10,00691917896| 10,32656560701| 10,17313847289| 10,00691917896|  9,99310640046| 10,00691917896| 10,32656560701| 10,00691917896| 10,40344834192| 10,00691917896| 10,17313847289| 11,45783782080
Sum_Oran                  | 10,40344834192| 10,00691917896| 10,00691917896| 10,00691917896| 10,00691917896| 10,00691917896| 10,00691917896|  6,99213892609|  0,00000000000| 10,00691917896| 10,75879307516| 10,00691917896| 10,00691917896| 10,00691917896| 10,00691917896| 10,00691917896| 10,00691917896| 10,00691917896| 10,32656560701| 10,00691917896| 10,32656560701| 10,17313847289| 10,00691917896|  9,99310640046| 10,00691917896| 10,32656560701| 10,00691917896| 10,40344834192| 10,00691917896| 10,17313847289| 11,45783782080
Gorilla                   | 10,40344834192|  9,62103427778|  7,47144108206|  9,62103427778|  9,15845520877|  7,47144108206|  9,62103427778| 10,00691917896| 10,00691917896|  0,00000000000| 10,75879307516|  9,77705067959|  9,62103427778|  9,62103427778|  9,91072741902|  9,15845520877|  9,91072741902|  9,77705067959| 10,32656560701|  9,91072741902| 10,32656560701| 10,17313847289|  9,62103427778| 10,00691917896|  7,92398918014| 10,32656560701|  9,26573257304| 10,40344834192|  9,62103427778| 10,17313847289| 11,45783782080
Cat                       | 10,75879307516| 10,75879307516| 10,75879307516| 10,75879307516| 10,75879307516| 10,75879307516| 10,75879307516| 10,75879307516| 10,75879307516| 10,75879307516|  0,00000000000| 10,75879307516| 10,75879307516| 10,75879307516| 10,75879307516| 10,75879307516| 10,75879307516| 10,75879307516| 10,75879307516| 10,75879307516| 10,75879307516| 10,75879307516| 10,75879307516| 10,75879307516| 10,75879307516| 10,75879307516| 10,75879307516| 10,75879307516| 10,75879307516| 10,75879307516| 11,45783782080
Dog                       | 10,40344834192|  9,77705067959|  9,77705067959|  9,77705067959|  9,77705067959|  9,77705067959|  9,77705067959| 10,00691917896| 10,00691917896|  9,77705067959| 10,75879307516|  0,00000000000|  9,77705067959|  9,77705067959|  9,91072741902|  9,77705067959|  9,91072741902| -1,43643010723| 10,32656560701|  9,91072741902| 10,32656560701| 10,17313847289|  9,77705067959| 10,00691917896|  9,77705067959| 10,32656560701|  9,77705067959| 10,40344834192|  9,77705067959| 10,17313847289| 11,45783782080
Pig                       | 10,40344834192|  7,65899137545|  9,62103427778|  9,33896518599|  9,62103427778|  9,62103427778|  9,33896518599| 10,00691917896| 10,00691917896|  9,62103427778| 10,75879307516|  9,77705067959|  0,00000000000|  7,38458879804|  9,91072741902|  9,62103427778|  9,91072741902|  9,77705067959| 10,32656560701|  9,91072741902| 10,32656560701| 10,17313847289|  8,81512747904| 10,00691917896|  9,62103427778| 10,32656560701|  9,62103427778| 10,40344834192|  7,65899137545| 10,17313847289| 11,45783782080
Sheep                     | 10,40344834192|  7,65899137545|  9,62103427778|  9,33896518599|  9,62103427778|  9,62103427778|  9,33896518599| 10,00691917896| 10,00691917896|  9,62103427778| 10,75879307516|  9,77705067959|  7,38458879804|  0,00000000000|  9,91072741902|  9,62103427778|  9,91072741902|  9,77705067959| 10,32656560701|  9,91072741902| 10,32656560701| 10,17313847289|  8,81512747904| 10,00691917896|  9,62103427778| 10,32656560701|  9,62103427778| 10,40344834192|  7,65899137545| 10,17313847289| 11,45783782080
Goat                      | 10,40344834192|  9,91072741902|  9,91072741902|  9,91072741902|  9,91072741902|  9,91072741902|  9,91072741902| 10,00691917896| 10,00691917896|  9,91072741902| 10,75879307516|  9,91072741902|  9,91072741902|  9,91072741902|  0,00000000000|  9,91072741902|  1,75478381545|  9,91072741902| 10,32656560701|  8,49762989803| 10,32656560701| 10,17313847289|  9,91072741902| 10,00691917896|  9,91072741902| 10,32656560701|  9,91072741902| 10,40344834192|  9,91072741902| 10,17313847289| 11,45783782080
Cow                       | 10,40344834192|  9,62103427778|  9,15845520877|  9,62103427778|  9,11301753166|  9,15845520877|  9,62103427778| 10,00691917896| 10,00691917896|  9,15845520877| 10,75879307516|  9,77705067959|  9,62103427778|  9,62103427778|  9,91072741902|  0,00000000000|  9,91072741902|  9,77705067959| 10,32656560701|  9,91072741902| 10,32656560701| 10,17313847289|  9,62103427778| 10,00691917896|  9,15845520877| 10,32656560701|  9,26573257304| 10,40344834192|  9,62103427778| 10,17313847289| 11,45783782080
Buffalo                   | 10,40344834192|  9,91072741902|  9,91072741902|  9,91072741902|  9,91072741902|  9,91072741902|  9,91072741902| 10,00691917896| 10,00691917896|  9,91072741902| 10,75879307516|  9,91072741902|  9,91072741902|  9,91072741902|  1,75478381545|  9,91072741902|  0,00000000000|  9,91072741902| 10,32656560701|  8,49762989803| 10,32656560701| 10,17313847289|  9,91072741902| 10,00691917896|  9,91072741902| 10,32656560701|  9,91072741902| 10,40344834192|  9,91072741902| 10,17313847289| 11,45783782080
Wolf                      | 10,40344834192|  9,77705067959|  9,77705067959|  9,77705067959|  9,77705067959|  9,77705067959|  9,77705067959| 10,00691917896| 10,00691917896|  9,77705067959| 10,75879307516| -1,43643010723|  9,77705067959|  9,77705067959|  9,91072741902|  9,77705067959|  9,91072741902|  0,00000000000| 10,32656560701|  9,91072741902| 10,32656560701| 10,17313847289|  9,77705067959| 10,00691917896|  9,77705067959| 10,32656560701|  9,77705067959| 10,40344834192|  9,77705067959| 10,17313847289| 11,45783782080
Tiger                     | 10,40344834192| 10,32656560701| 10,32656560701| 10,32656560701| 10,32656560701| 10,32656560701| 10,32656560701| 10,32656560701| 10,32656560701| 10,32656560701| 10,75879307516| 10,32656560701| 10,32656560701| 10,32656560701| 10,32656560701| 10,32656560701| 10,32656560701| 10,32656560701|  0,00000000000| 10,32656560701|  7,60581115990| 10,32656560701| 10,32656560701| 10,32656560701| 10,32656560701| 10,15013950988| 10,32656560701| 10,40344834192| 10,32656560701| 10,32656560701| 11,45783782080
Leopard                   | 10,40344834192|  9,91072741902|  9,91072741902|  9,91072741902|  9,91072741902|  9,91072741902|  9,91072741902| 10,00691917896| 10,00691917896|  9,91072741902| 10,75879307516|  9,91072741902|  9,91072741902|  9,91072741902|  8,49762989803|  9,91072741902|  8,49762989803|  9,91072741902| 10,32656560701|  0,00000000000| 10,32656560701| 10,17313847289|  9,91072741902| 10,00691917896|  9,91072741902| 10,32656560701|  9,91072741902| 10,40344834192|  9,91072741902| 10,17313847289| 11,45783782080
Indian_Rhino              | 10,40344834192| 10,32656560701| 10,32656560701| 10,32656560701| 10,32656560701| 10,32656560701| 10,32656560701| 10,32656560701| 10,32656560701| 10,32656560701| 10,75879307516| 10,32656560701| 10,32656560701| 10,32656560701| 10,32656560701| 10,32656560701| 10,32656560701| 10,32656560701|  7,60581115990| 10,32656560701|  0,00000000000| 10,32656560701| 10,32656560701| 10,32656560701| 10,32656560701| 10,15013950988| 10,32656560701| 10,40344834192| 10,32656560701| 10,32656560701| 11,45783782080
White_Rhino               | 10,40344834192| 10,17313847289| 10,17313847289| 10,17313847289| 10,17313847289| 10,17313847289| 10,17313847289| 10,17313847289| 10,17313847289| 10,17313847289| 10,75879307516| 10,17313847289| 10,17313847289| 10,17313847289| 10,17313847289| 10,17313847289| 10,17313847289| 10,17313847289| 10,32656560701| 10,17313847289| 10,32656560701|  0,00000000000| 10,17313847289| 10,17313847289| 10,17313847289| 10,32656560701| 10,17313847289| 10,40344834192| 10,17313847289|  8,72942022043| 11,45783782080
Black_Bear                | 10,40344834192|  8,81512747904|  9,62103427778|  9,33896518599|  9,62103427778|  9,62103427778|  9,33896518599| 10,00691917896| 10,00691917896|  9,62103427778| 10,75879307516|  9,77705067959|  8,81512747904|  8,81512747904|  9,91072741902|  9,62103427778|  9,91072741902|  9,77705067959| 10,32656560701|  9,91072741902| 10,32656560701| 10,17313847289|  0,00000000000| 10,00691917896|  9,62103427778| 10,32656560701|  9,62103427778| 10,40344834192|  8,81512747904| 10,17313847289| 11,45783782080
Brown_Bear                | 10,40344834192| 10,00691917896| 10,00691917896| 10,00691917896| 10,00691917896| 10,00691917896| 10,00691917896|  9,99310640046|  9,99310640046| 10,00691917896| 10,75879307516| 10,00691917896| 10,00691917896| 10,00691917896| 10,00691917896| 10,00691917896| 10,00691917896| 10,00691917896| 10,32656560701| 10,00691917896| 10,32656560701| 10,17313847289| 10,00691917896|  0,00000000000| 10,00691917896| 10,32656560701| 10,00691917896| 10,40344834192| 10,00691917896| 10,17313847289| 11,45783782080
Polar_Bear                | 10,40344834192|  9,62103427778|  7,92398918014|  9,62103427778|  9,15845520877|  7,92398918014|  9,62103427778| 10,00691917896| 10,00691917896|  7,92398918014| 10,75879307516|  9,77705067959|  9,62103427778|  9,62103427778|  9,91072741902|  9,15845520877|  9,91072741902|  9,77705067959| 10,32656560701|  9,91072741902| 10,32656560701| 10,17313847289|  9,62103427778| 10,00691917896|  0,00000000000| 10,32656560701|  9,26573257304| 10,40344834192|  9,62103427778| 10,17313847289| 11,45783782080
Giant_Panda               | 10,40344834192| 10,32656560701| 10,32656560701| 10,32656560701| 10,32656560701| 10,32656560701| 10,32656560701| 10,32656560701| 10,32656560701| 10,32656560701| 10,75879307516| 10,32656560701| 10,32656560701| 10,32656560701| 10,32656560701| 10,32656560701| 10,32656560701| 10,32656560701| 10,15013950988| 10,32656560701| 10,15013950988| 10,32656560701| 10,32656560701| 10,32656560701| 10,32656560701|  0,00000000000| 10,32656560701| 10,40344834192| 10,32656560701| 10,32656560701| 11,45783782080
Rabbit                    | 10,40344834192|  9,62103427778|  9,26573257304|  9,62103427778|  9,26573257304|  9,26573257304|  9,62103427778| 10,00691917896| 10,00691917896|  9,26573257304| 10,75879307516|  9,77705067959|  9,62103427778|  9,62103427778|  9,91072741902|  9,26573257304|  9,91072741902|  9,77705067959| 10,32656560701|  9,91072741902| 10,32656560701| 10,17313847289|  9,62103427778| 10,00691917896|  9,26573257304| 10,32656560701|  0,00000000000| 10,40344834192|  9,62103427778| 10,17313847289| 11,45783782080
Hedgehog                  |  9,29718616834| 10,40344834192| 10,40344834192| 10,40344834192| 10,40344834192| 10,40344834192| 10,40344834192| 10,40344834192| 10,40344834192| 10,40344834192| 10,75879307516| 10,40344834192| 10,40344834192| 10,40344834192| 10,40344834192| 10,40344834192| 10,40344834192| 10,40344834192| 10,40344834192| 10,40344834192| 10,40344834192| 10,40344834192| 10,40344834192| 10,40344834192| 10,40344834192| 10,40344834192| 10,40344834192|  0,00000000000| 10,40344834192| 10,40344834192| 11,45783782080
Dormouse                  | 10,40344834192|  6,58677919844|  9,62103427778|  9,33896518599|  9,62103427778|  9,62103427778|  9,33896518599| 10,00691917896| 10,00691917896|  9,62103427778| 10,75879307516|  9,77705067959|  7,65899137545|  7,65899137545|  9,91072741902|  9,62103427778|  9,91072741902|  9,77705067959| 10,32656560701|  9,91072741902| 10,32656560701| 10,17313847289|  8,81512747904| 10,00691917896|  9,62103427778| 10,32656560701|  9,62103427778| 10,40344834192|  0,00000000000| 10,17313847289| 11,45783782080
Squirrel                  | 10,40344834192| 10,17313847289| 10,17313847289| 10,17313847289| 10,17313847289| 10,17313847289| 10,17313847289| 10,17313847289| 10,17313847289| 10,17313847289| 10,75879307516| 10,17313847289| 10,17313847289| 10,17313847289| 10,17313847289| 10,17313847289| 10,17313847289| 10,17313847289| 10,32656560701| 10,17313847289| 10,32656560701|  8,72942022043| 10,17313847289| 10,17313847289| 10,17313847289| 10,32656560701| 10,17313847289| 10,40344834192| 10,17313847289|  0,00000000000| 11,45783782080
Blue_Whale                | 11,45783782080| 11,45783782080| 11,45783782080| 11,45783782080| 11,45783782080| 11,45783782080| 11,45783782080| 11,45783782080| 11,45783782080| 11,45783782080| 11,45783782080| 11,45783782080| 11,45783782080| 11,45783782080| 11,45783782080| 11,45783782080| 11,45783782080| 11,45783782080| 11,45783782080| 11,45783782080| 11,45783782080| 11,45783782080| 11,45783782080| 11,45783782080| 11,45783782080| 11,45783782080| 11,45783782080| 11,45783782080| 11,45783782080| 11,45783782080|  0,00000000000
                           |Human          |Pig_Chim       |Com_Chim       |Gibbon         |Baboon         |Ver_Monkey     |Macaca_Thibet  |Bor_Oran       |Sum_Oran       |Gorilla        |Cat            |Dog            |Pig            |Sheep          |Goat           |Cow            |Buffalo        |Wolf           |Tiger          |Leopard        |Indian_Rhino   |White_Rhino    |Black_Bear     |Brown_Bear     |Polar_Bear     |Giant_Panda    |Rabbit         |Hedgehog       |Dormouse       |Squirrel       |Blue_Whale     
Human                     |  0,00000000000| 13,00000000000| 14,00000000000| 11,00000000000| 12,00000000000| 14,00000000000| 11,00000000000|  8,00000000000|  8,00000000000| 13,00000000000|  4,00000000000|  9,00000000000| 13,00000000000| 13,00000000000|  9,00000000000| 12,00000000000|  9,00000000000|  9,00000000000|  6,00000000000|  8,00000000000|  6,00000000000|  6,00000000000| 11,00000000000|  7,00000000000| 12,00000000000|  5,00000000000| 10,00000000000|  2,00000000000| 13,00000000000|  6,00000000000|  5,00000000000
Pig_Chim                  | 13,00000000000|  0,00000000000| 11,00000000000|  6,00000000000|  9,00000000000| 11,00000000000|  6,00000000000| 11,00000000000| 11,00000000000| 10,00000000000| 13,00000000000|  8,00000000000|  4,00000000000|  4,00000000000| 10,00000000000|  9,00000000000| 10,00000000000|  8,00000000000| 13,00000000000|  9,00000000000| 13,00000000000| 11,00000000000|  4,00000000000| 10,00000000000|  9,00000000000| 12,00000000000|  7,00000000000| 13,00000000000|  2,00000000000| 11,00000000000| 14,00000000000
Com_Chim                  | 14,00000000000| 11,00000000000|  0,00000000000|  9,00000000000|  6,00000000000|  2,00000000000|  9,00000000000| 12,00000000000| 12,00000000000|  3,00000000000| 14,00000000000|  9,00000000000| 11,00000000000| 11,00000000000| 11,00000000000|  6,00000000000| 11,00000000000|  9,00000000000| 14,00000000000| 10,00000000000| 14,00000000000| 12,00000000000|  9,00000000000| 11,00000000000|  4,00000000000| 13,00000000000|  6,00000000000| 14,00000000000| 11,00000000000| 12,00000000000| 15,00000000000
Gibbon                    | 11,00000000000|  6,00000000000|  9,00000000000|  0,00000000000|  7,00000000000|  9,00000000000|  2,00000000000|  9,00000000000|  9,00000000000|  8,00000000000| 11,00000000000|  6,00000000000|  6,00000000000|  6,00000000000|  8,00000000000|  7,00000000000|  8,00000000000|  6,00000000000| 11,00000000000|  7,00000000000| 11,00000000000|  9,00000000000|  4,00000000000|  8,00000000000|  7,00000000000| 10,00000000000|  5,00000000000| 11,00000000000|  6,00000000000|  9,00000000000| 12,00000000000
Baboon                    | 12,00000000000|  9,00000000000|  6,00000000000|  7,00000000000|  0,00000000000|  6,00000000000|  7,00000000000| 10,00000000000| 10,00000000000|  5,00000000000| 12,00000000000|  7,00000000000|  9,00000000000|  9,00000000000|  9,00000000000|  2,00000000000|  9,00000000000|  7,00000000000| 12,00000000000|  8,00000000000| 12,00000000000| 10,00000000000|  7,00000000000|  9,00000000000|  4,00000000000| 11,00000000000|  4,00000000000| 12,00000000000|  9,00000000000| 10,00000000000| 13,00000000000
Ver_Monkey                | 14,00000000000| 11,00000000000|  2,00000000000|  9,00000000000|  6,00000000000|  0,00000000000|  9,00000000000| 12,00000000000| 12,00000000000|  3,00000000000| 14,00000000000|  9,00000000000| 11,00000000000| 11,00000000000| 11,00000000000|  6,00000000000| 11,00000000000|  9,00000000000| 14,00000000000| 10,00000000000| 14,00000000000| 12,00000000000|  9,00000000000| 11,00000000000|  4,00000000000| 13,00000000000|  6,00000000000| 14,00000000000| 11,00000000000| 12,00000000000| 15,00000000000
Macaca_Thibet             | 11,00000000000|  6,00000000000|  9,00000000000|  2,00000000000|  7,00000000000|  9,00000000000|  0,00000000000|  9,00000000000|  9,00000000000|  8,00000000000| 11,00000000000|  6,00000000000|  6,00000000000|  6,00000000000|  8,00000000000|  7,00000000000|  8,00000000000|  6,00000000000| 11,00000000000|  7,00000000000| 11,00000000000|  9,00000000000|  4,00000000000|  8,00000000000|  7,00000000000| 10,00000000000|  5,00000000000| 11,00000000000|  6,00000000000|  9,00000000000| 12,00000000000
Bor_Oran                  |  8,00000000000| 11,00000000000| 12,00000000000|  9,00000000000| 10,00000000000| 12,00000000000|  9,00000000000|  0,00000000000|  2,00000000000| 11,00000000000|  8,00000000000|  7,00000000000| 11,00000000000| 11,00000000000|  7,00000000000| 10,00000000000|  7,00000000000|  7,00000000000|  8,00000000000|  6,00000000000|  8,00000000000|  6,00000000000|  9,00000000000|  3,00000000000| 10,00000000000|  7,00000000000|  8,00000000000|  8,00000000000| 11,00000000000|  6,00000000000|  9,00000000000
Sum_Oran                  |  8,00000000000| 11,00000000000| 12,00000000000|  9,00000000000| 10,00000000000| 12,00000000000|  9,00000000000|  2,00000000000|  0,00000000000| 11,00000000000|  8,00000000000|  7,00000000000| 11,00000000000| 11,00000000000|  7,00000000000| 10,00000000000|  7,00000000000|  7,00000000000|  8,00000000000|  6,00000000000|  8,00000000000|  6,00000000000|  9,00000000000|  3,00000000000| 10,00000000000|  7,00000000000|  8,00000000000|  8,00000000000| 11,00000000000|  6,00000000000|  9,00000000000
Gorilla                   | 13,00000000000| 10,00000000000|  3,00000000000|  8,00000000000|  5,00000000000|  3,00000000000|  8,00000000000| 11,00000000000| 11,00000000000|  0,00000000000| 13,00000000000|  8,00000000000| 10,00000000000| 10,00000000000| 10,00000000000|  5,00000000000| 10,00000000000|  8,00000000000| 13,00000000000|  9,00000000000| 13,00000000000| 11,00000000000|  8,00000000000| 10,00000000000|  3,00000000000| 12,00000000000|  5,00000000000| 13,00000000000| 10,00000000000| 11,00000000000| 14,00000000000
Cat                       |  4,00000000000| 13,00000000000| 14,00000000000| 11,00000000000| 12,00000000000| 14,00000000000| 11,00000000000|  8,00000000000|  8,00000000000| 13,00000000000|  0,00000000000|  9,00000000000| 13,00000000000| 13,00000000000|  9,00000000000| 12,00000000000|  9,00000000000|  9,00000000000|  6,00000000000|  8,00000000000|  6,00000000000|  6,00000000000| 11,00000000000|  7,00000000000| 12,00000000000|  5,00000000000| 10,00000000000|  4,00000000000| 13,00000000000|  6,00000000000|  3,00000000000
Dog                       |  9,00000000000|  8,00000000000|  9,00000000000|  6,00000000000|  7,00000000000|  9,00000000000|  6,00000000000|  7,00000000000|  7,00000000000|  8,00000000000|  9,00000000000|  0,00000000000|  8,00000000000|  8,00000000000|  6,00000000000|  7,00000000000|  6,00000000000|  2,00000000000|  9,00000000000|  5,00000000000|  9,00000000000|  7,00000000000|  6,00000000000|  6,00000000000|  7,00000000000|  8,00000000000|  5,00000000000|  9,00000000000|  8,00000000000|  7,00000000000| 10,00000000000
Pig                       | 13,00000000000|  4,00000000000| 11,00000000000|  6,00000000000|  9,00000000000| 11,00000000000|  6,00000000000| 11,00000000000| 11,00000000000| 10,00000000000| 13,00000000000|  8,00000000000|  0,00000000000|  2,00000000000| 10,00000000000|  9,00000000000| 10,00000000000|  8,00000000000| 13,00000000000|  9,00000000000| 13,00000000000| 11,00000000000|  4,00000000000| 10,00000000000|  9,00000000000| 12,00000000000|  7,00000000000| 13,00000000000|  4,00000000000| 11,00000000000| 14,00000000000
Sheep                     | 13,00000000000|  4,00000000000| 11,00000000000|  6,00000000000|  9,00000000000| 11,00000000000|  6,00000000000| 11,00000000000| 11,00000000000| 10,00000000000| 13,00000000000|  8,00000000000|  2,00000000000|  0,00000000000| 10,00000000000|  9,00000000000| 10,00000000000|  8,00000000000| 13,00000000000|  9,00000000000| 13,00000000000| 11,00000000000|  4,00000000000| 10,00000000000|  9,00000000000| 12,00000000000|  7,00000000000| 13,00000000000|  4,00000000000| 11,00000000000| 14,00000000000
Goat                      |  9,00000000000| 10,00000000000| 11,00000000000|  8,00000000000|  9,00000000000| 11,00000000000|  8,00000000000|  7,00000000000|  7,00000000000| 10,00000000000|  9,00000000000|  6,00000000000| 10,00000000000| 10,00000000000|  0,00000000000|  9,00000000000|  2,00000000000|  6,00000000000|  9,00000000000|  3,00000000000|  9,00000000000|  7,00000000000|  8,00000000000|  6,00000000000|  9,00000000000|  8,00000000000|  7,00000000000|  9,00000000000| 10,00000000000|  7,00000000000| 10,00000000000
Cow                       | 12,00000000000|  9,00000000000|  6,00000000000|  7,00000000000|  2,00000000000|  6,00000000000|  7,00000000000| 10,00000000000| 10,00000000000|  5,00000000000| 12,00000000000|  7,00000000000|  9,00000000000|  9,00000000000|  9,00000000000|  0,00000000000|  9,00000000000|  7,00000000000| 12,00000000000|  8,00000000000| 12,00000000000| 10,00000000000|  7,00000000000|  9,00000000000|  4,00000000000| 11,00000000000|  4,00000000000| 12,00000000000|  9,00000000000| 10,00000000000| 13,00000000000
Buffalo                   |  9,00000000000| 10,00000000000| 11,00000000000|  8,00000000000|  9,00000000000| 11,00000000000|  8,00000000000|  7,00000000000|  7,00000000000| 10,00000000000|  9,00000000000|  6,00000000000| 10,00000000000| 10,00000000000|  2,00000000000|  9,00000000000|  0,00000000000|  6,00000000000|  9,00000000000|  3,00000000000|  9,00000000000|  7,00000000000|  8,00000000000|  6,00000000000|  9,00000000000|  8,00000000000|  7,00000000000|  9,00000000000| 10,00000000000|  7,00000000000| 10,00000000000
Wolf                      |  9,00000000000|  8,00000000000|  9,00000000000|  6,00000000000|  7,00000000000|  9,00000000000|  6,00000000000|  7,00000000000|  7,00000000000|  8,00000000000|  9,00000000000|  2,00000000000|  8,00000000000|  8,00000000000|  6,00000000000|  7,00000000000|  6,00000000000|  0,00000000000|  9,00000000000|  5,00000000000|  9,00000000000|  7,00000000000|  6,00000000000|  6,00000000000|  7,00000000000|  8,00000000000|  5,00000000000|  9,00000000000|  8,00000000000|  7,00000000000| 10,00000000000
Tiger                     |  6,00000000000| 13,00000000000| 14,00000000000| 11,00000000000| 12,00000000000| 14,00000000000| 11,00000000000|  8,00000000000|  8,00000000000| 13,00000000000|  6,00000000000|  9,00000000000| 13,00000000000| 13,00000000000|  9,00000000000| 12,00000000000|  9,00000000000|  9,00000000000|  0,00000000000|  8,00000000000|  2,00000000000|  6,00000000000| 11,00000000000|  7,00000000000| 12,00000000000|  3,00000000000| 10,00000000000|  6,00000000000| 13,00000000000|  6,00000000000|  7,00000000000
Leopard                   |  8,00000000000|  9,00000000000| 10,00000000000|  7,00000000000|  8,00000000000| 10,00000000000|  7,00000000000|  6,00000000000|  6,00000000000|  9,00000000000|  8,00000000000|  5,00000000000|  9,00000000000|  9,00000000000|  3,00000000000|  8,00000000000|  3,00000000000|  5,00000000000|  8,00000000000|  0,00000000000|  8,00000000000|  6,00000000000|  7,00000000000|  5,00000000000|  8,00000000000|  7,00000000000|  6,00000000000|  8,00000000000|  9,00000000000|  6,00000000000|  9,00000000000
Indian_Rhino              |  6,00000000000| 13,00000000000| 14,00000000000| 11,00000000000| 12,00000000000| 14,00000000000| 11,00000000000|  8,00000000000|  8,00000000000| 13,00000000000|  6,00000000000|  9,00000000000| 13,00000000000| 13,00000000000|  9,00000000000| 12,00000000000|  9,00000000000|  9,00000000000|  2,00000000000|  8,00000000000|  0,00000000000|  6,00000000000| 11,00000000000|  7,00000000000| 12,00000000000|  3,00000000000| 10,00000000000|  6,00000000000| 13,00000000000|  6,00000000000|  7,00000000000
White_Rhino               |  6,00000000000| 11,00000000000| 12,00000000000|  9,00000000000| 10,00000000000| 12,00000000000|  9,00000000000|  6,00000000000|  6,00000000000| 11,00000000000|  6,00000000000|  7,00000000000| 11,00000000000| 11,00000000000|  7,00000000000| 10,00000000000|  7,00000000000|  7,00000000000|  6,00000000000|  6,00000000000|  6,00000000000|  0,00000000000|  9,00000000000|  5,00000000000| 10,00000000000|  5,00000000000|  8,00000000000|  6,00000000000| 11,00000000000|  2,00000000000|  7,00000000000
Black_Bear                | 11,00000000000|  4,00000000000|  9,00000000000|  4,00000000000|  7,00000000000|  9,00000000000|  4,00000000000|  9,00000000000|  9,00000000000|  8,00000000000| 11,00000000000|  6,00000000000|  4,00000000000|  4,00000000000|  8,00000000000|  7,00000000000|  8,00000000000|  6,00000000000| 11,00000000000|  7,00000000000| 11,00000000000|  9,00000000000|  0,00000000000|  8,00000000000|  7,00000000000| 10,00000000000|  5,00000000000| 11,00000000000|  4,00000000000|  9,00000000000| 12,00000000000
Brown_Bear                |  7,00000000000| 10,00000000000| 11,00000000000|  8,00000000000|  9,00000000000| 11,00000000000|  8,00000000000|  3,00000000000|  3,00000000000| 10,00000000000|  7,00000000000|  6,00000000000| 10,00000000000| 10,00000000000|  6,00000000000|  9,00000000000|  6,00000000000|  6,00000000000|  7,00000000000|  5,00000000000|  7,00000000000|  5,00000000000|  8,00000000000|  0,00000000000|  9,00000000000|  6,00000000000|  7,00000000000|  7,00000000000| 10,00000000000|  5,00000000000|  8,00000000000
Polar_Bear                | 12,00000000000|  9,00000000000|  4,00000000000|  7,00000000000|  4,00000000000|  4,00000000000|  7,00000000000| 10,00000000000| 10,00000000000|  3,00000000000| 12,00000000000|  7,00000000000|  9,00000000000|  9,00000000000|  9,00000000000|  4,00000000000|  9,00000000000|  7,00000000000| 12,00000000000|  8,00000000000| 12,00000000000| 10,00000000000|  7,00000000000|  9,00000000000|  0,00000000000| 11,00000000000|  4,00000000000| 12,00000000000|  9,00000000000| 10,00000000000| 13,00000000000
Giant_Panda               |  5,00000000000| 12,00000000000| 13,00000000000| 10,00000000000| 11,00000000000| 13,00000000000| 10,00000000000|  7,00000000000|  7,00000000000| 12,00000000000|  5,00000000000|  8,00000000000| 12,00000000000| 12,00000000000|  8,00000000000| 11,00000000000|  8,00000000000|  8,00000000000|  3,00000000000|  7,00000000000|  3,00000000000|  5,00000000000| 10,00000000000|  6,00000000000| 11,00000000000|  0,00000000000|  9,00000000000|  5,00000000000| 12,00000000000|  5,00000000000|  6,00000000000
Rabbit                    | 10,00000000000|  7,00000000000|  6,00000000000|  5,00000000000|  4,00000000000|  6,00000000000|  5,00000000000|  8,00000000000|  8,00000000000|  5,00000000000| 10,00000000000|  5,00000000000|  7,00000000000|  7,00000000000|  7,00000000000|  4,00000000000|  7,00000000000|  5,00000000000| 10,00000000000|  6,00000000000| 10,00000000000|  8,00000000000|  5,00000000000|  7,00000000000|  4,00000000000|  9,00000000000|  0,00000000000| 10,00000000000|  7,00000000000|  8,00000000000| 11,00000000000
Hedgehog                  |  2,00000000000| 13,00000000000| 14,00000000000| 11,00000000000| 12,00000000000| 14,00000000000| 11,00000000000|  8,00000000000|  8,00000000000| 13,00000000000|  4,00000000000|  9,00000000000| 13,00000000000| 13,00000000000|  9,00000000000| 12,00000000000|  9,00000000000|  9,00000000000|  6,00000000000|  8,00000000000|  6,00000000000|  6,00000000000| 11,00000000000|  7,00000000000| 12,00000000000|  5,00000000000| 10,00000000000|  0,00000000000| 13,00000000000|  6,00000000000|  5,00000000000
Dormouse                  | 13,00000000000|  2,00000000000| 11,00000000000|  6,00000000000|  9,00000000000| 11,00000000000|  6,00000000000| 11,00000000000| 11,00000000000| 10,00000000000| 13,00000000000|  8,00000000000|  4,00000000000|  4,00000000000| 10,00000000000|  9,00000000000| 10,00000000000|  8,00000000000| 13,00000000000|  9,00000000000| 13,00000000000| 11,00000000000|  4,00000000000| 10,00000000000|  9,00000000000| 12,00000000000|  7,00000000000| 13,00000000000|  0,00000000000| 11,00000000000| 14,00000000000
Squirrel                  |  6,00000000000| 11,00000000000| 12,00000000000|  9,00000000000| 10,00000000000| 12,00000000000|  9,00000000000|  6,00000000000|  6,00000000000| 11,00000000000|  6,00000000000|  7,00000000000| 11,00000000000| 11,00000000000|  7,00000000000| 10,00000000000|  7,00000000000|  7,00000000000|  6,00000000000|  6,00000000000|  6,00000000000|  2,00000000000|  9,00000000000|  5,00000000000| 10,00000000000|  5,00000000000|  8,00000000000|  6,00000000000| 11,00000000000|  0,00000000000|  7,00000000000
Blue_Whale                |  5,00000000000| 14,00000000000| 15,00000000000| 12,00000000000| 13,00000000000| 15,00000000000| 12,00000000000|  9,00000000000|  9,00000000000| 14,00000000000|  3,00000000000| 10,00000000000| 14,00000000000| 14,00000000000| 10,00000000000| 13,00000000000| 10,00000000000| 10,00000000000|  7,00000000000|  9,00000000000|  7,00000000000|  7,00000000000| 12,00000000000|  8,00000000000| 13,00000000000|  6,00000000000| 11,00000000000|  5,00000000000| 14,00000000000|  7,00000000000|  0,00000000000
