                           |Human          |Hum_shortened  |Pig_Chim       |Com_Chim       |Gibbon         |Baboon         |Ver_Monkey     |Macaca_Thibet  |Bor_Oran       |Sum_Oran       |Gorilla        |Cat            |Dog            |Pig            |Sheep          |Goat           |Cow            |Buffalo        |Wolf           |Tiger          |Leopard        |Indian_Rhino   |White_Rhino    |Black_Bear     |Brown_Bear     |Polar_Bear     |Giant_Panda    |Rabbit         |Hedgehog       |Dormouse       |Squirrel       |Blue_Whale     
Human                     |  0,00000000000|  8,15212982607|  8,21135189030|  8,26807326623|  8,90059604809|  9,17993297999|  9,28118026479|  9,38488363362|  8,87403304788|  8,94434962160|  8,20783869993| 10,48312217783|  9,87720478137| 12,32043934701| 10,55348583931| 10,94384638656| 11,10646186218|  9,93215348683|  9,69966051218| 11,00959408748| 10,98792955479| 10,61135876379| 10,17329155687|  9,65523251965| 10,24274365593| 10,72805506912|  9,93039184629|  9,83192402676|  9,98067273455| 10,25961325547|  9,94104193859| 10,72014115851
Hum_shortened             |  8,15212982607|  0,00000000000|  7,67544946624|  7,53418943467|  8,60473362108|  8,72135637828|  8,97437638645|  9,15420324499|  8,42039139059|  8,47960279741|  7,83436207909| 10,55927016159|  9,68539438983| 12,19261031085| 10,47408994182| 10,90726582477| 11,36115549357| 10,16542284148|  9,59090595144| 10,91356383673| 11,08974224823| 10,80923891968| 10,38091175245|  9,63107880268| 10,43738976605| 10,78780352164| 10,14704911856|  9,95874145065| 10,03449195952| 10,20596135098| 10,00986367427| 11,14996689912
Pig_Chim                  |  8,21135189030|  7,67544946624|  0,00000000000|  6,18201546927|  8,06497514408|  8,40388124685|  8,72011413990|  8,83869234190|  8,03931770828|  8,02157835968|  6,82277214791| 10,29830266095|  9,51077351481| 11,76088002122| 10,09067531904| 10,45110128779| 10,73279026663|  9,62193996980|  9,40592579868| 10,91011436484| 11,00987009323| 10,15381602468|  9,83566817534|  9,52429767325| 10,49144234554| 10,64787192396|  9,79100330853|  9,70542117671|  9,67923652572|  9,93951336926|  9,48916524723| 10,60680840618
Com_Chim                  |  8,26807326623|  7,53418943467|  6,18201546927|  0,00000000000|  8,04785060136|  8,56987150344|  8,76112432332|  9,01056550066|  8,03251651071|  8,08000284305|  6,50694705113| 10,48577557026|  9,45982540339| 12,10922716159| 10,32336954224| 10,71067671358| 11,13148946238|  9,86126649856|  9,39119069143| 10,90398874153| 10,95983417461| 10,55966463859| 10,17898886125|  9,63119815716| 10,42814304835| 10,68589192189|  9,91630188286|  9,69659180862|  9,83487470387|  9,96036299688|  9,65916308356| 11,02701240334
Gibbon                    |  8,90059604809|  8,60473362108|  8,06497514408|  8,04785060136|  0,00000000000|  8,60917335536|  8,59041702068|  8,66457347014|  8,39296408129|  8,31381418879|  7,97062453630| 10,31674595048|  9,34852668669| 12,10462539511| 10,34004334538| 10,68946170202| 11,24244854905|  9,72670419904|  9,15959054406| 10,78790753932| 10,99302911597| 10,46006316833| 10,12552942684|  9,51437023801| 10,17735966157| 10,36169391777| 10,03373402180|  9,52362962416|  9,76334375519|  9,81411176095|  9,67169226962| 11,08329059630
Baboon                    |  9,17993297999|  8,72135637828|  8,40388124685|  8,56987150344|  8,60917335536|  0,00000000000|  7,93123801938|  7,97286948986|  8,55363477541|  8,47340697642|  8,45048239150| 10,37061265568|  9,37954255147| 11,94869128052| 10,11565625090| 10,54935834505| 11,41576875465|  9,68174464392|  9,39691495771| 10,92735995828| 11,18810275211| 10,44234159328| 10,33855016647|  9,55855082626| 10,31763244427| 10,52125635613|  9,88812235470|  9,41580091193|  9,65764298572|  9,80170976521|  9,55759656383| 11,15108535381
Ver_Monkey                |  9,28118026479|  8,97437638645|  8,72011413990|  8,76112432332|  8,59041702068|  7,93123801938|  0,00000000000|  8,17930762680|  8,82278712601|  8,84760954459|  8,69432810082| 10,18370325245|  9,47399667007| 11,40424221909| 10,03140217608| 10,33070782210| 11,28166739400|  9,70971252246|  9,45327187493| 10,83765038998| 11,08176874702| 10,19675947503| 10,15130807715|  9,56052546049| 10,24362410688| 10,54308384130|  9,92145951818|  9,62668448501|  9,70010995381|  9,74868211205|  9,50708814955| 11,04100679373
Macaca_Thibet             |  9,38488363362|  9,15420324499|  8,83869234190|  9,01056550066|  8,66457347014|  7,97286948986|  8,17930762680|  0,00000000000|  9,01191119751|  8,81801540031|  9,01050791855| 10,39253751404|  9,45124632312| 11,64074027394| 10,00480645746| 10,47382245751| 11,14980024855|  9,76860612699|  9,30711441296| 10,99056762095| 11,17735332563| 10,08489723839|  9,86056240360|  9,48675491480| 10,23472306273| 10,64894335761| 10,04556142382|  9,81558889692|  9,85424576479|  9,89788621927|  9,49803890202| 10,94456225648
Bor_Oran                  |  8,87403304788|  8,42039139059|  8,03931770828|  8,03251651071|  8,39296408129|  8,55363477541|  8,82278712601|  9,01191119751|  0,00000000000|  7,14618467052|  7,83648074031| 10,30910716309|  9,43260399202| 11,88590244292| 10,33492489719| 10,67604884082| 11,14410286822|  9,89861170858|  9,22543158381| 10,83833950957| 10,98527730548| 10,40259380414| 10,00958638536|  9,49032726573| 10,08678771493| 10,36593769962|  9,84577203812|  9,49633336815|  9,70178828871|  9,84056163886|  9,53076354779| 10,84953574621
Sum_Oran                  |  8,94434962160|  8,47960279741|  8,02157835968|  8,08000284305|  8,31381418879|  8,47340697642|  8,84760954459|  8,81801540031|  7,14618467052|  0,00000000000|  8,00546964594| 10,38929620624|  9,29299747798| 11,80207098180| 10,22841170863| 10,51745402201| 11,23940842895|  9,79201691890|  9,17230079939| 10,95691997105| 11,20898427433| 10,25990448700|  9,98263184668|  9,45498816465| 10,34035253723| 10,58435364300| 10,04866065916|  9,30825657699|  9,56464110720|  9,71667713470|  9,53181119956| 10,95967544188
Gorilla                   |  8,20783869993|  7,83436207909|  6,82277214791|  6,50694705113|  7,97062453630|  8,45048239150|  8,69432810082|  9,01050791855|  7,83648074031|  8,00546964594|  0,00000000000| 10,39961526255|  9,41527665284| 12,16576502119| 10,41969877030| 10,80280468739| 11,11691394969|  9,94202766147|  9,29350233257| 10,81608951003| 10,88162503344| 10,55689770536| 10,25571134765|  9,56353107373| 10,08764873474| 10,40292470152|  9,86130192820|  9,66914870491|  9,84768261501|  9,76629924132|  9,72434598077| 10,97840904611
Cat                       | 10,48312217783| 10,55927016159| 10,29830266095| 10,48577557026| 10,31674595048| 10,37061265568| 10,18370325245| 10,39253751404| 10,30910716309| 10,38929620624| 10,39961526255|  0,00000000000| 10,41724989317| 11,45990294283| 10,41776286071| 10,52582098987| 10,92128809675| 10,09449250025| 10,14089735590|  8,31125372861|  8,48613722321| 10,17626471472| 10,08316140953|  9,81541981701|  9,87267973855| 10,36670856145|  9,70156893869| 10,50404149426| 10,40683032199| 10,64050719573| 10,19877579007| 10,83811022902
Dog                       |  9,87720478137|  9,68539438983|  9,51077351481|  9,45982540339|  9,34852668669|  9,37954255147|  9,47399667007|  9,45124632312|  9,43260399202|  9,29299747798|  9,41527665284| 10,41724989317|  0,00000000000| 10,89929019613|  9,59302298228|  9,81404287651| 11,09240570893|  9,33252930939|  6,24129840017| 10,97428295075| 11,33600538800|  9,88205436394|  9,72987633204|  9,17425278339| 10,13985477912| 10,47557943592|  9,93611625537|  9,14221531230|  9,11530399442|  9,22844977208|  9,38372307884| 10,79360531445
Pig                       | 12,32043934701| 12,19261031085| 11,76088002122| 12,10922716159| 12,10462539511| 11,94869128052| 11,40424221909| 11,64074027394| 11,88590244292| 11,80207098180| 12,16576502119| 11,45990294283| 10,89929019613|  0,00000000000|  9,23594124966|  8,84258776710| 10,63849888278|  9,79090872900| 10,98588366833| 12,35775377641| 12,60395997562|  9,52323818712|  9,97391770315| 11,04610982997| 12,33535631675| 12,55200518488| 10,97016630737| 11,44104772785| 10,80487467825| 10,58468481217| 10,53356804958| 10,61243220083
Sheep                     | 10,55348583931| 10,47408994182| 10,09067531904| 10,32336954224| 10,34004334538| 10,11565625090| 10,03140217608| 10,00480645746| 10,33492489719| 10,22841170863| 10,41969877030| 10,41776286071|  9,59302298228|  9,23594124966|  0,00000000000|  7,19566584202|  9,33573282222|  8,18163766355|  9,69035266677| 11,13801398571| 11,34792990516|  8,79714057024|  8,91208783411|  9,83613728559| 10,85419847537| 10,96590301984|  9,49793897152| 10,02845881932|  9,49064490314|  9,67814937140|  9,26884998410|  9,51594466433
Goat                      | 10,94384638656| 10,90726582477| 10,45110128779| 10,71067671358| 10,68946170202| 10,54935834505| 10,33070782210| 10,47382245751| 10,67604884082| 10,51745402201| 10,80280468739| 10,52582098987|  9,81404287651|  8,84258776710|  7,19566584202|  0,00000000000|  9,18780384155|  8,09166018046|  9,90643287308| 11,37401635407| 11,67080940036|  8,87410343243|  9,01557314834|  9,94613002097| 11,12314202662| 11,27359648863|  9,75626678093| 10,17156038214|  9,63070334720|  9,73092141258|  9,62156321564|  9,44200618362
Cow                       | 11,10646186218| 11,36115549357| 10,73279026663| 11,13148946238| 11,24244854905| 11,41576875465| 11,28166739400| 11,14980024855| 11,14410286822| 11,23940842895| 11,11691394969| 10,92128809675| 11,09240570893| 10,63849888278|  9,33573282222|  9,18780384155|  0,00000000000|  9,28313738933| 11,06724803150| 11,77541323089| 11,98349561440|  9,46555128527|  9,41567884196| 11,09010881077| 11,83315321940| 12,02504682240|  9,64389702384| 11,73459252382| 10,88370826447| 11,08452861749| 10,60973990011|  8,77939307782
Buffalo                   |  9,93215348683| 10,16542284148|  9,62193996980|  9,86126649856|  9,72670419904|  9,68174464392|  9,70971252246|  9,76860612699|  9,89861170858|  9,79201691890|  9,94202766147| 10,09449250025|  9,33252930939|  9,79090872900|  8,18163766355|  8,09166018046|  9,28313738933|  0,00000000000|  9,46043617574| 10,63533453206| 10,87672312334|  9,04893039034|  9,07897366161|  9,55701686386| 10,44368684286| 10,55102765808|  9,35763019386|  9,62452774625|  9,37010460382|  9,28948038639|  9,14328656131|  9,50915398461
Wolf                      |  9,69966051218|  9,59090595144|  9,40592579868|  9,39119069143|  9,15959054406|  9,39691495771|  9,45327187493|  9,30711441296|  9,22543158381|  9,17230079939|  9,29350233257| 10,14089735590|  6,24129840017| 10,98588366833|  9,69035266677|  9,90643287308| 11,06724803150|  9,46043617574|  0,00000000000| 10,73265797966| 11,15990546498|  9,79682139362|  9,64371082379|  9,17974752187| 10,09334192216| 10,40581971751|  9,88014662550|  9,23128522653|  9,10163828692|  9,40664075140|  9,35640343965| 10,75501889976
Tiger                     | 11,00959408748| 10,91356383673| 10,91011436484| 10,90398874153| 10,78790753932| 10,92735995828| 10,83765038998| 10,99056762095| 10,83833950957| 10,95691997105| 10,81608951003|  8,31125372861| 10,97428295075| 12,35775377641| 11,13801398571| 11,37401635407| 11,77541323089| 10,63533453206| 10,73265797966|  0,00000000000|  7,76473995734| 11,06190477969| 10,96720805997| 10,17384785735|  9,90496710154| 10,49404846013| 10,45870784209| 11,04295687662| 11,00363279850| 11,01944905569| 11,03398456290| 11,70974103256
Leopard                   | 10,98792955479| 11,08974224823| 11,00987009323| 10,95983417461| 10,99302911597| 11,18810275211| 11,08176874702| 11,17735332563| 10,98527730548| 11,20898427433| 10,88162503344|  8,48613722321| 11,33600538800| 12,60395997562| 11,34792990516| 11,67080940036| 11,98349561440| 10,87672312334| 11,15990546498|  7,76473995734|  0,00000000000| 11,28639188072| 11,01389249551| 10,51044165661| 10,03372930453| 10,51359915917| 10,56522062951| 11,31892214280| 11,28836661310| 11,39428685188| 11,21734157008| 11,86898212223
Indian_Rhino              | 10,61135876379| 10,80923891968| 10,15381602468| 10,55966463859| 10,46006316833| 10,44234159328| 10,19675947503| 10,08489723839| 10,40259380414| 10,25990448700| 10,55689770536| 10,17626471472|  9,88205436394|  9,52323818712|  8,79714057024|  8,87410343243|  9,46555128527|  9,04893039034|  9,79682139362| 11,06190477969| 11,28639188072|  0,00000000000|  7,41353552540|  9,84240688391| 11,03984637621| 11,10718988234|  9,52622914966| 10,36834461271|  9,88599019799|  9,77707703526|  9,71752022187|  9,47305651091
White_Rhino               | 10,17329155687| 10,38091175245|  9,83566817534| 10,17898886125| 10,12552942684| 10,33855016647| 10,15130807715|  9,86056240360| 10,00958638536|  9,98263184668| 10,25571134765| 10,08316140953|  9,72987633204|  9,97391770315|  8,91208783411|  9,01557314834|  9,41567884196|  9,07897366161|  9,64371082379| 10,96720805997| 11,01389249551|  7,41353552540|  0,00000000000|  9,77813523410| 10,66840513764| 10,95968336896|  9,36911267058| 10,18975749119|  9,70180002436|  9,74543540626|  9,63816726130|  9,49686704961
Black_Bear                |  9,65523251965|  9,63107880268|  9,52429767325|  9,63119815716|  9,51437023801|  9,55855082626|  9,56052546049|  9,48675491480|  9,49032726573|  9,45498816465|  9,56353107373|  9,81541981701|  9,17425278339| 11,04610982997|  9,83613728559|  9,94613002097| 11,09010881077|  9,55701686386|  9,17974752187| 10,17384785735| 10,51044165661|  9,84240688391|  9,77813523410|  0,00000000000|  8,91163611668|  9,28379117129|  9,36911304805|  9,41346850344|  9,62453751665|  9,54270664299|  9,37781200978| 10,54817268681
Brown_Bear                | 10,24274365593| 10,43738976605| 10,49144234554| 10,42814304835| 10,17735966157| 10,31763244427| 10,24362410688| 10,23472306273| 10,08678771493| 10,34035253723| 10,08764873474|  9,87267973855| 10,13985477912| 12,33535631675| 10,85419847537| 11,12314202662| 11,83315321940| 10,44368684286| 10,09334192216|  9,90496710154| 10,03372930453| 11,03984637621| 10,66840513764|  8,91163611668|  0,00000000000|  7,55493102958|  9,80839484279| 10,22399594131| 10,33462924294| 10,43819536969| 10,13993169999| 11,40076843823
Polar_Bear                | 10,72805506912| 10,78780352164| 10,64787192396| 10,68589192189| 10,36169391777| 10,52125635613| 10,54308384130| 10,64894335761| 10,36593769962| 10,58435364300| 10,40292470152| 10,36670856145| 10,47557943592| 12,55200518488| 10,96590301984| 11,27359648863| 12,02504682240| 10,55102765808| 10,40581971751| 10,49404846013| 10,51359915917| 11,10718988234| 10,95968336896|  9,28379117129|  7,55493102958|  0,00000000000|  9,89200364713| 10,59023999258| 10,70711428975| 10,67431239601| 10,53101817941| 11,67079572147
Giant_Panda               |  9,93039184629| 10,14704911856|  9,79100330853|  9,91630188286| 10,03373402180|  9,88812235470|  9,92145951818| 10,04556142382|  9,84577203812| 10,04866065916|  9,86130192820|  9,70156893869|  9,93611625537| 10,97016630737|  9,49793897152|  9,75626678093|  9,64389702384|  9,35763019386|  9,88014662550| 10,45870784209| 10,56522062951|  9,52622914966|  9,36911267058|  9,36911304805|  9,80839484279|  9,89200364713|  0,00000000000| 10,26015911396| 10,03994170499| 10,15796942399| 10,01388337123|  9,51887478702
Rabbit                    |  9,83192402676|  9,95874145065|  9,70542117671|  9,69659180862|  9,52362962416|  9,41580091193|  9,62668448501|  9,81558889692|  9,49633336815|  9,30825657699|  9,66914870491| 10,50404149426|  9,14221531230| 11,44104772785| 10,02845881932| 10,17156038214| 11,73459252382|  9,62452774625|  9,23128522653| 11,04295687662| 11,31892214280| 10,36834461271| 10,18975749119|  9,41346850344| 10,22399594131| 10,59023999258| 10,26015911396|  0,00000000000|  9,30343605397|  9,32175999328|  9,12033596303| 11,32474847740
Hedgehog                  |  9,98067273455| 10,03449195952|  9,67923652572|  9,83487470387|  9,76334375519|  9,65764298572|  9,70010995381|  9,85424576479|  9,70178828871|  9,56464110720|  9,84768261501| 10,40683032199|  9,11530399442| 10,80487467825|  9,49064490314|  9,63070334720| 10,88370826447|  9,37010460382|  9,10163828692| 11,00363279850| 11,28836661310|  9,88599019799|  9,70180002436|  9,62453751665| 10,33462924294| 10,70711428975| 10,03994170499|  9,30343605397|  0,00000000000|  9,24712322957|  9,29047598014| 10,39550110697
Dormouse                  | 10,25961325547| 10,20596135098|  9,93951336926|  9,96036299688|  9,81411176095|  9,80170976521|  9,74868211205|  9,89788621927|  9,84056163886|  9,71667713470|  9,76629924132| 10,64050719573|  9,22844977208| 10,58468481217|  9,67814937140|  9,73092141258| 11,08452861749|  9,28948038639|  9,40664075140| 11,01944905569| 11,39428685188|  9,77707703526|  9,74543540626|  9,54270664299| 10,43819536969| 10,67431239601| 10,15796942399|  9,32175999328|  9,24712322957|  0,00000000000|  9,36764355955| 10,69217175135
Squirrel                  |  9,94104193859| 10,00986367427|  9,48916524723|  9,65916308356|  9,67169226962|  9,55759656383|  9,50708814955|  9,49803890202|  9,53076354779|  9,53181119956|  9,72434598077| 10,19877579007|  9,38372307884| 10,53356804958|  9,26884998410|  9,62156321564| 10,60973990011|  9,14328656131|  9,35640343965| 11,03398456290| 11,21734157008|  9,71752022187|  9,63816726130|  9,37781200978| 10,13993169999| 10,53101817941| 10,01388337123|  9,12033596303|  9,29047598014|  9,36764355955|  0,00000000000| 10,61162125745
Blue_Whale                | 10,72014115851| 11,14996689912| 10,60680840618| 11,02701240334| 11,08329059630| 11,15108535381| 11,04100679373| 10,94456225648| 10,84953574621| 10,95967544188| 10,97840904611| 10,83811022902| 10,79360531445| 10,61243220083|  9,51594466433|  9,44200618362|  8,77939307782|  9,50915398461| 10,75501889976| 11,70974103256| 11,86898212223|  9,47305651091|  9,49686704961| 10,54817268681| 11,40076843823| 11,67079572147|  9,51887478702| 11,32474847740| 10,39550110697| 10,69217175135| 10,61162125745|  0,00000000000
