                           |Human          |Hum_shortened  |Pig_Chim       |Com_Chim       |Gibbon         |Baboon         |Ver_Monkey     |Macaca_Thibet  |Bor_Oran       |Sum_Oran       |Gorilla        |Cat            |Dog            |Pig            |Sheep          |Goat           |Cow            |Buffalo        |Wolf           |Tiger          |Leopard        |Indian_Rhino   |White_Rhino    |Black_Bear     |Brown_Bear     |Polar_Bear     |Giant_Panda    |Rabbit         |Hedgehog       |Dormouse       |Squirrel       |Blue_Whale     
Human                     |  0,00000000000|  5,76172460091|  7,28723796143|  7,16013592425|  8,68421572914|  9,38714197547|  9,49225339909|  9,22439130751|  8,47200432858|  8,57194430273|  7,26401955607| 10,13914042155|  9,92963641690| 12,74652021877| 11,25751179705| 11,43580620713| 11,05711338105| 10,49108914041|  9,87000376889| 10,11963929459|  9,95147101703| 11,46909287640| 10,99074183596| 10,35109994375| 10,24620532157| 10,66021360053| 10,66864603215|  9,93960191504| 10,18782504217| 10,12671769322| 10,18084687431| 11,26242411324
Hum_shortened             |  5,76172460091|  0,00000000000|  7,37197264403|  7,33110211754|  9,02584018532|  9,53158692443|  9,57600753089|  9,41444806544|  8,75149359619|  8,77756564979|  7,65607066365| 10,11593529378|  9,93545438816| 12,47463273183| 11,14302785020| 11,33066414234| 10,96695011601| 10,39218514639|  9,89052028609| 10,15867078013| 10,06301403111| 11,13358595742| 10,71194482190| 10,50236493954| 10,44489055517| 10,86315217449| 10,71747449932| 10,07158514660| 10,27001119855| 10,11016845212| 10,25309926487| 11,16547255678
Pig_Chim                  |  7,28723796143|  7,37197264403|  0,00000000000|  6,42113245751|  8,54816542024|  9,17410567504|  9,27919159817|  9,11353327999|  8,41806978914|  8,32710298851|  7,05647471602|  9,73873360884|  9,65411003040| 12,13841736631| 10,77691567645| 10,95448768567| 10,62674457552| 10,10158211336|  9,58227033738|  9,77060631893|  9,67231020180| 10,95922954921| 10,55860736869| 10,08057746881| 10,07449189967| 10,36736533411| 10,34359217718|  9,69834059647|  9,91001945954|  9,83416005191|  9,75476710969| 10,73665085915
Com_Chim                  |  7,16013592425|  7,33110211754|  6,42113245751|  0,00000000000|  8,62465266913|  9,25440430756|  9,27823651764|  9,06997109450|  8,45543468263|  8,47372918400|  6,84362706027|  9,85206088069|  9,75058994688| 12,30340648253| 10,97075434809| 11,10380051164| 10,79585653717| 10,18722065309|  9,59912064614|  9,86657762872|  9,67854875239| 11,04166054150| 10,62747325673| 10,15085315910| 10,17769488073| 10,50509271842| 10,44056884137|  9,82791951655|  9,94720769321|  9,89981773694|  9,83302875215| 10,94735251522
Gibbon                    |  8,68421572914|  9,02584018532|  8,54816542024|  8,62465266913|  0,00000000000|  9,06393186198|  9,10593390310|  8,88081487761|  8,67929658495|  8,59601935706|  8,39143611991|  9,87516770627|  9,81225584280| 12,82282713248| 10,96695492801| 11,06401994533| 10,90190581392| 10,53700067184|  9,67970015556|  9,53857243643|  9,52813996911| 12,07187667880| 11,41391762956|  9,73743337053|  9,61945505816|  9,84306064856| 10,03223550583|  9,52841844245| 10,26335256784| 10,28443682826|  9,85664556161| 10,70387357772
Baboon                    |  9,38714197547|  9,53158692443|  9,17410567504|  9,25440430756|  9,06393186198|  0,00000000000|  8,52685710923|  8,48626080732|  9,21045916223|  9,03840111291|  9,11710344034|  9,99373267476| 10,00528558026| 12,31907408869| 10,79227819493| 10,83135931790| 10,92556934934| 10,28896793435|  9,83194000135| 10,02914779323| 10,06091018075| 12,13489072212| 11,69805620599|  9,81061392126|  9,84009379600|  9,90504557913|  9,95334799191|  9,60458539727| 10,05552333043| 10,45813647270|  9,77650722351| 10,85007779651
Ver_Monkey                |  9,49225339909|  9,57600753089|  9,27919159817|  9,27823651764|  9,10593390310|  8,52685710923|  0,00000000000|  8,66162636525|  9,32699580440|  9,24847873668|  9,23469934983|  9,71191518155|  9,87572605332| 12,03926143447| 10,71944074902| 10,79416914744| 10,76993758131| 10,22694452382|  9,70063802322|  9,97463516815|  9,89949165099| 11,72232453744| 11,27068372925|  9,91043355421|  9,91324347670| 10,02284609009| 10,07395810924|  9,70050736397| 10,02222138542| 10,26484850240|  9,74434702507| 10,67360262589
Macaca_Thibet             |  9,22439130751|  9,41444806544|  9,11353327999|  9,06997109450|  8,88081487761|  8,48626080732|  8,66162636525|  0,00000000000|  9,25536271119|  9,06867684339|  9,02078149048|  9,70333116443|  9,76792676976| 12,14210165368| 10,59602824812| 10,73373123566| 10,77377885341| 10,15630130454|  9,60973770951|  9,94218130203|  9,82255462058| 11,53002944089| 11,05131893086|  9,79757563814|  9,92499061343| 10,15762161882| 10,06006784254|  9,57550136459| 10,09936739296| 10,01265098630|  9,86085972416| 10,71040509608
Bor_Oran                  |  8,47200432858|  8,75149359619|  8,41806978914|  8,45543468263|  8,67929658495|  9,21045916223|  9,32699580440|  9,25536271119|  0,00000000000|  7,55833488111|  8,18461891394|  9,83256003516|  9,89757873786| 12,63761264632| 10,91379873295| 11,04854400562| 10,84750751590| 10,58748636204|  9,73391939518|  9,71916281098|  9,64894509336| 11,91290912921| 11,41241531612|  9,79489844007|  9,74326002353|  9,94065080011| 10,13230271633|  9,53090701365| 10,07544191615| 10,03915174367|  9,80605439458| 10,76413715898
Sum_Oran                  |  8,57194430273|  8,77756564979|  8,32710298851|  8,47372918400|  8,59601935706|  9,03840111291|  9,24847873668|  9,06867684339|  7,55833488111|  0,00000000000|  8,18747778698|  9,61784765255|  9,75184871795| 12,46821323150| 10,70565709241| 10,83807935061| 10,63199096263| 10,29078375344|  9,58703774090|  9,49184350270|  9,59753394963| 11,56176119929| 11,10506830157|  9,63659444868|  9,65259584826|  9,81453792829| 10,07985338005|  9,40029075868|  9,89086915342|  9,89473269686|  9,78980494293| 10,68891353564
Gorilla                   |  7,26401955607|  7,65607066365|  7,05647471602|  6,84362706027|  8,39143611991|  9,11710344034|  9,23469934983|  9,02078149048|  8,18461891394|  8,18747778698|  0,00000000000|  9,85400203976|  9,84467496160| 12,64062143863| 11,13928436978| 11,22403196403| 10,90260834381| 10,39620224373|  9,71777619559|  9,81298975143|  9,59637284245| 11,46979587462| 10,97047671846|  9,99969176263|  9,90080861429| 10,25411165477| 10,36847477984|  9,76778419825| 10,07010005048|  9,88841703821|  9,83183408628| 11,00720393857
Cat                       | 10,13914042155| 10,11593529378|  9,73873360884|  9,85206088069|  9,87516770627|  9,99373267476|  9,71191518155|  9,70333116443|  9,83256003516|  9,61784765255|  9,85400203976|  0,00000000000|  9,29174801428| 10,83756335812|  9,61745742775|  9,54424579486|  9,41900843475|  9,23788939789|  9,14683820853|  8,12522861509|  7,92863781011| 10,39929384580|  9,92113915263|  9,21412804686|  9,31452650608|  9,47928904051|  9,07278585144|  9,47598417406|  9,65627927560|  9,78252080867|  9,37847722656|  9,76058699818
Dog                       |  9,92963641690|  9,93545438816|  9,65411003040|  9,75058994688|  9,81225584280| 10,00528558026|  9,87572605332|  9,76792676976|  9,89757873786|  9,75184871795|  9,84467496160|  9,29174801428|  0,00000000000| 11,41729446572| 10,15113097693| 10,18350496342|  9,98256914787|  9,66891948145|  6,57484353697|  9,41913721314|  9,46929078401| 10,76686537626| 10,25458459244|  9,50909289560|  9,60370834633|  9,80535375044|  9,65469162911|  9,51673399174|  9,73492738985|  9,92175394432|  9,76206750637| 10,19690438360
Pig                       | 12,74652021877| 12,47463273183| 12,13841736631| 12,30340648253| 12,82282713248| 12,31907408869| 12,03926143447| 12,14210165368| 12,63761264632| 12,46821323150| 12,64062143863| 10,83756335812| 11,41729446572|  0,00000000000| 10,00978533184|  9,81808422006|  9,95007926312|  9,89504444578| 11,39932230577| 11,90833867620| 11,84965117269| 10,34783124837| 10,29512989818| 11,97797633121| 12,30962280446| 12,32220747845| 11,18048845729| 11,97496584613| 11,38102469833| 11,17818602894| 11,54114817779| 10,30282028649
Sheep                     | 11,25751179705| 11,14302785020| 10,77691567645| 10,97075434809| 10,96695492801| 10,79227819493| 10,71944074902| 10,59602824812| 10,91379873295| 10,70565709241| 11,13928436978|  9,61745742775| 10,15113097693| 10,00978533184|  0,00000000000|  7,35596721937|  8,10174037476|  8,54776836969| 10,17536730469| 10,07251785063| 10,13451158589| 10,61005515063| 10,18737906302| 10,13055439999| 10,40372049760| 10,31796347773|  9,54154745608| 10,14287781424| 10,21894418897| 10,37930833597| 10,11238318206|  8,98591529692
Goat                      | 11,43580620713| 11,33066414234| 10,95448768567| 11,10380051164| 11,06401994533| 10,83135931790| 10,79416914744| 10,73373123566| 11,04854400562| 10,83807935061| 11,22403196403|  9,54424579486| 10,18350496342|  9,81808422006|  7,35596721937|  0,00000000000|  8,12675515119|  8,48705949807| 10,18882377006| 10,14297439654| 10,19680929903| 10,63485393203| 10,18576235634| 10,25463787931| 10,50881508954| 10,38223807225|  9,69125383404| 10,17165315796| 10,32018336630| 10,42602546268| 10,31641645006|  8,93047337910
Cow                       | 11,05711338105| 10,96695011601| 10,62674457552| 10,79585653717| 10,90190581392| 10,92556934934| 10,76993758131| 10,77377885341| 10,84750751590| 10,63199096263| 10,90260834381|  9,41900843475|  9,98256914787|  9,95007926312|  8,10174037476|  8,12675515119|  0,00000000000|  8,11165560330| 10,08860092310|  9,99967631295| 10,06580834638| 10,33882137205|  9,99451911712| 10,26195358883| 10,44894673475| 10,46164822296|  9,63723389696| 10,22525460940| 10,15829288439| 10,32514667039| 10,09580360042|  8,89381865248
Buffalo                   | 10,49108914041| 10,39218514639| 10,10158211336| 10,18722065309| 10,53700067184| 10,28896793435| 10,22694452382| 10,15630130454| 10,58748636204| 10,29078375344| 10,39620224373|  9,23788939789|  9,66891948145|  9,89504444578|  8,54776836969|  8,48705949807|  8,11165560330|  0,00000000000|  9,64698595154|  9,74743483979|  9,80011085770|  9,98122267762|  9,63685174543| 10,08237040358| 10,36579203859| 10,40441942528|  9,63919341534|  9,98280199640|  9,92276970197|  9,85390837240|  9,97669189923|  9,34657552451
Wolf                      |  9,87000376889|  9,89052028609|  9,58227033738|  9,59912064614|  9,67970015556|  9,83194000135|  9,70063802322|  9,60973770951|  9,73391939518|  9,58703774090|  9,71777619559|  9,14683820853|  6,57484353697| 11,39932230577| 10,17536730469| 10,18882377006| 10,08860092310|  9,64698595154|  0,00000000000|  9,29498441844|  9,33219366761| 10,82107131909| 10,36655603632|  9,42969541531|  9,51633519175|  9,74110758350|  9,58145563934|  9,55647487495|  9,69667903060|  9,93090184777|  9,66856600520| 10,27989937929
Tiger                     | 10,11963929459| 10,15867078013|  9,77060631893|  9,86657762872|  9,53857243643| 10,02914779323|  9,97463516815|  9,94218130203|  9,71916281098|  9,49184350270|  9,81298975143|  8,12522861509|  9,41913721314| 11,90833867620| 10,07251785063| 10,14297439654|  9,99967631295|  9,74743483979|  9,29498441844|  0,00000000000|  7,86777376267| 11,28286007967| 10,79616944155|  9,03441164559|  9,12551967194|  9,22675830030|  9,21933142645|  9,43972980851| 10,02949473761| 10,03007034619|  9,56490465182| 10,07160511769
Leopard                   |  9,95147101703| 10,06301403111|  9,67231020180|  9,67854875239|  9,52813996911| 10,06091018075|  9,89949165099|  9,82255462058|  9,64894509336|  9,59753394963|  9,59637284245|  7,92863781011|  9,46929078401| 11,84965117269| 10,13451158589| 10,19680929903| 10,06580834638|  9,80011085770|  9,33219366761|  7,86777376267|  0,00000000000| 11,22023714282| 10,54668320008|  9,18932156347|  9,20738832044|  9,30372628751|  9,34867743781|  9,48681451108| 10,00778855646| 10,00366882481|  9,71737321793| 10,26706362131
Indian_Rhino              | 11,46909287640| 11,13358595742| 10,95922954921| 11,04166054150| 12,07187667880| 12,13489072212| 11,72232453744| 11,53002944089| 11,91290912921| 11,56176119929| 11,46979587462| 10,39929384580| 10,76686537626| 10,34783124837| 10,61005515063| 10,63485393203| 10,33882137205|  9,98122267762| 10,82107131909| 11,28286007967| 11,22023714282|  0,00000000000|  7,69736549071| 11,63662816013| 11,89845109805| 12,18416837024| 11,31176788555| 11,69753777185| 11,05381886294| 10,28625326366| 11,38368088766| 10,94758695975
White_Rhino               | 10,99074183596| 10,71194482190| 10,55860736869| 10,62747325673| 11,41391762956| 11,69805620599| 11,27068372925| 11,05131893086| 11,41241531612| 11,10506830157| 10,97047671846|  9,92113915263| 10,25458459244| 10,29512989818| 10,18737906302| 10,18576235634|  9,99451911712|  9,63685174543| 10,36655603632| 10,79616944155| 10,54668320008|  7,69736549071|  0,00000000000| 11,02661839867| 11,32389267348| 11,57245648388| 10,74453324702| 11,02964968230| 10,56206685745| 10,01182044862| 10,91920380767| 10,58723362158
Black_Bear                | 10,35109994375| 10,50236493954| 10,08057746881| 10,15085315910|  9,73743337053|  9,81061392126|  9,91043355421|  9,79757563814|  9,79489844007|  9,63659444868|  9,99969176263|  9,21412804686|  9,50909289560| 11,97797633121| 10,13055439999| 10,25463787931| 10,26195358883| 10,08237040358|  9,42969541531|  9,03441164559|  9,18932156347| 11,63662816013| 11,02661839867|  0,00000000000|  7,46260969497|  7,47988303539|  8,68602451397|  9,49615349825| 10,03671822462| 10,28653867976|  9,57923039815| 10,02777883980
Brown_Bear                | 10,24620532157| 10,44489055517| 10,07449189967| 10,17769488073|  9,61945505816|  9,84009379600|  9,91324347670|  9,92499061343|  9,74326002353|  9,65259584826|  9,90080861429|  9,31452650608|  9,60370834633| 12,30962280446| 10,40372049760| 10,50881508954| 10,44894673475| 10,36579203859|  9,51633519175|  9,12551967194|  9,20738832044| 11,89845109805| 11,32389267348|  7,46260969497|  0,00000000000|  6,31197761098|  8,67767731210|  9,53397859741| 10,10090128914| 10,46421617118|  9,55062098837| 10,16373661009
Polar_Bear                | 10,66021360053| 10,86315217449| 10,36736533411| 10,50509271842|  9,84306064856|  9,90504557913| 10,02284609009| 10,15762161882|  9,94065080011|  9,81453792829| 10,25411165477|  9,47928904051|  9,80535375044| 12,32220747845| 10,31796347773| 10,38223807225| 10,46164822296| 10,40441942528|  9,74110758350|  9,22675830030|  9,30372628751| 12,18416837024| 11,57245648388|  7,47988303539|  6,31197761098|  0,00000000000|  8,65297474606|  9,59073425276| 10,21540741505| 10,67115723939|  9,67060948450| 10,10453876876
Giant_Panda               | 10,66864603215| 10,71747449932| 10,34359217718| 10,44056884137| 10,03223550583|  9,95334799191| 10,07395810924| 10,06006784254| 10,13230271633| 10,07985338005| 10,36847477984|  9,07278585144|  9,65469162911| 11,18048845729|  9,54154745608|  9,69125383404|  9,63723389696|  9,63919341534|  9,58145563934|  9,21933142645|  9,34867743781| 11,31176788555| 10,74453324702|  8,68602451397|  8,67767731210|  8,65297474606|  0,00000000000|  9,62977510115|  9,99492341879| 10,24291157874|  9,63952883130|  9,41694239561
Rabbit                    |  9,93960191504| 10,07158514660|  9,69834059647|  9,82791951655|  9,52841844245|  9,60458539727|  9,70050736397|  9,57550136459|  9,53090701365|  9,40029075868|  9,76778419825|  9,47598417406|  9,51673399174| 11,97496584613| 10,14287781424| 10,17165315796| 10,22525460940|  9,98280199640|  9,55647487495|  9,43972980851|  9,48681451108| 11,69753777185| 11,02964968230|  9,49615349825|  9,53397859741|  9,59073425276|  9,62977510115|  0,00000000000|  9,77188716996|  9,92750156929|  9,44013209830| 10,14049061651
Hedgehog                  | 10,18782504217| 10,27001119855|  9,91001945954|  9,94720769321| 10,26335256784| 10,05552333043| 10,02222138542| 10,09936739296| 10,07544191615|  9,89086915342| 10,07010005048|  9,65627927560|  9,73492738985| 11,38102469833| 10,21894418897| 10,32018336630| 10,15829288439|  9,92276970197|  9,69667903060| 10,02949473761| 10,00778855646| 11,05381886294| 10,56206685745| 10,03671822462| 10,10090128914| 10,21540741505|  9,99492341879|  9,77188716996|  0,00000000000|  9,77986894514|  9,70564905062| 10,30632817630
Dormouse                  | 10,12671769322| 10,11016845212|  9,83416005191|  9,89981773694| 10,28443682826| 10,45813647270| 10,26484850240| 10,01265098630| 10,03915174367|  9,89473269686|  9,88841703821|  9,78252080867|  9,92175394432| 11,17818602894| 10,37930833597| 10,42602546268| 10,32514667039|  9,85390837240|  9,93090184777| 10,03007034619| 10,00366882481| 10,28625326366| 10,01182044862| 10,28653867976| 10,46421617118| 10,67115723939| 10,24291157874|  9,92750156929|  9,77986894514|  0,00000000000|  9,86145963213| 10,31331514797
Squirrel                  | 10,18084687431| 10,25309926487|  9,75476710969|  9,83302875215|  9,85664556161|  9,77650722351|  9,74434702507|  9,86085972416|  9,80605439458|  9,78980494293|  9,83183408628|  9,37847722656|  9,76206750637| 11,54114817779| 10,11238318206| 10,31641645006| 10,09580360042|  9,97669189923|  9,66856600520|  9,56490465182|  9,71737321793| 11,38368088766| 10,91920380767|  9,57923039815|  9,55062098837|  9,67060948450|  9,63952883130|  9,44013209830|  9,70564905062|  9,86145963213|  0,00000000000| 10,23422915596
Blue_Whale                | 11,26242411324| 11,16547255678| 10,73665085915| 10,94735251522| 10,70387357772| 10,85007779651| 10,67360262589| 10,71040509608| 10,76413715898| 10,68891353564| 11,00720393857|  9,76058699818| 10,19690438360| 10,30282028649|  8,98591529692|  8,93047337910|  8,89381865248|  9,34657552451| 10,27989937929| 10,07160511769| 10,26706362131| 10,94758695975| 10,58723362158| 10,02777883980| 10,16373661009| 10,10453876876|  9,41694239561| 10,14049061651| 10,30632817630| 10,31331514797| 10,23422915596|  0,00000000000
