                           |Human          |Hum_shortened  |Pig_Chim       |Com_Chim       |Gibbon         |Baboon         |Ver_Monkey     |Macaca_Thibet  |Bor_Oran       |Sum_Oran       |Gorilla        |Cat            |Dog            |Pig            |Sheep          |Goat           |Cow            |Buffalo        |Wolf           |Tiger          |Leopard        |Indian_Rhino   |White_Rhino    |Black_Bear     |Brown_Bear     |Polar_Bear     |Giant_Panda    |Rabbit         |Hedgehog       |Dormouse       |Squirrel       |Blue_Whale     
Human                     |  0,00000000000|  9,08341798437|  9,85937588053| 10,03986537831|  9,33827483566|  8,63572232435|  8,87641383644|  9,27025950512|  9,47103972719|  7,91171690890|  8,92317218556| 10,25879281650| 10,08375605753| 10,24977842558| 10,71942740604| 10,06807843334| 10,33819529553|  9,83815831466| 10,35119431571| 10,34199942212| 11,42015109566|  9,58572866368| 10,00194098894| 10,28670833032| 10,22068962434| 10,48966944651| 10,18160856620|  9,11006246885| 10,25161160790|  8,53177569433|  8,74127754652| 10,06516328809
Hum_shortened             |  9,08341798437|  0,00000000000| 10,21032106475|  9,92876550702|  9,64666056515|  9,22715369746| 11,14945299691| 10,53967260448|  9,71412241592|  9,72258905469|  9,55403150128| 12,22679315052| 11,45791120298| 11,10516082350| 11,12427663559| 11,58761914164| 10,24419794530| 11,80196830420| 11,08964640000| 11,26651436814| 11,91304901591| 11,15211414099| 10,85895223076| 10,55410384338| 11,39350542902| 11,04873081525| 11,63838342064| 10,53641330664| 11,27866448545| 10,21902403093|  9,92632237737| 11,74314195796
Pig_Chim                  |  9,85937588053| 10,21032106475|  0,00000000000|  6,76841937634|  6,30987953807|  8,78698573870|  8,03518497278|  8,50103324009|  8,45277859195|  9,64413207947|  8,40530103914| 10,56797777406|  9,59740769824| 10,35440736350|  9,22095044491| 10,11267347422|  9,40331908963|  9,76525460771|  9,69226116319| 10,34425465006| 11,27155799446| 10,31265480439| 10,68098529962|  9,76052748503|  9,66056890599|  9,56678600257|  9,73085666688|  9,27622628151| 10,48838042720|  8,64490289436|  9,46714680635|  9,77524946749
Com_Chim                  | 10,03986537831|  9,92876550702|  6,76841937634|  0,00000000000|  7,50448769612|  8,71608006582|  9,14978675046|  9,16846073591|  9,28401749221| 10,12610766399|  4,52226595651| 11,61636036730| 10,06113676271| 10,26618447070|  9,71350633341| 10,03053657836|  9,88834122047| 10,70922230889| 10,90331724918| 11,09669043294| 11,11165688132| 10,55494497097| 10,69248905478|  9,64176910010| 10,27255481307| 10,59901596513| 11,27009900801|  9,73585847226| 10,94545488935|  8,95294228546|  9,86784513540|  9,99876941075
Gibbon                    |  9,33827483566|  9,64666056515|  6,30987953807|  7,50448769612|  0,00000000000|  8,51002608511|  8,32917813006|  7,94226113902|  7,86692612042|  9,42490844333|  7,83588723554| 10,98787766446|  9,36063357505| 10,45941511544|  9,67113566866| 10,20823134049|  9,35165262182| 11,05740771980|  9,89126713679| 10,01354922792| 11,43637259711|  9,56558343818| 10,91324740050| 10,00865680052|  9,61546304692|  9,34952982339| 10,10822283764|  8,97680003459| 10,49602733202|  8,58833146462|  8,46951422179|  9,66126782769
Baboon                    |  8,63572232435|  9,22715369746|  8,78698573870|  8,71608006582|  8,51002608511|  0,00000000000|  8,44586570267|  7,94215271288|  8,73147584083|  8,84789730471|  8,11408509744| 11,14420497600|  9,58791057816| 10,24665838981|  9,80760348087| 10,15371561803| 10,46488858608| 10,26086550509| 10,31460485314| 11,11767434629| 11,08119449337|  9,42655464830|  9,75437132771|  9,63588043957| 10,58187195959|  9,83686223474| 10,46652198056|  9,46437220160| 10,69629114158|  7,53601802095|  8,28657562153| 10,89139517885
Ver_Monkey                |  8,87641383644| 11,14945299691|  8,03518497278|  9,14978675046|  8,32917813006|  8,44586570267|  0,00000000000|  8,38422577451|  9,14119851788|  8,97412654997|  8,30055435776| 11,20334116188| 10,35387993444| 10,11455694751| 10,11234902749| 10,34467669643| 10,69618475110| 10,58268322178| 10,45938557358| 10,60075038547| 11,25573889552| 10,28143086891| 10,67911933837| 10,44394263715| 10,65375233654| 10,63129334708| 10,66823271990|  9,99450812009| 10,48592545599|  9,42514449733|  9,89364934741| 11,04553494258
Macaca_Thibet             |  9,27025950512| 10,53967260448|  8,50103324009|  9,16846073591|  7,94226113902|  7,94215271288|  8,38422577451|  0,00000000000|  9,07150646478|  9,17272475041|  8,03760535165| 10,66040323535| 10,21791597662| 10,43609230920| 10,49649210282|  9,67583255590|  9,28846037861| 10,27684052197| 10,11249054269| 10,04687272874| 10,86424831460|  9,84936329107| 10,23506330445| 10,26770234691| 10,40919464056| 10,78541316706|  9,96912662689|  8,89592286580| 10,42513395786|  8,63372410031|  9,02127387180| 10,63396905561
Bor_Oran                  |  9,47103972719|  9,71412241592|  8,45277859195|  9,28401749221|  7,86692612042|  8,73147584083|  9,14119851788|  9,07150646478|  0,00000000000|  8,26116049534|  8,41986643332| 10,68525298038|  9,56484310134| 10,73618330694|  9,70144312016| 10,34134876892|  9,88575909491| 10,41001383746|  9,50990691586|  9,98529983035| 11,54389177696|  9,02745401641| 11,08038051845|  9,83119856170|  9,99240803243| 10,24304447274|  9,75926669595|  9,69953050475| 10,69459303253|  8,51684954664| 10,05491647942| 10,52981649682
Sum_Oran                  |  7,91171690890|  9,72258905469|  9,64413207947| 10,12610766399|  9,42490844333|  8,84789730471|  8,97412654997|  9,17272475041|  8,26116049534|  0,00000000000|  8,27777800634| 10,26649221278|  9,83602379226| 10,68374484050| 10,19629125604| 10,52376762785|  9,69524791935|  9,89969528358| 10,03057745942| 10,28052616064| 11,22846874607|  9,39926649207|  9,54626482775|  9,38912745871| 10,49183234389| 10,31539256489|  9,72030506016|  9,19266642518| 10,70155365604|  9,11821264716|  9,35577908040| 10,62247667224
Gorilla                   |  8,92317218556|  9,55403150128|  8,40530103914|  4,52226595651|  7,83588723554|  8,11408509744|  8,30055435776|  8,03760535165|  8,41986643332|  8,27777800634|  0,00000000000| 10,89008617347|  9,76462343237|  9,46102729092|  9,80421726998|  9,87378242427|  9,56682155508| 10,09027418703|  9,78875103574| 10,53606706379| 10,91503996723|  9,98027406121| 10,17525961321|  9,05765722256| 10,31498212430|  9,95742730185|  9,93596399960|  8,65553160833| 10,47057393160|  8,35163602677|  9,42361386545| 10,36718779395
Cat                       | 10,25879281650| 12,22679315052| 10,56797777406| 11,61636036730| 10,98787766446| 11,14420497600| 11,20334116188| 10,66040323535| 10,68525298038| 10,26649221278| 10,89008617347|  0,00000000000| 11,49759725419| 10,48687233099| 11,18632639327| 11,38275243600| 10,02186130526| 11,24715741931| 11,52303328040|  7,75481269377| 10,27193990412| 10,34612830697| 10,33382801199|  9,57257179241| 10,22818739848| 10,01676017418|  9,22415257450|  9,79463742391| 10,96036952782|  9,81148680575| 10,55904673014| 11,20673231621
Dog                       | 10,08375605753| 11,45791120298|  9,59740769824| 10,06113676271|  9,36063357505|  9,58791057816| 10,35387993444| 10,21791597662|  9,56484310134|  9,83602379226|  9,76462343237| 11,49759725419|  0,00000000000| 10,07032374415|  9,43524785157|  9,72072231171| 10,57712215453| 10,65515983066|  2,74576283802| 11,02451187776| 11,14131552676|  9,29560884854| 10,20257370045| 10,61279479981| 10,62573853589| 10,30330788287| 10,19765521278|  9,36727000983|  9,51738522120|  8,75459773808|  9,59018443941|  9,58840586869
Pig                       | 10,24977842558| 11,10516082350| 10,35440736350| 10,26618447070| 10,45941511544| 10,24665838981| 10,11455694751| 10,43609230920| 10,73618330694| 10,68374484050|  9,46102729092| 10,48687233099| 10,07032374415|  0,00000000000|  8,43207619760| 10,12227071797|  9,96977151665| 10,64513386946|  9,70445614028| 11,22813340437| 11,14054848310|  9,55404148459|  9,91273702532|  9,67486433616| 10,79201361973| 10,63420202488| 10,75655670657| 10,40170745449| 10,88021826735|  9,17648785708| 10,26635460172| 10,11453364614
Sheep                     | 10,71942740604| 11,12427663559|  9,22095044491|  9,71350633341|  9,67113566866|  9,80760348087| 10,11234902749| 10,49649210282|  9,70144312016| 10,19629125604|  9,80421726998| 11,18632639327|  9,43524785157|  8,43207619760|  0,00000000000|  8,43578088379| 10,69853656645|  9,24077169338|  9,63474891572| 10,70684381883| 11,42352544475| 10,07074342911| 10,63715674168|  9,57070059179| 10,68923306295| 10,47060578831| 10,55295591970| 10,15417109773| 10,02715818901|  8,54069846562|  9,79252312933| 10,46665294504
Goat                      | 10,06807843334| 11,58761914164| 10,11267347422| 10,03053657836| 10,20823134049| 10,15371561803| 10,34467669643|  9,67583255590| 10,34134876892| 10,52376762785|  9,87378242427| 11,38275243600|  9,72072231171| 10,12227071797|  8,43578088379|  0,00000000000| 10,44277059786|  6,73920777285| 10,80153145623| 11,27604130517| 11,93079179758| 10,14769794434| 10,76333301812| 10,39875230121| 10,57305909663| 11,06933490317| 10,70845312823|  9,99814100449| 10,87349881388|  9,63336128557| 10,26259205696| 10,06438138554
Cow                       | 10,33819529553| 10,24419794530|  9,40331908963|  9,88834122047|  9,35165262182| 10,46488858608| 10,69618475110|  9,28846037861|  9,88575909491|  9,69524791935|  9,56682155508| 10,02186130526| 10,57712215453|  9,96977151665| 10,69853656645| 10,44277059786|  0,00000000000|  9,81006620347| 10,37113063704| 10,26989304681| 11,31814532703|  9,73019656479| 10,86663332217| 10,36537367657|  8,94283600667|  9,99496801355| 10,38693705850| 10,13205322563| 11,34368878111| 10,05987892209| 10,22417422720|  9,21114816413
Buffalo                   |  9,83815831466| 11,80196830420|  9,76525460771| 10,70922230889| 11,05740771980| 10,26086550509| 10,58268322178| 10,27684052197| 10,41001383746|  9,89969528358| 10,09027418703| 11,24715741931| 10,65515983066| 10,64513386946|  9,24077169338|  6,73920777285|  9,81006620347|  0,00000000000| 10,12830522747| 10,41737901443| 12,04202632065| 10,06641020212|  9,92084008287| 10,92556185307| 10,05656298544| 10,85092847066| 11,27609687542|  9,93688917776| 11,01311412788|  8,72538584532|  9,68341173771| 10,73882601385
Wolf                      | 10,35119431571| 11,08964640000|  9,69226116319| 10,90331724918|  9,89126713679| 10,31460485314| 10,45938557358| 10,11249054269|  9,50990691586| 10,03057745942|  9,78875103574| 11,52303328040|  2,74576283802|  9,70445614028|  9,63474891572| 10,80153145623| 10,37113063704| 10,12830522747|  0,00000000000| 11,26162173632| 10,70432138003|  9,34306772167| 10,21633245818|  9,96120382104| 10,00196816815| 10,00420272943| 10,19585296864|  9,60333243001|  9,69254180105|  8,95846135894|  9,75621773662| 10,31146442477
Tiger                     | 10,34199942212| 11,26651436814| 10,34425465006| 11,09669043294| 10,01354922792| 11,11767434629| 10,60075038547| 10,04687272874|  9,98529983035| 10,28052616064| 10,53606706379|  7,75481269377| 11,02451187776| 11,22813340437| 10,70684381883| 11,27604130517| 10,26989304681| 10,41737901443| 11,26162173632|  0,00000000000|  8,51873496749| 10,29237705631| 10,79151002020|  9,91600915141|  9,67728298434|  9,55536445494|  9,26988658107|  9,62902514061| 11,07331611846|  8,88129529538| 10,44240802836| 10,81085801739
Leopard                   | 11,42015109566| 11,91304901591| 11,27155799446| 11,11165688132| 11,43637259711| 11,08119449337| 11,25573889552| 10,86424831460| 11,54389177696| 11,22846874607| 10,91503996723| 10,27193990412| 11,14131552676| 11,14054848310| 11,42352544475| 11,93079179758| 11,31814532703| 12,04202632065| 10,70432138003|  8,51873496749|  0,00000000000| 11,93864326965| 12,04829630235| 10,04689891173|  9,88638176868| 10,40726449749| 10,69343159334| 11,50955275603| 11,28931087198| 10,52281421723| 11,15963098979| 11,29443215264
Indian_Rhino              |  9,58572866368| 11,15211414099| 10,31265480439| 10,55494497097|  9,56558343818|  9,42655464830| 10,28143086891|  9,84936329107|  9,02745401641|  9,39926649207|  9,98027406121| 10,34612830697|  9,29560884854|  9,55404148459| 10,07074342911| 10,14769794434|  9,73019656479| 10,06641020212|  9,34306772167| 10,29237705631| 11,93864326965|  0,00000000000|  7,26460433108|  9,11516880969| 11,17759779111| 11,34402160689| 10,25621040224|  7,65872630854| 11,19640272995|  8,82737008661|  9,49286303749|  9,97968916598
White_Rhino               | 10,00194098894| 10,85895223076| 10,68098529962| 10,69248905478| 10,91324740050|  9,75437132771| 10,67911933837| 10,23506330445| 11,08038051845|  9,54626482775| 10,17525961321| 10,33382801199| 10,20257370045|  9,91273702532| 10,63715674168| 10,76333301812| 10,86663332217|  9,92084008287| 10,21633245818| 10,79151002020| 12,04829630235|  7,26460433108|  0,00000000000|  9,91181211707| 12,00669765981| 11,40434458405| 10,50701941145|  8,73171120202| 11,13931954469|  9,96921122591|  9,46266003241| 10,77119235142
Black_Bear                | 10,28670833032| 10,55410384338|  9,76052748503|  9,64176910010| 10,00865680052|  9,63588043957| 10,44394263715| 10,26770234691|  9,83119856170|  9,38912745871|  9,05765722256|  9,57257179241| 10,61279479981|  9,67486433616|  9,57070059179| 10,39875230121| 10,36537367657| 10,92556185307|  9,96120382104|  9,91600915141| 10,04689891173|  9,11516880969|  9,91181211707|  0,00000000000|  9,97945705451| 10,08243385557|  9,16938299934|  9,59454323948| 10,82015008642|  9,80904561403| 10,11680877109| 10,71559722663
Brown_Bear                | 10,22068962434| 11,39350542902|  9,66056890599| 10,27255481307|  9,61546304692| 10,58187195959| 10,65375233654| 10,40919464056|  9,99240803243| 10,49183234389| 10,31498212430| 10,22818739848| 10,62573853589| 10,79201361973| 10,68923306295| 10,57305909663|  8,94283600667| 10,05656298544| 10,00196816815|  9,67728298434|  9,88638176868| 11,17759779111| 12,00669765981|  9,97945705451|  0,00000000000|  7,34551233698|  8,59152632877| 10,28141534663| 10,76371974807|  9,89550491524|  9,37958290319| 10,67031047963
Polar_Bear                | 10,48966944651| 11,04873081525|  9,56678600257| 10,59901596513|  9,34952982339|  9,83686223474| 10,63129334708| 10,78541316706| 10,24304447274| 10,31539256489|  9,95742730185| 10,01676017418| 10,30330788287| 10,63420202488| 10,47060578831| 11,06933490317|  9,99496801355| 10,85092847066| 10,00420272943|  9,55536445494| 10,40726449749| 11,34402160689| 11,40434458405| 10,08243385557|  7,34551233698|  0,00000000000|  9,76920181867| 10,16932935703| 10,75506923856|  9,08767274826|  9,38342125771| 10,73065465946
Giant_Panda               | 10,18160856620| 11,63838342064|  9,73085666688| 11,27009900801| 10,10822283764| 10,46652198056| 10,66823271990|  9,96912662689|  9,75926669595|  9,72030506016|  9,93596399960|  9,22415257450| 10,19765521278| 10,75655670657| 10,55295591970| 10,70845312823| 10,38693705850| 11,27609687542| 10,19585296864|  9,26988658107| 10,69343159334| 10,25621040224| 10,50701941145|  9,16938299934|  8,59152632877|  9,76920181867|  0,00000000000| 10,46587957787| 10,94440009992|  9,05955605709|  9,90993344192| 11,25891658961
Rabbit                    |  9,11006246885| 10,53641330664|  9,27622628151|  9,73585847226|  8,97680003459|  9,46437220160|  9,99450812009|  8,89592286580|  9,69953050475|  9,19266642518|  8,65553160833|  9,79463742391|  9,36727000983| 10,40170745449| 10,15417109773|  9,99814100449| 10,13205322563|  9,93688917776|  9,60333243001|  9,62902514061| 11,50955275603|  7,65872630854|  8,73171120202|  9,59454323948| 10,28141534663| 10,16932935703| 10,46587957787|  0,00000000000|  9,87103704434|  8,96377800591|  8,76151115440| 10,50479799921
Hedgehog                  | 10,25161160790| 11,27866448545| 10,48838042720| 10,94545488935| 10,49602733202| 10,69629114158| 10,48592545599| 10,42513395786| 10,69459303253| 10,70155365604| 10,47057393160| 10,96036952782|  9,51738522120| 10,88021826735| 10,02715818901| 10,87349881388| 11,34368878111| 11,01311412788|  9,69254180105| 11,07331611846| 11,28931087198| 11,19640272995| 11,13931954469| 10,82015008642| 10,76371974807| 10,75506923856| 10,94440009992|  9,87103704434|  0,00000000000|  9,81807145597| 10,39860271373| 11,36177702347
Dormouse                  |  8,53177569433| 10,21902403093|  8,64490289436|  8,95294228546|  8,58833146462|  7,53601802095|  9,42514449733|  8,63372410031|  8,51684954664|  9,11821264716|  8,35163602677|  9,81148680575|  8,75459773808|  9,17648785708|  8,54069846562|  9,63336128557| 10,05987892209|  8,72538584532|  8,95846135894|  8,88129529538| 10,52281421723|  8,82737008661|  9,96921122591|  9,80904561403|  9,89550491524|  9,08767274826|  9,05955605709|  8,96377800591|  9,81807145597|  0,00000000000|  8,18208349393| 10,26909563570
Squirrel                  |  8,74127754652|  9,92632237737|  9,46714680635|  9,86784513540|  8,46951422179|  8,28657562153|  9,89364934741|  9,02127387180| 10,05491647942|  9,35577908040|  9,42361386545| 10,55904673014|  9,59018443941| 10,26635460172|  9,79252312933| 10,26259205696| 10,22417422720|  9,68341173771|  9,75621773662| 10,44240802836| 11,15963098979|  9,49286303749|  9,46266003241| 10,11680877109|  9,37958290319|  9,38342125771|  9,90993344192|  8,76151115440| 10,39860271373|  8,18208349393|  0,00000000000| 10,20020253567
Blue_Whale                | 10,06516328809| 11,74314195796|  9,77524946749|  9,99876941075|  9,66126782769| 10,89139517885| 11,04553494258| 10,63396905561| 10,52981649682| 10,62247667224| 10,36718779395| 11,20673231621|  9,58840586869| 10,11453364614| 10,46665294504| 10,06438138554|  9,21114816413| 10,73882601385| 10,31146442477| 10,81085801739| 11,29443215264|  9,97968916598| 10,77119235142| 10,71559722663| 10,67031047963| 10,73065465946| 11,25891658961| 10,50479799921| 11,36177702347| 10,26909563570| 10,20020253567|  0,00000000000
