                           |Human          |Pig_Chim       |Com_Chim       |Gibbon         |Baboon         |Ver_Monkey     |Macaca_Thibet  |Bor_Oran       |Sum_Oran       |Gorilla        |Cat            |Dog            |Pig            |Sheep          |Goat           |Cow            |Buffalo        |Wolf           |Tiger          |Leopard        |Indian_Rhino   |White_Rhino    |Black_Bear     |Brown_Bear     |Polar_Bear     |Giant_Panda    |Rabbit         |Hedgehog       |Dormouse       |Squirrel       |Blue_Whale     
Human                     |  0,00000000000|  7,70420066367|  7,77076641221|  8,58882636627|  8,92490958106|  9,23118385398|  9,20954772953|  8,33603044462|  8,43380359196|  7,80158554187| 10,50108683518| 10,16184458988| 10,74925859415| 10,82075420320| 10,65956017990| 10,50262083486| 10,08310915592| 10,15589391190| 10,40570454139| 10,78241361377| 10,12070740768|  9,80160284456| 10,82420201888| 11,59078009434| 11,75473682531| 12,16447857190| 10,15687084129| 12,08162463220| 11,48971702538| 11,19264153664| 10,22826245179
Pig_Chim                  |  7,70420066367|  0,00000000000|  6,82122805234|  8,61334474932|  8,91104916399|  9,17560828151|  9,18320292207|  8,45659256699|  8,60238930418|  7,57337330026| 10,23118975460|  9,85048276448| 10,34203948435| 10,46291566605| 10,38301471551| 10,12717125376|  9,84961284678|  9,77052072911| 10,16760683124| 10,50491761316|  9,78773772399|  9,63027399569| 10,45551370442| 11,36698609150| 11,53740289040| 11,80911657588|  9,77941874856| 11,70181382059| 11,06726704217| 10,75450109289|  9,87278036348
Com_Chim                  |  7,77076641221|  6,82122805234|  0,00000000000|  8,54384899775|  8,88693776225|  9,14511103520|  9,12250980100|  8,49782483369|  8,67538908704|  7,54150303255| 10,33466754577|  9,92422275203| 10,40199526469| 10,46646262861| 10,33982360947| 10,19475607985|  9,86089745087|  9,86691469853| 10,23170690154| 10,51719501448|  9,87089740973|  9,67294489361| 10,50560044416| 11,43535060264| 11,60061971268| 11,89859640696|  9,88751055058| 11,73080536655| 11,12893284756| 10,82430671108|  9,93948838281
Gibbon                    |  8,58882636627|  8,61334474932|  8,54384899775|  0,00000000000|  9,08465933599|  9,30274345724|  9,22293111361|  8,56990895715|  8,56845622448|  8,68404743357| 10,82405307139| 10,46589132721| 11,04087868641| 11,02366826620| 10,89249439426| 10,75561516135| 10,30964852932| 10,44738165344| 10,55052070700| 10,92807571220| 10,33901529174|  9,96468842226| 11,04504710375| 11,78693466046| 11,94221241278| 12,46957169062| 10,46663185749| 12,43557880842| 11,72633190228| 11,52632331866| 10,50161995351
Baboon                    |  8,92490958106|  8,91104916399|  8,88693776225|  9,08465933599|  0,00000000000|  8,63212047796|  8,39833412422|  9,00126399354|  9,12257041762|  8,80705817310| 10,40423737010| 10,15774210532| 10,63083530267| 10,72205377675| 10,55538607739| 10,49510729257| 10,03977419085| 10,18601856173| 10,34984284431| 10,68772857308| 10,01509704616|  9,72035405968| 10,66013341841| 11,47381280104| 11,62304586820| 12,03303411020| 10,02111111237| 11,89386197953| 11,27276938843| 11,07171466772| 10,12165564295
Ver_Monkey                |  9,23118385398|  9,17560828151|  9,14511103520|  9,30274345724|  8,63212047796|  0,00000000000|  8,67199429068|  9,32979247972|  9,47999414898|  9,09656061152| 10,20550018029|  9,90321895510| 10,35399511079| 10,47233218412| 10,30425986211| 10,25045009444|  9,87181635605|  9,91883408167| 10,07471891110| 10,37959769038|  9,87831878339|  9,73580230648| 10,38169035575| 11,29547288099| 11,40122018614| 11,66596071252|  9,82037529672| 11,57332277038| 11,01301662441| 10,75077013184|  9,92134630795
Macaca_Thibet             |  9,20954772953|  9,18320292207|  9,12250980100|  9,22293111361|  8,39833412422|  8,67199429068|  0,00000000000|  9,29793144339|  9,29129726884|  9,09299252809| 10,35632194986| 10,02812730111| 10,56351767561| 10,55591721295| 10,45558588182| 10,40463483122| 10,02296909332| 10,02487105863| 10,35419566445| 10,61200070866|  9,88908940486|  9,76738966439| 10,57528750528| 11,46797180322| 11,63425917205| 11,90738285312| 10,04684024955| 11,75610606136| 11,15637904416| 10,91162265737| 10,14557204930
Bor_Oran                  |  8,33603044462|  8,45659256699|  8,49782483369|  8,56990895715|  9,00126399354|  9,32979247972|  9,29793144339|  0,00000000000|  7,55967529513|  8,46794187522| 10,83395242287| 10,47836020292| 11,06823371878| 11,17811215227| 11,00388363721| 10,85471259966| 10,48927061265| 10,41595103973| 10,70211695267| 11,03403219100| 10,32454376979| 10,04624032556| 11,10414245851| 11,98686598020| 12,12984497159| 12,55188240882| 10,47863878312| 12,54852055399| 11,83822476637| 11,52914551291| 10,60972708338
Sum_Oran                  |  8,43380359196|  8,60238930418|  8,67538908704|  8,56845622448|  9,12257041762|  9,47999414898|  9,29129726884|  7,55967529513|  0,00000000000|  8,55174663228| 10,95021550563| 10,59136925326| 11,12371563323| 11,25388295158| 11,09454524717| 10,89789164146| 10,53612945399| 10,54099898554| 10,71353206512| 11,12892674352| 10,38950917762| 10,06135016656| 11,20310740769| 12,02609905787| 12,16230636996| 12,65962894711| 10,53696969190| 12,60993445801| 11,86967672564| 11,59914110285| 10,65517681561
Gorilla                   |  7,80158554187|  7,57337330026|  7,54150303255|  8,68404743357|  8,80705817310|  9,09656061152|  9,09299252809|  8,46794187522|  8,55174663228|  0,00000000000| 10,28576478458|  9,92557701865| 10,39116030086| 10,55876652617| 10,38044854270| 10,26049893092|  9,82118616132|  9,88214870676| 10,18716671667| 10,53651981518|  9,91358626199|  9,63778619406| 10,47260100917| 11,39650885682| 11,57145126020| 11,92515765238|  9,86752968582| 11,80021086885| 11,12882174776| 10,92748267616|  9,94095557506
Cat                       | 10,50108683518| 10,23118975460| 10,33466754577| 10,82405307139| 10,40423737010| 10,20550018029| 10,35632194986| 10,83395242287| 10,95021550563| 10,28576478458|  0,00000000000|  9,40081924857|  9,52864815045|  9,46338552975|  9,42098070685|  9,40310549764|  9,27932982747|  9,23052225193|  8,22997462734|  8,21189235451|  9,42776185805|  9,38578825322|  9,02330182898|  9,48895350909|  9,73790491650|  9,61531456825|  9,51360773550| 10,64960588267| 10,07440222627|  9,93352662279|  9,36983853588
Dog                       | 10,16184458988|  9,85048276448|  9,92422275203| 10,46589132721| 10,15774210532|  9,90321895510| 10,02812730111| 10,47836020292| 10,59136925326|  9,92557701865|  9,40081924857|  0,00000000000|  8,95181201075|  9,10967013723|  9,04545756561|  9,13052315607|  9,10669497063|  6,69070538688|  9,66553645200|  9,77539302615|  9,12896426643|  9,14446333527|  9,11849447071| 10,31149894990| 10,48533100661| 10,32796029336|  9,08768209888| 10,07200221326|  9,52268186604|  9,46985191393|  9,09304585434
Pig                       | 10,74925859415| 10,34203948435| 10,40199526469| 11,04087868641| 10,63083530267| 10,35399511079| 10,56351767561| 11,06823371878| 11,12371563323| 10,39116030086|  9,52864815045|  8,95181201075|  0,00000000000|  8,63281927328|  8,67769205940|  8,84180990448|  8,93073959112|  8,84248276473|  9,84172771849|  9,74137395138|  8,94524885572|  8,96637908394|  9,11646704820| 10,50957116665| 10,59774289591|  9,90762104453|  9,21607629206|  9,71471893500|  9,21402320795|  9,12138437847|  8,90759686952
Sheep                     | 10,82075420320| 10,46291566605| 10,46646262861| 11,02366826620| 10,72205377675| 10,47233218412| 10,55591721295| 11,17811215227| 11,25388295158| 10,55876652617|  9,46338552975|  9,10967013723|  8,63281927328|  0,00000000000|  7,77758652729|  8,27027459082|  8,42081253865|  9,01782590912|  9,87980311900|  9,87214585128|  9,02397519437|  9,16354676456|  9,20570402081| 10,51799180043| 10,60731313001|  9,86348161746|  9,23542861392|  9,62941121320|  9,44701024071|  9,22577097454|  8,81317139934
Goat                      | 10,65956017990| 10,38301471551| 10,33982360947| 10,89249439426| 10,55538607739| 10,30425986211| 10,45558588182| 11,00388363721| 11,09454524717| 10,38044854270|  9,42098070685|  9,04545756561|  8,67769205940|  7,77758652729|  0,00000000000|  8,29095017006|  8,32106660022|  8,91735520291|  9,78578429152|  9,81766714606|  8,98931071571|  9,16819737882|  9,21629567761| 10,56573961380| 10,62322291176| 10,06123952862|  9,27612780961|  9,64714207055|  9,38731380096|  9,31696505265|  8,82705221926
Cow                       | 10,50262083486| 10,12717125376| 10,19475607985| 10,75561516135| 10,49510729257| 10,25045009444| 10,40463483122| 10,85471259966| 10,89789164146| 10,26049893092|  9,40310549764|  9,13052315607|  8,84180990448|  8,27027459082|  8,29095017006|  0,00000000000|  8,19313506755|  8,99512310887|  9,74869658089|  9,85495299261|  9,05639834402|  9,06291171035|  9,22666440495| 10,47447705686| 10,57094584845| 10,01312571938|  9,21463219759|  9,74338738279|  9,62097367891|  9,37556016073|  8,66326110161
Buffalo                   | 10,08310915592|  9,84961284678|  9,86089745087| 10,30964852932| 10,03977419085|  9,87181635605| 10,02296909332| 10,48927061265| 10,53612945399|  9,82118616132|  9,27932982747|  9,10669497063|  8,93073959112|  8,42081253865|  8,32106660022|  8,19313506755|  0,00000000000|  9,01290626222|  9,67456647347|  9,72963001280|  9,02521703116|  8,98637181361|  9,30322435609| 10,52965235608| 10,63678620231| 10,36039760204|  9,18832012212| 10,16233428884|  9,79249767441|  9,53522864754|  8,80644445841
Wolf                      | 10,15589391190|  9,77052072911|  9,86691469853| 10,44738165344| 10,18601856173|  9,91883408167| 10,02487105863| 10,41595103973| 10,54099898554|  9,88214870676|  9,23052225193|  6,69070538688|  8,84248276473|  9,01782590912|  8,91735520291|  8,99512310887|  9,01290626222|  0,00000000000|  9,49333070358|  9,66453737659|  8,91806607919|  9,00101841666|  9,04970437516| 10,27352633600| 10,43643886247| 10,28094263567|  9,04230193293| 10,09593726620|  9,58375639113|  9,48616505253|  9,01450872411
Tiger                     | 10,40570454139| 10,16760683124| 10,23170690154| 10,55052070700| 10,34984284431| 10,07471891110| 10,35419566445| 10,70211695267| 10,71353206512| 10,18716671667|  8,22997462734|  9,66553645200|  9,84172771849|  9,87980311900|  9,78578429152|  9,74869658089|  9,67456647347|  9,49333070358|  0,00000000000|  7,99864948202|  9,64948310226|  9,58973516534|  9,39116276052|  9,34857839107|  9,52957792446|  9,88961065265|  9,69170002719| 11,16840179486| 10,40601805789| 10,33407095404|  9,64694995678
Leopard                   | 10,78241361377| 10,50491761316| 10,51719501448| 10,92807571220| 10,68772857308| 10,37959769038| 10,61200070866| 11,03403219100| 11,12892674352| 10,53651981518|  8,21189235451|  9,77539302615|  9,74137395138|  9,87214585128|  9,81766714606|  9,85495299261|  9,72963001280|  9,66453737659|  7,99864948202|  0,00000000000|  9,79005315261|  9,68789656754|  9,17877878583|  9,14726563745|  9,30998871960|  9,61568954497|  9,91186075834| 10,92927193631| 10,40750109624| 10,29920732923|  9,69218874287
Indian_Rhino              | 10,12070740768|  9,78773772399|  9,87089740973| 10,33901529174| 10,01509704616|  9,87831878339|  9,88908940486| 10,32454376979| 10,38950917762|  9,91358626199|  9,42776185805|  9,12896426643|  8,94524885572|  9,02397519437|  8,98931071571|  9,05639834402|  9,02521703116|  8,91806607919|  9,64948310226|  9,79005315261|  0,00000000000|  7,84427972712|  9,26981837071| 10,44809439580| 10,57383867607| 10,39445272748|  9,18748614932| 10,42871727870|  9,79604548645|  9,71762880614|  8,92732020334
White_Rhino               |  9,80160284456|  9,63027399569|  9,67294489361|  9,96468842226|  9,72035405968|  9,73580230648|  9,76738966439| 10,04624032556| 10,06135016656|  9,63778619406|  9,38578825322|  9,14446333527|  8,96637908394|  9,16354676456|  9,16819737882|  9,06291171035|  8,98637181361|  9,00101841666|  9,58973516534|  9,68789656754|  7,84427972712|  0,00000000000|  9,50203103636| 10,57994010420| 10,69767875249| 10,55288472855|  9,21419677712| 10,61190940749| 10,01812214923|  9,79286067476|  8,96339172050
Black_Bear                | 10,82420201888| 10,45551370442| 10,50560044416| 11,04504710375| 10,66013341841| 10,38169035575| 10,57528750528| 11,10414245851| 11,20310740769| 10,47260100917|  9,02330182898|  9,11849447071|  9,11646704820|  9,20570402081|  9,21629567761|  9,22666440495|  9,30322435609|  9,04970437516|  9,39116276052|  9,17877878583|  9,26981837071|  9,50203103636|  0,00000000000|  9,03042342909|  9,13401756427|  9,14605615864|  9,34420400158| 10,07708690192|  9,56266142255|  9,49955682365|  9,16820308477
Brown_Bear                | 11,59078009434| 11,36698609150| 11,43535060264| 11,78693466046| 11,47381280104| 11,29547288099| 11,46797180322| 11,98686598020| 12,02609905787| 11,39650885682|  9,48895350909| 10,31149894990| 10,50957116665| 10,51799180043| 10,56573961380| 10,47447705686| 10,52965235608| 10,27352633600|  9,34857839107|  9,14726563745| 10,44809439580| 10,57994010420|  9,03042342909|  0,00000000000|  6,71922128727|  8,99966044110| 10,48779133964| 11,32974674162| 10,86033923247| 10,83717891523| 10,39580761847
Polar_Bear                | 11,75473682531| 11,53740289040| 11,60061971268| 11,94221241278| 11,62304586820| 11,40122018614| 11,63425917205| 12,12984497159| 12,16230636996| 11,57145126020|  9,73790491650| 10,48533100661| 10,59774289591| 10,60731313001| 10,62322291176| 10,57094584845| 10,63678620231| 10,43643886247|  9,52957792446|  9,30998871960| 10,57383867607| 10,69767875249|  9,13401756427|  6,71922128727|  0,00000000000|  8,98203608655| 10,63274360377| 11,44807749954| 10,96126708303| 10,94795955166| 10,57988902931
Giant_Panda               | 12,16447857190| 11,80911657588| 11,89859640696| 12,46957169062| 12,03303411020| 11,66596071252| 11,90738285312| 12,55188240882| 12,65962894711| 11,92515765238|  9,61531456825| 10,32796029336|  9,90762104453|  9,86348161746| 10,06123952862| 10,01312571938| 10,36039760204| 10,28094263567|  9,88961065265|  9,61568954497| 10,39445272748| 10,55288472855|  9,14605615864|  8,99966044110|  8,98203608655|  0,00000000000| 10,26248269321| 10,37204572183| 10,14167104860| 10,12181300221| 10,24645048007
Rabbit                    | 10,15687084129|  9,77941874856|  9,88751055058| 10,46663185749| 10,02111111237|  9,82037529672| 10,04684024955| 10,47863878312| 10,53696969190|  9,86752968582|  9,51360773550|  9,08768209888|  9,21607629206|  9,23542861392|  9,27612780961|  9,21463219759|  9,18832012212|  9,04230193293|  9,69170002719|  9,91186075834|  9,18748614932|  9,21419677712|  9,34420400158| 10,48779133964| 10,63274360377| 10,26248269321|  0,00000000000| 10,01007323122|  9,48986123672|  9,33162654998|  9,11297786145
Hedgehog                  | 12,08162463220| 11,70181382059| 11,73080536655| 12,43557880842| 11,89386197953| 11,57332277038| 11,75610606136| 12,54852055399| 12,60993445801| 11,80021086885| 10,64960588267| 10,07200221326|  9,71471893500|  9,62941121320|  9,64714207055|  9,74338738279| 10,16233428884| 10,09593726620| 11,16840179486| 10,92927193631| 10,42871727870| 10,61190940749| 10,07708690192| 11,32974674162| 11,44807749954| 10,37204572183| 10,01007323122|  0,00000000000|  9,30286450234|  9,27888112158| 10,09967765780
Dormouse                  | 11,48971702538| 11,06726704217| 11,12893284756| 11,72633190228| 11,27276938843| 11,01301662441| 11,15637904416| 11,83822476637| 11,86967672564| 11,12882174776| 10,07440222627|  9,52268186604|  9,21402320795|  9,44701024071|  9,38731380096|  9,62097367891|  9,79249767441|  9,58375639113| 10,40601805789| 10,40750109624|  9,79604548645| 10,01812214923|  9,56266142255| 10,86033923247| 10,96126708303| 10,14167104860|  9,48986123672|  9,30286450234|  0,00000000000|  9,13176308606|  9,68926799231
Squirrel                  | 11,19264153664| 10,75450109289| 10,82430671108| 11,52632331866| 11,07171466772| 10,75077013184| 10,91162265737| 11,52914551291| 11,59914110285| 10,92748267616|  9,93352662279|  9,46985191393|  9,12138437847|  9,22577097454|  9,31696505265|  9,37556016073|  9,53522864754|  9,48616505253| 10,33407095404| 10,29920732923|  9,71762880614|  9,79286067476|  9,49955682365| 10,83717891523| 10,94795955166| 10,12181300221|  9,33162654998|  9,27888112158|  9,13176308606|  0,00000000000|  9,39159300251
Blue_Whale                | 10,22826245179|  9,87278036348|  9,93948838281| 10,50161995351| 10,12165564295|  9,92134630795| 10,14557204930| 10,60972708338| 10,65517681561|  9,94095557506|  9,36983853588|  9,09304585434|  8,90759686952|  8,81317139934|  8,82705221926|  8,66326110161|  8,80644445841|  9,01450872411|  9,64694995678|  9,69218874287|  8,92732020334|  8,96339172050|  9,16820308477| 10,39580761847| 10,57988902931| 10,24645048007|  9,11297786145| 10,09967765780|  9,68926799231|  9,39159300251|  0,00000000000
