                           |Human          |Pig_Chim       |Com_Chim       |Gibbon         |Baboon         |Ver_Monkey     |Macaca_Thibet  |Bor_Oran       |Sum_Oran       |Gorilla        |Cat            |Dog            |Pig            |Sheep          |Goat           |Cow            |Buffalo        |Wolf           |Tiger          |Leopard        |Indian_Rhino   |White_Rhino    |Black_Bear     |Brown_Bear     |Polar_Bear     |Giant_Panda    |Rabbit         |Hedgehog       |Dormouse       |Squirrel       |Blue_Whale     
Human                     |  0,00000000000|  8,12500232856|  8,16294047891|  8,68810041902|  8,96044334421|  9,22168508680|  9,19774883191|  8,51119684801|  8,57162322630|  8,18192441890| 10,45602464855| 10,12064091863| 10,71495559304| 10,81168830485| 10,64504405802| 10,45200690176| 10,02293150357| 10,11408738562| 10,34946758841| 10,75290029466| 10,06309538338|  9,73890993039| 10,80287179788| 11,67375549112| 11,86034346381| 12,40024218750| 10,10441935790| 12,48352813379| 11,65554939716| 11,27733926602| 10,16784347637
Pig_Chim                  |  8,12500232856|  0,00000000000|  7,70480489653|  8,70894764829|  8,95457846285|  9,18028214250|  9,18108191783|  8,59799634784|  8,69483618040|  8,05654181175| 10,17090919821|  9,81028935421| 10,26810773111| 10,41294752334| 10,34454390991| 10,05604110897|  9,79437886958|  9,73088813966| 10,10239352203| 10,44587526593|  9,73446197897|  9,58103960778| 10,39251881693| 11,39523625596| 11,58403800771| 11,92240380674|  9,72960088159| 11,96938016612| 11,13173804132| 10,75867099298|  9,81038261211
Com_Chim                  |  8,16294047891|  7,70480489653|  0,00000000000|  8,65774342071|  8,93484752529|  9,15366256102|  9,12882893139|  8,62732631455|  8,74903347257|  8,03917970284| 10,28135469810|  9,88379975452| 10,33262107057| 10,41632990782| 10,29681973287| 10,12630111776|  9,80507354052|  9,82585166893| 10,16954986728| 10,45901738528|  9,81611895978|  9,62120625843| 10,44738685602| 11,48138073898| 11,66536351446| 12,04226876380|  9,83609617981| 12,00786839306| 11,20712062132| 10,83994824146|  9,87663787970
Gibbon                    |  8,68810041902|  8,70894764829|  8,65774342071|  0,00000000000|  9,07785107702|  9,26791363637|  9,19460829820|  8,66852342148|  8,66146635512|  8,76298910970| 10,80275325709| 10,42615398229| 11,03812953711| 11,03041599635| 10,89289860706| 10,71784430125| 10,24134389687| 10,40539401197| 10,48938256279| 10,90323301653| 10,27394742099|  9,88261847813| 11,04396525245| 11,91110269732| 12,09159775297| 12,81212175514| 10,41653154261| 12,96274282227| 11,93977106766| 11,67622517643| 10,44386288295
Baboon                    |  8,96044334421|  8,95457846285|  8,93484752529|  9,07785107702|  0,00000000000|  8,73819920816|  8,56444863217|  9,01233647587|  9,10279802923|  8,87384683657| 10,35239876887| 10,12002817986| 10,58261913742| 10,70032976992| 10,53025739615| 10,44681224408|  9,98136936859| 10,14971719392| 10,29177824895| 10,64693366200|  9,95718022875|  9,66273368051| 10,61671864155| 11,52600389302| 11,69027272751| 12,22106077667|  9,96674728738| 12,22424783714| 11,38085097618| 11,13180963071| 10,05885897442
Ver_Monkey                |  9,22168508680|  9,18028214250|  9,15366256102|  9,26791363637|  8,73819920816|  0,00000000000|  8,76799075559|  9,29569390020|  9,41851828061|  9,11550125667| 10,14521894529|  9,86501739057| 10,28238385023| 10,42498446752| 10,26062218302| 10,18725998013|  9,81798103942|  9,88052708063| 10,00719690692| 10,30971247229|  9,82559268756|  9,68361199995| 10,31321331175| 11,30699144355| 11,41170753927| 11,73439097940|  9,77145737643| 11,79923355992| 11,06757535166| 10,75632817407|  9,86033914342
Macaca_Thibet             |  9,19774883191|  9,18108191783|  9,12882893139|  9,19460829820|  8,56444863217|  8,76799075559|  0,00000000000|  9,26326392666|  9,24672053763|  9,10665687795| 10,29966861287|  9,98408789074| 10,50634325449| 10,51076610917| 10,41814555772| 10,34664177439|  9,96361122620|  9,98047004034| 10,29597821255| 10,56040516665|  9,82935681110|  9,70782401292| 10,52034197558| 11,51802898607| 11,70439887888| 12,04899563324|  9,99264965091| 12,03308616873| 11,23401820101| 10,93714873119| 10,08330409998
Bor_Oran                  |  8,51119684801|  8,59799634784|  8,62732631455|  8,66852342148|  9,01233647587|  9,29569390020|  9,26326392666|  0,00000000000|  8,03203378687|  8,60712278030| 10,81962252587| 10,44580756090| 11,07623757456| 11,22434785092| 11,03197075566| 10,83819190880| 10,44236675897| 10,37641837521| 10,66550780555| 11,03452641407| 10,26334664715|  9,96965621521| 11,12068176562| 12,18604908831| 12,35398058332| 12,93791189538| 10,43518551284| 13,14150228412| 12,09886935736| 11,68663365160| 10,56990245962
Sum_Oran                  |  8,57162322630|  8,69483618040|  8,74903347257|  8,66146635512|  9,10279802923|  9,41851828061|  9,24672053763|  8,03203378687|  0,00000000000|  8,65845603075| 10,94094713300| 10,55533844542| 11,12830587082| 11,30148964268| 11,12451832129| 10,87359057801| 10,47896122168| 10,49835825723| 10,66370251655| 11,13423673409| 10,31872927336|  9,97177667115| 11,22627352251| 12,22382136016| 12,38367299331| 13,07929836417| 10,48411972933| 13,20761137406| 12,12049390064| 11,75868177197| 10,60601959319
Gorilla                   |  8,18192441890|  8,05654181175|  8,03917970284|  8,76298910970|  8,87384683657|  9,11550125667|  9,10665687795|  8,60712278030|  8,65845603075|  0,00000000000| 10,23265089689|  9,88979765494| 10,32433976982| 10,52347854689| 10,34565156558| 10,19973436487|  9,76951685499|  9,84565831402| 10,12622400495| 10,48432524742|  9,86278788804|  9,59112441419| 10,41455218955| 11,43588630254| 11,63121258183| 12,08248576858|  9,82016753476| 12,11083896016| 11,21278450080| 10,96825958091|  9,88178597845
Cat                       | 10,45602464855| 10,17090919821| 10,28135469810| 10,80275325709| 10,35239876887| 10,14521894529| 10,29966861287| 10,81962252587| 10,94094713300| 10,23265089689|  0,00000000000|  9,35963002966|  9,44316870583|  9,39197779652|  9,36489291844|  9,34002265393|  9,24343163462|  9,20915068382|  8,43326419090|  8,41415746124|  9,37550567178|  9,33682892332|  9,00875476788|  9,36463798564|  9,57485448105|  9,45151184003|  9,45570901787| 10,61937731895|  9,98737465740|  9,84619813952|  9,31866690565
Dog                       | 10,12064091863|  9,81028935421|  9,88379975452| 10,42615398229| 10,12002817986|  9,86501739057|  9,98408789074| 10,44580756090| 10,55533844542|  9,88979765494|  9,35963002966|  0,00000000000|  8,96077091184|  9,09961316383|  9,05914669982|  9,11955246207|  9,11523450649|  7,65678720770|  9,60354016718|  9,69107106996|  9,13499447039|  9,14680472256|  9,09843703175| 10,17389551447| 10,33700905900| 10,15395316208|  9,10270401516| 10,02238095998|  9,47297699005|  9,42549636574|  9,09814707419
Pig                       | 10,71495559304| 10,26810773111| 10,33262107057| 11,03812953711| 10,58261913742| 10,28238385023| 10,50634325449| 11,07623757456| 11,12830587082| 10,32433976982|  9,44316870583|  8,96077091184|  0,00000000000|  8,70370764629|  8,74235235369|  8,86236057429|  8,93948366761|  8,87377662726|  9,73671247082|  9,62845911026|  8,95144088630|  8,96779646488|  9,07594601088| 10,36074071243| 10,43737613616|  9,71986851087|  9,17675248331|  9,62358459377|  9,16773214893|  9,09044235231|  8,91865200456
Sheep                     | 10,81168830485| 10,41294752334| 10,41632990782| 11,03041599635| 10,70032976992| 10,42498446752| 10,51076610917| 11,22434785092| 11,30148964268| 10,52347854689|  9,39197779652|  9,09961316383|  8,70370764629|  0,00000000000|  8,15441286423|  8,45577905808|  8,56458250436|  9,02321446090|  9,78277675452|  9,76148927506|  9,02275767021|  9,13806366100|  9,15608675045| 10,37651699101| 10,45380782235|  9,68067417232|  9,20189819941|  9,55247919481|  9,37873758420|  9,18561849804|  8,85138198011
Goat                      | 10,64504405802| 10,34454390991| 10,29681973287| 10,89289860706| 10,53025739615| 10,26062218302| 10,41814555772| 11,03197075566| 11,12451832129| 10,34565156558|  9,36489291844|  9,05914669982|  8,74235235369|  8,15441286423|  0,00000000000|  8,47515185475|  8,50380418579|  8,95411709859|  9,70398581536|  9,71946276073|  9,00535481226|  9,15342130625|  9,17297413503| 10,43815560169| 10,47961637977|  9,87676753056|  9,24970963268|  9,58269918910|  9,33653284991|  9,27519227091|  8,87128262200
Cow                       | 10,45200690176| 10,05604110897| 10,12630111776| 10,71784430125| 10,44681224408| 10,18725998013| 10,34664177439| 10,83819190880| 10,87359057801| 10,19973436487|  9,34002265393|  9,11955246207|  8,86236057429|  8,45577905808|  8,47515185475|  0,00000000000|  8,41180914870|  9,00688530124|  9,65803827561|  9,74673199663|  9,05139426676|  9,05595001268|  9,17530171057| 10,33118702814| 10,41554575946|  9,82598477016|  9,18622514752|  9,66298629019|  9,53999911510|  9,31780374139|  8,73899022029
Buffalo                   | 10,02293150357|  9,79437886958|  9,80507354052| 10,24134389687|  9,98136936859|  9,81798103942|  9,96361122620| 10,44236675897| 10,47896122168|  9,76951685499|  9,24343163462|  9,11523450649|  8,93948366761|  8,56458250436|  8,50380418579|  8,41180914870|  0,00000000000|  9,03665219249|  9,60182282874|  9,63852110318|  9,03864455075|  9,00568897295|  9,25052963036| 10,40187796809| 10,49747241566| 10,18466776765|  9,17807848234| 10,10180935229|  9,71821990432|  9,47553330643|  8,85829753452
Wolf                      | 10,11408738562|  9,73088813966|  9,82585166893| 10,40539401197| 10,14971719392|  9,88052708063|  9,98047004034| 10,37641837521| 10,49835825723|  9,84565831402|  9,20915068382|  7,65678720770|  8,87377662726|  9,02321446090|  8,95411709859|  9,00688530124|  9,03665219249|  0,00000000000|  9,44241211493|  9,58481653823|  8,95993317341|  9,02635535809|  9,04111401517| 10,13375235537| 10,28400508352| 10,10457294940|  9,06448083357| 10,04701409501|  9,52964786430|  9,44027747525|  9,03259440845
Tiger                     | 10,34946758841| 10,10239352203| 10,16954986728| 10,48938256279| 10,29177824895| 10,00719690692| 10,29597821255| 10,66550780555| 10,66370251655| 10,12622400495|  8,43326419090|  9,60354016718|  9,73671247082|  9,78277675452|  9,70398581536|  9,65803827561|  9,60182282874|  9,44241211493|  0,00000000000|  8,27912214451|  9,57886862780|  9,52168083629|  9,31975154503|  9,24149351463|  9,38454191393|  9,70710786657|  9,62125557005| 11,23553771996| 10,33613060450| 10,25952360615|  9,57079464324
Leopard                   | 10,75290029466| 10,44587526593| 10,45901738528| 10,90323301653| 10,64693366200| 10,30971247229| 10,56040516665| 11,03452641407| 11,13423673409| 10,48432524742|  8,41415746124|  9,69107106996|  9,62845911026|  9,76148927506|  9,71946276073|  9,74673199663|  9,63852110318|  9,58481653823|  8,27912214451|  0,00000000000|  9,69716556074|  9,59853078920|  9,12752228867|  9,06836314105|  9,19056231415|  9,44856515086|  9,81844576978| 10,92158335277| 10,31967888733| 10,20463526668|  9,59884481750
Indian_Rhino              | 10,06309538338|  9,73446197897|  9,81611895978| 10,27394742099|  9,95718022875|  9,82559268756|  9,82935681110| 10,26334664715| 10,31872927336|  9,86278788804|  9,37550567178|  9,13499447039|  8,95144088630|  9,02275767021|  9,00535481226|  9,05139426676|  9,03864455075|  8,95993317341|  9,57886862780|  9,69716556074|  0,00000000000|  8,20251383704|  9,22205094811| 10,31381298311| 10,42846029421| 10,22099968210|  9,17814826965| 10,38951206759|  9,72252323231|  9,64782779189|  8,95452190424
White_Rhino               |  9,73890993039|  9,58103960778|  9,62120625843|  9,88261847813|  9,66273368051|  9,68361199995|  9,70782401292|  9,96965621521|  9,97177667115|  9,59112441419|  9,33682892332|  9,14680472256|  8,96779646488|  9,13806366100|  9,15342130625|  9,05595001268|  9,00568897295|  9,02635535809|  9,52168083629|  9,59853078920|  8,20251383704|  0,00000000000|  9,42709401990| 10,45680453942| 10,56510918999| 10,39086982319|  9,19989444863| 10,59272421987|  9,94209908182|  9,71913052450|  8,98268542461
Black_Bear                | 10,80287179788| 10,39251881693| 10,44738685602| 11,04396525245| 10,61671864155| 10,31321331175| 10,52034197558| 11,12068176562| 11,22627352251| 10,41455218955|  9,00875476788|  9,09843703175|  9,07594601088|  9,15608675045|  9,17297413503|  9,17530171057|  9,25052963036|  9,04111401517|  9,31975154503|  9,12752228867|  9,22205094811|  9,42709401990|  0,00000000000|  8,97426362022|  9,04485435865|  9,04629741574|  9,28840823514|  9,98141769949|  9,47612808954|  9,41929657431|  9,13180921614
Brown_Bear                | 11,67375549112| 11,39523625596| 11,48138073898| 11,91110269732| 11,52600389302| 11,30699144355| 11,51802898607| 12,18604908831| 12,22382136016| 11,43588630254|  9,36463798564| 10,17389551447| 10,36074071243| 10,37651699101| 10,43815560169| 10,33118702814| 10,40187796809| 10,13375235537|  9,24149351463|  9,06836314105| 10,31381298311| 10,45680453942|  8,97426362022|  0,00000000000|  7,64423570577|  8,91954558718| 10,35850788902| 11,33773064524| 10,76606512499| 10,74021932963| 10,25367753859
Polar_Bear                | 11,86034346381| 11,58403800771| 11,66536351446| 12,09159775297| 11,69027272751| 11,41170753927| 11,70439887888| 12,35398058332| 12,38367299331| 11,63121258183|  9,57485448105| 10,33700905900| 10,43737613616| 10,45380782235| 10,47961637977| 10,41554575946| 10,49747241566| 10,28400508352|  9,38454191393|  9,19056231415| 10,42846029421| 10,56510918999|  9,04485435865|  7,64423570577|  0,00000000000|  8,90021098750| 10,49501089370| 11,45981490522| 10,86031036589| 10,84553428126| 10,43144245802
Giant_Panda               | 12,40024218750| 11,92240380674| 12,04226876380| 12,81212175514| 12,22106077667| 11,73439097940| 12,04899563324| 12,93791189538| 13,07929836417| 12,08248576858|  9,45151184003| 10,15395316208|  9,71986851087|  9,68067417232|  9,87676753056|  9,82598477016| 10,18466776765| 10,10457294940|  9,70710786657|  9,44856515086| 10,22099968210| 10,39086982319|  9,04629741574|  8,91954558718|  8,90021098750|  0,00000000000| 10,08344118829| 10,19642823692|  9,95579975315|  9,93613826475| 10,06396227567
Rabbit                    | 10,10441935790|  9,72960088159|  9,83609617981| 10,41653154261|  9,96674728738|  9,77145737643|  9,99264965091| 10,43518551284| 10,48411972933|  9,82016753476|  9,45570901787|  9,10270401516|  9,17675248331|  9,20189819941|  9,24970963268|  9,18622514752|  9,17807848234|  9,06448083357|  9,62125557005|  9,81844576978|  9,17814826965|  9,19989444863|  9,28840823514| 10,35850788902| 10,49501089370| 10,08344118829|  0,00000000000|  9,94858069991|  9,43594359496|  9,29468204340|  9,10906958535
Hedgehog                  | 12,48352813379| 11,96938016612| 12,00786839306| 12,96274282227| 12,22424783714| 11,79923355992| 12,03308616873| 13,14150228412| 13,20761137406| 12,11083896016| 10,61937731895| 10,02238095998|  9,62358459377|  9,55247919481|  9,58269918910|  9,66298629019| 10,10180935229| 10,04701409501| 11,23553771996| 10,92158335277| 10,38951206759| 10,59272421987|  9,98141769949| 11,33773064524| 11,45981490522| 10,19642823692|  9,94858069991|  0,00000000000|  9,26464391235|  9,24455890954| 10,02963971733
Dormouse                  | 11,65554939716| 11,13173804132| 11,20712062132| 11,93977106766| 11,38085097618| 11,06757535166| 11,23401820101| 12,09886935736| 12,12049390064| 11,21278450080|  9,98737465740|  9,47297699005|  9,16773214893|  9,37873758420|  9,33653284991|  9,53999911510|  9,71821990432|  9,52964786430| 10,33613060450| 10,31967888733|  9,72252323231|  9,94209908182|  9,47612808954| 10,76606512499| 10,86031036589|  9,95579975315|  9,43594359496|  9,26464391235|  0,00000000000|  9,11248849074|  9,61366929238
Squirrel                  | 11,27733926602| 10,75867099298| 10,83994824146| 11,67622517643| 11,13180963071| 10,75632817407| 10,93714873119| 11,68663365160| 11,75868177197| 10,96825958091|  9,84619813952|  9,42549636574|  9,09044235231|  9,18561849804|  9,27519227091|  9,31780374139|  9,47553330643|  9,44027747525| 10,25952360615| 10,20463526668|  9,64782779189|  9,71913052450|  9,41929657431| 10,74021932963| 10,84553428126|  9,93613826475|  9,29468204340|  9,24455890954|  9,11248849074|  0,00000000000|  9,34052800065
Blue_Whale                | 10,16784347637|  9,81038261211|  9,87663787970| 10,44386288295| 10,05885897442|  9,86033914342| 10,08330409998| 10,56990245962| 10,60601959319|  9,88178597845|  9,31866690565|  9,09814707419|  8,91865200456|  8,85138198011|  8,87128262200|  8,73899022029|  8,85829753452|  9,03259440845|  9,57079464324|  9,59884481750|  8,95452190424|  8,98268542461|  9,13180921614| 10,25367753859| 10,43144245802| 10,06396227567|  9,10906958535| 10,02963971733|  9,61366929238|  9,34052800065|  0,00000000000
