                           |Human          |Hum_shortened  |Pig_Chim       |Com_Chim       |Gibbon         |Baboon         |Ver_Monkey     |Macaca_Thibet  |Bor_Oran       |Sum_Oran       |Gorilla        |Cat            |Dog            |Pig            |Sheep          |Goat           |Cow            |Buffalo        |Wolf           |Tiger          |Leopard        |Indian_Rhino   |White_Rhino    |Black_Bear     |Brown_Bear     |Polar_Bear     |Giant_Panda    |Rabbit         |Hedgehog       |Dormouse       |Squirrel       |Blue_Whale     
Human                     |  0,00000000000|92205,26155092572|89051,50784387096|89051,50784387096|89051,50784387096|89051,50784387096|89527,45047914637|89051,50784387096|89051,50784387096|88456,15963176677|89051,50784387096|89921,79114942160|90910,41587825339|92787,73883590287|92155,03939803853|92155,03939803853|92005,22011329577|92155,03939803853|90910,41587825339|89921,79114942160|89921,79114942160|90668,78481919150|90668,78481919150|90365,68823796639|89921,79114942160|89921,79114942160|90207,78867323314|90437,23739842807|91491,26962339470|89921,79114942160|90112,30576676523|92883,75592290526
Hum_shortened             |92205,26155092572|  0,00000000000|92205,26155092572|92205,26155092572|92205,26155092572|92205,26155092572|92205,26155092572|92205,26155092572|92205,26155092572|92205,26155092572|92205,26155092572|92205,26155092572|92205,26155092572|92787,73883590287|92205,26155092572|92205,26155092572|92205,26155092572|92205,26155092572|92205,26155092572|92205,26155092572|92205,26155092572|92205,26155092572|92205,26155092572|92205,26155092572|92205,26155092572|92205,26155092572|92205,26155092572|92205,26155092572|92205,26155092572|92205,26155092572|92205,26155092572|92883,75592290526
Pig_Chim                  |89051,50784387096|92205,26155092572|  0,00000000000|79606,11984551731|82169,05644369044|88024,54916198185|89527,45047914637|86531,75323446502|88095,90007557561|89051,50784387096|79606,11984551731|89921,79114942160|90910,41587825339|92787,73883590287|92155,03939803853|92155,03939803853|92005,22011329577|92155,03939803853|90910,41587825339|89921,79114942160|89921,79114942160|90668,78481919150|90668,78481919150|90365,68823796639|89921,79114942160|89921,79114942160|90207,78867323314|90437,23739842807|91491,26962339470|89921,79114942160|90112,30576676523|92883,75592290526
Com_Chim                  |89051,50784387096|92205,26155092572|79606,11984551731|  0,00000000000|82169,05644369044|88024,54916198185|89527,45047914637|86531,75323446502|88095,90007557561|89051,50784387096|71965,78743523210|89921,79114942160|90910,41587825339|92787,73883590287|92155,03939803853|92155,03939803853|92005,22011329577|92155,03939803853|90910,41587825339|89921,79114942160|89921,79114942160|90668,78481919150|90668,78481919150|90365,68823796639|89921,79114942160|89921,79114942160|90207,78867323314|90437,23739842807|91491,26962339470|89921,79114942160|90112,30576676523|92883,75592290526
Gibbon                    |89051,50784387096|92205,26155092572|82169,05644369044|82169,05644369044|  0,00000000000|88024,54916198185|89527,45047914637|86531,75323446502|88095,90007557561|89051,50784387096|82169,05644369044|89921,79114942160|90910,41587825339|92787,73883590287|92155,03939803853|92155,03939803853|92005,22011329577|92155,03939803853|90910,41587825339|89921,79114942160|89921,79114942160|90668,78481919150|90668,78481919150|90365,68823796639|89921,79114942160|89921,79114942160|90207,78867323314|90437,23739842807|91491,26962339470|89921,79114942160|90112,30576676523|92883,75592290526
Baboon                    |89051,50784387096|92205,26155092572|88024,54916198185|88024,54916198185|88024,54916198185|  0,00000000000|89527,45047914637|88024,54916198185|88095,90007557561|89051,50784387096|88024,54916198185|89921,79114942160|90910,41587825339|92787,73883590287|92155,03939803853|92155,03939803853|92005,22011329577|92155,03939803853|90910,41587825339|89921,79114942160|89921,79114942160|90668,78481919150|90668,78481919150|90365,68823796639|89921,79114942160|89921,79114942160|90207,78867323314|90437,23739842807|91491,26962339470|89921,79114942160|90112,30576676523|92883,75592290526
Ver_Monkey                |89527,45047914637|92205,26155092572|89527,45047914637|89527,45047914637|89527,45047914637|89527,45047914637|  0,00000000000|89527,45047914637|89527,45047914637|89527,45047914637|89527,45047914637|89921,79114942160|90910,41587825339|92787,73883590287|92155,03939803853|92155,03939803853|92005,22011329577|92155,03939803853|90910,41587825339|89921,79114942160|89921,79114942160|90668,78481919150|90668,78481919150|90365,68823796639|89921,79114942160|89921,79114942160|90207,78867323314|90437,23739842807|91491,26962339470|89921,79114942160|90112,30576676523|92883,75592290526
Macaca_Thibet             |89051,50784387096|92205,26155092572|86531,75323446502|86531,75323446502|86531,75323446502|88024,54916198185|89527,45047914637|  0,00000000000|88095,90007557561|89051,50784387096|86531,75323446502|89921,79114942160|90910,41587825339|92787,73883590287|92155,03939803853|92155,03939803853|92005,22011329577|92155,03939803853|90910,41587825339|89921,79114942160|89921,79114942160|90668,78481919150|90668,78481919150|90365,68823796639|89921,79114942160|89921,79114942160|90207,78867323314|90437,23739842807|91491,26962339470|89921,79114942160|90112,30576676523|92883,75592290526
Bor_Oran                  |89051,50784387096|92205,26155092572|88095,90007557561|88095,90007557561|88095,90007557561|88095,90007557561|89527,45047914637|88095,90007557561|  0,00000000000|89051,50784387096|88095,90007557561|89921,79114942160|90910,41587825339|92787,73883590287|92155,03939803853|92155,03939803853|92005,22011329577|92155,03939803853|90910,41587825339|89921,79114942160|89921,79114942160|90668,78481919150|90668,78481919150|90365,68823796639|89921,79114942160|89921,79114942160|90207,78867323314|90437,23739842807|91491,26962339470|89921,79114942160|90112,30576676523|92883,75592290526
Sum_Oran                  |88456,15963176677|92205,26155092572|89051,50784387096|89051,50784387096|89051,50784387096|89051,50784387096|89527,45047914637|89051,50784387096|89051,50784387096|  0,00000000000|89051,50784387096|89921,79114942160|90910,41587825339|92787,73883590287|92155,03939803853|92155,03939803853|92005,22011329577|92155,03939803853|90910,41587825339|89921,79114942160|89921,79114942160|90668,78481919150|90668,78481919150|90365,68823796639|89921,79114942160|89921,79114942160|90207,78867323314|90437,23739842807|91491,26962339470|89921,79114942160|90112,30576676523|92883,75592290526
Gorilla                   |89051,50784387096|92205,26155092572|79606,11984551731|71965,78743523210|82169,05644369044|88024,54916198185|89527,45047914637|86531,75323446502|88095,90007557561|89051,50784387096|  0,00000000000|89921,79114942160|90910,41587825339|92787,73883590287|92155,03939803853|92155,03939803853|92005,22011329577|92155,03939803853|90910,41587825339|89921,79114942160|89921,79114942160|90668,78481919150|90668,78481919150|90365,68823796639|89921,79114942160|89921,79114942160|90207,78867323314|90437,23739842807|91491,26962339470|89921,79114942160|90112,30576676523|92883,75592290526
Cat                       |89921,79114942160|92205,26155092572|89921,79114942160|89921,79114942160|89921,79114942160|89921,79114942160|89921,79114942160|89921,79114942160|89921,79114942160|89921,79114942160|89921,79114942160|  0,00000000000|90910,41587825339|92787,73883590287|92155,03939803853|92155,03939803853|92005,22011329577|92155,03939803853|90910,41587825339|84909,96517045565|88648,38644358440|90668,78481919150|90668,78481919150|90365,68823796639|89128,17071422558|89128,17071422558|90207,78867323314|90437,23739842807|91491,26962339470|89013,28987730163|90112,30576676523|92883,75592290526
Dog                       |90910,41587825339|92205,26155092572|90910,41587825339|90910,41587825339|90910,41587825339|90910,41587825339|90910,41587825339|90910,41587825339|90910,41587825339|90910,41587825339|90910,41587825339|90910,41587825339|  0,00000000000|92787,73883590287|92155,03939803853|92155,03939803853|92005,22011329577|92155,03939803853|60770,47418406687|90910,41587825339|90910,41587825339|90910,41587825339|90910,41587825339|90910,41587825339|90910,41587825339|90910,41587825339|90910,41587825339|90910,41587825339|91491,26962339470|90910,41587825339|90910,41587825339|92883,75592290526
Pig                       |92787,73883590287|92787,73883590287|92787,73883590287|92787,73883590287|92787,73883590287|92787,73883590287|92787,73883590287|92787,73883590287|92787,73883590287|92787,73883590287|92787,73883590287|92787,73883590287|92787,73883590287|  0,00000000000|92787,73883590287|92787,73883590287|92787,73883590287|92787,73883590287|92787,73883590287|92787,73883590287|92787,73883590287|92787,73883590287|92787,73883590287|92787,73883590287|92787,73883590287|92787,73883590287|92787,73883590287|92787,73883590287|92787,73883590287|92787,73883590287|92787,73883590287|92883,75592290526
Sheep                     |92155,03939803853|92205,26155092572|92155,03939803853|92155,03939803853|92155,03939803853|92155,03939803853|92155,03939803853|92155,03939803853|92155,03939803853|92155,03939803853|92155,03939803853|92155,03939803853|92155,03939803853|92787,73883590287|  0,00000000000|86689,58113191645|92155,03939803853|86689,58113191645|92155,03939803853|92155,03939803853|92155,03939803853|92155,03939803853|92155,03939803853|92155,03939803853|92155,03939803853|92155,03939803853|92155,03939803853|92155,03939803853|92155,03939803853|92155,03939803853|92155,03939803853|92883,75592290526
Goat                      |92155,03939803853|92205,26155092572|92155,03939803853|92155,03939803853|92155,03939803853|92155,03939803853|92155,03939803853|92155,03939803853|92155,03939803853|92155,03939803853|92155,03939803853|92155,03939803853|92155,03939803853|92787,73883590287|86689,58113191645|  0,00000000000|92155,03939803853|83014,43035807610|92155,03939803853|92155,03939803853|92155,03939803853|92155,03939803853|92155,03939803853|92155,03939803853|92155,03939803853|92155,03939803853|92155,03939803853|92155,03939803853|92155,03939803853|92155,03939803853|92155,03939803853|92883,75592290526
Cow                       |92005,22011329577|92205,26155092572|92005,22011329577|92005,22011329577|92005,22011329577|92005,22011329577|92005,22011329577|92005,22011329577|92005,22011329577|92005,22011329577|92005,22011329577|92005,22011329577|92005,22011329577|92787,73883590287|92155,03939803853|92155,03939803853|  0,00000000000|92155,03939803853|92005,22011329577|92005,22011329577|92005,22011329577|92005,22011329577|92005,22011329577|92005,22011329577|92005,22011329577|92005,22011329577|92005,22011329577|92005,22011329577|92005,22011329577|92005,22011329577|92005,22011329577|92883,75592290526
Buffalo                   |92155,03939803853|92205,26155092572|92155,03939803853|92155,03939803853|92155,03939803853|92155,03939803853|92155,03939803853|92155,03939803853|92155,03939803853|92155,03939803853|92155,03939803853|92155,03939803853|92155,03939803853|92787,73883590287|86689,58113191645|83014,43035807610|92155,03939803853|  0,00000000000|92155,03939803853|92155,03939803853|92155,03939803853|92155,03939803853|92155,03939803853|92155,03939803853|92155,03939803853|92155,03939803853|92155,03939803853|92155,03939803853|92155,03939803853|92155,03939803853|92155,03939803853|92883,75592290526
Wolf                      |90910,41587825339|92205,26155092572|90910,41587825339|90910,41587825339|90910,41587825339|90910,41587825339|90910,41587825339|90910,41587825339|90910,41587825339|90910,41587825339|90910,41587825339|90910,41587825339|60770,47418406687|92787,73883590287|92155,03939803853|92155,03939803853|92005,22011329577|92155,03939803853|  0,00000000000|90910,41587825339|90910,41587825339|90910,41587825339|90910,41587825339|90910,41587825339|90910,41587825339|90910,41587825339|90910,41587825339|90910,41587825339|91491,26962339470|90910,41587825339|90910,41587825339|92883,75592290526
Tiger                     |89921,79114942160|92205,26155092572|89921,79114942160|89921,79114942160|89921,79114942160|89921,79114942160|89921,79114942160|89921,79114942160|89921,79114942160|89921,79114942160|89921,79114942160|84909,96517045565|90910,41587825339|92787,73883590287|92155,03939803853|92155,03939803853|92005,22011329577|92155,03939803853|90910,41587825339|  0,00000000000|88648,38644358440|90668,78481919150|90668,78481919150|90365,68823796639|89128,17071422558|89128,17071422558|90207,78867323314|90437,23739842807|91491,26962339470|89013,28987730163|90112,30576676523|92883,75592290526
Leopard                   |89921,79114942160|92205,26155092572|89921,79114942160|89921,79114942160|89921,79114942160|89921,79114942160|89921,79114942160|89921,79114942160|89921,79114942160|89921,79114942160|89921,79114942160|88648,38644358440|90910,41587825339|92787,73883590287|92155,03939803853|92155,03939803853|92005,22011329577|92155,03939803853|90910,41587825339|88648,38644358440|  0,00000000000|90668,78481919150|90668,78481919150|90365,68823796639|89128,17071422558|89128,17071422558|90207,78867323314|90437,23739842807|91491,26962339470|89013,28987730163|90112,30576676523|92883,75592290526
Indian_Rhino              |90668,78481919150|92205,26155092572|90668,78481919150|90668,78481919150|90668,78481919150|90668,78481919150|90668,78481919150|90668,78481919150|90668,78481919150|90668,78481919150|90668,78481919150|90668,78481919150|90910,41587825339|92787,73883590287|92155,03939803853|92155,03939803853|92005,22011329577|92155,03939803853|90910,41587825339|90668,78481919150|90668,78481919150|  0,00000000000|88319,22111918397|90668,78481919150|90668,78481919150|90668,78481919150|90668,78481919150|90668,78481919150|91491,26962339470|90668,78481919150|90668,78481919150|92883,75592290526
White_Rhino               |90668,78481919150|92205,26155092572|90668,78481919150|90668,78481919150|90668,78481919150|90668,78481919150|90668,78481919150|90668,78481919150|90668,78481919150|90668,78481919150|90668,78481919150|90668,78481919150|90910,41587825339|92787,73883590287|92155,03939803853|92155,03939803853|92005,22011329577|92155,03939803853|90910,41587825339|90668,78481919150|90668,78481919150|88319,22111918397|  0,00000000000|90668,78481919150|90668,78481919150|90668,78481919150|90668,78481919150|90668,78481919150|91491,26962339470|90668,78481919150|90668,78481919150|92883,75592290526
Black_Bear                |90365,68823796639|92205,26155092572|90365,68823796639|90365,68823796639|90365,68823796639|90365,68823796639|90365,68823796639|90365,68823796639|90365,68823796639|90365,68823796639|90365,68823796639|90365,68823796639|90910,41587825339|92787,73883590287|92155,03939803853|92155,03939803853|92005,22011329577|92155,03939803853|90910,41587825339|90365,68823796639|90365,68823796639|90668,78481919150|90668,78481919150|  0,00000000000|90365,68823796639|90365,68823796639|90365,68823796639|90437,23739842807|91491,26962339470|90365,68823796639|90365,68823796639|92883,75592290526
Brown_Bear                |89921,79114942160|92205,26155092572|89921,79114942160|89921,79114942160|89921,79114942160|89921,79114942160|89921,79114942160|89921,79114942160|89921,79114942160|89921,79114942160|89921,79114942160|89128,17071422558|90910,41587825339|92787,73883590287|92155,03939803853|92155,03939803853|92005,22011329577|92155,03939803853|90910,41587825339|89128,17071422558|89128,17071422558|90668,78481919150|90668,78481919150|90365,68823796639|  0,00000000000|82733,70337673847|90207,78867323314|90437,23739842807|91491,26962339470|89128,17071422558|90112,30576676523|92883,75592290526
Polar_Bear                |89921,79114942160|92205,26155092572|89921,79114942160|89921,79114942160|89921,79114942160|89921,79114942160|89921,79114942160|89921,79114942160|89921,79114942160|89921,79114942160|89921,79114942160|89128,17071422558|90910,41587825339|92787,73883590287|92155,03939803853|92155,03939803853|92005,22011329577|92155,03939803853|90910,41587825339|89128,17071422558|89128,17071422558|90668,78481919150|90668,78481919150|90365,68823796639|82733,70337673847|  0,00000000000|90207,78867323314|90437,23739842807|91491,26962339470|89128,17071422558|90112,30576676523|92883,75592290526
Giant_Panda               |90207,78867323314|92205,26155092572|90207,78867323314|90207,78867323314|90207,78867323314|90207,78867323314|90207,78867323314|90207,78867323314|90207,78867323314|90207,78867323314|90207,78867323314|90207,78867323314|90910,41587825339|92787,73883590287|92155,03939803853|92155,03939803853|92005,22011329577|92155,03939803853|90910,41587825339|90207,78867323314|90207,78867323314|90668,78481919150|90668,78481919150|90365,68823796639|90207,78867323314|90207,78867323314|  0,00000000000|90437,23739842807|91491,26962339470|90207,78867323314|90207,78867323314|92883,75592290526
Rabbit                    |90437,23739842807|92205,26155092572|90437,23739842807|90437,23739842807|90437,23739842807|90437,23739842807|90437,23739842807|90437,23739842807|90437,23739842807|90437,23739842807|90437,23739842807|90437,23739842807|90910,41587825339|92787,73883590287|92155,03939803853|92155,03939803853|92005,22011329577|92155,03939803853|90910,41587825339|90437,23739842807|90437,23739842807|90668,78481919150|90668,78481919150|90437,23739842807|90437,23739842807|90437,23739842807|90437,23739842807|  0,00000000000|91491,26962339470|90437,23739842807|90437,23739842807|92883,75592290526
Hedgehog                  |91491,26962339470|92205,26155092572|91491,26962339470|91491,26962339470|91491,26962339470|91491,26962339470|91491,26962339470|91491,26962339470|91491,26962339470|91491,26962339470|91491,26962339470|91491,26962339470|91491,26962339470|92787,73883590287|92155,03939803853|92155,03939803853|92005,22011329577|92155,03939803853|91491,26962339470|91491,26962339470|91491,26962339470|91491,26962339470|91491,26962339470|91491,26962339470|91491,26962339470|91491,26962339470|91491,26962339470|91491,26962339470|  0,00000000000|91491,26962339470|91491,26962339470|92883,75592290526
Dormouse                  |89921,79114942160|92205,26155092572|89921,79114942160|89921,79114942160|89921,79114942160|89921,79114942160|89921,79114942160|89921,79114942160|89921,79114942160|89921,79114942160|89921,79114942160|89013,28987730163|90910,41587825339|92787,73883590287|92155,03939803853|92155,03939803853|92005,22011329577|92155,03939803853|90910,41587825339|89013,28987730163|89013,28987730163|90668,78481919150|90668,78481919150|90365,68823796639|89128,17071422558|89128,17071422558|90207,78867323314|90437,23739842807|91491,26962339470|  0,00000000000|90112,30576676523|92883,75592290526
Squirrel                  |90112,30576676523|92205,26155092572|90112,30576676523|90112,30576676523|90112,30576676523|90112,30576676523|90112,30576676523|90112,30576676523|90112,30576676523|90112,30576676523|90112,30576676523|90112,30576676523|90910,41587825339|92787,73883590287|92155,03939803853|92155,03939803853|92005,22011329577|92155,03939803853|90910,41587825339|90112,30576676523|90112,30576676523|90668,78481919150|90668,78481919150|90365,68823796639|90112,30576676523|90112,30576676523|90207,78867323314|90437,23739842807|91491,26962339470|90112,30576676523|  0,00000000000|92883,75592290526
Blue_Whale                |92883,75592290526|92883,75592290526|92883,75592290526|92883,75592290526|92883,75592290526|92883,75592290526|92883,75592290526|92883,75592290526|92883,75592290526|92883,75592290526|92883,75592290526|92883,75592290526|92883,75592290526|92883,75592290526|92883,75592290526|92883,75592290526|92883,75592290526|92883,75592290526|92883,75592290526|92883,75592290526|92883,75592290526|92883,75592290526|92883,75592290526|92883,75592290526|92883,75592290526|92883,75592290526|92883,75592290526|92883,75592290526|92883,75592290526|92883,75592290526|92883,75592290526|  0,00000000000
                           |Human          |Hum_shortened  |Pig_Chim       |Com_Chim       |Gibbon         |Baboon         |Ver_Monkey     |Macaca_Thibet  |Bor_Oran       |Sum_Oran       |Gorilla        |Cat            |Dog            |Pig            |Sheep          |Goat           |Cow            |Buffalo        |Wolf           |Tiger          |Leopard        |Indian_Rhino   |White_Rhino    |Black_Bear     |Brown_Bear     |Polar_Bear     |Giant_Panda    |Rabbit         |Hedgehog       |Dormouse       |Squirrel       |Blue_Whale     
Human                     |  0,00000000000| 10,60405733633|  9,26671698202|  9,26671698202|  9,26671698202|  9,26671698202|  9,46853911260|  9,26671698202|  9,26671698202|  9,01426125374|  9,26671698202|  9,63575816034| 10,05498168505| 10,85105518430| 10,58276077421| 10,58276077421| 10,51923032956| 10,58276077421| 10,05498168505|  9,63575816034|  9,63575816034|  9,95251871674|  9,95251871674|  9,82399146732|  9,63575816034|  9,63575816034|  9,75703460275|  9,85433168678| 10,30129107554|  9,63575816034|  9,71654534587| 10,89177095892
Hum_shortened             | 10,60405733633|  0,00000000000| 10,60405733633| 10,60405733633| 10,60405733633| 10,60405733633| 10,60405733633| 10,60405733633| 10,60405733633| 10,60405733633| 10,60405733633| 10,60405733633| 10,60405733633| 10,85105518430| 10,60405733633| 10,60405733633| 10,60405733633| 10,60405733633| 10,60405733633| 10,60405733633| 10,60405733633| 10,60405733633| 10,60405733633| 10,60405733633| 10,60405733633| 10,60405733633| 10,60405733633| 10,60405733633| 10,60405733633| 10,60405733633| 10,60405733633| 10,89177095892
Pig_Chim                  |  9,26671698202| 10,60405733633|  0,00000000000|  5,26142687197|  6,34823289954|  8,83123805275|  9,46853911260|  8,19822215485|  8,86149420619|  9,26671698202|  5,26142687197|  9,63575816034| 10,05498168505| 10,85105518430| 10,58276077421| 10,58276077421| 10,51923032956| 10,58276077421| 10,05498168505|  9,63575816034|  9,63575816034|  9,95251871674|  9,95251871674|  9,82399146732|  9,63575816034|  9,63575816034|  9,75703460275|  9,85433168678| 10,30129107554|  9,63575816034|  9,71654534587| 10,89177095892
Com_Chim                  |  9,26671698202| 10,60405733633|  5,26142687197|  0,00000000000|  6,34823289954|  8,83123805275|  9,46853911260|  8,19822215485|  8,86149420619|  9,26671698202|  2,02156548717|  9,63575816034| 10,05498168505| 10,85105518430| 10,58276077421| 10,58276077421| 10,51923032956| 10,58276077421| 10,05498168505|  9,63575816034|  9,63575816034|  9,95251871674|  9,95251871674|  9,82399146732|  9,63575816034|  9,63575816034|  9,75703460275|  9,85433168678| 10,30129107554|  9,63575816034|  9,71654534587| 10,89177095892
Gibbon                    |  9,26671698202| 10,60405733633|  6,34823289954|  6,34823289954|  0,00000000000|  8,83123805275|  9,46853911260|  8,19822215485|  8,86149420619|  9,26671698202|  6,34823289954|  9,63575816034| 10,05498168505| 10,85105518430| 10,58276077421| 10,58276077421| 10,51923032956| 10,58276077421| 10,05498168505|  9,63575816034|  9,63575816034|  9,95251871674|  9,95251871674|  9,82399146732|  9,63575816034|  9,63575816034|  9,75703460275|  9,85433168678| 10,30129107554|  9,63575816034|  9,71654534587| 10,89177095892
Baboon                    |  9,26671698202| 10,60405733633|  8,83123805275|  8,83123805275|  8,83123805275|  0,00000000000|  9,46853911260|  8,83123805275|  8,86149420619|  9,26671698202|  8,83123805275|  9,63575816034| 10,05498168505| 10,85105518430| 10,58276077421| 10,58276077421| 10,51923032956| 10,58276077421| 10,05498168505|  9,63575816034|  9,63575816034|  9,95251871674|  9,95251871674|  9,82399146732|  9,63575816034|  9,63575816034|  9,75703460275|  9,85433168678| 10,30129107554|  9,63575816034|  9,71654534587| 10,89177095892
Ver_Monkey                |  9,46853911260| 10,60405733633|  9,46853911260|  9,46853911260|  9,46853911260|  9,46853911260|  0,00000000000|  9,46853911260|  9,46853911260|  9,46853911260|  9,46853911260|  9,63575816034| 10,05498168505| 10,85105518430| 10,58276077421| 10,58276077421| 10,51923032956| 10,58276077421| 10,05498168505|  9,63575816034|  9,63575816034|  9,95251871674|  9,95251871674|  9,82399146732|  9,63575816034|  9,63575816034|  9,75703460275|  9,85433168678| 10,30129107554|  9,63575816034|  9,71654534587| 10,89177095892
Macaca_Thibet             |  9,26671698202| 10,60405733633|  8,19822215485|  8,19822215485|  8,19822215485|  8,83123805275|  9,46853911260|  0,00000000000|  8,86149420619|  9,26671698202|  8,19822215485|  9,63575816034| 10,05498168505| 10,85105518430| 10,58276077421| 10,58276077421| 10,51923032956| 10,58276077421| 10,05498168505|  9,63575816034|  9,63575816034|  9,95251871674|  9,95251871674|  9,82399146732|  9,63575816034|  9,63575816034|  9,75703460275|  9,85433168678| 10,30129107554|  9,63575816034|  9,71654534587| 10,89177095892
Bor_Oran                  |  9,26671698202| 10,60405733633|  8,86149420619|  8,86149420619|  8,86149420619|  8,86149420619|  9,46853911260|  8,86149420619|  0,00000000000|  9,26671698202|  8,86149420619|  9,63575816034| 10,05498168505| 10,85105518430| 10,58276077421| 10,58276077421| 10,51923032956| 10,58276077421| 10,05498168505|  9,63575816034|  9,63575816034|  9,95251871674|  9,95251871674|  9,82399146732|  9,63575816034|  9,63575816034|  9,75703460275|  9,85433168678| 10,30129107554|  9,63575816034|  9,71654534587| 10,89177095892
Sum_Oran                  |  9,01426125374| 10,60405733633|  9,26671698202|  9,26671698202|  9,26671698202|  9,26671698202|  9,46853911260|  9,26671698202|  9,26671698202|  0,00000000000|  9,26671698202|  9,63575816034| 10,05498168505| 10,85105518430| 10,58276077421| 10,58276077421| 10,51923032956| 10,58276077421| 10,05498168505|  9,63575816034|  9,63575816034|  9,95251871674|  9,95251871674|  9,82399146732|  9,63575816034|  9,63575816034|  9,75703460275|  9,85433168678| 10,30129107554|  9,63575816034|  9,71654534587| 10,89177095892
Gorilla                   |  9,26671698202| 10,60405733633|  5,26142687197|  2,02156548717|  6,34823289954|  8,83123805275|  9,46853911260|  8,19822215485|  8,86149420619|  9,26671698202|  0,00000000000|  9,63575816034| 10,05498168505| 10,85105518430| 10,58276077421| 10,58276077421| 10,51923032956| 10,58276077421| 10,05498168505|  9,63575816034|  9,63575816034|  9,95251871674|  9,95251871674|  9,82399146732|  9,63575816034|  9,63575816034|  9,75703460275|  9,85433168678| 10,30129107554|  9,63575816034|  9,71654534587| 10,89177095892
Cat                       |  9,63575816034| 10,60405733633|  9,63575816034|  9,63575816034|  9,63575816034|  9,63575816034|  9,63575816034|  9,63575816034|  9,63575816034|  9,63575816034|  9,63575816034|  0,00000000000| 10,05498168505| 10,85105518430| 10,58276077421| 10,58276077421| 10,51923032956| 10,58276077421| 10,05498168505|  7,51050750570|  9,09577449051|  9,95251871674|  9,95251871674|  9,82399146732|  9,29922565572|  9,29922565572|  9,75703460275|  9,85433168678| 10,30129107554|  9,25051076121|  9,71654534587| 10,89177095892
Dog                       | 10,05498168505| 10,60405733633| 10,05498168505| 10,05498168505| 10,05498168505| 10,05498168505| 10,05498168505| 10,05498168505| 10,05498168505| 10,05498168505| 10,05498168505| 10,05498168505|  0,00000000000| 10,85105518430| 10,58276077421| 10,58276077421| 10,51923032956| 10,58276077421| -2,72577548511| 10,05498168505| 10,05498168505| 10,05498168505| 10,05498168505| 10,05498168505| 10,05498168505| 10,05498168505| 10,05498168505| 10,05498168505| 10,30129107554| 10,05498168505| 10,05498168505| 10,89177095892
Pig                       | 10,85105518430| 10,85105518430| 10,85105518430| 10,85105518430| 10,85105518430| 10,85105518430| 10,85105518430| 10,85105518430| 10,85105518430| 10,85105518430| 10,85105518430| 10,85105518430| 10,85105518430|  0,00000000000| 10,85105518430| 10,85105518430| 10,85105518430| 10,85105518430| 10,85105518430| 10,85105518430| 10,85105518430| 10,85105518430| 10,85105518430| 10,85105518430| 10,85105518430| 10,85105518430| 10,85105518430| 10,85105518430| 10,85105518430| 10,85105518430| 10,85105518430| 10,89177095892
Sheep                     | 10,58276077421| 10,60405733633| 10,58276077421| 10,58276077421| 10,58276077421| 10,58276077421| 10,58276077421| 10,58276077421| 10,58276077421| 10,58276077421| 10,58276077421| 10,58276077421| 10,58276077421| 10,85105518430|  0,00000000000|  8,26514862911| 10,58276077421|  8,26514862911| 10,58276077421| 10,58276077421| 10,58276077421| 10,58276077421| 10,58276077421| 10,58276077421| 10,58276077421| 10,58276077421| 10,58276077421| 10,58276077421| 10,58276077421| 10,58276077421| 10,58276077421| 10,89177095892
Goat                      | 10,58276077421| 10,60405733633| 10,58276077421| 10,58276077421| 10,58276077421| 10,58276077421| 10,58276077421| 10,58276077421| 10,58276077421| 10,58276077421| 10,58276077421| 10,58276077421| 10,58276077421| 10,85105518430|  8,26514862911|  0,00000000000| 10,58276077421|  6,70671132088| 10,58276077421| 10,58276077421| 10,58276077421| 10,58276077421| 10,58276077421| 10,58276077421| 10,58276077421| 10,58276077421| 10,58276077421| 10,58276077421| 10,58276077421| 10,58276077421| 10,58276077421| 10,89177095892
Cow                       | 10,51923032956| 10,60405733633| 10,51923032956| 10,51923032956| 10,51923032956| 10,51923032956| 10,51923032956| 10,51923032956| 10,51923032956| 10,51923032956| 10,51923032956| 10,51923032956| 10,51923032956| 10,85105518430| 10,58276077421| 10,58276077421|  0,00000000000| 10,58276077421| 10,51923032956| 10,51923032956| 10,51923032956| 10,51923032956| 10,51923032956| 10,51923032956| 10,51923032956| 10,51923032956| 10,51923032956| 10,51923032956| 10,51923032956| 10,51923032956| 10,51923032956| 10,89177095892
Buffalo                   | 10,58276077421| 10,60405733633| 10,58276077421| 10,58276077421| 10,58276077421| 10,58276077421| 10,58276077421| 10,58276077421| 10,58276077421| 10,58276077421| 10,58276077421| 10,58276077421| 10,58276077421| 10,85105518430|  8,26514862911|  6,70671132088| 10,58276077421|  0,00000000000| 10,58276077421| 10,58276077421| 10,58276077421| 10,58276077421| 10,58276077421| 10,58276077421| 10,58276077421| 10,58276077421| 10,58276077421| 10,58276077421| 10,58276077421| 10,58276077421| 10,58276077421| 10,89177095892
Wolf                      | 10,05498168505| 10,60405733633| 10,05498168505| 10,05498168505| 10,05498168505| 10,05498168505| 10,05498168505| 10,05498168505| 10,05498168505| 10,05498168505| 10,05498168505| 10,05498168505| -2,72577548511| 10,85105518430| 10,58276077421| 10,58276077421| 10,51923032956| 10,58276077421|  0,00000000000| 10,05498168505| 10,05498168505| 10,05498168505| 10,05498168505| 10,05498168505| 10,05498168505| 10,05498168505| 10,05498168505| 10,05498168505| 10,30129107554| 10,05498168505| 10,05498168505| 10,89177095892
Tiger                     |  9,63575816034| 10,60405733633|  9,63575816034|  9,63575816034|  9,63575816034|  9,63575816034|  9,63575816034|  9,63575816034|  9,63575816034|  9,63575816034|  9,63575816034|  7,51050750570| 10,05498168505| 10,85105518430| 10,58276077421| 10,58276077421| 10,51923032956| 10,58276077421| 10,05498168505|  0,00000000000|  9,09577449051|  9,95251871674|  9,95251871674|  9,82399146732|  9,29922565572|  9,29922565572|  9,75703460275|  9,85433168678| 10,30129107554|  9,25051076121|  9,71654534587| 10,89177095892
Leopard                   |  9,63575816034| 10,60405733633|  9,63575816034|  9,63575816034|  9,63575816034|  9,63575816034|  9,63575816034|  9,63575816034|  9,63575816034|  9,63575816034|  9,63575816034|  9,09577449051| 10,05498168505| 10,85105518430| 10,58276077421| 10,58276077421| 10,51923032956| 10,58276077421| 10,05498168505|  9,09577449051|  0,00000000000|  9,95251871674|  9,95251871674|  9,82399146732|  9,29922565572|  9,29922565572|  9,75703460275|  9,85433168678| 10,30129107554|  9,25051076121|  9,71654534587| 10,89177095892
Indian_Rhino              |  9,95251871674| 10,60405733633|  9,95251871674|  9,95251871674|  9,95251871674|  9,95251871674|  9,95251871674|  9,95251871674|  9,95251871674|  9,95251871674|  9,95251871674|  9,95251871674| 10,05498168505| 10,85105518430| 10,58276077421| 10,58276077421| 10,51923032956| 10,58276077421| 10,05498168505|  9,95251871674|  9,95251871674|  0,00000000000|  8,95619286415|  9,95251871674|  9,95251871674|  9,95251871674|  9,95251871674|  9,95251871674| 10,30129107554|  9,95251871674|  9,95251871674| 10,89177095892
White_Rhino               |  9,95251871674| 10,60405733633|  9,95251871674|  9,95251871674|  9,95251871674|  9,95251871674|  9,95251871674|  9,95251871674|  9,95251871674|  9,95251871674|  9,95251871674|  9,95251871674| 10,05498168505| 10,85105518430| 10,58276077421| 10,58276077421| 10,51923032956| 10,58276077421| 10,05498168505|  9,95251871674|  9,95251871674|  8,95619286415|  0,00000000000|  9,95251871674|  9,95251871674|  9,95251871674|  9,95251871674|  9,95251871674| 10,30129107554|  9,95251871674|  9,95251871674| 10,89177095892
Black_Bear                |  9,82399146732| 10,60405733633|  9,82399146732|  9,82399146732|  9,82399146732|  9,82399146732|  9,82399146732|  9,82399146732|  9,82399146732|  9,82399146732|  9,82399146732|  9,82399146732| 10,05498168505| 10,85105518430| 10,58276077421| 10,58276077421| 10,51923032956| 10,58276077421| 10,05498168505|  9,82399146732|  9,82399146732|  9,95251871674|  9,95251871674|  0,00000000000|  9,82399146732|  9,82399146732|  9,82399146732|  9,85433168678| 10,30129107554|  9,82399146732|  9,82399146732| 10,89177095892
Brown_Bear                |  9,63575816034| 10,60405733633|  9,63575816034|  9,63575816034|  9,63575816034|  9,63575816034|  9,63575816034|  9,63575816034|  9,63575816034|  9,63575816034|  9,63575816034|  9,29922565572| 10,05498168505| 10,85105518430| 10,58276077421| 10,58276077421| 10,51923032956| 10,58276077421| 10,05498168505|  9,29922565572|  9,29922565572|  9,95251871674|  9,95251871674|  9,82399146732|  0,00000000000|  6,58766983712|  9,75703460275|  9,85433168678| 10,30129107554|  9,29922565572|  9,71654534587| 10,89177095892
Polar_Bear                |  9,63575816034| 10,60405733633|  9,63575816034|  9,63575816034|  9,63575816034|  9,63575816034|  9,63575816034|  9,63575816034|  9,63575816034|  9,63575816034|  9,63575816034|  9,29922565572| 10,05498168505| 10,85105518430| 10,58276077421| 10,58276077421| 10,51923032956| 10,58276077421| 10,05498168505|  9,29922565572|  9,29922565572|  9,95251871674|  9,95251871674|  9,82399146732|  6,58766983712|  0,00000000000|  9,75703460275|  9,85433168678| 10,30129107554|  9,29922565572|  9,71654534587| 10,89177095892
Giant_Panda               |  9,75703460275| 10,60405733633|  9,75703460275|  9,75703460275|  9,75703460275|  9,75703460275|  9,75703460275|  9,75703460275|  9,75703460275|  9,75703460275|  9,75703460275|  9,75703460275| 10,05498168505| 10,85105518430| 10,58276077421| 10,58276077421| 10,51923032956| 10,58276077421| 10,05498168505|  9,75703460275|  9,75703460275|  9,95251871674|  9,95251871674|  9,82399146732|  9,75703460275|  9,75703460275|  0,00000000000|  9,85433168678| 10,30129107554|  9,75703460275|  9,75703460275| 10,89177095892
Rabbit                    |  9,85433168678| 10,60405733633|  9,85433168678|  9,85433168678|  9,85433168678|  9,85433168678|  9,85433168678|  9,85433168678|  9,85433168678|  9,85433168678|  9,85433168678|  9,85433168678| 10,05498168505| 10,85105518430| 10,58276077421| 10,58276077421| 10,51923032956| 10,58276077421| 10,05498168505|  9,85433168678|  9,85433168678|  9,95251871674|  9,95251871674|  9,85433168678|  9,85433168678|  9,85433168678|  9,85433168678|  0,00000000000| 10,30129107554|  9,85433168678|  9,85433168678| 10,89177095892
Hedgehog                  | 10,30129107554| 10,60405733633| 10,30129107554| 10,30129107554| 10,30129107554| 10,30129107554| 10,30129107554| 10,30129107554| 10,30129107554| 10,30129107554| 10,30129107554| 10,30129107554| 10,30129107554| 10,85105518430| 10,58276077421| 10,58276077421| 10,51923032956| 10,58276077421| 10,30129107554| 10,30129107554| 10,30129107554| 10,30129107554| 10,30129107554| 10,30129107554| 10,30129107554| 10,30129107554| 10,30129107554| 10,30129107554|  0,00000000000| 10,30129107554| 10,30129107554| 10,89177095892
Dormouse                  |  9,63575816034| 10,60405733633|  9,63575816034|  9,63575816034|  9,63575816034|  9,63575816034|  9,63575816034|  9,63575816034|  9,63575816034|  9,63575816034|  9,63575816034|  9,25051076121| 10,05498168505| 10,85105518430| 10,58276077421| 10,58276077421| 10,51923032956| 10,58276077421| 10,05498168505|  9,25051076121|  9,25051076121|  9,95251871674|  9,95251871674|  9,82399146732|  9,29922565572|  9,29922565572|  9,75703460275|  9,85433168678| 10,30129107554|  0,00000000000|  9,71654534587| 10,89177095892
Squirrel                  |  9,71654534587| 10,60405733633|  9,71654534587|  9,71654534587|  9,71654534587|  9,71654534587|  9,71654534587|  9,71654534587|  9,71654534587|  9,71654534587|  9,71654534587|  9,71654534587| 10,05498168505| 10,85105518430| 10,58276077421| 10,58276077421| 10,51923032956| 10,58276077421| 10,05498168505|  9,71654534587|  9,71654534587|  9,95251871674|  9,95251871674|  9,82399146732|  9,71654534587|  9,71654534587|  9,75703460275|  9,85433168678| 10,30129107554|  9,71654534587|  0,00000000000| 10,89177095892
Blue_Whale                | 10,89177095892| 10,89177095892| 10,89177095892| 10,89177095892| 10,89177095892| 10,89177095892| 10,89177095892| 10,89177095892| 10,89177095892| 10,89177095892| 10,89177095892| 10,89177095892| 10,89177095892| 10,89177095892| 10,89177095892| 10,89177095892| 10,89177095892| 10,89177095892| 10,89177095892| 10,89177095892| 10,89177095892| 10,89177095892| 10,89177095892| 10,89177095892| 10,89177095892| 10,89177095892| 10,89177095892| 10,89177095892| 10,89177095892| 10,89177095892| 10,89177095892|  0,00000000000
                           |Human          |Hum_shortened  |Pig_Chim       |Com_Chim       |Gibbon         |Baboon         |Ver_Monkey     |Macaca_Thibet  |Bor_Oran       |Sum_Oran       |Gorilla        |Cat            |Dog            |Pig            |Sheep          |Goat           |Cow            |Buffalo        |Wolf           |Tiger          |Leopard        |Indian_Rhino   |White_Rhino    |Black_Bear     |Brown_Bear     |Polar_Bear     |Giant_Panda    |Rabbit         |Hedgehog       |Dormouse       |Squirrel       |Blue_Whale     
Human                     |  0,00000000000| 15,00000000000|  8,00000000000|  9,00000000000|  7,00000000000|  5,00000000000|  4,00000000000|  6,00000000000|  4,00000000000|  2,00000000000|  9,00000000000|  9,00000000000| 12,00000000000| 16,00000000000| 15,00000000000| 16,00000000000| 13,00000000000| 16,00000000000| 12,00000000000|  9,00000000000|  8,00000000000| 11,00000000000| 11,00000000000|  8,00000000000|  7,00000000000|  7,00000000000|  7,00000000000|  9,00000000000| 12,00000000000|  7,00000000000|  6,00000000000| 17,00000000000
Hum_shortened             | 15,00000000000|  0,00000000000| 19,00000000000| 20,00000000000| 18,00000000000| 16,00000000000| 13,00000000000| 17,00000000000| 15,00000000000| 15,00000000000| 20,00000000000| 16,00000000000|  7,00000000000|  3,00000000000|  4,00000000000|  5,00000000000|  4,00000000000|  5,00000000000|  7,00000000000| 16,00000000000| 15,00000000000|  8,00000000000|  8,00000000000|  9,00000000000| 14,00000000000| 14,00000000000| 10,00000000000|  8,00000000000|  5,00000000000| 14,00000000000| 11,00000000000|  4,00000000000
Pig_Chim                  |  8,00000000000| 19,00000000000|  0,00000000000|  3,00000000000|  3,00000000000|  5,00000000000|  8,00000000000|  4,00000000000|  6,00000000000|  8,00000000000|  3,00000000000| 13,00000000000| 16,00000000000| 20,00000000000| 19,00000000000| 20,00000000000| 17,00000000000| 20,00000000000| 16,00000000000| 13,00000000000| 12,00000000000| 15,00000000000| 15,00000000000| 12,00000000000| 11,00000000000| 11,00000000000| 11,00000000000| 13,00000000000| 16,00000000000| 11,00000000000| 10,00000000000| 21,00000000000
Com_Chim                  |  9,00000000000| 20,00000000000|  3,00000000000|  0,00000000000|  4,00000000000|  6,00000000000|  9,00000000000|  5,00000000000|  7,00000000000|  9,00000000000|  2,00000000000| 14,00000000000| 17,00000000000| 21,00000000000| 20,00000000000| 21,00000000000| 18,00000000000| 21,00000000000| 17,00000000000| 14,00000000000| 13,00000000000| 16,00000000000| 16,00000000000| 13,00000000000| 12,00000000000| 12,00000000000| 12,00000000000| 14,00000000000| 17,00000000000| 12,00000000000| 11,00000000000| 22,00000000000
Gibbon                    |  7,00000000000| 18,00000000000|  3,00000000000|  4,00000000000|  0,00000000000|  4,00000000000|  7,00000000000|  3,00000000000|  5,00000000000|  7,00000000000|  4,00000000000| 12,00000000000| 15,00000000000| 19,00000000000| 18,00000000000| 19,00000000000| 16,00000000000| 19,00000000000| 15,00000000000| 12,00000000000| 11,00000000000| 14,00000000000| 14,00000000000| 11,00000000000| 10,00000000000| 10,00000000000| 10,00000000000| 12,00000000000| 15,00000000000| 10,00000000000|  9,00000000000| 20,00000000000
Baboon                    |  5,00000000000| 16,00000000000|  5,00000000000|  6,00000000000|  4,00000000000|  0,00000000000|  5,00000000000|  3,00000000000|  3,00000000000|  5,00000000000|  6,00000000000| 10,00000000000| 13,00000000000| 17,00000000000| 16,00000000000| 17,00000000000| 14,00000000000| 17,00000000000| 13,00000000000| 10,00000000000|  9,00000000000| 12,00000000000| 12,00000000000|  9,00000000000|  8,00000000000|  8,00000000000|  8,00000000000| 10,00000000000| 13,00000000000|  8,00000000000|  7,00000000000| 18,00000000000
Ver_Monkey                |  4,00000000000| 13,00000000000|  8,00000000000|  9,00000000000|  7,00000000000|  5,00000000000|  0,00000000000|  6,00000000000|  4,00000000000|  4,00000000000|  9,00000000000|  7,00000000000| 10,00000000000| 14,00000000000| 13,00000000000| 14,00000000000| 11,00000000000| 14,00000000000| 10,00000000000|  7,00000000000|  6,00000000000|  9,00000000000|  9,00000000000|  6,00000000000|  5,00000000000|  5,00000000000|  5,00000000000|  7,00000000000| 10,00000000000|  5,00000000000|  4,00000000000| 15,00000000000
Macaca_Thibet             |  6,00000000000| 17,00000000000|  4,00000000000|  5,00000000000|  3,00000000000|  3,00000000000|  6,00000000000|  0,00000000000|  4,00000000000|  6,00000000000|  5,00000000000| 11,00000000000| 14,00000000000| 18,00000000000| 17,00000000000| 18,00000000000| 15,00000000000| 18,00000000000| 14,00000000000| 11,00000000000| 10,00000000000| 13,00000000000| 13,00000000000| 10,00000000000|  9,00000000000|  9,00000000000|  9,00000000000| 11,00000000000| 14,00000000000|  9,00000000000|  8,00000000000| 19,00000000000
Bor_Oran                  |  4,00000000000| 15,00000000000|  6,00000000000|  7,00000000000|  5,00000000000|  3,00000000000|  4,00000000000|  4,00000000000|  0,00000000000|  4,00000000000|  7,00000000000|  9,00000000000| 12,00000000000| 16,00000000000| 15,00000000000| 16,00000000000| 13,00000000000| 16,00000000000| 12,00000000000|  9,00000000000|  8,00000000000| 11,00000000000| 11,00000000000|  8,00000000000|  7,00000000000|  7,00000000000|  7,00000000000|  9,00000000000| 12,00000000000|  7,00000000000|  6,00000000000| 17,00000000000
Sum_Oran                  |  2,00000000000| 15,00000000000|  8,00000000000|  9,00000000000|  7,00000000000|  5,00000000000|  4,00000000000|  6,00000000000|  4,00000000000|  0,00000000000|  9,00000000000|  9,00000000000| 12,00000000000| 16,00000000000| 15,00000000000| 16,00000000000| 13,00000000000| 16,00000000000| 12,00000000000|  9,00000000000|  8,00000000000| 11,00000000000| 11,00000000000|  8,00000000000|  7,00000000000|  7,00000000000|  7,00000000000|  9,00000000000| 12,00000000000|  7,00000000000|  6,00000000000| 17,00000000000
Gorilla                   |  9,00000000000| 20,00000000000|  3,00000000000|  2,00000000000|  4,00000000000|  6,00000000000|  9,00000000000|  5,00000000000|  7,00000000000|  9,00000000000|  0,00000000000| 14,00000000000| 17,00000000000| 21,00000000000| 20,00000000000| 21,00000000000| 18,00000000000| 21,00000000000| 17,00000000000| 14,00000000000| 13,00000000000| 16,00000000000| 16,00000000000| 13,00000000000| 12,00000000000| 12,00000000000| 12,00000000000| 14,00000000000| 17,00000000000| 12,00000000000| 11,00000000000| 22,00000000000
Cat                       |  9,00000000000| 16,00000000000| 13,00000000000| 14,00000000000| 12,00000000000| 10,00000000000|  7,00000000000| 11,00000000000|  9,00000000000|  9,00000000000| 14,00000000000|  0,00000000000| 13,00000000000| 17,00000000000| 16,00000000000| 17,00000000000| 14,00000000000| 17,00000000000| 13,00000000000|  2,00000000000|  3,00000000000| 12,00000000000| 12,00000000000|  9,00000000000|  6,00000000000|  6,00000000000|  8,00000000000| 10,00000000000| 13,00000000000|  4,00000000000|  7,00000000000| 18,00000000000
Dog                       | 12,00000000000|  7,00000000000| 16,00000000000| 17,00000000000| 15,00000000000| 13,00000000000| 10,00000000000| 14,00000000000| 12,00000000000| 12,00000000000| 17,00000000000| 13,00000000000|  0,00000000000|  8,00000000000|  7,00000000000|  8,00000000000|  5,00000000000|  8,00000000000|  2,00000000000| 13,00000000000| 12,00000000000|  5,00000000000|  5,00000000000|  6,00000000000| 11,00000000000| 11,00000000000|  7,00000000000|  5,00000000000|  4,00000000000| 11,00000000000|  8,00000000000|  9,00000000000
Pig                       | 16,00000000000|  3,00000000000| 20,00000000000| 21,00000000000| 19,00000000000| 17,00000000000| 14,00000000000| 18,00000000000| 16,00000000000| 16,00000000000| 21,00000000000| 17,00000000000|  8,00000000000|  0,00000000000|  5,00000000000|  6,00000000000|  5,00000000000|  6,00000000000|  8,00000000000| 17,00000000000| 16,00000000000|  9,00000000000|  9,00000000000| 10,00000000000| 15,00000000000| 15,00000000000| 11,00000000000|  9,00000000000|  6,00000000000| 15,00000000000| 12,00000000000|  3,00000000000
Sheep                     | 15,00000000000|  4,00000000000| 19,00000000000| 20,00000000000| 18,00000000000| 16,00000000000| 13,00000000000| 17,00000000000| 15,00000000000| 15,00000000000| 20,00000000000| 16,00000000000|  7,00000000000|  5,00000000000|  0,00000000000|  3,00000000000|  4,00000000000|  3,00000000000|  7,00000000000| 16,00000000000| 15,00000000000|  8,00000000000|  8,00000000000|  9,00000000000| 14,00000000000| 14,00000000000| 10,00000000000|  8,00000000000|  5,00000000000| 14,00000000000| 11,00000000000|  6,00000000000
Goat                      | 16,00000000000|  5,00000000000| 20,00000000000| 21,00000000000| 19,00000000000| 17,00000000000| 14,00000000000| 18,00000000000| 16,00000000000| 16,00000000000| 21,00000000000| 17,00000000000|  8,00000000000|  6,00000000000|  3,00000000000|  0,00000000000|  5,00000000000|  2,00000000000|  8,00000000000| 17,00000000000| 16,00000000000|  9,00000000000|  9,00000000000| 10,00000000000| 15,00000000000| 15,00000000000| 11,00000000000|  9,00000000000|  6,00000000000| 15,00000000000| 12,00000000000|  7,00000000000
Cow                       | 13,00000000000|  4,00000000000| 17,00000000000| 18,00000000000| 16,00000000000| 14,00000000000| 11,00000000000| 15,00000000000| 13,00000000000| 13,00000000000| 18,00000000000| 14,00000000000|  5,00000000000|  5,00000000000|  4,00000000000|  5,00000000000|  0,00000000000|  5,00000000000|  5,00000000000| 14,00000000000| 13,00000000000|  6,00000000000|  6,00000000000|  7,00000000000| 12,00000000000| 12,00000000000|  8,00000000000|  6,00000000000|  3,00000000000| 12,00000000000|  9,00000000000|  6,00000000000
Buffalo                   | 16,00000000000|  5,00000000000| 20,00000000000| 21,00000000000| 19,00000000000| 17,00000000000| 14,00000000000| 18,00000000000| 16,00000000000| 16,00000000000| 21,00000000000| 17,00000000000|  8,00000000000|  6,00000000000|  3,00000000000|  2,00000000000|  5,00000000000|  0,00000000000|  8,00000000000| 17,00000000000| 16,00000000000|  9,00000000000|  9,00000000000| 10,00000000000| 15,00000000000| 15,00000000000| 11,00000000000|  9,00000000000|  6,00000000000| 15,00000000000| 12,00000000000|  7,00000000000
Wolf                      | 12,00000000000|  7,00000000000| 16,00000000000| 17,00000000000| 15,00000000000| 13,00000000000| 10,00000000000| 14,00000000000| 12,00000000000| 12,00000000000| 17,00000000000| 13,00000000000|  2,00000000000|  8,00000000000|  7,00000000000|  8,00000000000|  5,00000000000|  8,00000000000|  0,00000000000| 13,00000000000| 12,00000000000|  5,00000000000|  5,00000000000|  6,00000000000| 11,00000000000| 11,00000000000|  7,00000000000|  5,00000000000|  4,00000000000| 11,00000000000|  8,00000000000|  9,00000000000
Tiger                     |  9,00000000000| 16,00000000000| 13,00000000000| 14,00000000000| 12,00000000000| 10,00000000000|  7,00000000000| 11,00000000000|  9,00000000000|  9,00000000000| 14,00000000000|  2,00000000000| 13,00000000000| 17,00000000000| 16,00000000000| 17,00000000000| 14,00000000000| 17,00000000000| 13,00000000000|  0,00000000000|  3,00000000000| 12,00000000000| 12,00000000000|  9,00000000000|  6,00000000000|  6,00000000000|  8,00000000000| 10,00000000000| 13,00000000000|  4,00000000000|  7,00000000000| 18,00000000000
Leopard                   |  8,00000000000| 15,00000000000| 12,00000000000| 13,00000000000| 11,00000000000|  9,00000000000|  6,00000000000| 10,00000000000|  8,00000000000|  8,00000000000| 13,00000000000|  3,00000000000| 12,00000000000| 16,00000000000| 15,00000000000| 16,00000000000| 13,00000000000| 16,00000000000| 12,00000000000|  3,00000000000|  0,00000000000| 11,00000000000| 11,00000000000|  8,00000000000|  5,00000000000|  5,00000000000|  7,00000000000|  9,00000000000| 12,00000000000|  3,00000000000|  6,00000000000| 17,00000000000
Indian_Rhino              | 11,00000000000|  8,00000000000| 15,00000000000| 16,00000000000| 14,00000000000| 12,00000000000|  9,00000000000| 13,00000000000| 11,00000000000| 11,00000000000| 16,00000000000| 12,00000000000|  5,00000000000|  9,00000000000|  8,00000000000|  9,00000000000|  6,00000000000|  9,00000000000|  5,00000000000| 12,00000000000| 11,00000000000|  0,00000000000|  2,00000000000|  5,00000000000| 10,00000000000| 10,00000000000|  6,00000000000|  4,00000000000|  5,00000000000| 10,00000000000|  7,00000000000| 10,00000000000
White_Rhino               | 11,00000000000|  8,00000000000| 15,00000000000| 16,00000000000| 14,00000000000| 12,00000000000|  9,00000000000| 13,00000000000| 11,00000000000| 11,00000000000| 16,00000000000| 12,00000000000|  5,00000000000|  9,00000000000|  8,00000000000|  9,00000000000|  6,00000000000|  9,00000000000|  5,00000000000| 12,00000000000| 11,00000000000|  2,00000000000|  0,00000000000|  5,00000000000| 10,00000000000| 10,00000000000|  6,00000000000|  4,00000000000|  5,00000000000| 10,00000000000|  7,00000000000| 10,00000000000
Black_Bear                |  8,00000000000|  9,00000000000| 12,00000000000| 13,00000000000| 11,00000000000|  9,00000000000|  6,00000000000| 10,00000000000|  8,00000000000|  8,00000000000| 13,00000000000|  9,00000000000|  6,00000000000| 10,00000000000|  9,00000000000| 10,00000000000|  7,00000000000| 10,00000000000|  6,00000000000|  9,00000000000|  8,00000000000|  5,00000000000|  5,00000000000|  0,00000000000|  7,00000000000|  7,00000000000|  3,00000000000|  3,00000000000|  6,00000000000|  7,00000000000|  4,00000000000| 11,00000000000
Brown_Bear                |  7,00000000000| 14,00000000000| 11,00000000000| 12,00000000000| 10,00000000000|  8,00000000000|  5,00000000000|  9,00000000000|  7,00000000000|  7,00000000000| 12,00000000000|  6,00000000000| 11,00000000000| 15,00000000000| 14,00000000000| 15,00000000000| 12,00000000000| 15,00000000000| 11,00000000000|  6,00000000000|  5,00000000000| 10,00000000000| 10,00000000000|  7,00000000000|  0,00000000000|  2,00000000000|  6,00000000000|  8,00000000000| 11,00000000000|  4,00000000000|  5,00000000000| 16,00000000000
Polar_Bear                |  7,00000000000| 14,00000000000| 11,00000000000| 12,00000000000| 10,00000000000|  8,00000000000|  5,00000000000|  9,00000000000|  7,00000000000|  7,00000000000| 12,00000000000|  6,00000000000| 11,00000000000| 15,00000000000| 14,00000000000| 15,00000000000| 12,00000000000| 15,00000000000| 11,00000000000|  6,00000000000|  5,00000000000| 10,00000000000| 10,00000000000|  7,00000000000|  2,00000000000|  0,00000000000|  6,00000000000|  8,00000000000| 11,00000000000|  4,00000000000|  5,00000000000| 16,00000000000
Giant_Panda               |  7,00000000000| 10,00000000000| 11,00000000000| 12,00000000000| 10,00000000000|  8,00000000000|  5,00000000000|  9,00000000000|  7,00000000000|  7,00000000000| 12,00000000000|  8,00000000000|  7,00000000000| 11,00000000000| 10,00000000000| 11,00000000000|  8,00000000000| 11,00000000000|  7,00000000000|  8,00000000000|  7,00000000000|  6,00000000000|  6,00000000000|  3,00000000000|  6,00000000000|  6,00000000000|  0,00000000000|  4,00000000000|  7,00000000000|  6,00000000000|  3,00000000000| 12,00000000000
Rabbit                    |  9,00000000000|  8,00000000000| 13,00000000000| 14,00000000000| 12,00000000000| 10,00000000000|  7,00000000000| 11,00000000000|  9,00000000000|  9,00000000000| 14,00000000000| 10,00000000000|  5,00000000000|  9,00000000000|  8,00000000000|  9,00000000000|  6,00000000000|  9,00000000000|  5,00000000000| 10,00000000000|  9,00000000000|  4,00000000000|  4,00000000000|  3,00000000000|  8,00000000000|  8,00000000000|  4,00000000000|  0,00000000000|  5,00000000000|  8,00000000000|  5,00000000000| 10,00000000000
Hedgehog                  | 12,00000000000|  5,00000000000| 16,00000000000| 17,00000000000| 15,00000000000| 13,00000000000| 10,00000000000| 14,00000000000| 12,00000000000| 12,00000000000| 17,00000000000| 13,00000000000|  4,00000000000|  6,00000000000|  5,00000000000|  6,00000000000|  3,00000000000|  6,00000000000|  4,00000000000| 13,00000000000| 12,00000000000|  5,00000000000|  5,00000000000|  6,00000000000| 11,00000000000| 11,00000000000|  7,00000000000|  5,00000000000|  0,00000000000| 11,00000000000|  8,00000000000|  7,00000000000
Dormouse                  |  7,00000000000| 14,00000000000| 11,00000000000| 12,00000000000| 10,00000000000|  8,00000000000|  5,00000000000|  9,00000000000|  7,00000000000|  7,00000000000| 12,00000000000|  4,00000000000| 11,00000000000| 15,00000000000| 14,00000000000| 15,00000000000| 12,00000000000| 15,00000000000| 11,00000000000|  4,00000000000|  3,00000000000| 10,00000000000| 10,00000000000|  7,00000000000|  4,00000000000|  4,00000000000|  6,00000000000|  8,00000000000| 11,00000000000|  0,00000000000|  5,00000000000| 16,00000000000
Squirrel                  |  6,00000000000| 11,00000000000| 10,00000000000| 11,00000000000|  9,00000000000|  7,00000000000|  4,00000000000|  8,00000000000|  6,00000000000|  6,00000000000| 11,00000000000|  7,00000000000|  8,00000000000| 12,00000000000| 11,00000000000| 12,00000000000|  9,00000000000| 12,00000000000|  8,00000000000|  7,00000000000|  6,00000000000|  7,00000000000|  7,00000000000|  4,00000000000|  5,00000000000|  5,00000000000|  3,00000000000|  5,00000000000|  8,00000000000|  5,00000000000|  0,00000000000| 13,00000000000
Blue_Whale                | 17,00000000000|  4,00000000000| 21,00000000000| 22,00000000000| 20,00000000000| 18,00000000000| 15,00000000000| 19,00000000000| 17,00000000000| 17,00000000000| 22,00000000000| 18,00000000000|  9,00000000000|  3,00000000000|  6,00000000000|  7,00000000000|  6,00000000000|  7,00000000000|  9,00000000000| 18,00000000000| 17,00000000000| 10,00000000000| 10,00000000000| 11,00000000000| 16,00000000000| 16,00000000000| 12,00000000000| 10,00000000000|  7,00000000000| 16,00000000000| 13,00000000000|  0,00000000000
                           |Human          |Hum_shortened  |Pig_Chim       |Com_Chim       |Gibbon         |Baboon         |Ver_Monkey     |Macaca_Thibet  |Bor_Oran       |Sum_Oran       |Gorilla        |Cat            |Dog            |Pig            |Sheep          |Goat           |Cow            |Buffalo        |Wolf           |Tiger          |Leopard        |Indian_Rhino   |White_Rhino    |Black_Bear     |Brown_Bear     |Polar_Bear     |Giant_Panda    |Rabbit         |Hedgehog       |Dormouse       |Squirrel       |Blue_Whale     
Human                     |  0,00000000000| 10,60405733633|  9,26671698202|  9,26671698202|  9,26671698202|  9,26671698202|  9,46853911260|  9,26671698202|  9,26671698202|  9,01426125374|  9,26671698202|  9,63575816034| 10,05498168505| 10,85105518430| 10,58276077421| 10,58276077421| 10,51923032956| 10,58276077421| 10,05498168505|  9,63575816034|  9,63575816034|  9,95251871674|  9,95251871674|  9,82399146732|  9,63575816034|  9,63575816034|  9,75703460275|  9,85433168678| 10,30129107554|  9,63575816034|  9,71654534587| 10,89177095892
Hum_shortened             | 10,60405733633|  0,00000000000| 10,60405733633| 10,60405733633| 10,60405733633| 10,60405733633| 10,60405733633| 10,60405733633| 10,60405733633| 10,60405733633| 10,60405733633| 10,60405733633| 10,60405733633| 10,85105518430| 10,60405733633| 10,60405733633| 10,60405733633| 10,60405733633| 10,60405733633| 10,60405733633| 10,60405733633| 10,60405733633| 10,60405733633| 10,60405733633| 10,60405733633| 10,60405733633| 10,60405733633| 10,60405733633| 10,60405733633| 10,60405733633| 10,60405733633| 10,89177095892
Pig_Chim                  |  9,26671698202| 10,60405733633|  0,00000000000|  5,26142687197|  6,34823289954|  8,83123805275|  9,46853911260|  8,19822215485|  8,86149420619|  9,26671698202|  5,26142687197|  9,63575816034| 10,05498168505| 10,85105518430| 10,58276077421| 10,58276077421| 10,51923032956| 10,58276077421| 10,05498168505|  9,63575816034|  9,63575816034|  9,95251871674|  9,95251871674|  9,82399146732|  9,63575816034|  9,63575816034|  9,75703460275|  9,85433168678| 10,30129107554|  9,63575816034|  9,71654534587| 10,89177095892
Com_Chim                  |  9,26671698202| 10,60405733633|  5,26142687197|  0,00000000000|  6,34823289954|  8,83123805275|  9,46853911260|  8,19822215485|  8,86149420619|  9,26671698202|  2,02156548717|  9,63575816034| 10,05498168505| 10,85105518430| 10,58276077421| 10,58276077421| 10,51923032956| 10,58276077421| 10,05498168505|  9,63575816034|  9,63575816034|  9,95251871674|  9,95251871674|  9,82399146732|  9,63575816034|  9,63575816034|  9,75703460275|  9,85433168678| 10,30129107554|  9,63575816034|  9,71654534587| 10,89177095892
Gibbon                    |  9,26671698202| 10,60405733633|  6,34823289954|  6,34823289954|  0,00000000000|  8,83123805275|  9,46853911260|  8,19822215485|  8,86149420619|  9,26671698202|  6,34823289954|  9,63575816034| 10,05498168505| 10,85105518430| 10,58276077421| 10,58276077421| 10,51923032956| 10,58276077421| 10,05498168505|  9,63575816034|  9,63575816034|  9,95251871674|  9,95251871674|  9,82399146732|  9,63575816034|  9,63575816034|  9,75703460275|  9,85433168678| 10,30129107554|  9,63575816034|  9,71654534587| 10,89177095892
Baboon                    |  9,26671698202| 10,60405733633|  8,83123805275|  8,83123805275|  8,83123805275|  0,00000000000|  9,46853911260|  8,83123805275|  8,86149420619|  9,26671698202|  8,83123805275|  9,63575816034| 10,05498168505| 10,85105518430| 10,58276077421| 10,58276077421| 10,51923032956| 10,58276077421| 10,05498168505|  9,63575816034|  9,63575816034|  9,95251871674|  9,95251871674|  9,82399146732|  9,63575816034|  9,63575816034|  9,75703460275|  9,85433168678| 10,30129107554|  9,63575816034|  9,71654534587| 10,89177095892
Ver_Monkey                |  9,46853911260| 10,60405733633|  9,46853911260|  9,46853911260|  9,46853911260|  9,46853911260|  0,00000000000|  9,46853911260|  9,46853911260|  9,46853911260|  9,46853911260|  9,63575816034| 10,05498168505| 10,85105518430| 10,58276077421| 10,58276077421| 10,51923032956| 10,58276077421| 10,05498168505|  9,63575816034|  9,63575816034|  9,95251871674|  9,95251871674|  9,82399146732|  9,63575816034|  9,63575816034|  9,75703460275|  9,85433168678| 10,30129107554|  9,63575816034|  9,71654534587| 10,89177095892
Macaca_Thibet             |  9,26671698202| 10,60405733633|  8,19822215485|  8,19822215485|  8,19822215485|  8,83123805275|  9,46853911260|  0,00000000000|  8,86149420619|  9,26671698202|  8,19822215485|  9,63575816034| 10,05498168505| 10,85105518430| 10,58276077421| 10,58276077421| 10,51923032956| 10,58276077421| 10,05498168505|  9,63575816034|  9,63575816034|  9,95251871674|  9,95251871674|  9,82399146732|  9,63575816034|  9,63575816034|  9,75703460275|  9,85433168678| 10,30129107554|  9,63575816034|  9,71654534587| 10,89177095892
Bor_Oran                  |  9,26671698202| 10,60405733633|  8,86149420619|  8,86149420619|  8,86149420619|  8,86149420619|  9,46853911260|  8,86149420619|  0,00000000000|  9,26671698202|  8,86149420619|  9,63575816034| 10,05498168505| 10,85105518430| 10,58276077421| 10,58276077421| 10,51923032956| 10,58276077421| 10,05498168505|  9,63575816034|  9,63575816034|  9,95251871674|  9,95251871674|  9,82399146732|  9,63575816034|  9,63575816034|  9,75703460275|  9,85433168678| 10,30129107554|  9,63575816034|  9,71654534587| 10,89177095892
Sum_Oran                  |  9,01426125374| 10,60405733633|  9,26671698202|  9,26671698202|  9,26671698202|  9,26671698202|  9,46853911260|  9,26671698202|  9,26671698202|  0,00000000000|  9,26671698202|  9,63575816034| 10,05498168505| 10,85105518430| 10,58276077421| 10,58276077421| 10,51923032956| 10,58276077421| 10,05498168505|  9,63575816034|  9,63575816034|  9,95251871674|  9,95251871674|  9,82399146732|  9,63575816034|  9,63575816034|  9,75703460275|  9,85433168678| 10,30129107554|  9,63575816034|  9,71654534587| 10,89177095892
Gorilla                   |  9,26671698202| 10,60405733633|  5,26142687197|  2,02156548717|  6,34823289954|  8,83123805275|  9,46853911260|  8,19822215485|  8,86149420619|  9,26671698202|  0,00000000000|  9,63575816034| 10,05498168505| 10,85105518430| 10,58276077421| 10,58276077421| 10,51923032956| 10,58276077421| 10,05498168505|  9,63575816034|  9,63575816034|  9,95251871674|  9,95251871674|  9,82399146732|  9,63575816034|  9,63575816034|  9,75703460275|  9,85433168678| 10,30129107554|  9,63575816034|  9,71654534587| 10,89177095892
Cat                       |  9,63575816034| 10,60405733633|  9,63575816034|  9,63575816034|  9,63575816034|  9,63575816034|  9,63575816034|  9,63575816034|  9,63575816034|  9,63575816034|  9,63575816034|  0,00000000000| 10,05498168505| 10,85105518430| 10,58276077421| 10,58276077421| 10,51923032956| 10,58276077421| 10,05498168505|  7,51050750570|  9,09577449051|  9,95251871674|  9,95251871674|  9,82399146732|  9,29922565572|  9,29922565572|  9,75703460275|  9,85433168678| 10,30129107554|  9,25051076121|  9,71654534587| 10,89177095892
Dog                       | 10,05498168505| 10,60405733633| 10,05498168505| 10,05498168505| 10,05498168505| 10,05498168505| 10,05498168505| 10,05498168505| 10,05498168505| 10,05498168505| 10,05498168505| 10,05498168505|  0,00000000000| 10,85105518430| 10,58276077421| 10,58276077421| 10,51923032956| 10,58276077421| -2,72577548511| 10,05498168505| 10,05498168505| 10,05498168505| 10,05498168505| 10,05498168505| 10,05498168505| 10,05498168505| 10,05498168505| 10,05498168505| 10,30129107554| 10,05498168505| 10,05498168505| 10,89177095892
Pig                       | 10,85105518430| 10,85105518430| 10,85105518430| 10,85105518430| 10,85105518430| 10,85105518430| 10,85105518430| 10,85105518430| 10,85105518430| 10,85105518430| 10,85105518430| 10,85105518430| 10,85105518430|  0,00000000000| 10,85105518430| 10,85105518430| 10,85105518430| 10,85105518430| 10,85105518430| 10,85105518430| 10,85105518430| 10,85105518430| 10,85105518430| 10,85105518430| 10,85105518430| 10,85105518430| 10,85105518430| 10,85105518430| 10,85105518430| 10,85105518430| 10,85105518430| 10,89177095892
Sheep                     | 10,58276077421| 10,60405733633| 10,58276077421| 10,58276077421| 10,58276077421| 10,58276077421| 10,58276077421| 10,58276077421| 10,58276077421| 10,58276077421| 10,58276077421| 10,58276077421| 10,58276077421| 10,85105518430|  0,00000000000|  8,26514862911| 10,58276077421|  8,26514862911| 10,58276077421| 10,58276077421| 10,58276077421| 10,58276077421| 10,58276077421| 10,58276077421| 10,58276077421| 10,58276077421| 10,58276077421| 10,58276077421| 10,58276077421| 10,58276077421| 10,58276077421| 10,89177095892
Goat                      | 10,58276077421| 10,60405733633| 10,58276077421| 10,58276077421| 10,58276077421| 10,58276077421| 10,58276077421| 10,58276077421| 10,58276077421| 10,58276077421| 10,58276077421| 10,58276077421| 10,58276077421| 10,85105518430|  8,26514862911|  0,00000000000| 10,58276077421|  6,70671132088| 10,58276077421| 10,58276077421| 10,58276077421| 10,58276077421| 10,58276077421| 10,58276077421| 10,58276077421| 10,58276077421| 10,58276077421| 10,58276077421| 10,58276077421| 10,58276077421| 10,58276077421| 10,89177095892
Cow                       | 10,51923032956| 10,60405733633| 10,51923032956| 10,51923032956| 10,51923032956| 10,51923032956| 10,51923032956| 10,51923032956| 10,51923032956| 10,51923032956| 10,51923032956| 10,51923032956| 10,51923032956| 10,85105518430| 10,58276077421| 10,58276077421|  0,00000000000| 10,58276077421| 10,51923032956| 10,51923032956| 10,51923032956| 10,51923032956| 10,51923032956| 10,51923032956| 10,51923032956| 10,51923032956| 10,51923032956| 10,51923032956| 10,51923032956| 10,51923032956| 10,51923032956| 10,89177095892
Buffalo                   | 10,58276077421| 10,60405733633| 10,58276077421| 10,58276077421| 10,58276077421| 10,58276077421| 10,58276077421| 10,58276077421| 10,58276077421| 10,58276077421| 10,58276077421| 10,58276077421| 10,58276077421| 10,85105518430|  8,26514862911|  6,70671132088| 10,58276077421|  0,00000000000| 10,58276077421| 10,58276077421| 10,58276077421| 10,58276077421| 10,58276077421| 10,58276077421| 10,58276077421| 10,58276077421| 10,58276077421| 10,58276077421| 10,58276077421| 10,58276077421| 10,58276077421| 10,89177095892
Wolf                      | 10,05498168505| 10,60405733633| 10,05498168505| 10,05498168505| 10,05498168505| 10,05498168505| 10,05498168505| 10,05498168505| 10,05498168505| 10,05498168505| 10,05498168505| 10,05498168505| -2,72577548511| 10,85105518430| 10,58276077421| 10,58276077421| 10,51923032956| 10,58276077421|  0,00000000000| 10,05498168505| 10,05498168505| 10,05498168505| 10,05498168505| 10,05498168505| 10,05498168505| 10,05498168505| 10,05498168505| 10,05498168505| 10,30129107554| 10,05498168505| 10,05498168505| 10,89177095892
Tiger                     |  9,63575816034| 10,60405733633|  9,63575816034|  9,63575816034|  9,63575816034|  9,63575816034|  9,63575816034|  9,63575816034|  9,63575816034|  9,63575816034|  9,63575816034|  7,51050750570| 10,05498168505| 10,85105518430| 10,58276077421| 10,58276077421| 10,51923032956| 10,58276077421| 10,05498168505|  0,00000000000|  9,09577449051|  9,95251871674|  9,95251871674|  9,82399146732|  9,29922565572|  9,29922565572|  9,75703460275|  9,85433168678| 10,30129107554|  9,25051076121|  9,71654534587| 10,89177095892
Leopard                   |  9,63575816034| 10,60405733633|  9,63575816034|  9,63575816034|  9,63575816034|  9,63575816034|  9,63575816034|  9,63575816034|  9,63575816034|  9,63575816034|  9,63575816034|  9,09577449051| 10,05498168505| 10,85105518430| 10,58276077421| 10,58276077421| 10,51923032956| 10,58276077421| 10,05498168505|  9,09577449051|  0,00000000000|  9,95251871674|  9,95251871674|  9,82399146732|  9,29922565572|  9,29922565572|  9,75703460275|  9,85433168678| 10,30129107554|  9,25051076121|  9,71654534587| 10,89177095892
Indian_Rhino              |  9,95251871674| 10,60405733633|  9,95251871674|  9,95251871674|  9,95251871674|  9,95251871674|  9,95251871674|  9,95251871674|  9,95251871674|  9,95251871674|  9,95251871674|  9,95251871674| 10,05498168505| 10,85105518430| 10,58276077421| 10,58276077421| 10,51923032956| 10,58276077421| 10,05498168505|  9,95251871674|  9,95251871674|  0,00000000000|  8,95619286415|  9,95251871674|  9,95251871674|  9,95251871674|  9,95251871674|  9,95251871674| 10,30129107554|  9,95251871674|  9,95251871674| 10,89177095892
White_Rhino               |  9,95251871674| 10,60405733633|  9,95251871674|  9,95251871674|  9,95251871674|  9,95251871674|  9,95251871674|  9,95251871674|  9,95251871674|  9,95251871674|  9,95251871674|  9,95251871674| 10,05498168505| 10,85105518430| 10,58276077421| 10,58276077421| 10,51923032956| 10,58276077421| 10,05498168505|  9,95251871674|  9,95251871674|  8,95619286415|  0,00000000000|  9,95251871674|  9,95251871674|  9,95251871674|  9,95251871674|  9,95251871674| 10,30129107554|  9,95251871674|  9,95251871674| 10,89177095892
Black_Bear                |  9,82399146732| 10,60405733633|  9,82399146732|  9,82399146732|  9,82399146732|  9,82399146732|  9,82399146732|  9,82399146732|  9,82399146732|  9,82399146732|  9,82399146732|  9,82399146732| 10,05498168505| 10,85105518430| 10,58276077421| 10,58276077421| 10,51923032956| 10,58276077421| 10,05498168505|  9,82399146732|  9,82399146732|  9,95251871674|  9,95251871674|  0,00000000000|  9,82399146732|  9,82399146732|  9,82399146732|  9,85433168678| 10,30129107554|  9,82399146732|  9,82399146732| 10,89177095892
Brown_Bear                |  9,63575816034| 10,60405733633|  9,63575816034|  9,63575816034|  9,63575816034|  9,63575816034|  9,63575816034|  9,63575816034|  9,63575816034|  9,63575816034|  9,63575816034|  9,29922565572| 10,05498168505| 10,85105518430| 10,58276077421| 10,58276077421| 10,51923032956| 10,58276077421| 10,05498168505|  9,29922565572|  9,29922565572|  9,95251871674|  9,95251871674|  9,82399146732|  0,00000000000|  6,58766983712|  9,75703460275|  9,85433168678| 10,30129107554|  9,29922565572|  9,71654534587| 10,89177095892
Polar_Bear                |  9,63575816034| 10,60405733633|  9,63575816034|  9,63575816034|  9,63575816034|  9,63575816034|  9,63575816034|  9,63575816034|  9,63575816034|  9,63575816034|  9,63575816034|  9,29922565572| 10,05498168505| 10,85105518430| 10,58276077421| 10,58276077421| 10,51923032956| 10,58276077421| 10,05498168505|  9,29922565572|  9,29922565572|  9,95251871674|  9,95251871674|  9,82399146732|  6,58766983712|  0,00000000000|  9,75703460275|  9,85433168678| 10,30129107554|  9,29922565572|  9,71654534587| 10,89177095892
Giant_Panda               |  9,75703460275| 10,60405733633|  9,75703460275|  9,75703460275|  9,75703460275|  9,75703460275|  9,75703460275|  9,75703460275|  9,75703460275|  9,75703460275|  9,75703460275|  9,75703460275| 10,05498168505| 10,85105518430| 10,58276077421| 10,58276077421| 10,51923032956| 10,58276077421| 10,05498168505|  9,75703460275|  9,75703460275|  9,95251871674|  9,95251871674|  9,82399146732|  9,75703460275|  9,75703460275|  0,00000000000|  9,85433168678| 10,30129107554|  9,75703460275|  9,75703460275| 10,89177095892
Rabbit                    |  9,85433168678| 10,60405733633|  9,85433168678|  9,85433168678|  9,85433168678|  9,85433168678|  9,85433168678|  9,85433168678|  9,85433168678|  9,85433168678|  9,85433168678|  9,85433168678| 10,05498168505| 10,85105518430| 10,58276077421| 10,58276077421| 10,51923032956| 10,58276077421| 10,05498168505|  9,85433168678|  9,85433168678|  9,95251871674|  9,95251871674|  9,85433168678|  9,85433168678|  9,85433168678|  9,85433168678|  0,00000000000| 10,30129107554|  9,85433168678|  9,85433168678| 10,89177095892
Hedgehog                  | 10,30129107554| 10,60405733633| 10,30129107554| 10,30129107554| 10,30129107554| 10,30129107554| 10,30129107554| 10,30129107554| 10,30129107554| 10,30129107554| 10,30129107554| 10,30129107554| 10,30129107554| 10,85105518430| 10,58276077421| 10,58276077421| 10,51923032956| 10,58276077421| 10,30129107554| 10,30129107554| 10,30129107554| 10,30129107554| 10,30129107554| 10,30129107554| 10,30129107554| 10,30129107554| 10,30129107554| 10,30129107554|  0,00000000000| 10,30129107554| 10,30129107554| 10,89177095892
Dormouse                  |  9,63575816034| 10,60405733633|  9,63575816034|  9,63575816034|  9,63575816034|  9,63575816034|  9,63575816034|  9,63575816034|  9,63575816034|  9,63575816034|  9,63575816034|  9,25051076121| 10,05498168505| 10,85105518430| 10,58276077421| 10,58276077421| 10,51923032956| 10,58276077421| 10,05498168505|  9,25051076121|  9,25051076121|  9,95251871674|  9,95251871674|  9,82399146732|  9,29922565572|  9,29922565572|  9,75703460275|  9,85433168678| 10,30129107554|  0,00000000000|  9,71654534587| 10,89177095892
Squirrel                  |  9,71654534587| 10,60405733633|  9,71654534587|  9,71654534587|  9,71654534587|  9,71654534587|  9,71654534587|  9,71654534587|  9,71654534587|  9,71654534587|  9,71654534587|  9,71654534587| 10,05498168505| 10,85105518430| 10,58276077421| 10,58276077421| 10,51923032956| 10,58276077421| 10,05498168505|  9,71654534587|  9,71654534587|  9,95251871674|  9,95251871674|  9,82399146732|  9,71654534587|  9,71654534587|  9,75703460275|  9,85433168678| 10,30129107554|  9,71654534587|  0,00000000000| 10,89177095892
Blue_Whale                | 10,89177095892| 10,89177095892| 10,89177095892| 10,89177095892| 10,89177095892| 10,89177095892| 10,89177095892| 10,89177095892| 10,89177095892| 10,89177095892| 10,89177095892| 10,89177095892| 10,89177095892| 10,89177095892| 10,89177095892| 10,89177095892| 10,89177095892| 10,89177095892| 10,89177095892| 10,89177095892| 10,89177095892| 10,89177095892| 10,89177095892| 10,89177095892| 10,89177095892| 10,89177095892| 10,89177095892| 10,89177095892| 10,89177095892| 10,89177095892| 10,89177095892|  0,00000000000
                           |Human          |Hum_shortened  |Pig_Chim       |Com_Chim       |Gibbon         |Baboon         |Ver_Monkey     |Macaca_Thibet  |Bor_Oran       |Sum_Oran       |Gorilla        |Cat            |Dog            |Pig            |Sheep          |Goat           |Cow            |Buffalo        |Wolf           |Tiger          |Leopard        |Indian_Rhino   |White_Rhino    |Black_Bear     |Brown_Bear     |Polar_Bear     |Giant_Panda    |Rabbit         |Hedgehog       |Dormouse       |Squirrel       |Blue_Whale     
Human                     |  0,00000000000| 15,00000000000|  8,00000000000|  9,00000000000|  7,00000000000|  5,00000000000|  4,00000000000|  6,00000000000|  4,00000000000|  2,00000000000|  9,00000000000|  9,00000000000| 12,00000000000| 16,00000000000| 15,00000000000| 16,00000000000| 13,00000000000| 16,00000000000| 12,00000000000|  9,00000000000|  8,00000000000| 11,00000000000| 11,00000000000|  8,00000000000|  7,00000000000|  7,00000000000|  7,00000000000|  9,00000000000| 12,00000000000|  7,00000000000|  6,00000000000| 17,00000000000
Hum_shortened             | 15,00000000000|  0,00000000000| 19,00000000000| 20,00000000000| 18,00000000000| 16,00000000000| 13,00000000000| 17,00000000000| 15,00000000000| 15,00000000000| 20,00000000000| 16,00000000000|  7,00000000000|  3,00000000000|  4,00000000000|  5,00000000000|  4,00000000000|  5,00000000000|  7,00000000000| 16,00000000000| 15,00000000000|  8,00000000000|  8,00000000000|  9,00000000000| 14,00000000000| 14,00000000000| 10,00000000000|  8,00000000000|  5,00000000000| 14,00000000000| 11,00000000000|  4,00000000000
Pig_Chim                  |  8,00000000000| 19,00000000000|  0,00000000000|  3,00000000000|  3,00000000000|  5,00000000000|  8,00000000000|  4,00000000000|  6,00000000000|  8,00000000000|  3,00000000000| 13,00000000000| 16,00000000000| 20,00000000000| 19,00000000000| 20,00000000000| 17,00000000000| 20,00000000000| 16,00000000000| 13,00000000000| 12,00000000000| 15,00000000000| 15,00000000000| 12,00000000000| 11,00000000000| 11,00000000000| 11,00000000000| 13,00000000000| 16,00000000000| 11,00000000000| 10,00000000000| 21,00000000000
Com_Chim                  |  9,00000000000| 20,00000000000|  3,00000000000|  0,00000000000|  4,00000000000|  6,00000000000|  9,00000000000|  5,00000000000|  7,00000000000|  9,00000000000|  2,00000000000| 14,00000000000| 17,00000000000| 21,00000000000| 20,00000000000| 21,00000000000| 18,00000000000| 21,00000000000| 17,00000000000| 14,00000000000| 13,00000000000| 16,00000000000| 16,00000000000| 13,00000000000| 12,00000000000| 12,00000000000| 12,00000000000| 14,00000000000| 17,00000000000| 12,00000000000| 11,00000000000| 22,00000000000
Gibbon                    |  7,00000000000| 18,00000000000|  3,00000000000|  4,00000000000|  0,00000000000|  4,00000000000|  7,00000000000|  3,00000000000|  5,00000000000|  7,00000000000|  4,00000000000| 12,00000000000| 15,00000000000| 19,00000000000| 18,00000000000| 19,00000000000| 16,00000000000| 19,00000000000| 15,00000000000| 12,00000000000| 11,00000000000| 14,00000000000| 14,00000000000| 11,00000000000| 10,00000000000| 10,00000000000| 10,00000000000| 12,00000000000| 15,00000000000| 10,00000000000|  9,00000000000| 20,00000000000
Baboon                    |  5,00000000000| 16,00000000000|  5,00000000000|  6,00000000000|  4,00000000000|  0,00000000000|  5,00000000000|  3,00000000000|  3,00000000000|  5,00000000000|  6,00000000000| 10,00000000000| 13,00000000000| 17,00000000000| 16,00000000000| 17,00000000000| 14,00000000000| 17,00000000000| 13,00000000000| 10,00000000000|  9,00000000000| 12,00000000000| 12,00000000000|  9,00000000000|  8,00000000000|  8,00000000000|  8,00000000000| 10,00000000000| 13,00000000000|  8,00000000000|  7,00000000000| 18,00000000000
Ver_Monkey                |  4,00000000000| 13,00000000000|  8,00000000000|  9,00000000000|  7,00000000000|  5,00000000000|  0,00000000000|  6,00000000000|  4,00000000000|  4,00000000000|  9,00000000000|  7,00000000000| 10,00000000000| 14,00000000000| 13,00000000000| 14,00000000000| 11,00000000000| 14,00000000000| 10,00000000000|  7,00000000000|  6,00000000000|  9,00000000000|  9,00000000000|  6,00000000000|  5,00000000000|  5,00000000000|  5,00000000000|  7,00000000000| 10,00000000000|  5,00000000000|  4,00000000000| 15,00000000000
Macaca_Thibet             |  6,00000000000| 17,00000000000|  4,00000000000|  5,00000000000|  3,00000000000|  3,00000000000|  6,00000000000|  0,00000000000|  4,00000000000|  6,00000000000|  5,00000000000| 11,00000000000| 14,00000000000| 18,00000000000| 17,00000000000| 18,00000000000| 15,00000000000| 18,00000000000| 14,00000000000| 11,00000000000| 10,00000000000| 13,00000000000| 13,00000000000| 10,00000000000|  9,00000000000|  9,00000000000|  9,00000000000| 11,00000000000| 14,00000000000|  9,00000000000|  8,00000000000| 19,00000000000
Bor_Oran                  |  4,00000000000| 15,00000000000|  6,00000000000|  7,00000000000|  5,00000000000|  3,00000000000|  4,00000000000|  4,00000000000|  0,00000000000|  4,00000000000|  7,00000000000|  9,00000000000| 12,00000000000| 16,00000000000| 15,00000000000| 16,00000000000| 13,00000000000| 16,00000000000| 12,00000000000|  9,00000000000|  8,00000000000| 11,00000000000| 11,00000000000|  8,00000000000|  7,00000000000|  7,00000000000|  7,00000000000|  9,00000000000| 12,00000000000|  7,00000000000|  6,00000000000| 17,00000000000
Sum_Oran                  |  2,00000000000| 15,00000000000|  8,00000000000|  9,00000000000|  7,00000000000|  5,00000000000|  4,00000000000|  6,00000000000|  4,00000000000|  0,00000000000|  9,00000000000|  9,00000000000| 12,00000000000| 16,00000000000| 15,00000000000| 16,00000000000| 13,00000000000| 16,00000000000| 12,00000000000|  9,00000000000|  8,00000000000| 11,00000000000| 11,00000000000|  8,00000000000|  7,00000000000|  7,00000000000|  7,00000000000|  9,00000000000| 12,00000000000|  7,00000000000|  6,00000000000| 17,00000000000
Gorilla                   |  9,00000000000| 20,00000000000|  3,00000000000|  2,00000000000|  4,00000000000|  6,00000000000|  9,00000000000|  5,00000000000|  7,00000000000|  9,00000000000|  0,00000000000| 14,00000000000| 17,00000000000| 21,00000000000| 20,00000000000| 21,00000000000| 18,00000000000| 21,00000000000| 17,00000000000| 14,00000000000| 13,00000000000| 16,00000000000| 16,00000000000| 13,00000000000| 12,00000000000| 12,00000000000| 12,00000000000| 14,00000000000| 17,00000000000| 12,00000000000| 11,00000000000| 22,00000000000
Cat                       |  9,00000000000| 16,00000000000| 13,00000000000| 14,00000000000| 12,00000000000| 10,00000000000|  7,00000000000| 11,00000000000|  9,00000000000|  9,00000000000| 14,00000000000|  0,00000000000| 13,00000000000| 17,00000000000| 16,00000000000| 17,00000000000| 14,00000000000| 17,00000000000| 13,00000000000|  2,00000000000|  3,00000000000| 12,00000000000| 12,00000000000|  9,00000000000|  6,00000000000|  6,00000000000|  8,00000000000| 10,00000000000| 13,00000000000|  4,00000000000|  7,00000000000| 18,00000000000
Dog                       | 12,00000000000|  7,00000000000| 16,00000000000| 17,00000000000| 15,00000000000| 13,00000000000| 10,00000000000| 14,00000000000| 12,00000000000| 12,00000000000| 17,00000000000| 13,00000000000|  0,00000000000|  8,00000000000|  7,00000000000|  8,00000000000|  5,00000000000|  8,00000000000|  2,00000000000| 13,00000000000| 12,00000000000|  5,00000000000|  5,00000000000|  6,00000000000| 11,00000000000| 11,00000000000|  7,00000000000|  5,00000000000|  4,00000000000| 11,00000000000|  8,00000000000|  9,00000000000
Pig                       | 16,00000000000|  3,00000000000| 20,00000000000| 21,00000000000| 19,00000000000| 17,00000000000| 14,00000000000| 18,00000000000| 16,00000000000| 16,00000000000| 21,00000000000| 17,00000000000|  8,00000000000|  0,00000000000|  5,00000000000|  6,00000000000|  5,00000000000|  6,00000000000|  8,00000000000| 17,00000000000| 16,00000000000|  9,00000000000|  9,00000000000| 10,00000000000| 15,00000000000| 15,00000000000| 11,00000000000|  9,00000000000|  6,00000000000| 15,00000000000| 12,00000000000|  3,00000000000
Sheep                     | 15,00000000000|  4,00000000000| 19,00000000000| 20,00000000000| 18,00000000000| 16,00000000000| 13,00000000000| 17,00000000000| 15,00000000000| 15,00000000000| 20,00000000000| 16,00000000000|  7,00000000000|  5,00000000000|  0,00000000000|  3,00000000000|  4,00000000000|  3,00000000000|  7,00000000000| 16,00000000000| 15,00000000000|  8,00000000000|  8,00000000000|  9,00000000000| 14,00000000000| 14,00000000000| 10,00000000000|  8,00000000000|  5,00000000000| 14,00000000000| 11,00000000000|  6,00000000000
Goat                      | 16,00000000000|  5,00000000000| 20,00000000000| 21,00000000000| 19,00000000000| 17,00000000000| 14,00000000000| 18,00000000000| 16,00000000000| 16,00000000000| 21,00000000000| 17,00000000000|  8,00000000000|  6,00000000000|  3,00000000000|  0,00000000000|  5,00000000000|  2,00000000000|  8,00000000000| 17,00000000000| 16,00000000000|  9,00000000000|  9,00000000000| 10,00000000000| 15,00000000000| 15,00000000000| 11,00000000000|  9,00000000000|  6,00000000000| 15,00000000000| 12,00000000000|  7,00000000000
Cow                       | 13,00000000000|  4,00000000000| 17,00000000000| 18,00000000000| 16,00000000000| 14,00000000000| 11,00000000000| 15,00000000000| 13,00000000000| 13,00000000000| 18,00000000000| 14,00000000000|  5,00000000000|  5,00000000000|  4,00000000000|  5,00000000000|  0,00000000000|  5,00000000000|  5,00000000000| 14,00000000000| 13,00000000000|  6,00000000000|  6,00000000000|  7,00000000000| 12,00000000000| 12,00000000000|  8,00000000000|  6,00000000000|  3,00000000000| 12,00000000000|  9,00000000000|  6,00000000000
Buffalo                   | 16,00000000000|  5,00000000000| 20,00000000000| 21,00000000000| 19,00000000000| 17,00000000000| 14,00000000000| 18,00000000000| 16,00000000000| 16,00000000000| 21,00000000000| 17,00000000000|  8,00000000000|  6,00000000000|  3,00000000000|  2,00000000000|  5,00000000000|  0,00000000000|  8,00000000000| 17,00000000000| 16,00000000000|  9,00000000000|  9,00000000000| 10,00000000000| 15,00000000000| 15,00000000000| 11,00000000000|  9,00000000000|  6,00000000000| 15,00000000000| 12,00000000000|  7,00000000000
Wolf                      | 12,00000000000|  7,00000000000| 16,00000000000| 17,00000000000| 15,00000000000| 13,00000000000| 10,00000000000| 14,00000000000| 12,00000000000| 12,00000000000| 17,00000000000| 13,00000000000|  2,00000000000|  8,00000000000|  7,00000000000|  8,00000000000|  5,00000000000|  8,00000000000|  0,00000000000| 13,00000000000| 12,00000000000|  5,00000000000|  5,00000000000|  6,00000000000| 11,00000000000| 11,00000000000|  7,00000000000|  5,00000000000|  4,00000000000| 11,00000000000|  8,00000000000|  9,00000000000
Tiger                     |  9,00000000000| 16,00000000000| 13,00000000000| 14,00000000000| 12,00000000000| 10,00000000000|  7,00000000000| 11,00000000000|  9,00000000000|  9,00000000000| 14,00000000000|  2,00000000000| 13,00000000000| 17,00000000000| 16,00000000000| 17,00000000000| 14,00000000000| 17,00000000000| 13,00000000000|  0,00000000000|  3,00000000000| 12,00000000000| 12,00000000000|  9,00000000000|  6,00000000000|  6,00000000000|  8,00000000000| 10,00000000000| 13,00000000000|  4,00000000000|  7,00000000000| 18,00000000000
Leopard                   |  8,00000000000| 15,00000000000| 12,00000000000| 13,00000000000| 11,00000000000|  9,00000000000|  6,00000000000| 10,00000000000|  8,00000000000|  8,00000000000| 13,00000000000|  3,00000000000| 12,00000000000| 16,00000000000| 15,00000000000| 16,00000000000| 13,00000000000| 16,00000000000| 12,00000000000|  3,00000000000|  0,00000000000| 11,00000000000| 11,00000000000|  8,00000000000|  5,00000000000|  5,00000000000|  7,00000000000|  9,00000000000| 12,00000000000|  3,00000000000|  6,00000000000| 17,00000000000
Indian_Rhino              | 11,00000000000|  8,00000000000| 15,00000000000| 16,00000000000| 14,00000000000| 12,00000000000|  9,00000000000| 13,00000000000| 11,00000000000| 11,00000000000| 16,00000000000| 12,00000000000|  5,00000000000|  9,00000000000|  8,00000000000|  9,00000000000|  6,00000000000|  9,00000000000|  5,00000000000| 12,00000000000| 11,00000000000|  0,00000000000|  2,00000000000|  5,00000000000| 10,00000000000| 10,00000000000|  6,00000000000|  4,00000000000|  5,00000000000| 10,00000000000|  7,00000000000| 10,00000000000
White_Rhino               | 11,00000000000|  8,00000000000| 15,00000000000| 16,00000000000| 14,00000000000| 12,00000000000|  9,00000000000| 13,00000000000| 11,00000000000| 11,00000000000| 16,00000000000| 12,00000000000|  5,00000000000|  9,00000000000|  8,00000000000|  9,00000000000|  6,00000000000|  9,00000000000|  5,00000000000| 12,00000000000| 11,00000000000|  2,00000000000|  0,00000000000|  5,00000000000| 10,00000000000| 10,00000000000|  6,00000000000|  4,00000000000|  5,00000000000| 10,00000000000|  7,00000000000| 10,00000000000
Black_Bear                |  8,00000000000|  9,00000000000| 12,00000000000| 13,00000000000| 11,00000000000|  9,00000000000|  6,00000000000| 10,00000000000|  8,00000000000|  8,00000000000| 13,00000000000|  9,00000000000|  6,00000000000| 10,00000000000|  9,00000000000| 10,00000000000|  7,00000000000| 10,00000000000|  6,00000000000|  9,00000000000|  8,00000000000|  5,00000000000|  5,00000000000|  0,00000000000|  7,00000000000|  7,00000000000|  3,00000000000|  3,00000000000|  6,00000000000|  7,00000000000|  4,00000000000| 11,00000000000
Brown_Bear                |  7,00000000000| 14,00000000000| 11,00000000000| 12,00000000000| 10,00000000000|  8,00000000000|  5,00000000000|  9,00000000000|  7,00000000000|  7,00000000000| 12,00000000000|  6,00000000000| 11,00000000000| 15,00000000000| 14,00000000000| 15,00000000000| 12,00000000000| 15,00000000000| 11,00000000000|  6,00000000000|  5,00000000000| 10,00000000000| 10,00000000000|  7,00000000000|  0,00000000000|  2,00000000000|  6,00000000000|  8,00000000000| 11,00000000000|  4,00000000000|  5,00000000000| 16,00000000000
Polar_Bear                |  7,00000000000| 14,00000000000| 11,00000000000| 12,00000000000| 10,00000000000|  8,00000000000|  5,00000000000|  9,00000000000|  7,00000000000|  7,00000000000| 12,00000000000|  6,00000000000| 11,00000000000| 15,00000000000| 14,00000000000| 15,00000000000| 12,00000000000| 15,00000000000| 11,00000000000|  6,00000000000|  5,00000000000| 10,00000000000| 10,00000000000|  7,00000000000|  2,00000000000|  0,00000000000|  6,00000000000|  8,00000000000| 11,00000000000|  4,00000000000|  5,00000000000| 16,00000000000
Giant_Panda               |  7,00000000000| 10,00000000000| 11,00000000000| 12,00000000000| 10,00000000000|  8,00000000000|  5,00000000000|  9,00000000000|  7,00000000000|  7,00000000000| 12,00000000000|  8,00000000000|  7,00000000000| 11,00000000000| 10,00000000000| 11,00000000000|  8,00000000000| 11,00000000000|  7,00000000000|  8,00000000000|  7,00000000000|  6,00000000000|  6,00000000000|  3,00000000000|  6,00000000000|  6,00000000000|  0,00000000000|  4,00000000000|  7,00000000000|  6,00000000000|  3,00000000000| 12,00000000000
Rabbit                    |  9,00000000000|  8,00000000000| 13,00000000000| 14,00000000000| 12,00000000000| 10,00000000000|  7,00000000000| 11,00000000000|  9,00000000000|  9,00000000000| 14,00000000000| 10,00000000000|  5,00000000000|  9,00000000000|  8,00000000000|  9,00000000000|  6,00000000000|  9,00000000000|  5,00000000000| 10,00000000000|  9,00000000000|  4,00000000000|  4,00000000000|  3,00000000000|  8,00000000000|  8,00000000000|  4,00000000000|  0,00000000000|  5,00000000000|  8,00000000000|  5,00000000000| 10,00000000000
Hedgehog                  | 12,00000000000|  5,00000000000| 16,00000000000| 17,00000000000| 15,00000000000| 13,00000000000| 10,00000000000| 14,00000000000| 12,00000000000| 12,00000000000| 17,00000000000| 13,00000000000|  4,00000000000|  6,00000000000|  5,00000000000|  6,00000000000|  3,00000000000|  6,00000000000|  4,00000000000| 13,00000000000| 12,00000000000|  5,00000000000|  5,00000000000|  6,00000000000| 11,00000000000| 11,00000000000|  7,00000000000|  5,00000000000|  0,00000000000| 11,00000000000|  8,00000000000|  7,00000000000
Dormouse                  |  7,00000000000| 14,00000000000| 11,00000000000| 12,00000000000| 10,00000000000|  8,00000000000|  5,00000000000|  9,00000000000|  7,00000000000|  7,00000000000| 12,00000000000|  4,00000000000| 11,00000000000| 15,00000000000| 14,00000000000| 15,00000000000| 12,00000000000| 15,00000000000| 11,00000000000|  4,00000000000|  3,00000000000| 10,00000000000| 10,00000000000|  7,00000000000|  4,00000000000|  4,00000000000|  6,00000000000|  8,00000000000| 11,00000000000|  0,00000000000|  5,00000000000| 16,00000000000
Squirrel                  |  6,00000000000| 11,00000000000| 10,00000000000| 11,00000000000|  9,00000000000|  7,00000000000|  4,00000000000|  8,00000000000|  6,00000000000|  6,00000000000| 11,00000000000|  7,00000000000|  8,00000000000| 12,00000000000| 11,00000000000| 12,00000000000|  9,00000000000| 12,00000000000|  8,00000000000|  7,00000000000|  6,00000000000|  7,00000000000|  7,00000000000|  4,00000000000|  5,00000000000|  5,00000000000|  3,00000000000|  5,00000000000|  8,00000000000|  5,00000000000|  0,00000000000| 13,00000000000
Blue_Whale                | 17,00000000000|  4,00000000000| 21,00000000000| 22,00000000000| 20,00000000000| 18,00000000000| 15,00000000000| 19,00000000000| 17,00000000000| 17,00000000000| 22,00000000000| 18,00000000000|  9,00000000000|  3,00000000000|  6,00000000000|  7,00000000000|  6,00000000000|  7,00000000000|  9,00000000000| 18,00000000000| 17,00000000000| 10,00000000000| 10,00000000000| 11,00000000000| 16,00000000000| 16,00000000000| 12,00000000000| 10,00000000000|  7,00000000000| 16,00000000000| 13,00000000000|  0,00000000000
