                           |Human          |Pig_Chim       |Com_Chim       |Gibbon         |Baboon         |Ver_Monkey     |Macaca_Thibet  |Bor_Oran       |Sum_Oran       |Gorilla        |Cat            |Dog            |Pig            |Sheep          |Goat           |Cow            |Buffalo        |Wolf           |Tiger          |Leopard        |Indian_Rhino   |White_Rhino    |Black_Bear     |Brown_Bear     |Polar_Bear     |Giant_Panda    |Rabbit         |Hedgehog       |Dormouse       |Squirrel       |Blue_Whale     
Human                     |  0,00000000000|23262,57878646233|23262,57878646233|32158,90328602267|37535,14109507947|39189,09243522970|37535,14109507947|32158,90328602267|32158,90328602267|23262,57878646233|53834,76636312548|52774,24941482568|53834,76636312548|53834,76636312548|53834,76636312548|53834,76636312548|53834,76636312548|52774,24941482568|53834,76636312548|53834,76636312548|51011,04780764172|51011,04780764172|53834,76636312548|53834,76636312548|53834,76636312548|53834,76636312548|70977,99969568840|53834,76636312548|53834,76636312548|53834,76636312548|53834,76636312548
Pig_Chim                  |23262,57878646233|  0,00000000000|15496,05398364843|32158,90328602267|37535,14109507947|39189,09243522970|37535,14109507947|32158,90328602267|32158,90328602267|20737,51522373292|53834,76636312548|52774,24941482568|53834,76636312548|53834,76636312548|53834,76636312548|53834,76636312548|53834,76636312548|52774,24941482568|53834,76636312548|53834,76636312548|51011,04780764172|51011,04780764172|53834,76636312548|53834,76636312548|53834,76636312548|53834,76636312548|70977,99969568840|53834,76636312548|53834,76636312548|53834,76636312548|53834,76636312548
Com_Chim                  |23262,57878646233|15496,05398364843|  0,00000000000|32158,90328602267|37535,14109507947|39189,09243522970|37535,14109507947|32158,90328602267|32158,90328602267|20737,51522373292|53834,76636312548|52774,24941482568|53834,76636312548|53834,76636312548|53834,76636312548|53834,76636312548|53834,76636312548|52774,24941482568|53834,76636312548|53834,76636312548|51011,04780764172|51011,04780764172|53834,76636312548|53834,76636312548|53834,76636312548|53834,76636312548|70977,99969568840|53834,76636312548|53834,76636312548|53834,76636312548|53834,76636312548
Gibbon                    |32158,90328602267|32158,90328602267|32158,90328602267|  0,00000000000|37535,14109507947|39189,09243522970|37535,14109507947|31107,11821065212|31107,11821065212|32158,90328602267|53834,76636312548|52774,24941482568|53834,76636312548|53834,76636312548|53834,76636312548|53834,76636312548|53834,76636312548|52774,24941482568|53834,76636312548|53834,76636312548|51011,04780764172|51011,04780764172|53834,76636312548|53834,76636312548|53834,76636312548|53834,76636312548|70977,99969568840|53834,76636312548|53834,76636312548|53834,76636312548|53834,76636312548
Baboon                    |37535,14109507947|37535,14109507947|37535,14109507947|37535,14109507947|  0,00000000000|39189,09243522970|30733,28435707696|37535,14109507947|37535,14109507947|37535,14109507947|53834,76636312548|52774,24941482568|53834,76636312548|53834,76636312548|53834,76636312548|53834,76636312548|53834,76636312548|52774,24941482568|53834,76636312548|53834,76636312548|51011,04780764172|51011,04780764172|53834,76636312548|53834,76636312548|53834,76636312548|53834,76636312548|70977,99969568840|53834,76636312548|53834,76636312548|53834,76636312548|53834,76636312548
Ver_Monkey                |39189,09243522970|39189,09243522970|39189,09243522970|39189,09243522970|39189,09243522970|  0,00000000000|39189,09243522970|39189,09243522970|39189,09243522970|39189,09243522970|53834,76636312548|52774,24941482568|53834,76636312548|53834,76636312548|53834,76636312548|53834,76636312548|53834,76636312548|52774,24941482568|53834,76636312548|53834,76636312548|51011,04780764172|51011,04780764172|53834,76636312548|53834,76636312548|53834,76636312548|53834,76636312548|70977,99969568840|53834,76636312548|53834,76636312548|53834,76636312548|53834,76636312548
Macaca_Thibet             |37535,14109507947|37535,14109507947|37535,14109507947|37535,14109507947|30733,28435707696|39189,09243522970|  0,00000000000|37535,14109507947|37535,14109507947|37535,14109507947|53834,76636312548|52774,24941482568|53834,76636312548|53834,76636312548|53834,76636312548|53834,76636312548|53834,76636312548|52774,24941482568|53834,76636312548|53834,76636312548|51011,04780764172|51011,04780764172|53834,76636312548|53834,76636312548|53834,76636312548|53834,76636312548|70977,99969568840|53834,76636312548|53834,76636312548|53834,76636312548|53834,76636312548
Bor_Oran                  |32158,90328602267|32158,90328602267|32158,90328602267|31107,11821065212|37535,14109507947|39189,09243522970|37535,14109507947|  0,00000000000|23268,77525032077|32158,90328602267|53834,76636312548|52774,24941482568|53834,76636312548|53834,76636312548|53834,76636312548|53834,76636312548|53834,76636312548|52774,24941482568|53834,76636312548|53834,76636312548|51011,04780764172|51011,04780764172|53834,76636312548|53834,76636312548|53834,76636312548|53834,76636312548|70977,99969568840|53834,76636312548|53834,76636312548|53834,76636312548|53834,76636312548
Sum_Oran                  |32158,90328602267|32158,90328602267|32158,90328602267|31107,11821065212|37535,14109507947|39189,09243522970|37535,14109507947|23268,77525032077|  0,00000000000|32158,90328602267|53834,76636312548|52774,24941482568|53834,76636312548|53834,76636312548|53834,76636312548|53834,76636312548|53834,76636312548|52774,24941482568|53834,76636312548|53834,76636312548|51011,04780764172|51011,04780764172|53834,76636312548|53834,76636312548|53834,76636312548|53834,76636312548|70977,99969568840|53834,76636312548|53834,76636312548|53834,76636312548|53834,76636312548
Gorilla                   |23262,57878646233|20737,51522373292|20737,51522373292|32158,90328602267|37535,14109507947|39189,09243522970|37535,14109507947|32158,90328602267|32158,90328602267|  0,00000000000|53834,76636312548|52774,24941482568|53834,76636312548|53834,76636312548|53834,76636312548|53834,76636312548|53834,76636312548|52774,24941482568|53834,76636312548|53834,76636312548|51011,04780764172|51011,04780764172|53834,76636312548|53834,76636312548|53834,76636312548|53834,76636312548|70977,99969568840|53834,76636312548|53834,76636312548|53834,76636312548|53834,76636312548
Cat                       |53834,76636312548|53834,76636312548|53834,76636312548|53834,76636312548|53834,76636312548|53834,76636312548|53834,76636312548|53834,76636312548|53834,76636312548|53834,76636312548|  0,00000000000|53834,76636312548|44869,22969241072|44869,22969241072|44869,22969241072|44869,22969241072|44869,22969241072|53834,76636312548|26612,68379012152|26612,68379012152|53834,76636312548|53834,76636312548|36830,70491752344|36830,70491752344|36830,70491752344|36830,70491752344|70977,99969568840|44869,22969241072|44869,22969241072|44869,22969241072|44869,22969241072
Dog                       |52774,24941482568|52774,24941482568|52774,24941482568|52774,24941482568|52774,24941482568|52774,24941482568|52774,24941482568|52774,24941482568|52774,24941482568|52774,24941482568|53834,76636312548|  0,00000000000|53834,76636312548|53834,76636312548|53834,76636312548|53834,76636312548|53834,76636312548|15987,17099255468|53834,76636312548|53834,76636312548|52774,24941482568|52774,24941482568|53834,76636312548|53834,76636312548|53834,76636312548|53834,76636312548|70977,99969568840|53834,76636312548|53834,76636312548|53834,76636312548|53834,76636312548
Pig                       |53834,76636312548|53834,76636312548|53834,76636312548|53834,76636312548|53834,76636312548|53834,76636312548|53834,76636312548|53834,76636312548|53834,76636312548|53834,76636312548|44869,22969241072|53834,76636312548|  0,00000000000|44515,02462452281|44515,02462452281|44515,02462452281|44515,02462452281|53834,76636312548|44869,22969241072|44869,22969241072|53834,76636312548|53834,76636312548|44869,22969241072|44869,22969241072|44869,22969241072|44869,22969241072|70977,99969568840|42189,34192115440|42189,34192115440|42189,34192115440|44515,02462452281
Sheep                     |53834,76636312548|53834,76636312548|53834,76636312548|53834,76636312548|53834,76636312548|53834,76636312548|53834,76636312548|53834,76636312548|53834,76636312548|53834,76636312548|44869,22969241072|53834,76636312548|44515,02462452281|  0,00000000000|23340,29953808165|27941,50429008151|27941,50429008151|53834,76636312548|44869,22969241072|44869,22969241072|53834,76636312548|53834,76636312548|44869,22969241072|44869,22969241072|44869,22969241072|44869,22969241072|70977,99969568840|44515,02462452281|44515,02462452281|44515,02462452281|32031,46117674064
Goat                      |53834,76636312548|53834,76636312548|53834,76636312548|53834,76636312548|53834,76636312548|53834,76636312548|53834,76636312548|53834,76636312548|53834,76636312548|53834,76636312548|44869,22969241072|53834,76636312548|44515,02462452281|23340,29953808165|  0,00000000000|27941,50429008151|27941,50429008151|53834,76636312548|44869,22969241072|44869,22969241072|53834,76636312548|53834,76636312548|44869,22969241072|44869,22969241072|44869,22969241072|44869,22969241072|70977,99969568840|44515,02462452281|44515,02462452281|44515,02462452281|32031,46117674064
Cow                       |53834,76636312548|53834,76636312548|53834,76636312548|53834,76636312548|53834,76636312548|53834,76636312548|53834,76636312548|53834,76636312548|53834,76636312548|53834,76636312548|44869,22969241072|53834,76636312548|44515,02462452281|27941,50429008151|27941,50429008151|  0,00000000000|25764,11447010377|53834,76636312548|44869,22969241072|44869,22969241072|53834,76636312548|53834,76636312548|44869,22969241072|44869,22969241072|44869,22969241072|44869,22969241072|70977,99969568840|44515,02462452281|44515,02462452281|44515,02462452281|32031,46117674064
Buffalo                   |53834,76636312548|53834,76636312548|53834,76636312548|53834,76636312548|53834,76636312548|53834,76636312548|53834,76636312548|53834,76636312548|53834,76636312548|53834,76636312548|44869,22969241072|53834,76636312548|44515,02462452281|27941,50429008151|27941,50429008151|25764,11447010377|  0,00000000000|53834,76636312548|44869,22969241072|44869,22969241072|53834,76636312548|53834,76636312548|44869,22969241072|44869,22969241072|44869,22969241072|44869,22969241072|70977,99969568840|44515,02462452281|44515,02462452281|44515,02462452281|32031,46117674064
Wolf                      |52774,24941482568|52774,24941482568|52774,24941482568|52774,24941482568|52774,24941482568|52774,24941482568|52774,24941482568|52774,24941482568|52774,24941482568|52774,24941482568|53834,76636312548|15987,17099255468|53834,76636312548|53834,76636312548|53834,76636312548|53834,76636312548|53834,76636312548|  0,00000000000|53834,76636312548|53834,76636312548|52774,24941482568|52774,24941482568|53834,76636312548|53834,76636312548|53834,76636312548|53834,76636312548|70977,99969568840|53834,76636312548|53834,76636312548|53834,76636312548|53834,76636312548
Tiger                     |53834,76636312548|53834,76636312548|53834,76636312548|53834,76636312548|53834,76636312548|53834,76636312548|53834,76636312548|53834,76636312548|53834,76636312548|53834,76636312548|26612,68379012152|53834,76636312548|44869,22969241072|44869,22969241072|44869,22969241072|44869,22969241072|44869,22969241072|53834,76636312548|  0,00000000000|25662,10304045293|53834,76636312548|53834,76636312548|36830,70491752344|36830,70491752344|36830,70491752344|36830,70491752344|70977,99969568840|44869,22969241072|44869,22969241072|44869,22969241072|44869,22969241072
Leopard                   |53834,76636312548|53834,76636312548|53834,76636312548|53834,76636312548|53834,76636312548|53834,76636312548|53834,76636312548|53834,76636312548|53834,76636312548|53834,76636312548|26612,68379012152|53834,76636312548|44869,22969241072|44869,22969241072|44869,22969241072|44869,22969241072|44869,22969241072|53834,76636312548|25662,10304045293|  0,00000000000|53834,76636312548|53834,76636312548|36830,70491752344|36830,70491752344|36830,70491752344|36830,70491752344|70977,99969568840|44869,22969241072|44869,22969241072|44869,22969241072|44869,22969241072
Indian_Rhino              |51011,04780764172|51011,04780764172|51011,04780764172|51011,04780764172|51011,04780764172|51011,04780764172|51011,04780764172|51011,04780764172|51011,04780764172|51011,04780764172|53834,76636312548|52774,24941482568|53834,76636312548|53834,76636312548|53834,76636312548|53834,76636312548|53834,76636312548|52774,24941482568|53834,76636312548|53834,76636312548|  0,00000000000|23891,82619924532|53834,76636312548|53834,76636312548|53834,76636312548|53834,76636312548|70977,99969568840|53834,76636312548|53834,76636312548|53834,76636312548|53834,76636312548
White_Rhino               |51011,04780764172|51011,04780764172|51011,04780764172|51011,04780764172|51011,04780764172|51011,04780764172|51011,04780764172|51011,04780764172|51011,04780764172|51011,04780764172|53834,76636312548|52774,24941482568|53834,76636312548|53834,76636312548|53834,76636312548|53834,76636312548|53834,76636312548|52774,24941482568|53834,76636312548|53834,76636312548|23891,82619924532|  0,00000000000|53834,76636312548|53834,76636312548|53834,76636312548|53834,76636312548|70977,99969568840|53834,76636312548|53834,76636312548|53834,76636312548|53834,76636312548
Black_Bear                |53834,76636312548|53834,76636312548|53834,76636312548|53834,76636312548|53834,76636312548|53834,76636312548|53834,76636312548|53834,76636312548|53834,76636312548|53834,76636312548|36830,70491752344|53834,76636312548|44869,22969241072|44869,22969241072|44869,22969241072|44869,22969241072|44869,22969241072|53834,76636312548|36830,70491752344|36830,70491752344|53834,76636312548|53834,76636312548|  0,00000000000|26176,83659033322|26176,83659033322|31459,75016319081|70977,99969568840|44869,22969241072|44869,22969241072|44869,22969241072|44869,22969241072
Brown_Bear                |53834,76636312548|53834,76636312548|53834,76636312548|53834,76636312548|53834,76636312548|53834,76636312548|53834,76636312548|53834,76636312548|53834,76636312548|53834,76636312548|36830,70491752344|53834,76636312548|44869,22969241072|44869,22969241072|44869,22969241072|44869,22969241072|44869,22969241072|53834,76636312548|36830,70491752344|36830,70491752344|53834,76636312548|53834,76636312548|26176,83659033322|  0,00000000000|16040,64412955411|31459,75016319081|70977,99969568840|44869,22969241072|44869,22969241072|44869,22969241072|44869,22969241072
Polar_Bear                |53834,76636312548|53834,76636312548|53834,76636312548|53834,76636312548|53834,76636312548|53834,76636312548|53834,76636312548|53834,76636312548|53834,76636312548|53834,76636312548|36830,70491752344|53834,76636312548|44869,22969241072|44869,22969241072|44869,22969241072|44869,22969241072|44869,22969241072|53834,76636312548|36830,70491752344|36830,70491752344|53834,76636312548|53834,76636312548|26176,83659033322|16040,64412955411|  0,00000000000|31459,75016319081|70977,99969568840|44869,22969241072|44869,22969241072|44869,22969241072|44869,22969241072
Giant_Panda               |53834,76636312548|53834,76636312548|53834,76636312548|53834,76636312548|53834,76636312548|53834,76636312548|53834,76636312548|53834,76636312548|53834,76636312548|53834,76636312548|36830,70491752344|53834,76636312548|44869,22969241072|44869,22969241072|44869,22969241072|44869,22969241072|44869,22969241072|53834,76636312548|36830,70491752344|36830,70491752344|53834,76636312548|53834,76636312548|31459,75016319081|31459,75016319081|31459,75016319081|  0,00000000000|70977,99969568840|44869,22969241072|44869,22969241072|44869,22969241072|44869,22969241072
Rabbit                    |70977,99969568840|70977,99969568840|70977,99969568840|70977,99969568840|70977,99969568840|70977,99969568840|70977,99969568840|70977,99969568840|70977,99969568840|70977,99969568840|70977,99969568840|70977,99969568840|70977,99969568840|70977,99969568840|70977,99969568840|70977,99969568840|70977,99969568840|70977,99969568840|70977,99969568840|70977,99969568840|70977,99969568840|70977,99969568840|70977,99969568840|70977,99969568840|70977,99969568840|70977,99969568840|  0,00000000000|70977,99969568840|70977,99969568840|70977,99969568840|70977,99969568840
Hedgehog                  |53834,76636312548|53834,76636312548|53834,76636312548|53834,76636312548|53834,76636312548|53834,76636312548|53834,76636312548|53834,76636312548|53834,76636312548|53834,76636312548|44869,22969241072|53834,76636312548|42189,34192115440|44515,02462452281|44515,02462452281|44515,02462452281|44515,02462452281|53834,76636312548|44869,22969241072|44869,22969241072|53834,76636312548|53834,76636312548|44869,22969241072|44869,22969241072|44869,22969241072|44869,22969241072|70977,99969568840|  0,00000000000|38103,29999421189|39457,23332535682|44515,02462452281
Dormouse                  |53834,76636312548|53834,76636312548|53834,76636312548|53834,76636312548|53834,76636312548|53834,76636312548|53834,76636312548|53834,76636312548|53834,76636312548|53834,76636312548|44869,22969241072|53834,76636312548|42189,34192115440|44515,02462452281|44515,02462452281|44515,02462452281|44515,02462452281|53834,76636312548|44869,22969241072|44869,22969241072|53834,76636312548|53834,76636312548|44869,22969241072|44869,22969241072|44869,22969241072|44869,22969241072|70977,99969568840|38103,29999421189|  0,00000000000|39457,23332535682|44515,02462452281
Squirrel                  |53834,76636312548|53834,76636312548|53834,76636312548|53834,76636312548|53834,76636312548|53834,76636312548|53834,76636312548|53834,76636312548|53834,76636312548|53834,76636312548|44869,22969241072|53834,76636312548|42189,34192115440|44515,02462452281|44515,02462452281|44515,02462452281|44515,02462452281|53834,76636312548|44869,22969241072|44869,22969241072|53834,76636312548|53834,76636312548|44869,22969241072|44869,22969241072|44869,22969241072|44869,22969241072|70977,99969568840|39457,23332535682|39457,23332535682|  0,00000000000|44515,02462452281
Blue_Whale                |53834,76636312548|53834,76636312548|53834,76636312548|53834,76636312548|53834,76636312548|53834,76636312548|53834,76636312548|53834,76636312548|53834,76636312548|53834,76636312548|44869,22969241072|53834,76636312548|44515,02462452281|32031,46117674064|32031,46117674064|32031,46117674064|32031,46117674064|53834,76636312548|44869,22969241072|44869,22969241072|53834,76636312548|53834,76636312548|44869,22969241072|44869,22969241072|44869,22969241072|44869,22969241072|70977,99969568840|44515,02462452281|44515,02462452281|44515,02462452281|  0,00000000000
                           |Human          |Pig_Chim       |Com_Chim       |Gibbon         |Baboon         |Ver_Monkey     |Macaca_Thibet  |Bor_Oran       |Sum_Oran       |Gorilla        |Cat            |Dog            |Pig            |Sheep          |Goat           |Cow            |Buffalo        |Wolf           |Tiger          |Leopard        |Indian_Rhino   |White_Rhino    |Black_Bear     |Brown_Bear     |Polar_Bear     |Giant_Panda    |Rabbit         |Hedgehog       |Dormouse       |Squirrel       |Blue_Whale     
Human                     |  0,00000000000|  7,39458544267|  7,39458544267|  8,28252617153|  8,81912760946|  8,98420822882|  8,81912760946|  8,28252617153|  8,28252617153|  7,39458544267| 10,44599060680| 10,34014057940| 10,44599060680| 10,44599060680| 10,44599060680| 10,44599060680| 10,44599060680| 10,34014057940| 10,44599060680| 10,44599060680| 10,16415570831| 10,16415570831| 10,44599060680| 10,44599060680| 10,44599060680| 10,44599060680| 12,15705399046| 10,44599060680| 10,44599060680| 10,44599060680| 10,44599060680
Pig_Chim                  |  7,39458544267|  0,00000000000|  6,61940984128|  8,28252617153|  8,81912760946|  8,98420822882|  8,81912760946|  8,28252617153|  8,28252617153|  7,14255925136| 10,44599060680| 10,34014057940| 10,44599060680| 10,44599060680| 10,44599060680| 10,44599060680| 10,44599060680| 10,34014057940| 10,44599060680| 10,44599060680| 10,16415570831| 10,16415570831| 10,44599060680| 10,44599060680| 10,44599060680| 10,44599060680| 12,15705399046| 10,44599060680| 10,44599060680| 10,44599060680| 10,44599060680
Com_Chim                  |  7,39458544267|  6,61940984128|  0,00000000000|  8,28252617153|  8,81912760946|  8,98420822882|  8,81912760946|  8,28252617153|  8,28252617153|  7,14255925136| 10,44599060680| 10,34014057940| 10,44599060680| 10,44599060680| 10,44599060680| 10,44599060680| 10,44599060680| 10,34014057940| 10,44599060680| 10,44599060680| 10,16415570831| 10,16415570831| 10,44599060680| 10,44599060680| 10,44599060680| 10,44599060680| 12,15705399046| 10,44599060680| 10,44599060680| 10,44599060680| 10,44599060680
Gibbon                    |  8,28252617153|  8,28252617153|  8,28252617153|  0,00000000000|  8,81912760946|  8,98420822882|  8,81912760946|  8,17754767097|  8,17754767097|  8,28252617153| 10,44599060680| 10,34014057940| 10,44599060680| 10,44599060680| 10,44599060680| 10,44599060680| 10,44599060680| 10,34014057940| 10,44599060680| 10,44599060680| 10,16415570831| 10,16415570831| 10,44599060680| 10,44599060680| 10,44599060680| 10,44599060680| 12,15705399046| 10,44599060680| 10,44599060680| 10,44599060680| 10,44599060680
Baboon                    |  8,81912760946|  8,81912760946|  8,81912760946|  8,81912760946|  0,00000000000|  8,98420822882|  8,14023537370|  8,81912760946|  8,81912760946|  8,81912760946| 10,44599060680| 10,34014057940| 10,44599060680| 10,44599060680| 10,44599060680| 10,44599060680| 10,44599060680| 10,34014057940| 10,44599060680| 10,44599060680| 10,16415570831| 10,16415570831| 10,44599060680| 10,44599060680| 10,44599060680| 10,44599060680| 12,15705399046| 10,44599060680| 10,44599060680| 10,44599060680| 10,44599060680
Ver_Monkey                |  8,98420822882|  8,98420822882|  8,98420822882|  8,98420822882|  8,98420822882|  0,00000000000|  8,98420822882|  8,98420822882|  8,98420822882|  8,98420822882| 10,44599060680| 10,34014057940| 10,44599060680| 10,44599060680| 10,44599060680| 10,44599060680| 10,44599060680| 10,34014057940| 10,44599060680| 10,44599060680| 10,16415570831| 10,16415570831| 10,44599060680| 10,44599060680| 10,44599060680| 10,44599060680| 12,15705399046| 10,44599060680| 10,44599060680| 10,44599060680| 10,44599060680
Macaca_Thibet             |  8,81912760946|  8,81912760946|  8,81912760946|  8,81912760946|  8,14023537370|  8,98420822882|  0,00000000000|  8,81912760946|  8,81912760946|  8,81912760946| 10,44599060680| 10,34014057940| 10,44599060680| 10,44599060680| 10,44599060680| 10,44599060680| 10,44599060680| 10,34014057940| 10,44599060680| 10,44599060680| 10,16415570831| 10,16415570831| 10,44599060680| 10,44599060680| 10,44599060680| 10,44599060680| 12,15705399046| 10,44599060680| 10,44599060680| 10,44599060680| 10,44599060680
Bor_Oran                  |  8,28252617153|  8,28252617153|  8,28252617153|  8,17754767097|  8,81912760946|  8,98420822882|  8,81912760946|  0,00000000000|  7,39520391074|  8,28252617153| 10,44599060680| 10,34014057940| 10,44599060680| 10,44599060680| 10,44599060680| 10,44599060680| 10,44599060680| 10,34014057940| 10,44599060680| 10,44599060680| 10,16415570831| 10,16415570831| 10,44599060680| 10,44599060680| 10,44599060680| 10,44599060680| 12,15705399046| 10,44599060680| 10,44599060680| 10,44599060680| 10,44599060680
Sum_Oran                  |  8,28252617153|  8,28252617153|  8,28252617153|  8,17754767097|  8,81912760946|  8,98420822882|  8,81912760946|  7,39520391074|  0,00000000000|  8,28252617153| 10,44599060680| 10,34014057940| 10,44599060680| 10,44599060680| 10,44599060680| 10,44599060680| 10,44599060680| 10,34014057940| 10,44599060680| 10,44599060680| 10,16415570831| 10,16415570831| 10,44599060680| 10,44599060680| 10,44599060680| 10,44599060680| 12,15705399046| 10,44599060680| 10,44599060680| 10,44599060680| 10,44599060680
Gorilla                   |  7,39458544267|  7,14255925136|  7,14255925136|  8,28252617153|  8,81912760946|  8,98420822882|  8,81912760946|  8,28252617153|  8,28252617153|  0,00000000000| 10,44599060680| 10,34014057940| 10,44599060680| 10,44599060680| 10,44599060680| 10,44599060680| 10,44599060680| 10,34014057940| 10,44599060680| 10,44599060680| 10,16415570831| 10,16415570831| 10,44599060680| 10,44599060680| 10,44599060680| 10,44599060680| 12,15705399046| 10,44599060680| 10,44599060680| 10,44599060680| 10,44599060680
Cat                       | 10,44599060680| 10,44599060680| 10,44599060680| 10,44599060680| 10,44599060680| 10,44599060680| 10,44599060680| 10,44599060680| 10,44599060680| 10,44599060680|  0,00000000000| 10,44599060680|  9,55114182218|  9,55114182218|  9,55114182218|  9,55114182218|  9,55114182218| 10,44599060680|  7,72895888856|  7,72895888856| 10,44599060680| 10,44599060680|  8,74881794697|  8,74881794697|  8,74881794697|  8,74881794697| 12,15705399046|  9,55114182218|  9,55114182218|  9,55114182218|  9,55114182218
Dog                       | 10,34014057940| 10,34014057940| 10,34014057940| 10,34014057940| 10,34014057940| 10,34014057940| 10,34014057940| 10,34014057940| 10,34014057940| 10,34014057940| 10,44599060680|  0,00000000000| 10,44599060680| 10,44599060680| 10,44599060680| 10,44599060680| 10,44599060680|  6,66842815158| 10,44599060680| 10,44599060680| 10,34014057940| 10,34014057940| 10,44599060680| 10,44599060680| 10,44599060680| 10,44599060680| 12,15705399046| 10,44599060680| 10,44599060680| 10,44599060680| 10,44599060680
Pig                       | 10,44599060680| 10,44599060680| 10,44599060680| 10,44599060680| 10,44599060680| 10,44599060680| 10,44599060680| 10,44599060680| 10,44599060680| 10,44599060680|  9,55114182218| 10,44599060680|  0,00000000000|  9,51578867086|  9,51578867086|  9,51578867086|  9,51578867086| 10,44599060680|  9,55114182218|  9,55114182218| 10,44599060680| 10,44599060680|  9,55114182218|  9,55114182218|  9,55114182218|  9,55114182218| 12,15705399046|  9,28366265131|  9,28366265131|  9,28366265131|  9,51578867086
Sheep                     | 10,44599060680| 10,44599060680| 10,44599060680| 10,44599060680| 10,44599060680| 10,44599060680| 10,44599060680| 10,44599060680| 10,44599060680| 10,44599060680|  9,55114182218| 10,44599060680|  9,51578867086|  0,00000000000|  7,40234273849|  7,86158825065|  7,86158825065| 10,44599060680|  9,55114182218|  9,55114182218| 10,44599060680| 10,44599060680|  9,55114182218|  9,55114182218|  9,55114182218|  9,55114182218| 12,15705399046|  9,51578867086|  9,51578867086|  9,51578867086|  8,26980619494
Goat                      | 10,44599060680| 10,44599060680| 10,44599060680| 10,44599060680| 10,44599060680| 10,44599060680| 10,44599060680| 10,44599060680| 10,44599060680| 10,44599060680|  9,55114182218| 10,44599060680|  9,51578867086|  7,40234273849|  0,00000000000|  7,86158825065|  7,86158825065| 10,44599060680|  9,55114182218|  9,55114182218| 10,44599060680| 10,44599060680|  9,55114182218|  9,55114182218|  9,55114182218|  9,55114182218| 12,15705399046|  9,51578867086|  9,51578867086|  9,51578867086|  8,26980619494
Cow                       | 10,44599060680| 10,44599060680| 10,44599060680| 10,44599060680| 10,44599060680| 10,44599060680| 10,44599060680| 10,44599060680| 10,44599060680| 10,44599060680|  9,55114182218| 10,44599060680|  9,51578867086|  7,86158825065|  7,86158825065|  0,00000000000|  7,64426332013| 10,44599060680|  9,55114182218|  9,55114182218| 10,44599060680| 10,44599060680|  9,55114182218|  9,55114182218|  9,55114182218|  9,55114182218| 12,15705399046|  9,51578867086|  9,51578867086|  9,51578867086|  8,26980619494
Buffalo                   | 10,44599060680| 10,44599060680| 10,44599060680| 10,44599060680| 10,44599060680| 10,44599060680| 10,44599060680| 10,44599060680| 10,44599060680| 10,44599060680|  9,55114182218| 10,44599060680|  9,51578867086|  7,86158825065|  7,86158825065|  7,64426332013|  0,00000000000| 10,44599060680|  9,55114182218|  9,55114182218| 10,44599060680| 10,44599060680|  9,55114182218|  9,55114182218|  9,55114182218|  9,55114182218| 12,15705399046|  9,51578867086|  9,51578867086|  9,51578867086|  8,26980619494
Wolf                      | 10,34014057940| 10,34014057940| 10,34014057940| 10,34014057940| 10,34014057940| 10,34014057940| 10,34014057940| 10,34014057940| 10,34014057940| 10,34014057940| 10,44599060680|  6,66842815158| 10,44599060680| 10,44599060680| 10,44599060680| 10,44599060680| 10,44599060680|  0,00000000000| 10,44599060680| 10,44599060680| 10,34014057940| 10,34014057940| 10,44599060680| 10,44599060680| 10,44599060680| 10,44599060680| 12,15705399046| 10,44599060680| 10,44599060680| 10,44599060680| 10,44599060680
Tiger                     | 10,44599060680| 10,44599060680| 10,44599060680| 10,44599060680| 10,44599060680| 10,44599060680| 10,44599060680| 10,44599060680| 10,44599060680| 10,44599060680|  7,72895888856| 10,44599060680|  9,55114182218|  9,55114182218|  9,55114182218|  9,55114182218|  9,55114182218| 10,44599060680|  0,00000000000|  7,63408157561| 10,44599060680| 10,44599060680|  8,74881794697|  8,74881794697|  8,74881794697|  8,74881794697| 12,15705399046|  9,55114182218|  9,55114182218|  9,55114182218|  9,55114182218
Leopard                   | 10,44599060680| 10,44599060680| 10,44599060680| 10,44599060680| 10,44599060680| 10,44599060680| 10,44599060680| 10,44599060680| 10,44599060680| 10,44599060680|  7,72895888856| 10,44599060680|  9,55114182218|  9,55114182218|  9,55114182218|  9,55114182218|  9,55114182218| 10,44599060680|  7,63408157561|  0,00000000000| 10,44599060680| 10,44599060680|  8,74881794697|  8,74881794697|  8,74881794697|  8,74881794697| 12,15705399046|  9,55114182218|  9,55114182218|  9,55114182218|  9,55114182218
Indian_Rhino              | 10,16415570831| 10,16415570831| 10,16415570831| 10,16415570831| 10,16415570831| 10,16415570831| 10,16415570831| 10,16415570831| 10,16415570831| 10,16415570831| 10,44599060680| 10,34014057940| 10,44599060680| 10,44599060680| 10,44599060680| 10,44599060680| 10,44599060680| 10,34014057940| 10,44599060680| 10,44599060680|  0,00000000000|  7,45739052654| 10,44599060680| 10,44599060680| 10,44599060680| 10,44599060680| 12,15705399046| 10,44599060680| 10,44599060680| 10,44599060680| 10,44599060680
White_Rhino               | 10,16415570831| 10,16415570831| 10,16415570831| 10,16415570831| 10,16415570831| 10,16415570831| 10,16415570831| 10,16415570831| 10,16415570831| 10,16415570831| 10,44599060680| 10,34014057940| 10,44599060680| 10,44599060680| 10,44599060680| 10,44599060680| 10,44599060680| 10,34014057940| 10,44599060680| 10,44599060680|  7,45739052654|  0,00000000000| 10,44599060680| 10,44599060680| 10,44599060680| 10,44599060680| 12,15705399046| 10,44599060680| 10,44599060680| 10,44599060680| 10,44599060680
Black_Bear                | 10,44599060680| 10,44599060680| 10,44599060680| 10,44599060680| 10,44599060680| 10,44599060680| 10,44599060680| 10,44599060680| 10,44599060680| 10,44599060680|  8,74881794697| 10,44599060680|  9,55114182218|  9,55114182218|  9,55114182218|  9,55114182218|  9,55114182218| 10,44599060680|  8,74881794697|  8,74881794697| 10,44599060680| 10,44599060680|  0,00000000000|  7,68545704909|  7,68545704909|  8,21274380989| 12,15705399046|  9,55114182218|  9,55114182218|  9,55114182218|  9,55114182218
Brown_Bear                | 10,44599060680| 10,44599060680| 10,44599060680| 10,44599060680| 10,44599060680| 10,44599060680| 10,44599060680| 10,44599060680| 10,44599060680| 10,44599060680|  8,74881794697| 10,44599060680|  9,55114182218|  9,55114182218|  9,55114182218|  9,55114182218|  9,55114182218| 10,44599060680|  8,74881794697|  8,74881794697| 10,44599060680| 10,44599060680|  7,68545704909|  0,00000000000|  6,67376529685|  8,21274380989| 12,15705399046|  9,55114182218|  9,55114182218|  9,55114182218|  9,55114182218
Polar_Bear                | 10,44599060680| 10,44599060680| 10,44599060680| 10,44599060680| 10,44599060680| 10,44599060680| 10,44599060680| 10,44599060680| 10,44599060680| 10,44599060680|  8,74881794697| 10,44599060680|  9,55114182218|  9,55114182218|  9,55114182218|  9,55114182218|  9,55114182218| 10,44599060680|  8,74881794697|  8,74881794697| 10,44599060680| 10,44599060680|  7,68545704909|  6,67376529685|  0,00000000000|  8,21274380989| 12,15705399046|  9,55114182218|  9,55114182218|  9,55114182218|  9,55114182218
Giant_Panda               | 10,44599060680| 10,44599060680| 10,44599060680| 10,44599060680| 10,44599060680| 10,44599060680| 10,44599060680| 10,44599060680| 10,44599060680| 10,44599060680|  8,74881794697| 10,44599060680|  9,55114182218|  9,55114182218|  9,55114182218|  9,55114182218|  9,55114182218| 10,44599060680|  8,74881794697|  8,74881794697| 10,44599060680| 10,44599060680|  8,21274380989|  8,21274380989|  8,21274380989|  0,00000000000| 12,15705399046|  9,55114182218|  9,55114182218|  9,55114182218|  9,55114182218
Rabbit                    | 12,15705399046| 12,15705399046| 12,15705399046| 12,15705399046| 12,15705399046| 12,15705399046| 12,15705399046| 12,15705399046| 12,15705399046| 12,15705399046| 12,15705399046| 12,15705399046| 12,15705399046| 12,15705399046| 12,15705399046| 12,15705399046| 12,15705399046| 12,15705399046| 12,15705399046| 12,15705399046| 12,15705399046| 12,15705399046| 12,15705399046| 12,15705399046| 12,15705399046| 12,15705399046|  0,00000000000| 12,15705399046| 12,15705399046| 12,15705399046| 12,15705399046
Hedgehog                  | 10,44599060680| 10,44599060680| 10,44599060680| 10,44599060680| 10,44599060680| 10,44599060680| 10,44599060680| 10,44599060680| 10,44599060680| 10,44599060680|  9,55114182218| 10,44599060680|  9,28366265131|  9,51578867086|  9,51578867086|  9,51578867086|  9,51578867086| 10,44599060680|  9,55114182218|  9,55114182218| 10,44599060680| 10,44599060680|  9,55114182218|  9,55114182218|  9,55114182218|  9,55114182218| 12,15705399046|  0,00000000000|  8,87583545853|  9,01097132828|  9,51578867086
Dormouse                  | 10,44599060680| 10,44599060680| 10,44599060680| 10,44599060680| 10,44599060680| 10,44599060680| 10,44599060680| 10,44599060680| 10,44599060680| 10,44599060680|  9,55114182218| 10,44599060680|  9,28366265131|  9,51578867086|  9,51578867086|  9,51578867086|  9,51578867086| 10,44599060680|  9,55114182218|  9,55114182218| 10,44599060680| 10,44599060680|  9,55114182218|  9,55114182218|  9,55114182218|  9,55114182218| 12,15705399046|  8,87583545853|  0,00000000000|  9,01097132828|  9,51578867086
Squirrel                  | 10,44599060680| 10,44599060680| 10,44599060680| 10,44599060680| 10,44599060680| 10,44599060680| 10,44599060680| 10,44599060680| 10,44599060680| 10,44599060680|  9,55114182218| 10,44599060680|  9,28366265131|  9,51578867086|  9,51578867086|  9,51578867086|  9,51578867086| 10,44599060680|  9,55114182218|  9,55114182218| 10,44599060680| 10,44599060680|  9,55114182218|  9,55114182218|  9,55114182218|  9,55114182218| 12,15705399046|  9,01097132828|  9,01097132828|  0,00000000000|  9,51578867086
Blue_Whale                | 10,44599060680| 10,44599060680| 10,44599060680| 10,44599060680| 10,44599060680| 10,44599060680| 10,44599060680| 10,44599060680| 10,44599060680| 10,44599060680|  9,55114182218| 10,44599060680|  9,51578867086|  8,26980619494|  8,26980619494|  8,26980619494|  8,26980619494| 10,44599060680|  9,55114182218|  9,55114182218| 10,44599060680| 10,44599060680|  9,55114182218|  9,55114182218|  9,55114182218|  9,55114182218| 12,15705399046|  9,51578867086|  9,51578867086|  9,51578867086|  0,00000000000
                           |Human          |Pig_Chim       |Com_Chim       |Gibbon         |Baboon         |Ver_Monkey     |Macaca_Thibet  |Bor_Oran       |Sum_Oran       |Gorilla        |Cat            |Dog            |Pig            |Sheep          |Goat           |Cow            |Buffalo        |Wolf           |Tiger          |Leopard        |Indian_Rhino   |White_Rhino    |Black_Bear     |Brown_Bear     |Polar_Bear     |Giant_Panda    |Rabbit         |Hedgehog       |Dormouse       |Squirrel       |Blue_Whale     
Human                     |  0,00000000000|  4,00000000000|  4,00000000000|  4,00000000000|  5,00000000000|  5,00000000000|  5,00000000000|  5,00000000000|  5,00000000000|  3,00000000000| 11,00000000000|  8,00000000000| 11,00000000000| 13,00000000000| 13,00000000000| 13,00000000000| 13,00000000000|  8,00000000000| 12,00000000000| 12,00000000000|  7,00000000000|  7,00000000000| 12,00000000000| 13,00000000000| 13,00000000000| 11,00000000000|  9,00000000000| 13,00000000000| 13,00000000000| 12,00000000000| 11,00000000000
Pig_Chim                  |  4,00000000000|  0,00000000000|  2,00000000000|  6,00000000000|  7,00000000000|  7,00000000000|  7,00000000000|  7,00000000000|  7,00000000000|  3,00000000000| 13,00000000000| 10,00000000000| 13,00000000000| 15,00000000000| 15,00000000000| 15,00000000000| 15,00000000000| 10,00000000000| 14,00000000000| 14,00000000000|  9,00000000000|  9,00000000000| 14,00000000000| 15,00000000000| 15,00000000000| 13,00000000000| 11,00000000000| 15,00000000000| 15,00000000000| 14,00000000000| 13,00000000000
Com_Chim                  |  4,00000000000|  2,00000000000|  0,00000000000|  6,00000000000|  7,00000000000|  7,00000000000|  7,00000000000|  7,00000000000|  7,00000000000|  3,00000000000| 13,00000000000| 10,00000000000| 13,00000000000| 15,00000000000| 15,00000000000| 15,00000000000| 15,00000000000| 10,00000000000| 14,00000000000| 14,00000000000|  9,00000000000|  9,00000000000| 14,00000000000| 15,00000000000| 15,00000000000| 13,00000000000| 11,00000000000| 15,00000000000| 15,00000000000| 14,00000000000| 13,00000000000
Gibbon                    |  4,00000000000|  6,00000000000|  6,00000000000|  0,00000000000|  5,00000000000|  5,00000000000|  5,00000000000|  3,00000000000|  3,00000000000|  5,00000000000| 11,00000000000|  8,00000000000| 11,00000000000| 13,00000000000| 13,00000000000| 13,00000000000| 13,00000000000|  8,00000000000| 12,00000000000| 12,00000000000|  7,00000000000|  7,00000000000| 12,00000000000| 13,00000000000| 13,00000000000| 11,00000000000|  9,00000000000| 13,00000000000| 13,00000000000| 12,00000000000| 11,00000000000
Baboon                    |  5,00000000000|  7,00000000000|  7,00000000000|  5,00000000000|  0,00000000000|  4,00000000000|  2,00000000000|  6,00000000000|  6,00000000000|  6,00000000000| 10,00000000000|  7,00000000000| 10,00000000000| 12,00000000000| 12,00000000000| 12,00000000000| 12,00000000000|  7,00000000000| 11,00000000000| 11,00000000000|  6,00000000000|  6,00000000000| 11,00000000000| 12,00000000000| 12,00000000000| 10,00000000000|  8,00000000000| 12,00000000000| 12,00000000000| 11,00000000000| 10,00000000000
Ver_Monkey                |  5,00000000000|  7,00000000000|  7,00000000000|  5,00000000000|  4,00000000000|  0,00000000000|  4,00000000000|  6,00000000000|  6,00000000000|  6,00000000000|  8,00000000000|  5,00000000000|  8,00000000000| 10,00000000000| 10,00000000000| 10,00000000000| 10,00000000000|  5,00000000000|  9,00000000000|  9,00000000000|  4,00000000000|  4,00000000000|  9,00000000000| 10,00000000000| 10,00000000000|  8,00000000000|  6,00000000000| 10,00000000000| 10,00000000000|  9,00000000000|  8,00000000000
Macaca_Thibet             |  5,00000000000|  7,00000000000|  7,00000000000|  5,00000000000|  2,00000000000|  4,00000000000|  0,00000000000|  6,00000000000|  6,00000000000|  6,00000000000| 10,00000000000|  7,00000000000| 10,00000000000| 12,00000000000| 12,00000000000| 12,00000000000| 12,00000000000|  7,00000000000| 11,00000000000| 11,00000000000|  6,00000000000|  6,00000000000| 11,00000000000| 12,00000000000| 12,00000000000| 10,00000000000|  8,00000000000| 12,00000000000| 12,00000000000| 11,00000000000| 10,00000000000
Bor_Oran                  |  5,00000000000|  7,00000000000|  7,00000000000|  3,00000000000|  6,00000000000|  6,00000000000|  6,00000000000|  0,00000000000|  2,00000000000|  6,00000000000| 12,00000000000|  9,00000000000| 12,00000000000| 14,00000000000| 14,00000000000| 14,00000000000| 14,00000000000|  9,00000000000| 13,00000000000| 13,00000000000|  8,00000000000|  8,00000000000| 13,00000000000| 14,00000000000| 14,00000000000| 12,00000000000| 10,00000000000| 14,00000000000| 14,00000000000| 13,00000000000| 12,00000000000
Sum_Oran                  |  5,00000000000|  7,00000000000|  7,00000000000|  3,00000000000|  6,00000000000|  6,00000000000|  6,00000000000|  2,00000000000|  0,00000000000|  6,00000000000| 12,00000000000|  9,00000000000| 12,00000000000| 14,00000000000| 14,00000000000| 14,00000000000| 14,00000000000|  9,00000000000| 13,00000000000| 13,00000000000|  8,00000000000|  8,00000000000| 13,00000000000| 14,00000000000| 14,00000000000| 12,00000000000| 10,00000000000| 14,00000000000| 14,00000000000| 13,00000000000| 12,00000000000
Gorilla                   |  3,00000000000|  3,00000000000|  3,00000000000|  5,00000000000|  6,00000000000|  6,00000000000|  6,00000000000|  6,00000000000|  6,00000000000|  0,00000000000| 12,00000000000|  9,00000000000| 12,00000000000| 14,00000000000| 14,00000000000| 14,00000000000| 14,00000000000|  9,00000000000| 13,00000000000| 13,00000000000|  8,00000000000|  8,00000000000| 13,00000000000| 14,00000000000| 14,00000000000| 12,00000000000| 10,00000000000| 14,00000000000| 14,00000000000| 13,00000000000| 12,00000000000
Cat                       | 11,00000000000| 13,00000000000| 13,00000000000| 11,00000000000| 10,00000000000|  8,00000000000| 10,00000000000| 12,00000000000| 12,00000000000| 12,00000000000|  0,00000000000|  7,00000000000|  6,00000000000|  8,00000000000|  8,00000000000|  8,00000000000|  8,00000000000|  7,00000000000|  3,00000000000|  3,00000000000|  8,00000000000|  8,00000000000|  5,00000000000|  6,00000000000|  6,00000000000|  4,00000000000|  6,00000000000|  8,00000000000|  8,00000000000|  7,00000000000|  6,00000000000
Dog                       |  8,00000000000| 10,00000000000| 10,00000000000|  8,00000000000|  7,00000000000|  5,00000000000|  7,00000000000|  9,00000000000|  9,00000000000|  9,00000000000|  7,00000000000|  0,00000000000|  7,00000000000|  9,00000000000|  9,00000000000|  9,00000000000|  9,00000000000|  2,00000000000|  8,00000000000|  8,00000000000|  5,00000000000|  5,00000000000|  8,00000000000|  9,00000000000|  9,00000000000|  7,00000000000|  5,00000000000|  9,00000000000|  9,00000000000|  8,00000000000|  7,00000000000
Pig                       | 11,00000000000| 13,00000000000| 13,00000000000| 11,00000000000| 10,00000000000|  8,00000000000| 10,00000000000| 12,00000000000| 12,00000000000| 12,00000000000|  6,00000000000|  7,00000000000|  0,00000000000|  6,00000000000|  6,00000000000|  6,00000000000|  6,00000000000|  7,00000000000|  7,00000000000|  7,00000000000|  8,00000000000|  8,00000000000|  7,00000000000|  8,00000000000|  8,00000000000|  6,00000000000|  6,00000000000|  4,00000000000|  4,00000000000|  3,00000000000|  4,00000000000
Sheep                     | 13,00000000000| 15,00000000000| 15,00000000000| 13,00000000000| 12,00000000000| 10,00000000000| 12,00000000000| 14,00000000000| 14,00000000000| 14,00000000000|  8,00000000000|  9,00000000000|  6,00000000000|  0,00000000000|  2,00000000000|  4,00000000000|  4,00000000000|  9,00000000000|  9,00000000000|  9,00000000000| 10,00000000000| 10,00000000000|  9,00000000000| 10,00000000000| 10,00000000000|  8,00000000000|  8,00000000000|  8,00000000000|  8,00000000000|  7,00000000000|  4,00000000000
Goat                      | 13,00000000000| 15,00000000000| 15,00000000000| 13,00000000000| 12,00000000000| 10,00000000000| 12,00000000000| 14,00000000000| 14,00000000000| 14,00000000000|  8,00000000000|  9,00000000000|  6,00000000000|  2,00000000000|  0,00000000000|  4,00000000000|  4,00000000000|  9,00000000000|  9,00000000000|  9,00000000000| 10,00000000000| 10,00000000000|  9,00000000000| 10,00000000000| 10,00000000000|  8,00000000000|  8,00000000000|  8,00000000000|  8,00000000000|  7,00000000000|  4,00000000000
Cow                       | 13,00000000000| 15,00000000000| 15,00000000000| 13,00000000000| 12,00000000000| 10,00000000000| 12,00000000000| 14,00000000000| 14,00000000000| 14,00000000000|  8,00000000000|  9,00000000000|  6,00000000000|  4,00000000000|  4,00000000000|  0,00000000000|  2,00000000000|  9,00000000000|  9,00000000000|  9,00000000000| 10,00000000000| 10,00000000000|  9,00000000000| 10,00000000000| 10,00000000000|  8,00000000000|  8,00000000000|  8,00000000000|  8,00000000000|  7,00000000000|  4,00000000000
Buffalo                   | 13,00000000000| 15,00000000000| 15,00000000000| 13,00000000000| 12,00000000000| 10,00000000000| 12,00000000000| 14,00000000000| 14,00000000000| 14,00000000000|  8,00000000000|  9,00000000000|  6,00000000000|  4,00000000000|  4,00000000000|  2,00000000000|  0,00000000000|  9,00000000000|  9,00000000000|  9,00000000000| 10,00000000000| 10,00000000000|  9,00000000000| 10,00000000000| 10,00000000000|  8,00000000000|  8,00000000000|  8,00000000000|  8,00000000000|  7,00000000000|  4,00000000000
Wolf                      |  8,00000000000| 10,00000000000| 10,00000000000|  8,00000000000|  7,00000000000|  5,00000000000|  7,00000000000|  9,00000000000|  9,00000000000|  9,00000000000|  7,00000000000|  2,00000000000|  7,00000000000|  9,00000000000|  9,00000000000|  9,00000000000|  9,00000000000|  0,00000000000|  8,00000000000|  8,00000000000|  5,00000000000|  5,00000000000|  8,00000000000|  9,00000000000|  9,00000000000|  7,00000000000|  5,00000000000|  9,00000000000|  9,00000000000|  8,00000000000|  7,00000000000
Tiger                     | 12,00000000000| 14,00000000000| 14,00000000000| 12,00000000000| 11,00000000000|  9,00000000000| 11,00000000000| 13,00000000000| 13,00000000000| 13,00000000000|  3,00000000000|  8,00000000000|  7,00000000000|  9,00000000000|  9,00000000000|  9,00000000000|  9,00000000000|  8,00000000000|  0,00000000000|  2,00000000000|  9,00000000000|  9,00000000000|  6,00000000000|  7,00000000000|  7,00000000000|  5,00000000000|  7,00000000000|  9,00000000000|  9,00000000000|  8,00000000000|  7,00000000000
Leopard                   | 12,00000000000| 14,00000000000| 14,00000000000| 12,00000000000| 11,00000000000|  9,00000000000| 11,00000000000| 13,00000000000| 13,00000000000| 13,00000000000|  3,00000000000|  8,00000000000|  7,00000000000|  9,00000000000|  9,00000000000|  9,00000000000|  9,00000000000|  8,00000000000|  2,00000000000|  0,00000000000|  9,00000000000|  9,00000000000|  6,00000000000|  7,00000000000|  7,00000000000|  5,00000000000|  7,00000000000|  9,00000000000|  9,00000000000|  8,00000000000|  7,00000000000
Indian_Rhino              |  7,00000000000|  9,00000000000|  9,00000000000|  7,00000000000|  6,00000000000|  4,00000000000|  6,00000000000|  8,00000000000|  8,00000000000|  8,00000000000|  8,00000000000|  5,00000000000|  8,00000000000| 10,00000000000| 10,00000000000| 10,00000000000| 10,00000000000|  5,00000000000|  9,00000000000|  9,00000000000|  0,00000000000|  2,00000000000|  9,00000000000| 10,00000000000| 10,00000000000|  8,00000000000|  6,00000000000| 10,00000000000| 10,00000000000|  9,00000000000|  8,00000000000
White_Rhino               |  7,00000000000|  9,00000000000|  9,00000000000|  7,00000000000|  6,00000000000|  4,00000000000|  6,00000000000|  8,00000000000|  8,00000000000|  8,00000000000|  8,00000000000|  5,00000000000|  8,00000000000| 10,00000000000| 10,00000000000| 10,00000000000| 10,00000000000|  5,00000000000|  9,00000000000|  9,00000000000|  2,00000000000|  0,00000000000|  9,00000000000| 10,00000000000| 10,00000000000|  8,00000000000|  6,00000000000| 10,00000000000| 10,00000000000|  9,00000000000|  8,00000000000
Black_Bear                | 12,00000000000| 14,00000000000| 14,00000000000| 12,00000000000| 11,00000000000|  9,00000000000| 11,00000000000| 13,00000000000| 13,00000000000| 13,00000000000|  5,00000000000|  8,00000000000|  7,00000000000|  9,00000000000|  9,00000000000|  9,00000000000|  9,00000000000|  8,00000000000|  6,00000000000|  6,00000000000|  9,00000000000|  9,00000000000|  0,00000000000|  3,00000000000|  3,00000000000|  3,00000000000|  7,00000000000|  9,00000000000|  9,00000000000|  8,00000000000|  7,00000000000
Brown_Bear                | 13,00000000000| 15,00000000000| 15,00000000000| 13,00000000000| 12,00000000000| 10,00000000000| 12,00000000000| 14,00000000000| 14,00000000000| 14,00000000000|  6,00000000000|  9,00000000000|  8,00000000000| 10,00000000000| 10,00000000000| 10,00000000000| 10,00000000000|  9,00000000000|  7,00000000000|  7,00000000000| 10,00000000000| 10,00000000000|  3,00000000000|  0,00000000000|  2,00000000000|  4,00000000000|  8,00000000000| 10,00000000000| 10,00000000000|  9,00000000000|  8,00000000000
Polar_Bear                | 13,00000000000| 15,00000000000| 15,00000000000| 13,00000000000| 12,00000000000| 10,00000000000| 12,00000000000| 14,00000000000| 14,00000000000| 14,00000000000|  6,00000000000|  9,00000000000|  8,00000000000| 10,00000000000| 10,00000000000| 10,00000000000| 10,00000000000|  9,00000000000|  7,00000000000|  7,00000000000| 10,00000000000| 10,00000000000|  3,00000000000|  2,00000000000|  0,00000000000|  4,00000000000|  8,00000000000| 10,00000000000| 10,00000000000|  9,00000000000|  8,00000000000
Giant_Panda               | 11,00000000000| 13,00000000000| 13,00000000000| 11,00000000000| 10,00000000000|  8,00000000000| 10,00000000000| 12,00000000000| 12,00000000000| 12,00000000000|  4,00000000000|  7,00000000000|  6,00000000000|  8,00000000000|  8,00000000000|  8,00000000000|  8,00000000000|  7,00000000000|  5,00000000000|  5,00000000000|  8,00000000000|  8,00000000000|  3,00000000000|  4,00000000000|  4,00000000000|  0,00000000000|  6,00000000000|  8,00000000000|  8,00000000000|  7,00000000000|  6,00000000000
Rabbit                    |  9,00000000000| 11,00000000000| 11,00000000000|  9,00000000000|  8,00000000000|  6,00000000000|  8,00000000000| 10,00000000000| 10,00000000000| 10,00000000000|  6,00000000000|  5,00000000000|  6,00000000000|  8,00000000000|  8,00000000000|  8,00000000000|  8,00000000000|  5,00000000000|  7,00000000000|  7,00000000000|  6,00000000000|  6,00000000000|  7,00000000000|  8,00000000000|  8,00000000000|  6,00000000000|  0,00000000000|  8,00000000000|  8,00000000000|  7,00000000000|  6,00000000000
Hedgehog                  | 13,00000000000| 15,00000000000| 15,00000000000| 13,00000000000| 12,00000000000| 10,00000000000| 12,00000000000| 14,00000000000| 14,00000000000| 14,00000000000|  8,00000000000|  9,00000000000|  4,00000000000|  8,00000000000|  8,00000000000|  8,00000000000|  8,00000000000|  9,00000000000|  9,00000000000|  9,00000000000| 10,00000000000| 10,00000000000|  9,00000000000| 10,00000000000| 10,00000000000|  8,00000000000|  8,00000000000|  0,00000000000|  2,00000000000|  3,00000000000|  6,00000000000
Dormouse                  | 13,00000000000| 15,00000000000| 15,00000000000| 13,00000000000| 12,00000000000| 10,00000000000| 12,00000000000| 14,00000000000| 14,00000000000| 14,00000000000|  8,00000000000|  9,00000000000|  4,00000000000|  8,00000000000|  8,00000000000|  8,00000000000|  8,00000000000|  9,00000000000|  9,00000000000|  9,00000000000| 10,00000000000| 10,00000000000|  9,00000000000| 10,00000000000| 10,00000000000|  8,00000000000|  8,00000000000|  2,00000000000|  0,00000000000|  3,00000000000|  6,00000000000
Squirrel                  | 12,00000000000| 14,00000000000| 14,00000000000| 12,00000000000| 11,00000000000|  9,00000000000| 11,00000000000| 13,00000000000| 13,00000000000| 13,00000000000|  7,00000000000|  8,00000000000|  3,00000000000|  7,00000000000|  7,00000000000|  7,00000000000|  7,00000000000|  8,00000000000|  8,00000000000|  8,00000000000|  9,00000000000|  9,00000000000|  8,00000000000|  9,00000000000|  9,00000000000|  7,00000000000|  7,00000000000|  3,00000000000|  3,00000000000|  0,00000000000|  5,00000000000
Blue_Whale                | 11,00000000000| 13,00000000000| 13,00000000000| 11,00000000000| 10,00000000000|  8,00000000000| 10,00000000000| 12,00000000000| 12,00000000000| 12,00000000000|  6,00000000000|  7,00000000000|  4,00000000000|  4,00000000000|  4,00000000000|  4,00000000000|  4,00000000000|  7,00000000000|  7,00000000000|  7,00000000000|  8,00000000000|  8,00000000000|  7,00000000000|  8,00000000000|  8,00000000000|  6,00000000000|  6,00000000000|  6,00000000000|  6,00000000000|  5,00000000000|  0,00000000000
