                           |Human          |Hum_shortened  |Pig_Chim       |Com_Chim       |Gibbon         |Baboon         |Ver_Monkey     |Macaca_Thibet  |Bor_Oran       |Sum_Oran       |Gorilla        |Cat            |Dog            |Pig            |Sheep          |Goat           |Cow            |Buffalo        |Wolf           |Tiger          |Leopard        |Indian_Rhino   |White_Rhino    |Black_Bear     |Brown_Bear     |Polar_Bear     |Giant_Panda    |Rabbit         |Hedgehog       |Dormouse       |Squirrel       |Blue_Whale     
Human                     |  0,00000000000|27450,17915731826|41629,35128682668|41629,35128682668|59696,33247188800|59700,97861297483|59700,97861297483|59700,97861297483|58113,13550989792|58113,13550989792|41886,76107243674|68773,56128002514|68773,56128002514|67469,76490599604|67469,76490599604|67469,76490599604|67469,76490599604|67469,76490599604|68773,56128002514|68773,56128002514|68773,56128002514|67469,76490599604|67469,76490599604|68773,56128002514|68773,56128002514|68773,56128002514|68773,56128002514|68773,56128002514|75082,11626866527|70747,67163453378|68773,56128002514|67469,76490599604
Hum_shortened             |27450,17915731826|  0,00000000000|41629,35128682668|41629,35128682668|59696,33247188800|59700,97861297483|59700,97861297483|59700,97861297483|58113,13550989792|58113,13550989792|41886,76107243674|68773,56128002514|68773,56128002514|67469,76490599604|67469,76490599604|67469,76490599604|67469,76490599604|67469,76490599604|68773,56128002514|68773,56128002514|68773,56128002514|67469,76490599604|67469,76490599604|68773,56128002514|68773,56128002514|68773,56128002514|68773,56128002514|68773,56128002514|75082,11626866527|70747,67163453378|68773,56128002514|67469,76490599604
Pig_Chim                  |41629,35128682668|41629,35128682668|  0,00000000000|32809,63900840102|59696,33247188800|59700,97861297483|59700,97861297483|59700,97861297483|58113,13550989792|58113,13550989792|41886,76107243674|68773,56128002514|68773,56128002514|67469,76490599604|67469,76490599604|67469,76490599604|67469,76490599604|67469,76490599604|68773,56128002514|68773,56128002514|68773,56128002514|67469,76490599604|67469,76490599604|68773,56128002514|68773,56128002514|68773,56128002514|68773,56128002514|68773,56128002514|75082,11626866527|70747,67163453378|68773,56128002514|67469,76490599604
Com_Chim                  |41629,35128682668|41629,35128682668|32809,63900840102|  0,00000000000|59696,33247188800|59700,97861297483|59700,97861297483|59700,97861297483|58113,13550989792|58113,13550989792|41886,76107243674|68773,56128002514|68773,56128002514|67469,76490599604|67469,76490599604|67469,76490599604|67469,76490599604|67469,76490599604|68773,56128002514|68773,56128002514|68773,56128002514|67469,76490599604|67469,76490599604|68773,56128002514|68773,56128002514|68773,56128002514|68773,56128002514|68773,56128002514|75082,11626866527|70747,67163453378|68773,56128002514|67469,76490599604
Gibbon                    |59696,33247188800|59696,33247188800|59696,33247188800|59696,33247188800|  0,00000000000|59700,97861297483|59700,97861297483|59700,97861297483|59696,33247188800|59696,33247188800|59696,33247188800|68773,56128002514|68773,56128002514|67469,76490599604|67469,76490599604|67469,76490599604|67469,76490599604|67469,76490599604|68773,56128002514|68773,56128002514|68773,56128002514|67469,76490599604|67469,76490599604|68773,56128002514|68773,56128002514|68773,56128002514|68773,56128002514|68773,56128002514|75082,11626866527|70747,67163453378|68773,56128002514|67469,76490599604
Baboon                    |59700,97861297483|59700,97861297483|59700,97861297483|59700,97861297483|59700,97861297483|  0,00000000000|59453,84168034150|59453,84168034150|59700,97861297483|59700,97861297483|59700,97861297483|68773,56128002514|68773,56128002514|67469,76490599604|67469,76490599604|67469,76490599604|67469,76490599604|67469,76490599604|68773,56128002514|68773,56128002514|68773,56128002514|67469,76490599604|67469,76490599604|68773,56128002514|68773,56128002514|68773,56128002514|68773,56128002514|68773,56128002514|75082,11626866527|70747,67163453378|68773,56128002514|67469,76490599604
Ver_Monkey                |59700,97861297483|59700,97861297483|59700,97861297483|59700,97861297483|59700,97861297483|59453,84168034150|  0,00000000000|57823,36013090712|59700,97861297483|59700,97861297483|59700,97861297483|68773,56128002514|68773,56128002514|67469,76490599604|67469,76490599604|67469,76490599604|67469,76490599604|67469,76490599604|68773,56128002514|68773,56128002514|68773,56128002514|67469,76490599604|67469,76490599604|68773,56128002514|68773,56128002514|68773,56128002514|68773,56128002514|68773,56128002514|75082,11626866527|70747,67163453378|68773,56128002514|67469,76490599604
Macaca_Thibet             |59700,97861297483|59700,97861297483|59700,97861297483|59700,97861297483|59700,97861297483|59453,84168034150|57823,36013090712|  0,00000000000|59700,97861297483|59700,97861297483|59700,97861297483|68773,56128002514|68773,56128002514|67469,76490599604|67469,76490599604|67469,76490599604|67469,76490599604|67469,76490599604|68773,56128002514|68773,56128002514|68773,56128002514|67469,76490599604|67469,76490599604|68773,56128002514|68773,56128002514|68773,56128002514|68773,56128002514|68773,56128002514|75082,11626866527|70747,67163453378|68773,56128002514|67469,76490599604
Bor_Oran                  |58113,13550989792|58113,13550989792|58113,13550989792|58113,13550989792|59696,33247188800|59700,97861297483|59700,97861297483|59700,97861297483|  0,00000000000|45300,70260173630|58113,13550989792|68773,56128002514|68773,56128002514|67469,76490599604|67469,76490599604|67469,76490599604|67469,76490599604|67469,76490599604|68773,56128002514|68773,56128002514|68773,56128002514|67469,76490599604|67469,76490599604|68773,56128002514|68773,56128002514|68773,56128002514|68773,56128002514|68773,56128002514|75082,11626866527|70747,67163453378|68773,56128002514|67469,76490599604
Sum_Oran                  |58113,13550989792|58113,13550989792|58113,13550989792|58113,13550989792|59696,33247188800|59700,97861297483|59700,97861297483|59700,97861297483|45300,70260173630|  0,00000000000|58113,13550989792|68773,56128002514|68773,56128002514|67469,76490599604|67469,76490599604|67469,76490599604|67469,76490599604|67469,76490599604|68773,56128002514|68773,56128002514|68773,56128002514|67469,76490599604|67469,76490599604|68773,56128002514|68773,56128002514|68773,56128002514|68773,56128002514|68773,56128002514|75082,11626866527|70747,67163453378|68773,56128002514|67469,76490599604
Gorilla                   |41886,76107243674|41886,76107243674|41886,76107243674|41886,76107243674|59696,33247188800|59700,97861297483|59700,97861297483|59700,97861297483|58113,13550989792|58113,13550989792|  0,00000000000|68773,56128002514|68773,56128002514|67469,76490599604|67469,76490599604|67469,76490599604|67469,76490599604|67469,76490599604|68773,56128002514|68773,56128002514|68773,56128002514|67469,76490599604|67469,76490599604|68773,56128002514|68773,56128002514|68773,56128002514|68773,56128002514|68773,56128002514|75082,11626866527|70747,67163453378|68773,56128002514|67469,76490599604
Cat                       |68773,56128002514|68773,56128002514|68773,56128002514|68773,56128002514|68773,56128002514|68773,56128002514|68773,56128002514|68773,56128002514|68773,56128002514|68773,56128002514|68773,56128002514|  0,00000000000|63049,27303547069|68773,56128002514|68773,56128002514|68773,56128002514|68773,56128002514|68773,56128002514|63049,27303547069|50516,29536944370|49349,13122433991|68773,56128002514|68773,56128002514|65748,03953788448|65748,03953788448|65748,03953788448|65748,03953788448|66418,00182848368|75082,11626866527|70747,67163453378|67313,50055537869|68773,56128002514
Dog                       |68773,56128002514|68773,56128002514|68773,56128002514|68773,56128002514|68773,56128002514|68773,56128002514|68773,56128002514|68773,56128002514|68773,56128002514|68773,56128002514|68773,56128002514|63049,27303547069|  0,00000000000|68773,56128002514|68773,56128002514|68773,56128002514|68773,56128002514|68773,56128002514|31039,38210766730|63049,27303547069|63049,27303547069|68773,56128002514|68773,56128002514|65748,03953788448|65748,03953788448|65748,03953788448|65748,03953788448|66418,00182848368|75082,11626866527|70747,67163453378|67313,50055537869|68773,56128002514
Pig                       |67469,76490599604|67469,76490599604|67469,76490599604|67469,76490599604|67469,76490599604|67469,76490599604|67469,76490599604|67469,76490599604|67469,76490599604|67469,76490599604|67469,76490599604|68773,56128002514|68773,56128002514|  0,00000000000|64516,83215191150|64516,83215191150|64516,83215191150|64516,83215191150|68773,56128002514|68773,56128002514|68773,56128002514|63796,42240399284|63796,42240399284|68773,56128002514|68773,56128002514|68773,56128002514|68773,56128002514|68773,56128002514|75082,11626866527|70747,67163453378|68773,56128002514|64516,83215191150
Sheep                     |67469,76490599604|67469,76490599604|67469,76490599604|67469,76490599604|67469,76490599604|67469,76490599604|67469,76490599604|67469,76490599604|67469,76490599604|67469,76490599604|67469,76490599604|68773,56128002514|68773,56128002514|64516,83215191150|  0,00000000000|45156,98364399053|58656,90963483603|58656,90963483603|68773,56128002514|68773,56128002514|68773,56128002514|64516,83215191150|64516,83215191150|68773,56128002514|68773,56128002514|68773,56128002514|68773,56128002514|68773,56128002514|75082,11626866527|70747,67163453378|68773,56128002514|61826,55620296000
Goat                      |67469,76490599604|67469,76490599604|67469,76490599604|67469,76490599604|67469,76490599604|67469,76490599604|67469,76490599604|67469,76490599604|67469,76490599604|67469,76490599604|67469,76490599604|68773,56128002514|68773,56128002514|64516,83215191150|45156,98364399053|  0,00000000000|58656,90963483603|58656,90963483603|68773,56128002514|68773,56128002514|68773,56128002514|64516,83215191150|64516,83215191150|68773,56128002514|68773,56128002514|68773,56128002514|68773,56128002514|68773,56128002514|75082,11626866527|70747,67163453378|68773,56128002514|61826,55620296000
Cow                       |67469,76490599604|67469,76490599604|67469,76490599604|67469,76490599604|67469,76490599604|67469,76490599604|67469,76490599604|67469,76490599604|67469,76490599604|67469,76490599604|67469,76490599604|68773,56128002514|68773,56128002514|64516,83215191150|58656,90963483603|58656,90963483603|  0,00000000000|49793,62811077881|68773,56128002514|68773,56128002514|68773,56128002514|64516,83215191150|64516,83215191150|68773,56128002514|68773,56128002514|68773,56128002514|68773,56128002514|68773,56128002514|75082,11626866527|70747,67163453378|68773,56128002514|61826,55620296000
Buffalo                   |67469,76490599604|67469,76490599604|67469,76490599604|67469,76490599604|67469,76490599604|67469,76490599604|67469,76490599604|67469,76490599604|67469,76490599604|67469,76490599604|67469,76490599604|68773,56128002514|68773,56128002514|64516,83215191150|58656,90963483603|58656,90963483603|49793,62811077881|  0,00000000000|68773,56128002514|68773,56128002514|68773,56128002514|64516,83215191150|64516,83215191150|68773,56128002514|68773,56128002514|68773,56128002514|68773,56128002514|68773,56128002514|75082,11626866527|70747,67163453378|68773,56128002514|61826,55620296000
Wolf                      |68773,56128002514|68773,56128002514|68773,56128002514|68773,56128002514|68773,56128002514|68773,56128002514|68773,56128002514|68773,56128002514|68773,56128002514|68773,56128002514|68773,56128002514|63049,27303547069|31039,38210766730|68773,56128002514|68773,56128002514|68773,56128002514|68773,56128002514|68773,56128002514|  0,00000000000|63049,27303547069|63049,27303547069|68773,56128002514|68773,56128002514|65748,03953788448|65748,03953788448|65748,03953788448|65748,03953788448|66418,00182848368|75082,11626866527|70747,67163453378|67313,50055537869|68773,56128002514
Tiger                     |68773,56128002514|68773,56128002514|68773,56128002514|68773,56128002514|68773,56128002514|68773,56128002514|68773,56128002514|68773,56128002514|68773,56128002514|68773,56128002514|68773,56128002514|50516,29536944370|63049,27303547069|68773,56128002514|68773,56128002514|68773,56128002514|68773,56128002514|68773,56128002514|63049,27303547069|  0,00000000000|50516,29536944370|68773,56128002514|68773,56128002514|65748,03953788448|65748,03953788448|65748,03953788448|65748,03953788448|66418,00182848368|75082,11626866527|70747,67163453378|67313,50055537869|68773,56128002514
Leopard                   |68773,56128002514|68773,56128002514|68773,56128002514|68773,56128002514|68773,56128002514|68773,56128002514|68773,56128002514|68773,56128002514|68773,56128002514|68773,56128002514|68773,56128002514|49349,13122433991|63049,27303547069|68773,56128002514|68773,56128002514|68773,56128002514|68773,56128002514|68773,56128002514|63049,27303547069|50516,29536944370|  0,00000000000|68773,56128002514|68773,56128002514|65748,03953788448|65748,03953788448|65748,03953788448|65748,03953788448|66418,00182848368|75082,11626866527|70747,67163453378|67313,50055537869|68773,56128002514
Indian_Rhino              |67469,76490599604|67469,76490599604|67469,76490599604|67469,76490599604|67469,76490599604|67469,76490599604|67469,76490599604|67469,76490599604|67469,76490599604|67469,76490599604|67469,76490599604|68773,56128002514|68773,56128002514|63796,42240399284|64516,83215191150|64516,83215191150|64516,83215191150|64516,83215191150|68773,56128002514|68773,56128002514|68773,56128002514|  0,00000000000|46424,35606932260|68773,56128002514|68773,56128002514|68773,56128002514|68773,56128002514|68773,56128002514|75082,11626866527|70747,67163453378|68773,56128002514|64516,83215191150
White_Rhino               |67469,76490599604|67469,76490599604|67469,76490599604|67469,76490599604|67469,76490599604|67469,76490599604|67469,76490599604|67469,76490599604|67469,76490599604|67469,76490599604|67469,76490599604|68773,56128002514|68773,56128002514|63796,42240399284|64516,83215191150|64516,83215191150|64516,83215191150|64516,83215191150|68773,56128002514|68773,56128002514|68773,56128002514|46424,35606932260|  0,00000000000|68773,56128002514|68773,56128002514|68773,56128002514|68773,56128002514|68773,56128002514|75082,11626866527|70747,67163453378|68773,56128002514|64516,83215191150
Black_Bear                |68773,56128002514|68773,56128002514|68773,56128002514|68773,56128002514|68773,56128002514|68773,56128002514|68773,56128002514|68773,56128002514|68773,56128002514|68773,56128002514|68773,56128002514|65748,03953788448|65748,03953788448|68773,56128002514|68773,56128002514|68773,56128002514|68773,56128002514|68773,56128002514|65748,03953788448|65748,03953788448|65748,03953788448|68773,56128002514|68773,56128002514|  0,00000000000|46191,47707307889|46191,47707307889|57124,08854843002|66418,00182848368|75082,11626866527|70747,67163453378|67313,50055537869|68773,56128002514
Brown_Bear                |68773,56128002514|68773,56128002514|68773,56128002514|68773,56128002514|68773,56128002514|68773,56128002514|68773,56128002514|68773,56128002514|68773,56128002514|68773,56128002514|68773,56128002514|65748,03953788448|65748,03953788448|68773,56128002514|68773,56128002514|68773,56128002514|68773,56128002514|68773,56128002514|65748,03953788448|65748,03953788448|65748,03953788448|68773,56128002514|68773,56128002514|46191,47707307889|  0,00000000000|30412,41018891398|57124,08854843002|66418,00182848368|75082,11626866527|70747,67163453378|67313,50055537869|68773,56128002514
Polar_Bear                |68773,56128002514|68773,56128002514|68773,56128002514|68773,56128002514|68773,56128002514|68773,56128002514|68773,56128002514|68773,56128002514|68773,56128002514|68773,56128002514|68773,56128002514|65748,03953788448|65748,03953788448|68773,56128002514|68773,56128002514|68773,56128002514|68773,56128002514|68773,56128002514|65748,03953788448|65748,03953788448|65748,03953788448|68773,56128002514|68773,56128002514|46191,47707307889|30412,41018891398|  0,00000000000|57124,08854843002|66418,00182848368|75082,11626866527|70747,67163453378|67313,50055537869|68773,56128002514
Giant_Panda               |68773,56128002514|68773,56128002514|68773,56128002514|68773,56128002514|68773,56128002514|68773,56128002514|68773,56128002514|68773,56128002514|68773,56128002514|68773,56128002514|68773,56128002514|65748,03953788448|65748,03953788448|68773,56128002514|68773,56128002514|68773,56128002514|68773,56128002514|68773,56128002514|65748,03953788448|65748,03953788448|65748,03953788448|68773,56128002514|68773,56128002514|57124,08854843002|57124,08854843002|57124,08854843002|  0,00000000000|66418,00182848368|75082,11626866527|70747,67163453378|67313,50055537869|68773,56128002514
Rabbit                    |68773,56128002514|68773,56128002514|68773,56128002514|68773,56128002514|68773,56128002514|68773,56128002514|68773,56128002514|68773,56128002514|68773,56128002514|68773,56128002514|68773,56128002514|66418,00182848368|66418,00182848368|68773,56128002514|68773,56128002514|68773,56128002514|68773,56128002514|68773,56128002514|66418,00182848368|66418,00182848368|66418,00182848368|68773,56128002514|68773,56128002514|66418,00182848368|66418,00182848368|66418,00182848368|66418,00182848368|  0,00000000000|75082,11626866527|70747,67163453378|67313,50055537869|68773,56128002514
Hedgehog                  |75082,11626866527|75082,11626866527|75082,11626866527|75082,11626866527|75082,11626866527|75082,11626866527|75082,11626866527|75082,11626866527|75082,11626866527|75082,11626866527|75082,11626866527|75082,11626866527|75082,11626866527|75082,11626866527|75082,11626866527|75082,11626866527|75082,11626866527|75082,11626866527|75082,11626866527|75082,11626866527|75082,11626866527|75082,11626866527|75082,11626866527|75082,11626866527|75082,11626866527|75082,11626866527|75082,11626866527|75082,11626866527|  0,00000000000|75082,11626866527|75082,11626866527|75082,11626866527
Dormouse                  |70747,67163453378|70747,67163453378|70747,67163453378|70747,67163453378|70747,67163453378|70747,67163453378|70747,67163453378|70747,67163453378|70747,67163453378|70747,67163453378|70747,67163453378|70747,67163453378|70747,67163453378|70747,67163453378|70747,67163453378|70747,67163453378|70747,67163453378|70747,67163453378|70747,67163453378|70747,67163453378|70747,67163453378|70747,67163453378|70747,67163453378|70747,67163453378|70747,67163453378|70747,67163453378|70747,67163453378|70747,67163453378|75082,11626866527|  0,00000000000|70747,67163453378|70747,67163453378
Squirrel                  |68773,56128002514|68773,56128002514|68773,56128002514|68773,56128002514|68773,56128002514|68773,56128002514|68773,56128002514|68773,56128002514|68773,56128002514|68773,56128002514|68773,56128002514|67313,50055537869|67313,50055537869|68773,56128002514|68773,56128002514|68773,56128002514|68773,56128002514|68773,56128002514|67313,50055537869|67313,50055537869|67313,50055537869|68773,56128002514|68773,56128002514|67313,50055537869|67313,50055537869|67313,50055537869|67313,50055537869|67313,50055537869|75082,11626866527|70747,67163453378|  0,00000000000|68773,56128002514
Blue_Whale                |67469,76490599604|67469,76490599604|67469,76490599604|67469,76490599604|67469,76490599604|67469,76490599604|67469,76490599604|67469,76490599604|67469,76490599604|67469,76490599604|67469,76490599604|68773,56128002514|68773,56128002514|64516,83215191150|61826,55620296000|61826,55620296000|61826,55620296000|61826,55620296000|68773,56128002514|68773,56128002514|68773,56128002514|64516,83215191150|64516,83215191150|68773,56128002514|68773,56128002514|68773,56128002514|68773,56128002514|68773,56128002514|75082,11626866527|70747,67163453378|68773,56128002514|  0,00000000000
070635| 10,35974070635| 10,35974070635| 10,35974070635|  9,46700503966|  7,51241510737|  0,00000000000| 10,35974070635| 10,35974070635|  9,88789319376|  9,88789319376|  9,88789319376|  9,88789319376|  9,99237766530| 11,34359613135| 10,66761456738| 10,13203584092| 10,35974070635
Indian_Rhino              | 10,15640616493| 10,15640616493| 10,15640616493| 10,15640616493| 10,15640616493| 10,15640616493| 10,15640616493| 10,15640616493| 10,15640616493| 10,15640616493| 10,15640616493| 10,35974070635| 10,35974070635|  9,58352727983|  9,69587932241|  9,69587932241|  9,69587932241|  9,69587932241| 10,35974070635| 10,35974070635| 10,35974070635|  0,00000000000|  6,87425364465| 10,35974070635| 10,35974070635| 10,35974070635| 10,35974070635| 10,35974070635| 11,34359613135| 10,66761456738| 10,35974070635|  9,69587932241
White_Rhino               | 10,15640616493| 10,15640616493| 10,15640616493| 10,15640616493| 10,15640616493| 10,15640616493| 10,15640616493| 10,15640616493| 10,15640616493| 10,15640616493| 10,15640616493| 10,35974070635| 10,35974070635|  9,58352727983|  9,69587932241|  9,69587932241|  9,69587932241|  9,69587932241| 10,35974070635| 10,35974070635| 10,35974070635|  6,87425364465|  0,00000000000| 10,35974070635| 10,35974070635| 10,35974070635| 10,35974070635| 10,35974070635| 11,34359613135| 10,66761456738| 10,35974070635|  9,69587932241
Black_Bear                | 10,35974070635| 10,35974070635| 10,35974070635| 10,35974070635| 10,35974070635| 10,35974070635| 10,35974070635| 10,35974070635| 10,35974070635| 10,35974070635| 10,35974070635|  9,88789319376|  9,88789319376| 10,35974070635| 10,35974070635| 10,35974070635| 10,35974070635| 10,35974070635|  9,88789319376|  9,88789319376|  9,88789319376| 10,35974070635| 10,35974070635|  0,00000000000|  6,83793482612|  6,83793482612|  8,54293844879|  9,99237766530| 11,34359613135| 10,66761456738| 10,13203584092| 10,35974070635
Brown_Bear                | 10,35974070635| 10,35974070635| 10,35974070635| 10,35974070635| 10,35974070635| 10,35974070635| 10,35974070635| 10,35974070635| 10,35974070635| 10,35974070635| 10,35974070635|  9,88789319376|  9,88789319376| 10,35974070635| 10,35974070635| 10,35974070635| 10,35974070635| 10,35974070635|  9,88789319376|  9,88789319376|  9,88789319376| 10,35974070635| 10,35974070635|  6,83793482612|  0,00000000000|  4,37709861508|  8,54293844879|  9,99237766530| 11,34359613135| 10,66761456738| 10,13203584092| 10,35974070635
Polar_Bear                | 10,35974070635| 10,35974070635| 10,35974070635| 10,35974070635| 10,35974070635| 10,35974070635| 10,35974070635| 10,35974070635| 10,35974070635| 10,35974070635| 10,35974070635|  9,88789319376|  9,88789319376| 10,35974070635| 10,35974070635| 10,35974070635| 10,35974070635| 10,35974070635|  9,88789319376|  9,88789319376|  9,88789319376| 10,35974070635| 10,35974070635|  6,83793482612|  4,37709861508|  0,00000000000|  8,54293844879|  9,99237766530| 11,34359613135| 10,66761456738| 10,13203584092| 10,35974070635
Giant_Panda               | 10,35974070635| 10,35974070635| 10,35974070635| 10,35974070635| 10,35974070635| 10,35974070635| 10,35974070635| 10,35974070635| 10,35974070635| 10,35974070635| 10,35974070635|  9,88789319376|  9,88789319376| 10,35974070635| 10,35974070635| 10,35974070635| 10,35974070635| 10,35974070635|  9,88789319376|  9,88789319376|  9,88789319376| 10,35974070635| 10,35974070635|  8,54293844879|  8,54293844879|  8,54293844879|  0,00000000000|  9,99237766530| 11,34359613135| 10,66761456738| 10,13203584092| 10,35974070635
Rabbit                    | 10,35974070635| 10,35974070635| 10,35974070635| 10,35974070635| 10,35974070635| 10,35974070635| 10,35974070635| 10,35974070635| 10,35974070635| 10,35974070635| 10,35974070635|  9,99237766530|  9,99237766530| 10,35974070635| 10,35974070635| 10,35974070635| 10,35974070635| 10,35974070635|  9,99237766530|  9,99237766530|  9,99237766530| 10,35974070635| 10,35974070635|  9,99237766530|  9,99237766530|  9,99237766530|  9,99237766530|  0,00000000000| 11,34359613135| 10,66761456738| 10,13203584092| 10,35974070635
Hedgehog                  | 11,34359613135| 11,34359613135| 11,34359613135| 11,34359613135| 11,34359613135| 11,34359613135| 11,34359613135| 11,34359613135| 11,34359613135| 11,34359613135| 11,34359613135| 11,34359613135| 11,34359613135| 11,34359613135| 11,34359613135| 11,34359613135| 11,34359613135| 11,34359613135| 11,34359613135| 11,34359613135| 11,34359613135| 11,34359613135| 11,34359613135| 11,34359613135| 11,34359613135| 11,34359613135| 11,34359613135| 11,34359613135|  0,00000000000| 11,34359613135| 11,34359613135| 11,34359613135
Dormouse                  | 10,66761456738| 10,66761456738| 10,66761456738| 10,66761456738| 10,66761456738| 10,66761456738| 10,66761456738| 10,66761456738| 10,66761456738| 10,66761456738| 10,66761456738| 10,66761456738| 10,66761456738| 10,66761456738| 10,66761456738| 10,66761456738| 10,66761456738| 10,66761456738| 10,66761456738| 10,66761456738| 10,66761456738| 10,66761456738| 10,66761456738| 10,66761456738| 10,66761456738| 10,66761456738| 10,66761456738| 10,66761456738| 11,34359613135|  0,00000000000| 10,66761456738| 10,66761456738
Squirrel                  | 10,35974070635| 10,35974070635| 10,35974070635| 10,35974070635| 10,35974070635| 10,35974070635| 10,35974070635| 10,35974070635| 10,35974070635| 10,35974070635| 10,35974070635| 10,13203584092| 10,13203584092| 10,35974070635| 10,35974070635| 10,35974070635| 10,35974070635| 10,35974070635| 10,13203584092| 10,13203584092| 10,13203584092| 10,35974070635| 10,35974070635| 10,13203584092| 10,13203584092| 10,13203584092| 10,13203584092| 10,13203584092| 11,34359613135| 10,66761456738|  0,00000000000| 10,35974070635
Blue_Whale                | 10,15640616493| 10,15640616493| 10,15640616493| 10,15640616493| 10,15640616493| 10,15640616493| 10,15640616493| 10,15640616493| 10,15640616493| 10,15640616493| 10,15640616493| 10,35974070635| 10,35974070635|  9,69587932241|  9,27631531894|  9,27631531894|  9,27631531894|  9,27631531894| 10,35974070635| 10,35974070635| 10,35974070635|  9,69587932241|  9,69587932241| 10,35974070635| 10,35974070635| 10,35974070635| 10,35974070635| 10,35974070635| 11,34359613135| 10,66761456738| 10,35974070635|  0,00000000000
                           |Human          |Hum_shortened  |Pig_Chim       |Com_Chim       |Gibbon         |Baboon         |Ver_Monkey     |Macaca_Thibet  |Bor_Oran       |Sum_Oran       |Gorilla        |Cat            |Dog            |Pig            |Sheep          |Goat           |Cow            |Buffalo        |Wolf           |Tiger          |Leopard        |Indian_Rhino   |White_Rhino    |Black_Bear     |Brown_Bear     |Polar_Bear     |Giant_Panda    |Rabbit         |Hedgehog       |Dormouse       |Squirrel       |Blue_Whale     
Human                     |  0,00000000000|  2,00000000000|  4,00000000000|  4,00000000000|  6,00000000000|  8,00000000000|  9,00000000000|  9,00000000000|  6,00000000000|  6,00000000000|  4,00000000000| 15,00000000000| 14,00000000000| 10,00000000000| 12,00000000000| 12,00000000000| 12,00000000000| 12,00000000000| 14,00000000000| 14,00000000000| 15,00000000000| 11,00000000000| 11,00000000000| 14,00000000000| 15,00000000000| 15,00000000000| 13,00000000000| 11,00000000000| 11,00000000000| 10,00000000000| 10,00000000000| 10,00000000000
Hum_shortened             |  2,00000000000|  0,00000000000|  4,00000000000|  4,00000000000|  6,00000000000|  8,00000000000|  9,00000000000|  9,00000000000|  6,00000000000|  6,00000000000|  4,00000000000| 15,00000000000| 14,00000000000| 10,00000000000| 12,00000000000| 12,00000000000| 12,00000000000| 12,00000000000| 14,00000000000| 14,00000000000| 15,00000000000| 11,00000000000| 11,00000000000| 14,00000000000| 15,00000000000| 15,00000000000| 13,00000000000| 11,00000000000| 11,00000000000| 10,00000000000| 10,00000000000| 10,00000000000
Pig_Chim                  |  4,00000000000|  4,00000000000|  0,00000000000|  2,00000000000|  6,00000000000|  8,00000000000|  9,00000000000|  9,00000000000|  6,00000000000|  6,00000000000|  4,00000000000| 15,00000000000| 14,00000000000| 10,00000000000| 12,00000000000| 12,00000000000| 12,00000000000| 12,00000000000| 14,00000000000| 14,00000000000| 15,00000000000| 11,00000000000| 11,00000000000| 14,00000000000| 15,00000000000| 15,00000000000| 13,00000000000| 11,00000000000| 11,00000000000| 10,00000000000| 10,00000000000| 10,00000000000
Com_Chim                  |  4,00000000000|  4,00000000000|  2,00000000000|  0,00000000000|  6,00000000000|  8,00000000000|  9,00000000000|  9,00000000000|  6,00000000000|  6,00000000000|  4,00000000000| 15,00000000000| 14,00000000000| 10,00000000000| 12,00000000000| 12,00000000000| 12,00000000000| 12,00000000000| 14,00000000000| 14,00000000000| 15,00000000000| 11,00000000000| 11,00000000000| 14,00000000000| 15,00000000000| 15,00000000000| 13,00000000000| 11,00000000000| 11,00000000000| 10,00000000000| 10,00000000000| 10,00000000000
Gibbon                    |  6,00000000000|  6,00000000000|  6,00000000000|  6,00000000000|  0,00000000000|  4,00000000000|  5,00000000000|  5,00000000000|  4,00000000000|  4,00000000000|  4,00000000000| 11,00000000000| 10,00000000000|  6,00000000000|  8,00000000000|  8,00000000000|  8,00000000000|  8,00000000000| 10,00000000000| 10,00000000000| 11,00000000000|  7,00000000000|  7,00000000000| 10,00000000000| 11,00000000000| 11,00000000000|  9,00000000000|  7,00000000000|  7,00000000000|  6,00000000000|  6,00000000000|  6,00000000000
Baboon                    |  8,00000000000|  8,00000000000|  8,00000000000|  8,00000000000|  4,00000000000|  0,00000000000|  3,00000000000|  3,00000000000|  6,00000000000|  6,00000000000|  6,00000000000| 11,00000000000| 10,00000000000|  6,00000000000|  8,00000000000|  8,00000000000|  8,00000000000|  8,00000000000| 10,00000000000| 10,00000000000| 11,00000000000|  7,00000000000|  7,00000000000| 10,00000000000| 11,00000000000| 11,00000000000|  9,00000000000|  7,00000000000|  7,00000000000|  6,00000000000|  6,00000000000|  6,00000000000
Ver_Monkey                |  9,00000000000|  9,00000000000|  9,00000000000|  9,00000000000|  5,00000000000|  3,00000000000|  0,00000000000|  2,00000000000|  7,00000000000|  7,00000000000|  7,00000000000| 12,00000000000| 11,00000000000|  7,00000000000|  9,00000000000|  9,00000000000|  9,00000000000|  9,00000000000| 11,00000000000| 11,00000000000| 12,00000000000|  8,00000000000|  8,00000000000| 11,00000000000| 12,00000000000| 12,00000000000| 10,00000000000|  8,00000000000|  8,00000000000|  7,00000000000|  7,00000000000|  7,00000000000
Macaca_Thibet             |  9,00000000000|  9,00000000000|  9,00000000000|  9,00000000000|  5,00000000000|  3,00000000000|  2,00000000000|  0,00000000000|  7,00000000000|  7,00000000000|  7,00000000000| 12,00000000000| 11,00000000000|  7,00000000000|  9,00000000000|  9,00000000000|  9,00000000000|  9,00000000000| 11,00000000000| 11,00000000000| 12,00000000000|  8,00000000000|  8,00000000000| 11,00000000000| 12,00000000000| 12,00000000000| 10,00000000000|  8,00000000000|  8,00000000000|  7,00000000000|  7,00000000000|  7,00000000000
Bor_Oran                  |  6,00000000000|  6,00000000000|  6,00000000000|  6,00000000000|  4,00000000000|  6,00000000000|  7,00000000000|  7,00000000000|  0,00000000000|  2,00000000000|  4,00000000000| 13,00000000000| 12,00000000000|  8,00000000000| 10,00000000000| 10,00000000000| 10,00000000000| 10,00000000000| 12,00000000000| 12,00000000000| 13,00000000000|  9,00000000000|  9,00000000000| 12,00000000000| 13,00000000000| 13,00000000000| 11,00000000000|  9,00000000000|  9,00000000000|  8,00000000000|  8,00000000000|  8,00000000000
Sum_Oran                  |  6,00000000000|  6,00000000000|  6,00000000000|  6,00000000000|  4,00000000000|  6,00000000000|  7,00000000000|  7,00000000000|  2,00000000000|  0,00000000000|  4,00000000000| 13,00000000000| 12,00000000000|  8,00000000000| 10,00000000000| 10,00000000000| 10,00000000000| 10,00000000000| 12,00000000000| 12,00000000000| 13,00000000000|  9,00000000000|  9,00000000000| 12,00000000000| 13,00000000000| 13,00000000000| 11,00000000000|  9,00000000000|  9,00000000000|  8,00000000000|  8,00000000000|  8,00000000000
Gorilla                   |  4,00000000000|  4,00000000000|  4,00000000000|  4,00000000000|  4,00000000000|  6,00000000000|  7,00000000000|  7,00000000000|  4,00000000000|  4,00000000000|  0,00000000000| 13,00000000000| 12,00000000000|  8,00000000000| 10,00000000000| 10,00000000000| 10,00000000000| 10,00000000000| 12,00000000000| 12,00000000000| 13,00000000000|  9,00000000000|  9,00000000000| 12,00000000000| 13,00000000000| 13,00000000000| 11,00000000000|  9,00000000000|  9,00000000000|  8,00000000000|  8,00000000000|  8,00000000000
Cat                       | 15,00000000000| 15,00000000000| 15,00000000000| 15,00000000000| 11,00000000000| 11,00000000000| 12,00000000000| 12,00000000000| 13,00000000000| 13,00000000000| 13,00000000000|  0,00000000000|  5,00000000000| 11,00000000000| 13,00000000000| 13,00000000000| 13,00000000000| 13,00000000000|  5,00000000000|  3,00000000000|  2,00000000000| 12,00000000000| 12,00000000000|  7,00000000000|  8,00000000000|  8,00000000000|  6,00000000000|  6,00000000000| 10,00000000000|  9,00000000000|  7,00000000000| 11,00000000000
Dog                       | 14,00000000000| 14,00000000000| 14,00000000000| 14,00000000000| 10,00000000000| 10,00000000000| 11,00000000000| 11,00000000000| 12,00000000000| 12,00000000000| 12,00000000000|  5,00000000000|  0,00000000000| 10,00000000000| 12,00000000000| 12,00000000000| 12,00000000000| 12,00000000000|  2,00000000000|  4,00000000000|  5,00000000000| 11,00000000000| 11,00000000000|  6,00000000000|  7,00000000000|  7,00000000000|  5,00000000000|  5,00000000000|  9,00000000000|  8,00000000000|  6,00000000000| 10,00000000000
Pig                       | 10,00000000000| 10,00000000000| 10,00000000000| 10,00000000000|  6,00000000000|  6,00000000000|  7,00000000000|  7,00000000000|  8,00000000000|  8,00000000000|  8,00000000000| 11,00000000000| 10,00000000000|  0,00000000000|  6,00000000000|  6,00000000000|  6,00000000000|  6,00000000000| 10,00000000000| 10,00000000000| 11,00000000000|  3,00000000000|  3,00000000000| 10,00000000000| 11,00000000000| 11,00000000000|  9,00000000000|  7,00000000000|  7,00000000000|  6,00000000000|  6,00000000000|  4,00000000000
Sheep                     | 12,00000000000| 12,00000000000| 12,00000000000| 12,00000000000|  8,00000000000|  8,00000000000|  9,00000000000|  9,00000000000| 10,00000000000| 10,00000000000| 10,00000000000| 13,00000000000| 12,00000000000|  6,00000000000|  0,00000000000|  2,00000000000|  4,00000000000|  4,00000000000| 12,00000000000| 12,00000000000| 13,00000000000|  7,00000000000|  7,00000000000| 12,00000000000| 13,00000000000| 13,00000000000| 11,00000000000|  9,00000000000|  9,00000000000|  8,00000000000|  8,00000000000|  4,00000000000
Goat                      | 12,00000000000| 12,00000000000| 12,00000000000| 12,00000000000|  8,00000000000|  8,00000000000|  9,00000000000|  9,00000000000| 10,00000000000| 10,00000000000| 10,00000000000| 13,00000000000| 12,00000000000|  6,00000000000|  2,00000000000|  0,00000000000|  4,00000000000|  4,00000000000| 12,00000000000| 12,00000000000| 13,00000000000|  7,00000000000|  7,00000000000| 12,00000000000| 13,00000000000| 13,00000000000| 11,00000000000|  9,00000000000|  9,00000000000|  8,00000000000|  8,00000000000|  4,00000000000
Cow                       | 12,00000000000| 12,00000000000| 12,00000000000| 12,00000000000|  8,00000000000|  8,00000000000|  9,00000000000|  9,00000000000| 10,00000000000| 10,00000000000| 10,00000000000| 13,00000000000| 12,00000000000|  6,00000000000|  4,00000000000|  4,00000000000|  0,00000000000|  2,00000000000| 12,00000000000| 12,00000000000| 13,00000000000|  7,00000000000|  7,00000000000| 12,00000000000| 13,00000000000| 13,00000000000| 11,00000000000|  9,00000000000|  9,00000000000|  8,00000000000|  8,00000000000|  4,00000000000
Buffalo                   | 12,00000000000| 12,00000000000| 12,00000000000| 12,00000000000|  8,00000000000|  8,00000000000|  9,00000000000|  9,00000000000| 10,00000000000| 10,00000000000| 10,00000000000| 13,00000000000| 12,00000000000|  6,00000000000|  4,00000000000|  4,00000000000|  2,00000000000|  0,00000000000| 12,00000000000| 12,00000000000| 13,00000000000|  7,00000000000|  7,00000000000| 12,00000000000| 13,00000000000| 13,00000000000| 11,00000000000|  9,00000000000|  9,00000000000|  8,00000000000|  8,00000000000|  4,00000000000
Wolf                      | 14,00000000000| 14,00000000000| 14,00000000000| 14,00000000000| 10,00000000000| 10,00000000000| 11,00000000000| 11,00000000000| 12,00000000000| 12,00000000000| 12,00000000000|  5,00000000000|  2,00000000000| 10,00000000000| 12,00000000000| 12,00000000000| 12,00000000000| 12,00000000000|  0,00000000000|  4,00000000000|  5,00000000000| 11,00000000000| 11,00000000000|  6,00000000000|  7,00000000000|  7,00000000000|  5,00000000000|  5,00000000000|  9,00000000000|  8,00000000000|  6,00000000000| 10,00000000000
Tiger                     | 14,00000000000| 14,00000000000| 14,00000000000| 14,00000000000| 10,00000000000| 10,00000000000| 11,00000000000| 11,00000000000| 12,00000000000| 12,00000000000| 12,00000000000|  3,00000000000|  4,00000000000| 10,00000000000| 12,00000000000| 12,00000000000| 12,00000000000| 12,00000000000|  4,00000000000|  0,00000000000|  3,00000000000| 11,00000000000| 11,00000000000|  6,00000000000|  7,00000000000|  7,00000000000|  5,00000000000|  5,00000000000|  9,00000000000|  8,00000000000|  6,00000000000| 10,00000000000
Leopard                   | 15,00000000000| 15,00000000000| 15,00000000000| 15,00000000000| 11,00000000000| 11,00000000000| 12,00000000000| 12,00000000000| 13,00000000000| 13,00000000000| 13,00000000000|  2,00000000000|  5,00000000000| 11,00000000000| 13,00000000000| 13,00000000000| 13,00000000000| 13,00000000000|  5,00000000000|  3,00000000000|  0,00000000000| 12,00000000000| 12,00000000000|  7,00000000000|  8,00000000000|  8,00000000000|  6,00000000000|  6,00000000000| 10,00000000000|  9,00000000000|  7,00000000000| 11,00000000000
Indian_Rhino              | 11,00000000000| 11,00000000000| 11,00000000000| 11,00000000000|  7,00000000000|  7,00000000000|  8,00000000000|  8,00000000000|  9,00000000000|  9,00000000000|  9,00000000000| 12,00000000000| 11,00000000000|  3,00000000000|  7,00000000000|  7,00000000000|  7,00000000000|  7,00000000000| 11,00000000000| 11,00000000000| 12,00000000000|  0,00000000000|  2,00000000000| 11,00000000000| 12,00000000000| 12,00000000000| 10,00000000000|  8,00000000000|  8,00000000000|  7,00000000000|  7,00000000000|  5,00000000000
White_Rhino               | 11,00000000000| 11,00000000000| 11,00000000000| 11,00000000000|  7,00000000000|  7,00000000000|  8,00000000000|  8,00000000000|  9,00000000000|  9,00000000000|  9,00000000000| 12,00000000000| 11,00000000000|  3,00000000000|  7,00000000000|  7,00000000000|  7,00000000000|  7,00000000000| 11,00000000000| 11,00000000000| 12,00000000000|  2,00000000000|  0,00000000000| 11,00000000000| 12,00000000000| 12,00000000000| 10,00000000000|  8,00000000000|  8,00000000000|  7,00000000000|  7,00000000000|  5,00000000000
Black_Bear                | 14,00000000000| 14,00000000000| 14,00000000000| 14,00000000000| 10,00000000000| 10,00000000000| 11,00000000000| 11,00000000000| 12,00000000000| 12,00000000000| 12,00000000000|  7,00000000000|  6,00000000000| 10,00000000000| 12,00000000000| 12,00000000000| 12,00000000000| 12,00000000000|  6,00000000000|  6,00000000000|  7,00000000000| 11,00000000000| 11,00000000000|  0,00000000000|  3,00000000000|  3,00000000000|  3,00000000000|  5,00000000000|  9,00000000000|  8,00000000000|  6,00000000000| 10,00000000000
Brown_Bear                | 15,00000000000| 15,00000000000| 15,00000000000| 15,00000000000| 11,00000000000| 11,00000000000| 12,00000000000| 12,00000000000| 13,00000000000| 13,00000000000| 13,00000000000|  8,00000000000|  7,00000000000| 11,00000000000| 13,00000000000| 13,00000000000| 13,00000000000| 13,00000000000|  7,00000000000|  7,00000000000|  8,00000000000| 12,00000000000| 12,00000000000|  3,00000000000|  0,00000000000|  2,00000000000|  4,00000000000|  6,00000000000| 10,00000000000|  9,00000000000|  7,00000000000| 11,00000000000
Polar_Bear                | 15,00000000000| 15,00000000000| 15,00000000000| 15,00000000000| 11,00000000000| 11,00000000000| 12,00000000000| 12,00000000000| 13,00000000000| 13,00000000000| 13,00000000000|  8,00000000000|  7,00000000000| 11,00000000000| 13,00000000000| 13,00000000000| 13,00000000000| 13,00000000000|  7,00000000000|  7,00000000000|  8,00000000000| 12,00000000000| 12,00000000000|  3,00000000000|  2,00000000000|  0,00000000000|  4,00000000000|  6,00000000000| 10,00000000000|  9,00000000000|  7,00000000000| 11,00000000000
Giant_Panda               | 13,00000000000| 13,00000000000| 13,00000000000| 13,00000000000|  9,00000000000|  9,00000000000| 10,00000000000| 10,00000000000| 11,00000000000| 11,00000000000| 11,00000000000|  6,00000000000|  5,00000000000|  9,00000000000| 11,00000000000| 11,00000000000| 11,00000000000| 11,00000000000|  5,00000000000|  5,00000000000|  6,00000000000| 10,00000000000| 10,00000000000|  3,00000000000|  4,00000000000|  4,00000000000|  0,00000000000|  4,00000000000|  8,00000000000|  7,00000000000|  5,00000000000|  9,00000000000
Rabbit                    | 11,00000000000| 11,00000000000| 11,00000000000| 11,00000000000|  7,00000000000|  7,00000000000|  8,00000000000|  8,00000000000|  9,00000000000|  9,00000000000|  9,00000000000|  6,00000000000|  5,00000000000|  7,00000000000|  9,00000000000|  9,00000000000|  9,00000000000|  9,00000000000|  5,00000000000|  5,00000000000|  6,00000000000|  8,00000000000|  8,00000000000|  5,00000000000|  6,00000000000|  6,00000000000|  4,00000000000|  0,00000000000|  6,00000000000|  5,00000000000|  3,00000000000|  7,00000000000
Hedgehog                  | 11,00000000000| 11,00000000000| 11,00000000000| 11,00000000000|  7,00000000000|  7,00000000000|  8,00000000000|  8,00000000000|  9,00000000000|  9,00000000000|  9,00000000000| 10,00000000000|  9,00000000000|  7,00000000000|  9,00000000000|  9,00000000000|  9,00000000000|  9,00000000000|  9,00000000000|  9,00000000000| 10,00000000000|  8,00000000000|  8,00000000000|  9,00000000000| 10,00000000000| 10,00000000000|  8,00000000000|  6,00000000000|  0,00000000000|  3,00000000000|  5,00000000000|  7,00000000000
Dormouse                  | 10,00000000000| 10,00000000000| 10,00000000000| 10,00000000000|  6,00000000000|  6,00000000000|  7,00000000000|  7,00000000000|  8,00000000000|  8,00000000000|  8,00000000000|  9,00000000000|  8,00000000000|  6,00000000000|  8,00000000000|  8,00000000000|  8,00000000000|  8,00000000000|  8,00000000000|  8,00000000000|  9,00000000000|  7,00000000000|  7,00000000000|  8,00000000000|  9,00000000000|  9,00000000000|  7,00000000000|  5,00000000000|  3,00000000000|  0,00000000000|  4,00000000000|  6,00000000000
Squirrel                  | 10,00000000000| 10,00000000000| 10,00000000000| 10,00000000000|  6,00000000000|  6,00000000000|  7,00000000000|  7,00000000000|  8,00000000000|  8,00000000000|  8,00000000000|  7,00000000000|  6,00000000000|  6,00000000000|  8,00000000000|  8,00000000000|  8,00000000000|  8,00000000000|  6,00000000000|  6,00000000000|  7,00000000000|  7,00000000000|  7,00000000000|  6,00000000000|  7,00000000000|  7,00000000000|  5,00000000000|  3,00000000000|  5,00000000000|  4,00000000000|  0,00000000000|  6,00000000000
Blue_Whale                | 10,00000000000| 10,00000000000| 10,00000000000| 10,00000000000|  6,00000000000|  6,00000000000|  7,00000000000|  7,00000000000|  8,00000000000|  8,00000000000|  8,00000000000| 11,00000000000| 10,00000000000|  4,00000000000|  4,00000000000|  4,00000000000|  4,00000000000|  4,00000000000| 10,00000000000| 10,00000000000| 11,00000000000|  5,00000000000|  5,00000000000| 10,00000000000| 11,00000000000| 11,00000000000|  9,00000000000|  7,00000000000|  7,00000000000|  6,00000000000|  6,00000000000|  0,00000000000
                           |Human          |Hum_shortened  |Pig_Chim       |Com_Chim       |Gibbon         |Baboon         |Ver_Monkey     |Macaca_Thibet  |Bor_Oran       |Sum_Oran       |Gorilla        |Cat            |Dog            |Pig            |Sheep          |Goat           |Cow            |Buffalo        |Wolf           |Tiger          |Leopard        |Indian_Rhino   |White_Rhino    |Black_Bear     |Brown_Bear     |Polar_Bear     |Giant_Panda    |Rabbit         |Hedgehog       |Dormouse       |Squirrel       |Blue_Whale     
Human                     |  0,00000000000|  3,91512165272|  6,12644507729|  6,12644507729|  8,94409467919|  8,94481927160|  8,94481927160|  8,94481927160|  8,69718600950|  8,69718600950|  6,16658961348| 10,35974070635| 10,35974070635| 10,15640616493| 10,15640616493| 10,15640616493| 10,15640616493| 10,15640616493| 10,35974070635| 10,35974070635| 10,35974070635| 10,15640616493| 10,15640616493| 10,35974070635| 10,35974070635| 10,35974070635| 10,35974070635| 10,35974070635| 11,34359613135| 10,66761456738| 10,35974070635| 10,15640616493
Hum_shortened             |  3,91512165272|  0,00000000000|  6,12644507729|  6,12644507729|  8,94409467919|  8,94481927160|  8,94481927160|  8,94481927160|  8,69718600950|  8,69718600950|  6,16658961348| 10,35974070635| 10,35974070635| 10,15640616493| 10,15640616493| 10,15640616493| 10,15640616493| 10,15640616493| 10,35974070635| 10,35974070635| 10,35974070635| 10,15640616493| 10,15640616493| 10,35974070635| 10,35974070635| 10,35974070635| 10,35974070635| 10,35974070635| 11,34359613135| 10,66761456738| 10,35974070635| 10,15640616493
Pig_Chim                  |  6,12644507729|  6,12644507729|  0,00000000000|  4,75096023367|  8,94409467919|  8,94481927160|  8,94481927160|  8,94481927160|  8,69718600950|  8,69718600950|  6,16658961348| 10,35974070635| 10,35974070635| 10,15640616493| 10,15640616493| 10,15640616493| 10,15640616493| 10,15640616493| 10,35974070635| 10,35974070635| 10,35974070635| 10,15640616493| 10,15640616493| 10,35974070635| 10,35974070635| 10,35974070635| 10,35974070635| 10,35974070635| 11,34359613135| 10,66761456738| 10,35974070635| 10,15640616493
Com_Chim                  |  6,12644507729|  6,12644507729|  4,75096023367|  0,00000000000|  8,94409467919|  8,94481927160|  8,94481927160|  8,94481927160|  8,69718600950|  8,69718600950|  6,16658961348| 10,35974070635| 10,35974070635| 10,15640616493| 10,15640616493| 10,15640616493| 10,15640616493| 10,15640616493| 10,35974070635| 10,35974070635| 10,35974070635| 10,15640616493| 10,15640616493| 10,35974070635| 10,35974070635| 10,35974070635| 10,35974070635| 10,35974070635| 11,34359613135| 10,66761456738| 10,35974070635| 10,15640616493
Gibbon                    |  8,94409467919|  8,94409467919|  8,94409467919|  8,94409467919|  0,00000000000|  8,94481927160|  8,94481927160|  8,94481927160|  8,94409467919|  8,94409467919|  8,94409467919| 10,35974070635| 10,35974070635| 10,15640616493| 10,15640616493| 10,15640616493| 10,15640616493| 10,15640616493| 10,35974070635| 10,35974070635| 10,35974070635| 10,15640616493| 10,15640616493| 10,35974070635| 10,35974070635| 10,35974070635| 10,35974070635| 10,35974070635| 11,34359613135| 10,66761456738| 10,35974070635| 10,15640616493
Baboon                    |  8,94481927160|  8,94481927160|  8,94481927160|  8,94481927160|  8,94481927160|  0,00000000000|  8,90627684591|  8,90627684591|  8,94481927160|  8,94481927160|  8,94481927160| 10,35974070635| 10,35974070635| 10,15640616493| 10,15640616493| 10,15640616493| 10,15640616493| 10,15640616493| 10,35974070635| 10,35974070635| 10,35974070635| 10,15640616493| 10,15640616493| 10,35974070635| 10,35974070635| 10,35974070635| 10,35974070635| 10,35974070635| 11,34359613135| 10,66761456738| 10,35974070635| 10,15640616493
Ver_Monkey                |  8,94481927160|  8,94481927160|  8,94481927160|  8,94481927160|  8,94481927160|  8,90627684591|  0,00000000000|  8,65199387292|  8,94481927160|  8,94481927160|  8,94481927160| 10,35974070635| 10,35974070635| 10,15640616493| 10,15640616493| 10,15640616493| 10,15640616493| 10,15640616493| 10,35974070635| 10,35974070635| 10,35974070635| 10,15640616493| 10,15640616493| 10,35974070635| 10,35974070635| 10,35974070635| 10,35974070635| 10,35974070635| 11,34359613135| 10,66761456738| 10,35974070635| 10,15640616493
Macaca_Thibet             |  8,94481927160|  8,94481927160|  8,94481927160|  8,94481927160|  8,94481927160|  8,90627684591|  8,65199387292|  0,00000000000|  8,94481927160|  8,94481927160|  8,94481927160| 10,35974070635| 10,35974070635| 10,15640616493| 10,15640616493| 10,15640616493| 10,15640616493| 10,15640616493| 10,35974070635| 10,35974070635| 10,35974070635| 10,15640616493| 10,15640616493| 10,35974070635| 10,35974070635| 10,35974070635| 10,35974070635| 10,35974070635| 11,34359613135| 10,66761456738| 10,35974070635| 10,15640616493
Bor_Oran                  |  8,69718600950|  8,69718600950|  8,69718600950|  8,69718600950|  8,94409467919|  8,94481927160|  8,94481927160|  8,94481927160|  0,00000000000|  6,69901342532|  8,69718600950| 10,35974070635| 10,35974070635| 10,15640616493| 10,15640616493| 10,15640616493| 10,15640616493| 10,15640616493| 10,35974070635| 10,35974070635| 10,35974070635| 10,15640616493| 10,15640616493| 10,35974070635| 10,35974070635| 10,35974070635| 10,35974070635| 10,35974070635| 11,34359613135| 10,66761456738| 10,35974070635| 10,15640616493
Sum_Oran                  |  8,69718600950|  8,69718600950|  8,69718600950|  8,69718600950|  8,94409467919|  8,94481927160|  8,94481927160|  8,94481927160|  6,69901342532|  0,00000000000|  8,69718600950| 10,35974070635| 10,35974070635| 10,15640616493| 10,15640616493| 10,15640616493| 10,15640616493| 10,15640616493| 10,35974070635| 10,35974070635| 10,35974070635| 10,15640616493| 10,15640616493| 10,35974070635| 10,35974070635| 10,35974070635| 10,35974070635| 10,35974070635| 11,34359613135| 10,66761456738| 10,35974070635| 10,15640616493
Gorilla                   |  6,16658961348|  6,16658961348|  6,16658961348|  6,16658961348|  8,94409467919|  8,94481927160|  8,94481927160|  8,94481927160|  8,69718600950|  8,69718600950|  0,00000000000| 10,35974070635| 10,35974070635| 10,15640616493| 10,15640616493| 10,15640616493| 10,15640616493| 10,15640616493| 10,35974070635| 10,35974070635| 10,35974070635| 10,15640616493| 10,15640616493| 10,35974070635| 10,35974070635| 10,35974070635| 10,35974070635| 10,35974070635| 11,34359613135| 10,66761456738| 10,35974070635| 10,15640616493
Cat                       | 10,35974070635| 10,35974070635| 10,35974070635| 10,35974070635| 10,35974070635| 10,35974070635| 10,35974070635| 10,35974070635| 10,35974070635| 10,35974070635| 10,35974070635|  0,00000000000|  9,46700503966| 10,35974070635| 10,35974070635| 10,35974070635| 10,35974070635| 10,35974070635|  9,46700503966|  7,51241510737|  7,33038914769| 10,35974070635| 10,35974070635|  9,88789319376|  9,88789319376|  9,88789319376|  9,88789319376|  9,99237766530| 11,34359613135| 10,66761456738| 10,13203584092| 10,35974070635
Dog                       | 10,35974070635| 10,35974070635| 10,35974070635| 10,35974070635| 10,35974070635| 10,35974070635| 10,35974070635| 10,35974070635| 10,35974070635| 10,35974070635| 10,35974070635|  9,46700503966|  0,00000000000| 10,35974070635| 10,35974070635| 10,35974070635| 10,35974070635| 10,35974070635|  4,47487849093|  9,46700503966|  9,46700503966| 10,35974070635| 10,35974070635|  9,88789319376|  9,88789319376|  9,88789319376|  9,88789319376|  9,99237766530| 11,34359613135| 10,66761456738| 10,13203584092| 10,35974070635
Pig                       | 10,15640616493| 10,15640616493| 10,15640616493| 10,15640616493| 10,15640616493| 10,15640616493| 10,15640616493| 10,15640616493| 10,15640616493| 10,15640616493| 10,15640616493| 10,35974070635| 10,35974070635|  0,00000000000|  9,69587932241|  9,69587932241|  9,69587932241|  9,69587932241| 10,35974070635| 10,35974070635| 10,35974070635|  9,58352727983|  9,58352727983| 10,35974070635| 10,35974070635| 10,35974070635| 10,35974070635| 10,35974070635| 11,34359613135| 10,66761456738| 10,35974070635|  9,69587932241
Sheep                     | 10,15640616493| 10,15640616493| 10,15640616493| 10,15640616493| 10,15640616493| 10,15640616493| 10,15640616493| 10,15640616493| 10,15640616493| 10,15640616493| 10,15640616493| 10,35974070635| 10,35974070635|  9,69587932241|  0,00000000000|  6,67659962746|  8,78199071101|  8,78199071101| 10,35974070635| 10,35974070635| 10,35974070635|  9,69587932241|  9,69587932241| 10,35974070635| 10,35974070635| 10,35974070635| 10,35974070635| 10,35974070635| 11,34359613135| 10,66761456738| 10,35974070635|  9,27631531894
Goat                      | 10,15640616493| 10,15640616493| 10,15640616493| 10,15640616493| 10,15640616493| 10,15640616493| 10,15640616493| 10,15640616493| 10,15640616493| 10,15640616493| 10,15640616493| 10,35974070635| 10,35974070635|  9,69587932241|  6,67659962746|  0,00000000000|  8,78199071101|  8,78199071101| 10,35974070635| 10,35974070635| 10,35974070635|  9,69587932241|  9,69587932241| 10,35974070635| 10,35974070635| 10,35974070635| 10,35974070635| 10,35974070635| 11,34359613135| 10,66761456738| 10,35974070635|  9,27631531894
Cow                       | 10,15640616493| 10,15640616493| 10,15640616493| 10,15640616493| 10,15640616493| 10,15640616493| 10,15640616493| 10,15640616493| 10,15640616493| 10,15640616493| 10,15640616493| 10,35974070635| 10,35974070635|  9,69587932241|  8,78199071101|  8,78199071101|  0,00000000000|  7,39971099301| 10,35974070635| 10,35974070635| 10,35974070635|  9,69587932241|  9,69587932241| 10,35974070635| 10,35974070635| 10,35974070635| 10,35974070635| 10,35974070635| 11,34359613135| 10,66761456738| 10,35974070635|  9,27631531894
Buffalo                   | 10,15640616493| 10,15640616493| 10,15640616493| 10,15640616493| 10,15640616493| 10,15640616493| 10,15640616493| 10,15640616493| 10,15640616493| 10,15640616493| 10,15640616493| 10,35974070635| 10,35974070635|  9,69587932241|  8,78199071101|  8,78199071101|  7,39971099301|  0,00000000000| 10,35974070635| 10,35974070635| 10,35974070635|  9,69587932241|  9,69587932241| 10,35974070635| 10,35974070635| 10,35974070635| 10,35974070635| 10,35974070635| 11,34359613135| 10,66761456738| 10,35974070635|  9,27631531894
Wolf                      | 10,35974070635| 10,35974070635| 10,35974070635| 10,35974070635| 10,35974070635| 10,35974070635| 10,35974070635| 10,35974070635| 10,35974070635| 10,35974070635| 10,35974070635|  9,46700503966|  4,47487849093| 10,35974070635| 10,35974070635| 10,35974070635| 10,35974070635| 10,35974070635|  0,00000000000|  9,46700503966|  9,46700503966| 10,35974070635| 10,35974070635|  9,88789319376|  9,88789319376|  9,88789319376|  9,88789319376|  9,99237766530| 11,34359613135| 10,66761456738| 10,13203584092| 10,35974070635
Tiger                     | 10,35974070635| 10,35974070635| 10,35974070635| 10,35974070635| 10,35974070635| 10,35974070635| 10,35974070635| 10,35974070635| 10,35974070635| 10,35974070635| 10,35974070635|  7,51241510737|  9,46700503966| 10,35974070635| 10,35974070635| 10,35974070635| 10,35974070635| 10,35974070635|  9,46700503966|  0,00000000000|  7,51241510737| 10,35974070635| 10,35974070635|  9,88789319376|  9,88789319376|  9,88789319376|  9,88789319376|  9,99237766530| 11,34359613135| 10,66761456738| 10,13203584092| 10,35974070635
Leopard                   | 10,35974070635| 10,35974070635| 10,35974070635| 10,35974070635| 10,35974070635| 10,35974070635| 10,35974070635| 10,35974070635| 10,35974070635| 10,35974070635| 10,35974070635|  7,33038914769|  9,46700503966| 10,35974070635| 10,35974070635| 10,35974070635| 10,35974070635| 10,35974070635|  9,46700503966|  7,51241510737|  0,00000000000| 10,35974070635| 10,35974070635|  9,88789319376|  9,88789319376|  9,88789319376|  9,88789319376|  9,99237766530| 11,34359613135| 10,66761456738| 10,13203584092| 10,35974070635
Indian_Rhino              | 10,15640616493| 10,15640616493| 10,15640616493| 10,15640616493| 10,15640616493| 10,15640616493| 10,15640616493| 10,15640616493| 10,15640616493| 10,15640616493| 10,15640616493| 10,35974070635| 10,35974070635|  9,58352727983|  9,69587932241|  9,69587932241|  9,69587932241|  9,69587932241| 10,35974070635| 10,35974070635| 10,35974070635|  0,00000000000|  6,87425364465| 10,35974070635| 10,35974070635| 10,35974070635| 10,35974070635| 10,35974070635| 11,34359613135| 10,66761456738| 10,35974070635|  9,69587932241
White_Rhino               | 10,15640616493| 10,15640616493| 10,15640616493| 10,15640616493| 10,15640616493| 10,15640616493| 10,15640616493| 10,15640616493| 10,15640616493| 10,15640616493| 10,15640616493| 10,35974070635| 10,35974070635|  9,58352727983|  9,69587932241|  9,69587932241|  9,69587932241|  9,69587932241| 10,35974070635| 10,35974070635| 10,35974070635|  6,87425364465|  0,00000000000| 10,35974070635| 10,35974070635| 10,35974070635| 10,35974070635| 10,35974070635| 11,34359613135| 10,66761456738| 10,35974070635|  9,69587932241
Black_Bear                | 10,35974070635| 10,35974070635| 10,35974070635| 10,35974070635| 10,35974070635| 10,35974070635| 10,35974070635| 10,35974070635| 10,35974070635| 10,35974070635| 10,35974070635|  9,88789319376|  9,88789319376| 10,35974070635| 10,35974070635| 10,35974070635| 10,35974070635| 10,35974070635|  9,88789319376|  9,88789319376|  9,88789319376| 10,35974070635| 10,35974070635|  0,00000000000|  6,83793482612|  6,83793482612|  8,54293844879|  9,99237766530| 11,34359613135| 10,66761456738| 10,13203584092| 10,35974070635
Brown_Bear                | 10,35974070635| 10,35974070635| 10,35974070635| 10,35974070635| 10,35974070635| 10,35974070635| 10,35974070635| 10,35974070635| 10,35974070635| 10,35974070635| 10,35974070635|  9,88789319376|  9,88789319376| 10,35974070635| 10,35974070635| 10,35974070635| 10,35974070635| 10,35974070635|  9,88789319376|  9,88789319376|  9,88789319376| 10,35974070635| 10,35974070635|  6,83793482612|  0,00000000000|  4,37709861508|  8,54293844879|  9,99237766530| 11,34359613135| 10,66761456738| 10,13203584092| 10,35974070635
Polar_Bear                | 10,35974070635| 10,35974070635| 10,35974070635| 10,35974070635| 10,35974070635| 10,35974070635| 10,35974070635| 10,35974070635| 10,35974070635| 10,35974070635| 10,35974070635|  9,88789319376|  9,88789319376| 10,35974070635| 10,35974070635| 10,35974070635| 10,35974070635| 10,35974070635|  9,88789319376|  9,88789319376|  9,88789319376| 10,35974070635| 10,35974070635|  6,83793482612|  4,37709861508|  0,00000000000|  8,54293844879|  9,99237766530| 11,34359613135| 10,66761456738| 10,13203584092| 10,35974070635
Giant_Panda               | 10,35974070635| 10,35974070635| 10,35974070635| 10,35974070635| 10,35974070635| 10,35974070635| 10,35974070635| 10,35974070635| 10,35974070635| 10,35974070635| 10,35974070635|  9,88789319376|  9,88789319376| 10,35974070635| 10,35974070635| 10,35974070635| 10,35974070635| 10,35974070635|  9,88789319376|  9,88789319376|  9,88789319376| 10,35974070635| 10,35974070635|  8,54293844879|  8,54293844879|  8,54293844879|  0,00000000000|  9,99237766530| 11,34359613135| 10,66761456738| 10,13203584092| 10,35974070635
Rabbit                    | 10,35974070635| 10,35974070635| 10,35974070635| 10,35974070635| 10,35974070635| 10,35974070635| 10,35974070635| 10,35974070635| 10,35974070635| 10,35974070635| 10,35974070635|  9,99237766530|  9,99237766530| 10,35974070635| 10,35974070635| 10,35974070635| 10,35974070635| 10,35974070635|  9,99237766530|  9,99237766530|  9,99237766530| 10,35974070635| 10,35974070635|  9,99237766530|  9,99237766530|  9,99237766530|  9,99237766530|  0,00000000000| 11,34359613135| 10,66761456738| 10,13203584092| 10,35974070635
Hedgehog                  | 11,34359613135| 11,34359613135| 11,34359613135| 11,34359613135| 11,34359613135| 11,34359613135| 11,34359613135| 11,34359613135| 11,34359613135| 11,34359613135| 11,34359613135| 11,34359613135| 11,34359613135| 11,34359613135| 11,34359613135| 11,34359613135| 11,34359613135| 11,34359613135| 11,34359613135| 11,34359613135| 11,34359613135| 11,34359613135| 11,34359613135| 11,34359613135| 11,34359613135| 11,34359613135| 11,34359613135| 11,34359613135|  0,00000000000| 11,34359613135| 11,34359613135| 11,34359613135
Dormouse                  | 10,66761456738| 10,66761456738| 10,66761456738| 10,66761456738| 10,66761456738| 10,66761456738| 10,66761456738| 10,66761456738| 10,66761456738| 10,66761456738| 10,66761456738| 10,66761456738| 10,66761456738| 10,66761456738| 10,66761456738| 10,66761456738| 10,66761456738| 10,66761456738| 10,66761456738| 10,66761456738| 10,66761456738| 10,66761456738| 10,66761456738| 10,66761456738| 10,66761456738| 10,66761456738| 10,66761456738| 10,66761456738| 11,34359613135|  0,00000000000| 10,66761456738| 10,66761456738
Squirrel                  | 10,35974070635| 10,35974070635| 10,35974070635| 10,35974070635| 10,35974070635| 10,35974070635| 10,35974070635| 10,35974070635| 10,35974070635| 10,35974070635| 10,35974070635| 10,13203584092| 10,13203584092| 10,35974070635| 10,35974070635| 10,35974070635| 10,35974070635| 10,35974070635| 10,13203584092| 10,13203584092| 10,13203584092| 10,35974070635| 10,35974070635| 10,13203584092| 10,13203584092| 10,13203584092| 10,13203584092| 10,13203584092| 11,34359613135| 10,66761456738|  0,00000000000| 10,35974070635
Blue_Whale                | 10,15640616493| 10,15640616493| 10,15640616493| 10,15640616493| 10,15640616493| 10,15640616493| 10,15640616493| 10,15640616493| 10,15640616493| 10,15640616493| 10,15640616493| 10,35974070635| 10,35974070635|  9,69587932241|  9,27631531894|  9,27631531894|  9,27631531894|  9,27631531894| 10,35974070635| 10,35974070635| 10,35974070635|  9,69587932241|  9,69587932241| 10,35974070635| 10,35974070635| 10,35974070635| 10,35974070635| 10,35974070635| 11,34359613135| 10,66761456738| 10,35974070635|  0,00000000000
                           |Human          |Hum_shortened  |Pig_Chim       |Com_Chim       |Gibbon         |Baboon         |Ver_Monkey     |Macaca_Thibet  |Bor_Oran       |Sum_Oran       |Gorilla        |Cat            |Dog            |Pig            |Sheep          |Goat           |Cow            |Buffalo        |Wolf           |Tiger          |Leopard        |Indian_Rhino   |White_Rhino    |Black_Bear     |Brown_Bear     |Polar_Bear     |Giant_Panda    |Rabbit         |Hedgehog       |Dormouse       |Squirrel       |Blue_Whale     
Human                     |  0,00000000000|  2,00000000000|  4,00000000000|  4,00000000000|  6,00000000000|  8,00000000000|  9,00000000000|  9,00000000000|  6,00000000000|  6,00000000000|  4,00000000000| 15,00000000000| 14,00000000000| 10,00000000000| 12,00000000000| 12,00000000000| 12,00000000000| 12,00000000000| 14,00000000000| 14,00000000000| 15,00000000000| 11,00000000000| 11,00000000000| 14,00000000000| 15,00000000000| 15,00000000000| 13,00000000000| 11,00000000000| 11,00000000000| 10,00000000000| 10,00000000000| 10,00000000000
Hum_shortened             |  2,00000000000|  0,00000000000|  4,00000000000|  4,00000000000|  6,00000000000|  8,00000000000|  9,00000000000|  9,00000000000|  6,00000000000|  6,00000000000|  4,00000000000| 15,00000000000| 14,00000000000| 10,00000000000| 12,00000000000| 12,00000000000| 12,00000000000| 12,00000000000| 14,00000000000| 14,00000000000| 15,00000000000| 11,00000000000| 11,00000000000| 14,00000000000| 15,00000000000| 15,00000000000| 13,00000000000| 11,00000000000| 11,00000000000| 10,00000000000| 10,00000000000| 10,00000000000
Pig_Chim                  |  4,00000000000|  4,00000000000|  0,00000000000|  2,00000000000|  6,00000000000|  8,00000000000|  9,00000000000|  9,00000000000|  6,00000000000|  6,00000000000|  4,00000000000| 15,00000000000| 14,00000000000| 10,00000000000| 12,00000000000| 12,00000000000| 12,00000000000| 12,00000000000| 14,00000000000| 14,00000000000| 15,00000000000| 11,00000000000| 11,00000000000| 14,00000000000| 15,00000000000| 15,00000000000| 13,00000000000| 11,00000000000| 11,00000000000| 10,00000000000| 10,00000000000| 10,00000000000
Com_Chim                  |  4,00000000000|  4,00000000000|  2,00000000000|  0,00000000000|  6,00000000000|  8,00000000000|  9,00000000000|  9,00000000000|  6,00000000000|  6,00000000000|  4,00000000000| 15,00000000000| 14,00000000000| 10,00000000000| 12,00000000000| 12,00000000000| 12,00000000000| 12,00000000000| 14,00000000000| 14,00000000000| 15,00000000000| 11,00000000000| 11,00000000000| 14,00000000000| 15,00000000000| 15,00000000000| 13,00000000000| 11,00000000000| 11,00000000000| 10,00000000000| 10,00000000000| 10,00000000000
Gibbon                    |  6,00000000000|  6,00000000000|  6,00000000000|  6,00000000000|  0,00000000000|  4,00000000000|  5,00000000000|  5,00000000000|  4,00000000000|  4,00000000000|  4,00000000000| 11,00000000000| 10,00000000000|  6,00000000000|  8,00000000000|  8,00000000000|  8,00000000000|  8,00000000000| 10,00000000000| 10,00000000000| 11,00000000000|  7,00000000000|  7,00000000000| 10,00000000000| 11,00000000000| 11,00000000000|  9,00000000000|  7,00000000000|  7,00000000000|  6,00000000000|  6,00000000000|  6,00000000000
Baboon                    |  8,00000000000|  8,00000000000|  8,00000000000|  8,00000000000|  4,00000000000|  0,00000000000|  3,00000000000|  3,00000000000|  6,00000000000|  6,00000000000|  6,00000000000| 11,00000000000| 10,00000000000|  6,00000000000|  8,00000000000|  8,00000000000|  8,00000000000|  8,00000000000| 10,00000000000| 10,00000000000| 11,00000000000|  7,00000000000|  7,00000000000| 10,00000000000| 11,00000000000| 11,00000000000|  9,00000000000|  7,00000000000|  7,00000000000|  6,00000000000|  6,00000000000|  6,00000000000
Ver_Monkey                |  9,00000000000|  9,00000000000|  9,00000000000|  9,00000000000|  5,00000000000|  3,00000000000|  0,00000000000|  2,00000000000|  7,00000000000|  7,00000000000|  7,00000000000| 12,00000000000| 11,00000000000|  7,00000000000|  9,00000000000|  9,00000000000|  9,00000000000|  9,00000000000| 11,00000000000| 11,00000000000| 12,00000000000|  8,00000000000|  8,00000000000| 11,00000000000| 12,00000000000| 12,00000000000| 10,00000000000|  8,00000000000|  8,00000000000|  7,00000000000|  7,00000000000|  7,00000000000
Macaca_Thibet             |  9,00000000000|  9,00000000000|  9,00000000000|  9,00000000000|  5,00000000000|  3,00000000000|  2,00000000000|  0,00000000000|  7,00000000000|  7,00000000000|  7,00000000000| 12,00000000000| 11,00000000000|  7,00000000000|  9,00000000000|  9,00000000000|  9,00000000000|  9,00000000000| 11,00000000000| 11,00000000000| 12,00000000000|  8,00000000000|  8,00000000000| 11,00000000000| 12,00000000000| 12,00000000000| 10,00000000000|  8,00000000000|  8,00000000000|  7,00000000000|  7,00000000000|  7,00000000000
Bor_Oran                  |  6,00000000000|  6,00000000000|  6,00000000000|  6,00000000000|  4,00000000000|  6,00000000000|  7,00000000000|  7,00000000000|  0,00000000000|  2,00000000000|  4,00000000000| 13,00000000000| 12,00000000000|  8,00000000000| 10,00000000000| 10,00000000000| 10,00000000000| 10,00000000000| 12,00000000000| 12,00000000000| 13,00000000000|  9,00000000000|  9,00000000000| 12,00000000000| 13,00000000000| 13,00000000000| 11,00000000000|  9,00000000000|  9,00000000000|  8,00000000000|  8,00000000000|  8,00000000000
Sum_Oran                  |  6,00000000000|  6,00000000000|  6,00000000000|  6,00000000000|  4,00000000000|  6,00000000000|  7,00000000000|  7,00000000000|  2,00000000000|  0,00000000000|  4,00000000000| 13,00000000000| 12,00000000000|  8,00000000000| 10,00000000000| 10,00000000000| 10,00000000000| 10,00000000000| 12,00000000000| 12,00000000000| 13,00000000000|  9,00000000000|  9,00000000000| 12,00000000000| 13,00000000000| 13,00000000000| 11,00000000000|  9,00000000000|  9,00000000000|  8,00000000000|  8,00000000000|  8,00000000000
Gorilla                   |  4,00000000000|  4,00000000000|  4,00000000000|  4,00000000000|  4,00000000000|  6,00000000000|  7,00000000000|  7,00000000000|  4,00000000000|  4,00000000000|  0,00000000000| 13,00000000000| 12,00000000000|  8,00000000000| 10,00000000000| 10,00000000000| 10,00000000000| 10,00000000000| 12,00000000000| 12,00000000000| 13,00000000000|  9,00000000000|  9,00000000000| 12,00000000000| 13,00000000000| 13,00000000000| 11,00000000000|  9,00000000000|  9,00000000000|  8,00000000000|  8,00000000000|  8,00000000000
Cat                       | 15,00000000000| 15,00000000000| 15,00000000000| 15,00000000000| 11,00000000000| 11,00000000000| 12,00000000000| 12,00000000000| 13,00000000000| 13,00000000000| 13,00000000000|  0,00000000000|  5,00000000000| 11,00000000000| 13,00000000000| 13,00000000000| 13,00000000000| 13,00000000000|  5,00000000000|  3,00000000000|  2,00000000000| 12,00000000000| 12,00000000000|  7,00000000000|  8,00000000000|  8,00000000000|  6,00000000000|  6,00000000000| 10,00000000000|  9,00000000000|  7,00000000000| 11,00000000000
Dog                       | 14,00000000000| 14,00000000000| 14,00000000000| 14,00000000000| 10,00000000000| 10,00000000000| 11,00000000000| 11,00000000000| 12,00000000000| 12,00000000000| 12,00000000000|  5,00000000000|  0,00000000000| 10,00000000000| 12,00000000000| 12,00000000000| 12,00000000000| 12,00000000000|  2,00000000000|  4,00000000000|  5,00000000000| 11,00000000000| 11,00000000000|  6,00000000000|  7,00000000000|  7,00000000000|  5,00000000000|  5,00000000000|  9,00000000000|  8,00000000000|  6,00000000000| 10,00000000000
Pig                       | 10,00000000000| 10,00000000000| 10,00000000000| 10,00000000000|  6,00000000000|  6,00000000000|  7,00000000000|  7,00000000000|  8,00000000000|  8,00000000000|  8,00000000000| 11,00000000000| 10,00000000000|  0,00000000000|  6,00000000000|  6,00000000000|  6,00000000000|  6,00000000000| 10,00000000000| 10,00000000000| 11,00000000000|  3,00000000000|  3,00000000000| 10,00000000000| 11,00000000000| 11,00000000000|  9,00000000000|  7,00000000000|  7,00000000000|  6,00000000000|  6,00000000000|  4,00000000000
Sheep                     | 12,00000000000| 12,00000000000| 12,00000000000| 12,00000000000|  8,00000000000|  8,00000000000|  9,00000000000|  9,00000000000| 10,00000000000| 10,00000000000| 10,00000000000| 13,00000000000| 12,00000000000|  6,00000000000|  0,00000000000|  2,00000000000|  4,00000000000|  4,00000000000| 12,00000000000| 12,00000000000| 13,00000000000|  7,00000000000|  7,00000000000| 12,00000000000| 13,00000000000| 13,00000000000| 11,00000000000|  9,00000000000|  9,00000000000|  8,00000000000|  8,00000000000|  4,00000000000
Goat                      | 12,00000000000| 12,00000000000| 12,00000000000| 12,00000000000|  8,00000000000|  8,00000000000|  9,00000000000|  9,00000000000| 10,00000000000| 10,00000000000| 10,00000000000| 13,00000000000| 12,00000000000|  6,00000000000|  2,00000000000|  0,00000000000|  4,00000000000|  4,00000000000| 12,00000000000| 12,00000000000| 13,00000000000|  7,00000000000|  7,00000000000| 12,00000000000| 13,00000000000| 13,00000000000| 11,00000000000|  9,00000000000|  9,00000000000|  8,00000000000|  8,00000000000|  4,00000000000
Cow                       | 12,00000000000| 12,00000000000| 12,00000000000| 12,00000000000|  8,00000000000|  8,00000000000|  9,00000000000|  9,00000000000| 10,00000000000| 10,00000000000| 10,00000000000| 13,00000000000| 12,00000000000|  6,00000000000|  4,00000000000|  4,00000000000|  0,00000000000|  2,00000000000| 12,00000000000| 12,00000000000| 13,00000000000|  7,00000000000|  7,00000000000| 12,00000000000| 13,00000000000| 13,00000000000| 11,00000000000|  9,00000000000|  9,00000000000|  8,00000000000|  8,00000000000|  4,00000000000
Buffalo                   | 12,00000000000| 12,00000000000| 12,00000000000| 12,00000000000|  8,00000000000|  8,00000000000|  9,00000000000|  9,00000000000| 10,00000000000| 10,00000000000| 10,00000000000| 13,00000000000| 12,00000000000|  6,00000000000|  4,00000000000|  4,00000000000|  2,00000000000|  0,00000000000| 12,00000000000| 12,00000000000| 13,00000000000|  7,00000000000|  7,00000000000| 12,00000000000| 13,00000000000| 13,00000000000| 11,00000000000|  9,00000000000|  9,00000000000|  8,00000000000|  8,00000000000|  4,00000000000
Wolf                      | 14,00000000000| 14,00000000000| 14,00000000000| 14,00000000000| 10,00000000000| 10,00000000000| 11,00000000000| 11,00000000000| 12,00000000000| 12,00000000000| 12,00000000000|  5,00000000000|  2,00000000000| 10,00000000000| 12,00000000000| 12,00000000000| 12,00000000000| 12,00000000000|  0,00000000000|  4,00000000000|  5,00000000000| 11,00000000000| 11,00000000000|  6,00000000000|  7,00000000000|  7,00000000000|  5,00000000000|  5,00000000000|  9,00000000000|  8,00000000000|  6,00000000000| 10,00000000000
Tiger                     | 14,00000000000| 14,00000000000| 14,00000000000| 14,00000000000| 10,00000000000| 10,00000000000| 11,00000000000| 11,00000000000| 12,00000000000| 12,00000000000| 12,00000000000|  3,00000000000|  4,00000000000| 10,00000000000| 12,00000000000| 12,00000000000| 12,00000000000| 12,00000000000|  4,00000000000|  0,00000000000|  3,00000000000| 11,00000000000| 11,00000000000|  6,00000000000|  7,00000000000|  7,00000000000|  5,00000000000|  5,00000000000|  9,00000000000|  8,00000000000|  6,00000000000| 10,00000000000
Leopard                   | 15,00000000000| 15,00000000000| 15,00000000000| 15,00000000000| 11,00000000000| 11,00000000000| 12,00000000000| 12,00000000000| 13,00000000000| 13,00000000000| 13,00000000000|  2,00000000000|  5,00000000000| 11,00000000000| 13,00000000000| 13,00000000000| 13,00000000000| 13,00000000000|  5,00000000000|  3,00000000000|  0,00000000000| 12,00000000000| 12,00000000000|  7,00000000000|  8,00000000000|  8,00000000000|  6,00000000000|  6,00000000000| 10,00000000000|  9,00000000000|  7,00000000000| 11,00000000000
Indian_Rhino              | 11,00000000000| 11,00000000000| 11,00000000000| 11,00000000000|  7,00000000000|  7,00000000000|  8,00000000000|  8,00000000000|  9,00000000000|  9,00000000000|  9,00000000000| 12,00000000000| 11,00000000000|  3,00000000000|  7,00000000000|  7,00000000000|  7,00000000000|  7,00000000000| 11,00000000000| 11,00000000000| 12,00000000000|  0,00000000000|  2,00000000000| 11,00000000000| 12,00000000000| 12,00000000000| 10,00000000000|  8,00000000000|  8,00000000000|  7,00000000000|  7,00000000000|  5,00000000000
White_Rhino               | 11,00000000000| 11,00000000000| 11,00000000000| 11,00000000000|  7,00000000000|  7,00000000000|  8,00000000000|  8,00000000000|  9,00000000000|  9,00000000000|  9,00000000000| 12,00000000000| 11,00000000000|  3,00000000000|  7,00000000000|  7,00000000000|  7,00000000000|  7,00000000000| 11,00000000000| 11,00000000000| 12,00000000000|  2,00000000000|  0,00000000000| 11,00000000000| 12,00000000000| 12,00000000000| 10,00000000000|  8,00000000000|  8,00000000000|  7,00000000000|  7,00000000000|  5,00000000000
Black_Bear                | 14,00000000000| 14,00000000000| 14,00000000000| 14,00000000000| 10,00000000000| 10,00000000000| 11,00000000000| 11,00000000000| 12,00000000000| 12,00000000000| 12,00000000000|  7,00000000000|  6,00000000000| 10,00000000000| 12,00000000000| 12,00000000000| 12,00000000000| 12,00000000000|  6,00000000000|  6,00000000000|  7,00000000000| 11,00000000000| 11,00000000000|  0,00000000000|  3,00000000000|  3,00000000000|  3,00000000000|  5,00000000000|  9,00000000000|  8,00000000000|  6,00000000000| 10,00000000000
Brown_Bear                | 15,00000000000| 15,00000000000| 15,00000000000| 15,00000000000| 11,00000000000| 11,00000000000| 12,00000000000| 12,00000000000| 13,00000000000| 13,00000000000| 13,00000000000|  8,00000000000|  7,00000000000| 11,00000000000| 13,00000000000| 13,00000000000| 13,00000000000| 13,00000000000|  7,00000000000|  7,00000000000|  8,00000000000| 12,00000000000| 12,00000000000|  3,00000000000|  0,00000000000|  2,00000000000|  4,00000000000|  6,00000000000| 10,00000000000|  9,00000000000|  7,00000000000| 11,00000000000
Polar_Bear                | 15,00000000000| 15,00000000000| 15,00000000000| 15,00000000000| 11,00000000000| 11,00000000000| 12,00000000000| 12,00000000000| 13,00000000000| 13,00000000000| 13,00000000000|  8,00000000000|  7,00000000000| 11,00000000000| 13,00000000000| 13,00000000000| 13,00000000000| 13,00000000000|  7,00000000000|  7,00000000000|  8,00000000000| 12,00000000000| 12,00000000000|  3,00000000000|  2,00000000000|  0,00000000000|  4,00000000000|  6,00000000000| 10,00000000000|  9,00000000000|  7,00000000000| 11,00000000000
Giant_Panda               | 13,00000000000| 13,00000000000| 13,00000000000| 13,00000000000|  9,00000000000|  9,00000000000| 10,00000000000| 10,00000000000| 11,00000000000| 11,00000000000| 11,00000000000|  6,00000000000|  5,00000000000|  9,00000000000| 11,00000000000| 11,00000000000| 11,00000000000| 11,00000000000|  5,00000000000|  5,00000000000|  6,00000000000| 10,00000000000| 10,00000000000|  3,00000000000|  4,00000000000|  4,00000000000|  0,00000000000|  4,00000000000|  8,00000000000|  7,00000000000|  5,00000000000|  9,00000000000
Rabbit                    | 11,00000000000| 11,00000000000| 11,00000000000| 11,00000000000|  7,00000000000|  7,00000000000|  8,00000000000|  8,00000000000|  9,00000000000|  9,00000000000|  9,00000000000|  6,00000000000|  5,00000000000|  7,00000000000|  9,00000000000|  9,00000000000|  9,00000000000|  9,00000000000|  5,00000000000|  5,00000000000|  6,00000000000|  8,00000000000|  8,00000000000|  5,00000000000|  6,00000000000|  6,00000000000|  4,00000000000|  0,00000000000|  6,00000000000|  5,00000000000|  3,00000000000|  7,00000000000
Hedgehog                  | 11,00000000000| 11,00000000000| 11,00000000000| 11,00000000000|  7,00000000000|  7,00000000000|  8,00000000000|  8,00000000000|  9,00000000000|  9,00000000000|  9,00000000000| 10,00000000000|  9,00000000000|  7,00000000000|  9,00000000000|  9,00000000000|  9,00000000000|  9,00000000000|  9,00000000000|  9,00000000000| 10,00000000000|  8,00000000000|  8,00000000000|  9,00000000000| 10,00000000000| 10,00000000000|  8,00000000000|  6,00000000000|  0,00000000000|  3,00000000000|  5,00000000000|  7,00000000000
Dormouse                  | 10,00000000000| 10,00000000000| 10,00000000000| 10,00000000000|  6,00000000000|  6,00000000000|  7,00000000000|  7,00000000000|  8,00000000000|  8,00000000000|  8,00000000000|  9,00000000000|  8,00000000000|  6,00000000000|  8,00000000000|  8,00000000000|  8,00000000000|  8,00000000000|  8,00000000000|  8,00000000000|  9,00000000000|  7,00000000000|  7,00000000000|  8,00000000000|  9,00000000000|  9,00000000000|  7,00000000000|  5,00000000000|  3,00000000000|  0,00000000000|  4,00000000000|  6,00000000000
Squirrel                  | 10,00000000000| 10,00000000000| 10,00000000000| 10,00000000000|  6,00000000000|  6,00000000000|  7,00000000000|  7,00000000000|  8,00000000000|  8,00000000000|  8,00000000000|  7,00000000000|  6,00000000000|  6,00000000000|  8,00000000000|  8,00000000000|  8,00000000000|  8,00000000000|  6,00000000000|  6,00000000000|  7,00000000000|  7,00000000000|  7,00000000000|  6,00000000000|  7,00000000000|  7,00000000000|  5,00000000000|  3,00000000000|  5,00000000000|  4,00000000000|  0,00000000000|  6,00000000000
Blue_Whale                | 10,00000000000| 10,00000000000| 10,00000000000| 10,00000000000|  6,00000000000|  6,00000000000|  7,00000000000|  7,00000000000|  8,00000000000|  8,00000000000|  8,00000000000| 11,00000000000| 10,00000000000|  4,00000000000|  4,00000000000|  4,00000000000|  4,00000000000|  4,00000000000| 10,00000000000| 10,00000000000| 11,00000000000|  5,00000000000|  5,00000000000| 10,00000000000| 11,00000000000| 11,00000000000|  9,00000000000|  7,00000000000|  7,00000000000|  6,00000000000|  6,00000000000|  0,00000000000
