                           |Human          |Pig_Chim       |Com_Chim       |Gibbon         |Baboon         |Ver_Monkey     |Macaca_Thibet  |Bor_Oran       |Sum_Oran       |Gorilla        |Cat            |Dog            |Pig            |Sheep          |Goat           |Cow            |Buffalo        |Wolf           |Tiger          |Leopard        |Indian_Rhino   |White_Rhino    |Black_Bear     |Brown_Bear     |Polar_Bear     |Giant_Panda    |Rabbit         |Hedgehog       |Dormouse       |Squirrel       |Blue_Whale     
Human                     |  0,00000000000|1297866,98840332030|1297866,98840332030|1552356,69738769530|1803199,85388183600|1803199,85388183600|1803199,85388183600|1570892,27185058600|1570892,27185058600|1297866,98840332030|1986523,09375000000|1986523,09375000000|1986523,09375000000|1986523,09375000000|1986523,09375000000|1986523,09375000000|1986523,09375000000|1986523,09375000000|1986523,09375000000|1986523,09375000000|1986523,09375000000|1986523,09375000000|1986523,09375000000|1986523,09375000000|1986523,09375000000|1986523,09375000000|1986523,09375000000|1986523,09375000000|1986523,09375000000|1986523,09375000000|1986523,09375000000
Pig_Chim                  |1297866,98840332030|  0,00000000000|846070,68408203120|1552356,69738769530|1803199,85388183600|1803199,85388183600|1803199,85388183600|1570892,27185058600|1570892,27185058600|1175865,74829101560|1986523,09375000000|1986523,09375000000|1986523,09375000000|1986523,09375000000|1986523,09375000000|1986523,09375000000|1986523,09375000000|1986523,09375000000|1986523,09375000000|1986523,09375000000|1986523,09375000000|1986523,09375000000|1986523,09375000000|1986523,09375000000|1986523,09375000000|1986523,09375000000|1986523,09375000000|1986523,09375000000|1986523,09375000000|1986523,09375000000|1986523,09375000000
Com_Chim                  |1297866,98840332030|846070,68408203120|  0,00000000000|1552356,69738769530|1803199,85388183600|1803199,85388183600|1803199,85388183600|1570892,27185058600|1570892,27185058600|1175865,74829101560|1986523,09375000000|1986523,09375000000|1986523,09375000000|1986523,09375000000|1986523,09375000000|1986523,09375000000|1986523,09375000000|1986523,09375000000|1986523,09375000000|1986523,09375000000|1986523,09375000000|1986523,09375000000|1986523,09375000000|1986523,09375000000|1986523,09375000000|1986523,09375000000|1986523,09375000000|1986523,09375000000|1986523,09375000000|1986523,09375000000|1986523,09375000000
Gibbon                    |1552356,69738769530|1552356,69738769530|1552356,69738769530|  0,00000000000|1803199,85388183600|1803199,85388183600|1803199,85388183600|1570892,27185058600|1570892,27185058600|1552356,69738769530|1986523,09375000000|1986523,09375000000|1986523,09375000000|1986523,09375000000|1986523,09375000000|1986523,09375000000|1986523,09375000000|1986523,09375000000|1986523,09375000000|1986523,09375000000|1986523,09375000000|1986523,09375000000|1986523,09375000000|1986523,09375000000|1986523,09375000000|1986523,09375000000|1986523,09375000000|1986523,09375000000|1986523,09375000000|1986523,09375000000|1986523,09375000000
Baboon                    |1803199,85388183600|1803199,85388183600|1803199,85388183600|1803199,85388183600|  0,00000000000|1730039,31030273440|1596929,72424316400|1803199,85388183600|1803199,85388183600|1803199,85388183600|1986523,09375000000|1986523,09375000000|1986523,09375000000|1986523,09375000000|1986523,09375000000|1986523,09375000000|1986523,09375000000|1986523,09375000000|1986523,09375000000|1986523,09375000000|1986523,09375000000|1986523,09375000000|1986523,09375000000|1986523,09375000000|1986523,09375000000|1986523,09375000000|1986523,09375000000|1986523,09375000000|1986523,09375000000|1986523,09375000000|1986523,09375000000
Ver_Monkey                |1803199,85388183600|1803199,85388183600|1803199,85388183600|1803199,85388183600|1730039,31030273440|  0,00000000000|1730039,31030273440|1803199,85388183600|1803199,85388183600|1803199,85388183600|1986523,09375000000|1986523,09375000000|1986523,09375000000|1986523,09375000000|1986523,09375000000|1986523,09375000000|1986523,09375000000|1986523,09375000000|1986523,09375000000|1986523,09375000000|1986523,09375000000|1986523,09375000000|1986523,09375000000|1986523,09375000000|1986523,09375000000|1986523,09375000000|1986523,09375000000|1986523,09375000000|1986523,09375000000|1986523,09375000000|1986523,09375000000
Macaca_Thibet             |1803199,85388183600|1803199,85388183600|1803199,85388183600|1803199,85388183600|1596929,72424316400|1730039,31030273440|  0,00000000000|1803199,85388183600|1803199,85388183600|1803199,85388183600|1986523,09375000000|1986523,09375000000|1986523,09375000000|1986523,09375000000|1986523,09375000000|1986523,09375000000|1986523,09375000000|1986523,09375000000|1986523,09375000000|1986523,09375000000|1986523,09375000000|1986523,09375000000|1986523,09375000000|1986523,09375000000|1986523,09375000000|1986523,09375000000|1986523,09375000000|1986523,09375000000|1986523,09375000000|1986523,09375000000|1986523,09375000000
Bor_Oran                  |1570892,27185058600|1570892,27185058600|1570892,27185058600|1570892,27185058600|1803199,85388183600|1803199,85388183600|1803199,85388183600|  0,00000000000|1232414,72314453120|1570892,27185058600|1986523,09375000000|1986523,09375000000|1986523,09375000000|1986523,09375000000|1986523,09375000000|1986523,09375000000|1986523,09375000000|1986523,09375000000|1986523,09375000000|1986523,09375000000|1986523,09375000000|1986523,09375000000|1986523,09375000000|1986523,09375000000|1986523,09375000000|1986523,09375000000|1986523,09375000000|1986523,09375000000|1986523,09375000000|1986523,09375000000|1986523,09375000000
Sum_Oran                  |1570892,27185058600|1570892,27185058600|1570892,27185058600|1570892,27185058600|1803199,85388183600|1803199,85388183600|1803199,85388183600|1232414,72314453120|  0,00000000000|1570892,27185058600|1986523,09375000000|1986523,09375000000|1986523,09375000000|1986523,09375000000|1986523,09375000000|1986523,09375000000|1986523,09375000000|1986523,09375000000|1986523,09375000000|1986523,09375000000|1986523,09375000000|1986523,09375000000|1986523,09375000000|1986523,09375000000|1986523,09375000000|1986523,09375000000|1986523,09375000000|1986523,09375000000|1986523,09375000000|1986523,09375000000|1986523,09375000000
Gorilla                   |1297866,98840332030|1175865,74829101560|1175865,74829101560|1552356,69738769530|1803199,85388183600|1803199,85388183600|1803199,85388183600|1570892,27185058600|1570892,27185058600|  0,00000000000|1986523,09375000000|1986523,09375000000|1986523,09375000000|1986523,09375000000|1986523,09375000000|1986523,09375000000|1986523,09375000000|1986523,09375000000|1986523,09375000000|1986523,09375000000|1986523,09375000000|1986523,09375000000|1986523,09375000000|1986523,09375000000|1986523,09375000000|1986523,09375000000|1986523,09375000000|1986523,09375000000|1986523,09375000000|1986523,09375000000|1986523,09375000000
Cat                       |1986523,09375000000|1986523,09375000000|1986523,09375000000|1986523,09375000000|1986523,09375000000|1986523,09375000000|1986523,09375000000|1986523,09375000000|1986523,09375000000|1986523,09375000000|  0,00000000000|1823259,19506835940|1823259,19506835940|1823259,19506835940|1823259,19506835940|1823259,19506835940|1823259,19506835940|1823259,19506835940|1446628,98254394530|1446628,98254394530|1823259,19506835940|1823259,19506835940|1809767,28051757810|1809767,28051757810|1809767,28051757810|1809767,28051757810|1927551,98352050780|1978890,83630371100|1882293,14074707030|1882293,14074707030|1823259,19506835940
Dog                       |1986523,09375000000|1986523,09375000000|1986523,09375000000|1986523,09375000000|1986523,09375000000|1986523,09375000000|1986523,09375000000|1986523,09375000000|1986523,09375000000|1986523,09375000000|1823259,19506835940|  0,00000000000|1791758,40368652340|1791758,40368652340|1791758,40368652340|1791758,40368652340|1791758,40368652340|799688,46350097660|1823259,19506835940|1823259,19506835940|1791758,40368652340|1791758,40368652340|1823259,19506835940|1823259,19506835940|1823259,19506835940|1823259,19506835940|1927551,98352050780|1978890,83630371100|1882293,14074707030|1882293,14074707030|1791758,40368652340
Pig                       |1986523,09375000000|1986523,09375000000|1986523,09375000000|1986523,09375000000|1986523,09375000000|1986523,09375000000|1986523,09375000000|1986523,09375000000|1986523,09375000000|1986523,09375000000|1823259,19506835940|1791758,40368652340|  0,00000000000|1713975,38171386720|1713975,38171386720|1713975,38171386720|1713975,38171386720|1791758,40368652340|1823259,19506835940|1823259,19506835940|1756781,36352539060|1756781,36352539060|1823259,19506835940|1823259,19506835940|1823259,19506835940|1823259,19506835940|1927551,98352050780|1978890,83630371100|1882293,14074707030|1882293,14074707030|1729980,11596679690
Sheep                     |1986523,09375000000|1986523,09375000000|1986523,09375000000|1986523,09375000000|1986523,09375000000|1986523,09375000000|1986523,09375000000|1986523,09375000000|1986523,09375000000|1986523,09375000000|1823259,19506835940|1791758,40368652340|1713975,38171386720|  0,00000000000|1290561,47497558600|1510939,45727539060|1510939,45727539060|1791758,40368652340|1823259,19506835940|1823259,19506835940|1756781,36352539060|1756781,36352539060|1823259,19506835940|1823259,19506835940|1823259,19506835940|1823259,19506835940|1927551,98352050780|1978890,83630371100|1882293,14074707030|1882293,14074707030|1729980,11596679690
Goat                      |1986523,09375000000|1986523,09375000000|1986523,09375000000|1986523,09375000000|1986523,09375000000|1986523,09375000000|1986523,09375000000|1986523,09375000000|1986523,09375000000|1986523,09375000000|1823259,19506835940|1791758,40368652340|1713975,38171386720|1290561,47497558600|  0,00000000000|1510939,45727539060|1510939,45727539060|1791758,40368652340|1823259,19506835940|1823259,19506835940|1756781,36352539060|1756781,36352539060|1823259,19506835940|1823259,19506835940|1823259,19506835940|1823259,19506835940|1927551,98352050780|1978890,83630371100|1882293,14074707030|1882293,14074707030|1729980,11596679690
Cow                       |1986523,09375000000|1986523,09375000000|1986523,09375000000|1986523,09375000000|1986523,09375000000|1986523,09375000000|1986523,09375000000|1986523,09375000000|1986523,09375000000|1986523,09375000000|1823259,19506835940|1791758,40368652340|1713975,38171386720|1510939,45727539060|1510939,45727539060|  0,00000000000|1488247,25366210940|1791758,40368652340|1823259,19506835940|1823259,19506835940|1756781,36352539060|1756781,36352539060|1823259,19506835940|1823259,19506835940|1823259,19506835940|1823259,19506835940|1927551,98352050780|1978890,83630371100|1882293,14074707030|1882293,14074707030|1729980,11596679690
Buffalo                   |1986523,09375000000|1986523,09375000000|1986523,09375000000|1986523,09375000000|1986523,09375000000|1986523,09375000000|1986523,09375000000|1986523,09375000000|1986523,09375000000|1986523,09375000000|1823259,19506835940|1791758,40368652340|1713975,38171386720|1510939,45727539060|1510939,45727539060|1488247,25366210940|  0,00000000000|1791758,40368652340|1823259,19506835940|1823259,19506835940|1756781,36352539060|1756781,36352539060|1823259,19506835940|1823259,19506835940|1823259,19506835940|1823259,19506835940|1927551,98352050780|1978890,83630371100|1882293,14074707030|1882293,14074707030|1729980,11596679690
Wolf                      |1986523,09375000000|1986523,09375000000|1986523,09375000000|1986523,09375000000|1986523,09375000000|1986523,09375000000|1986523,09375000000|1986523,09375000000|1986523,09375000000|1986523,09375000000|1823259,19506835940|799688,46350097660|1791758,40368652340|1791758,40368652340|1791758,40368652340|1791758,40368652340|1791758,40368652340|  0,00000000000|1823259,19506835940|1823259,19506835940|1791758,40368652340|1791758,40368652340|1823259,19506835940|1823259,19506835940|1823259,19506835940|1823259,19506835940|1927551,98352050780|1978890,83630371100|1882293,14074707030|1882293,14074707030|1791758,40368652340
Tiger                     |1986523,09375000000|1986523,09375000000|1986523,09375000000|1986523,09375000000|1986523,09375000000|1986523,09375000000|1986523,09375000000|1986523,09375000000|1986523,09375000000|1986523,09375000000|1446628,98254394530|1823259,19506835940|1823259,19506835940|1823259,19506835940|1823259,19506835940|1823259,19506835940|1823259,19506835940|1823259,19506835940|  0,00000000000|1406505,26000976560|1823259,19506835940|1823259,19506835940|1809767,28051757810|1809767,28051757810|1809767,28051757810|1809767,28051757810|1927551,98352050780|1978890,83630371100|1882293,14074707030|1882293,14074707030|1823259,19506835940
Leopard                   |1986523,09375000000|1986523,09375000000|1986523,09375000000|1986523,09375000000|1986523,09375000000|1986523,09375000000|1986523,09375000000|1986523,09375000000|1986523,09375000000|1986523,09375000000|1446628,98254394530|1823259,19506835940|1823259,19506835940|1823259,19506835940|1823259,19506835940|1823259,19506835940|1823259,19506835940|1823259,19506835940|1406505,26000976560|  0,00000000000|1823259,19506835940|1823259,19506835940|1809767,28051757810|1809767,28051757810|1809767,28051757810|1809767,28051757810|1927551,98352050780|1978890,83630371100|1882293,14074707030|1882293,14074707030|1823259,19506835940
Indian_Rhino              |1986523,09375000000|1986523,09375000000|1986523,09375000000|1986523,09375000000|1986523,09375000000|1986523,09375000000|1986523,09375000000|1986523,09375000000|1986523,09375000000|1986523,09375000000|1823259,19506835940|1791758,40368652340|1756781,36352539060|1756781,36352539060|1756781,36352539060|1756781,36352539060|1756781,36352539060|1791758,40368652340|1823259,19506835940|1823259,19506835940|  0,00000000000|1313596,47753906250|1823259,19506835940|1823259,19506835940|1823259,19506835940|1823259,19506835940|1927551,98352050780|1978890,83630371100|1882293,14074707030|1882293,14074707030|1756781,36352539060
White_Rhino               |1986523,09375000000|1986523,09375000000|1986523,09375000000|1986523,09375000000|1986523,09375000000|1986523,09375000000|1986523,09375000000|1986523,09375000000|1986523,09375000000|1986523,09375000000|1823259,19506835940|1791758,40368652340|1756781,36352539060|1756781,36352539060|1756781,36352539060|1756781,36352539060|1756781,36352539060|1791758,40368652340|1823259,19506835940|1823259,19506835940|1313596,47753906250|  0,00000000000|1823259,19506835940|1823259,19506835940|1823259,19506835940|1823259,19506835940|1927551,98352050780|1978890,83630371100|1882293,14074707030|1882293,14074707030|1756781,36352539060
Black_Bear                |1986523,09375000000|1986523,09375000000|1986523,09375000000|1986523,09375000000|1986523,09375000000|1986523,09375000000|1986523,09375000000|1986523,09375000000|1986523,09375000000|1986523,09375000000|1809767,28051757810|1823259,19506835940|1823259,19506835940|1823259,19506835940|1823259,19506835940|1823259,19506835940|1823259,19506835940|1823259,19506835940|1809767,28051757810|1809767,28051757810|1823259,19506835940|1823259,19506835940|  0,00000000000|1332656,76843261720|1332656,76843261720|1626866,44360351560|1927551,98352050780|1978890,83630371100|1882293,14074707030|1882293,14074707030|1823259,19506835940
Brown_Bear                |1986523,09375000000|1986523,09375000000|1986523,09375000000|1986523,09375000000|1986523,09375000000|1986523,09375000000|1986523,09375000000|1986523,09375000000|1986523,09375000000|1986523,09375000000|1809767,28051757810|1823259,19506835940|1823259,19506835940|1823259,19506835940|1823259,19506835940|1823259,19506835940|1823259,19506835940|1823259,19506835940|1809767,28051757810|1809767,28051757810|1823259,19506835940|1823259,19506835940|1332656,76843261720|  0,00000000000|743356,46997070310|1626866,44360351560|1927551,98352050780|1978890,83630371100|1882293,14074707030|1882293,14074707030|1823259,19506835940
Polar_Bear                |1986523,09375000000|1986523,09375000000|1986523,09375000000|1986523,09375000000|1986523,09375000000|1986523,09375000000|1986523,09375000000|1986523,09375000000|1986523,09375000000|1986523,09375000000|1809767,28051757810|1823259,19506835940|1823259,19506835940|1823259,19506835940|1823259,19506835940|1823259,19506835940|1823259,19506835940|1823259,19506835940|1809767,28051757810|1809767,28051757810|1823259,19506835940|1823259,19506835940|1332656,76843261720|743356,46997070310|  0,00000000000|1626866,44360351560|1927551,98352050780|1978890,83630371100|1882293,14074707030|1882293,14074707030|1823259,19506835940
Giant_Panda               |1986523,09375000000|1986523,09375000000|1986523,09375000000|1986523,09375000000|1986523,09375000000|1986523,09375000000|1986523,09375000000|1986523,09375000000|1986523,09375000000|1986523,09375000000|1809767,28051757810|1823259,19506835940|1823259,19506835940|1823259,19506835940|1823259,19506835940|1823259,19506835940|1823259,19506835940|1823259,19506835940|1809767,28051757810|1809767,28051757810|1823259,19506835940|1823259,19506835940|1626866,44360351560|1626866,44360351560|1626866,44360351560|  0,00000000000|1927551,98352050780|1978890,83630371100|1882293,14074707030|1882293,14074707030|1823259,19506835940
Rabbit                    |1986523,09375000000|1986523,09375000000|1986523,09375000000|1986523,09375000000|1986523,09375000000|1986523,09375000000|1986523,09375000000|1986523,09375000000|1986523,09375000000|1986523,09375000000|1927551,98352050780|1927551,98352050780|1927551,98352050780|1927551,98352050780|1927551,98352050780|1927551,98352050780|1927551,98352050780|1927551,98352050780|1927551,98352050780|1927551,98352050780|1927551,98352050780|1927551,98352050780|1927551,98352050780|1927551,98352050780|1927551,98352050780|1927551,98352050780|  0,00000000000|1978890,83630371100|1927551,98352050780|1927551,98352050780|1927551,98352050780
Hedgehog                  |1986523,09375000000|1986523,09375000000|1986523,09375000000|1986523,09375000000|1986523,09375000000|1986523,09375000000|1986523,09375000000|1986523,09375000000|1986523,09375000000|1986523,09375000000|1978890,83630371100|1978890,83630371100|1978890,83630371100|1978890,83630371100|1978890,83630371100|1978890,83630371100|1978890,83630371100|1978890,83630371100|1978890,83630371100|1978890,83630371100|1978890,83630371100|1978890,83630371100|1978890,83630371100|1978890,83630371100|1978890,83630371100|1978890,83630371100|1978890,83630371100|  0,00000000000|1978890,83630371100|1978890,83630371100|1978890,83630371100
Dormouse                  |1986523,09375000000|1986523,09375000000|1986523,09375000000|1986523,09375000000|1986523,09375000000|1986523,09375000000|1986523,09375000000|1986523,09375000000|1986523,09375000000|1986523,09375000000|1882293,14074707030|1882293,14074707030|1882293,14074707030|1882293,14074707030|1882293,14074707030|1882293,14074707030|1882293,14074707030|1882293,14074707030|1882293,14074707030|1882293,14074707030|1882293,14074707030|1882293,14074707030|1882293,14074707030|1882293,14074707030|1882293,14074707030|1882293,14074707030|1927551,98352050780|1978890,83630371100|  0,00000000000|1873469,19750976560|1882293,14074707030
Squirrel                  |1986523,09375000000|1986523,09375000000|1986523,09375000000|1986523,09375000000|1986523,09375000000|1986523,09375000000|1986523,09375000000|1986523,09375000000|1986523,09375000000|1986523,09375000000|1882293,14074707030|1882293,14074707030|1882293,14074707030|1882293,14074707030|1882293,14074707030|1882293,14074707030|1882293,14074707030|1882293,14074707030|1882293,14074707030|1882293,14074707030|1882293,14074707030|1882293,14074707030|1882293,14074707030|1882293,14074707030|1882293,14074707030|1882293,14074707030|1927551,98352050780|1978890,83630371100|1873469,19750976560|  0,00000000000|1882293,14074707030
Blue_Whale                |1986523,09375000000|1986523,09375000000|1986523,09375000000|1986523,09375000000|1986523,09375000000|1986523,09375000000|1986523,09375000000|1986523,09375000000|1986523,09375000000|1986523,09375000000|1823259,19506835940|1791758,40368652340|1729980,11596679690|1729980,11596679690|1729980,11596679690|1729980,11596679690|1729980,11596679690|1791758,40368652340|1823259,19506835940|1823259,19506835940|1756781,36352539060|1756781,36352539060|1823259,19506835940|1823259,19506835940|1823259,19506835940|1823259,19506835940|1927551,98352050780|1978890,83630371100|1882293,14074707030|1882293,14074707030|  0,00000000000
                           |Human          |Pig_Chim       |Com_Chim       |Gibbon         |Baboon         |Ver_Monkey     |Macaca_Thibet  |Bor_Oran       |Sum_Oran       |Gorilla        |Cat            |Dog            |Pig            |Sheep          |Goat           |Cow            |Buffalo        |Wolf           |Tiger          |Leopard        |Indian_Rhino   |White_Rhino    |Black_Bear     |Brown_Bear     |Polar_Bear     |Giant_Panda    |Rabbit         |Hedgehog       |Dormouse       |Squirrel       |Blue_Whale     
Human                     |  0,00000000000|  6,66104548762|  6,66104548762|  8,14076548501|  9,59928275218|  9,59928275218|  9,59928275218|  8,24853982412|  8,24853982412|  6,66104548762| 10,66520822752| 10,66520822752| 10,66520822752| 10,66520822752| 10,66520822752| 10,66520822752| 10,66520822752| 10,66520822752| 10,66520822752| 10,66520822752| 10,66520822752| 10,66520822752| 10,66520822752| 10,66520822752| 10,66520822752| 10,66520822752| 10,66520822752| 10,66520822752| 10,66520822752| 10,66520822752| 10,66520822752
Pig_Chim                  |  6,66104548762|  0,00000000000|  4,03409436682|  8,14076548501|  9,59928275218|  9,59928275218|  9,59928275218|  8,24853982412|  8,24853982412|  5,95167427013| 10,66520822752| 10,66520822752| 10,66520822752| 10,66520822752| 10,66520822752| 10,66520822752| 10,66520822752| 10,66520822752| 10,66520822752| 10,66520822752| 10,66520822752| 10,66520822752| 10,66520822752| 10,66520822752| 10,66520822752| 10,66520822752| 10,66520822752| 10,66520822752| 10,66520822752| 10,66520822752| 10,66520822752
Com_Chim                  |  6,66104548762|  4,03409436682|  0,00000000000|  8,14076548501|  9,59928275218|  9,59928275218|  9,59928275218|  8,24853982412|  8,24853982412|  5,95167427013| 10,66520822752| 10,66520822752| 10,66520822752| 10,66520822752| 10,66520822752| 10,66520822752| 10,66520822752| 10,66520822752| 10,66520822752| 10,66520822752| 10,66520822752| 10,66520822752| 10,66520822752| 10,66520822752| 10,66520822752| 10,66520822752| 10,66520822752| 10,66520822752| 10,66520822752| 10,66520822752| 10,66520822752
Gibbon                    |  8,14076548501|  8,14076548501|  8,14076548501|  0,00000000000|  9,59928275218|  9,59928275218|  9,59928275218|  8,24853982412|  8,24853982412|  8,14076548501| 10,66520822752| 10,66520822752| 10,66520822752| 10,66520822752| 10,66520822752| 10,66520822752| 10,66520822752| 10,66520822752| 10,66520822752| 10,66520822752| 10,66520822752| 10,66520822752| 10,66520822752| 10,66520822752| 10,66520822752| 10,66520822752| 10,66520822752| 10,66520822752| 10,66520822752| 10,66520822752| 10,66520822752
Baboon                    |  9,59928275218|  9,59928275218|  9,59928275218|  9,59928275218|  0,00000000000|  9,17389376578|  8,39993352542|  9,59928275218|  9,59928275218|  9,59928275218| 10,66520822752| 10,66520822752| 10,66520822752| 10,66520822752| 10,66520822752| 10,66520822752| 10,66520822752| 10,66520822752| 10,66520822752| 10,66520822752| 10,66520822752| 10,66520822752| 10,66520822752| 10,66520822752| 10,66520822752| 10,66520822752| 10,66520822752| 10,66520822752| 10,66520822752| 10,66520822752| 10,66520822752
Ver_Monkey                |  9,59928275218|  9,59928275218|  9,59928275218|  9,59928275218|  9,17389376578|  0,00000000000|  9,17389376578|  9,59928275218|  9,59928275218|  9,59928275218| 10,66520822752| 10,66520822752| 10,66520822752| 10,66520822752| 10,66520822752| 10,66520822752| 10,66520822752| 10,66520822752| 10,66520822752| 10,66520822752| 10,66520822752| 10,66520822752| 10,66520822752| 10,66520822752| 10,66520822752| 10,66520822752| 10,66520822752| 10,66520822752| 10,66520822752| 10,66520822752| 10,66520822752
Macaca_Thibet             |  9,59928275218|  9,59928275218|  9,59928275218|  9,59928275218|  8,39993352542|  9,17389376578|  0,00000000000|  9,59928275218|  9,59928275218|  9,59928275218| 10,66520822752| 10,66520822752| 10,66520822752| 10,66520822752| 10,66520822752| 10,66520822752| 10,66520822752| 10,66520822752| 10,66520822752| 10,66520822752| 10,66520822752| 10,66520822752| 10,66520822752| 10,66520822752| 10,66520822752| 10,66520822752| 10,66520822752| 10,66520822752| 10,66520822752| 10,66520822752| 10,66520822752
Bor_Oran                  |  8,24853982412|  8,24853982412|  8,24853982412|  8,24853982412|  9,59928275218|  9,59928275218|  9,59928275218|  0,00000000000|  6,28047597004|  8,24853982412| 10,66520822752| 10,66520822752| 10,66520822752| 10,66520822752| 10,66520822752| 10,66520822752| 10,66520822752| 10,66520822752| 10,66520822752| 10,66520822752| 10,66520822752| 10,66520822752| 10,66520822752| 10,66520822752| 10,66520822752| 10,66520822752| 10,66520822752| 10,66520822752| 10,66520822752| 10,66520822752| 10,66520822752
Sum_Oran                  |  8,24853982412|  8,24853982412|  8,24853982412|  8,24853982412|  9,59928275218|  9,59928275218|  9,59928275218|  6,28047597004|  0,00000000000|  8,24853982412| 10,66520822752| 10,66520822752| 10,66520822752| 10,66520822752| 10,66520822752| 10,66520822752| 10,66520822752| 10,66520822752| 10,66520822752| 10,66520822752| 10,66520822752| 10,66520822752| 10,66520822752| 10,66520822752| 10,66520822752| 10,66520822752| 10,66520822752| 10,66520822752| 10,66520822752| 10,66520822752| 10,66520822752
Gorilla                   |  6,66104548762|  5,95167427013|  5,95167427013|  8,14076548501|  9,59928275218|  9,59928275218|  9,59928275218|  8,24853982412|  8,24853982412|  0,00000000000| 10,66520822752| 10,66520822752| 10,66520822752| 10,66520822752| 10,66520822752| 10,66520822752| 10,66520822752| 10,66520822752| 10,66520822752| 10,66520822752| 10,66520822752| 10,66520822752| 10,66520822752| 10,66520822752| 10,66520822752| 10,66520822752| 10,66520822752| 10,66520822752| 10,66520822752| 10,66520822752| 10,66520822752
Cat                       | 10,66520822752| 10,66520822752| 10,66520822752| 10,66520822752| 10,66520822752| 10,66520822752| 10,66520822752| 10,66520822752| 10,66520822752| 10,66520822752|  0,00000000000|  9,71591697054|  9,71591697054|  9,71591697054|  9,71591697054|  9,71591697054|  9,71591697054|  9,71591697054|  7,52601601417|  7,52601601417|  9,71591697054|  9,71591697054|  9,63746878557|  9,63746878557|  9,63746878557|  9,63746878557| 10,32232312060| 10,62083077897| 10,05916743161| 10,05916743161|  9,71591697054
Dog                       | 10,66520822752| 10,66520822752| 10,66520822752| 10,66520822752| 10,66520822752| 10,66520822752| 10,66520822752| 10,66520822752| 10,66520822752| 10,66520822752|  9,71591697054|  0,00000000000|  9,53275690829|  9,53275690829|  9,53275690829|  9,53275690829|  9,53275690829|  3,76440684353|  9,71591697054|  9,71591697054|  9,53275690829|  9,53275690829|  9,71591697054|  9,71591697054|  9,71591697054|  9,71591697054| 10,32232312060| 10,62083077897| 10,05916743161| 10,05916743161|  9,53275690829
Pig                       | 10,66520822752| 10,66520822752| 10,66520822752| 10,66520822752| 10,66520822752| 10,66520822752| 10,66520822752| 10,66520822752| 10,66520822752| 10,66520822752|  9,71591697054|  9,53275690829|  0,00000000000|  9,08049071045|  9,08049071045|  9,08049071045|  9,08049071045|  9,53275690829|  9,71591697054|  9,71591697054|  9,32938433977|  9,32938433977|  9,71591697054|  9,71591697054|  9,71591697054|  9,71591697054| 10,32232312060| 10,62083077897| 10,05916743161| 10,05916743161|  9,17354958274
Sheep                     | 10,66520822752| 10,66520822752| 10,66520822752| 10,66520822752| 10,66520822752| 10,66520822752| 10,66520822752| 10,66520822752| 10,66520822752| 10,66520822752|  9,71591697054|  9,53275690829|  9,08049071045|  0,00000000000|  6,61856787879|  7,89994663746|  7,89994663746|  9,53275690829|  9,71591697054|  9,71591697054|  9,32938433977|  9,32938433977|  9,71591697054|  9,71591697054|  9,71591697054|  9,71591697054| 10,32232312060| 10,62083077897| 10,05916743161| 10,05916743161|  9,17354958274
Goat                      | 10,66520822752| 10,66520822752| 10,66520822752| 10,66520822752| 10,66520822752| 10,66520822752| 10,66520822752| 10,66520822752| 10,66520822752| 10,66520822752|  9,71591697054|  9,53275690829|  9,08049071045|  6,61856787879|  0,00000000000|  7,89994663746|  7,89994663746|  9,53275690829|  9,71591697054|  9,71591697054|  9,32938433977|  9,32938433977|  9,71591697054|  9,71591697054|  9,71591697054|  9,71591697054| 10,32232312060| 10,62083077897| 10,05916743161| 10,05916743161|  9,17354958274
Cow                       | 10,66520822752| 10,66520822752| 10,66520822752| 10,66520822752| 10,66520822752| 10,66520822752| 10,66520822752| 10,66520822752| 10,66520822752| 10,66520822752|  9,71591697054|  9,53275690829|  9,08049071045|  7,89994663746|  7,89994663746|  0,00000000000|  7,76800374827|  9,53275690829|  9,71591697054|  9,71591697054|  9,32938433977|  9,32938433977|  9,71591697054|  9,71591697054|  9,71591697054|  9,71591697054| 10,32232312060| 10,62083077897| 10,05916743161| 10,05916743161|  9,17354958274
Buffalo                   | 10,66520822752| 10,66520822752| 10,66520822752| 10,66520822752| 10,66520822752| 10,66520822752| 10,66520822752| 10,66520822752| 10,66520822752| 10,66520822752|  9,71591697054|  9,53275690829|  9,08049071045|  7,89994663746|  7,89994663746|  7,76800374827|  0,00000000000|  9,53275690829|  9,71591697054|  9,71591697054|  9,32938433977|  9,32938433977|  9,71591697054|  9,71591697054|  9,71591697054|  9,71591697054| 10,32232312060| 10,62083077897| 10,05916743161| 10,05916743161|  9,17354958274
Wolf                      | 10,66520822752| 10,66520822752| 10,66520822752| 10,66520822752| 10,66520822752| 10,66520822752| 10,66520822752| 10,66520822752| 10,66520822752| 10,66520822752|  9,71591697054|  3,76440684353|  9,53275690829|  9,53275690829|  9,53275690829|  9,53275690829|  9,53275690829|  0,00000000000|  9,71591697054|  9,71591697054|  9,53275690829|  9,53275690829|  9,71591697054|  9,71591697054|  9,71591697054|  9,71591697054| 10,32232312060| 10,62083077897| 10,05916743161| 10,05916743161|  9,53275690829
Tiger                     | 10,66520822752| 10,66520822752| 10,66520822752| 10,66520822752| 10,66520822752| 10,66520822752| 10,66520822752| 10,66520822752| 10,66520822752| 10,66520822752|  7,52601601417|  9,71591697054|  9,71591697054|  9,71591697054|  9,71591697054|  9,71591697054|  9,71591697054|  9,71591697054|  0,00000000000|  7,29271827164|  9,71591697054|  9,71591697054|  9,63746878557|  9,63746878557|  9,63746878557|  9,63746878557| 10,32232312060| 10,62083077897| 10,05916743161| 10,05916743161|  9,71591697054
Leopard                   | 10,66520822752| 10,66520822752| 10,66520822752| 10,66520822752| 10,66520822752| 10,66520822752| 10,66520822752| 10,66520822752| 10,66520822752| 10,66520822752|  7,52601601417|  9,71591697054|  9,71591697054|  9,71591697054|  9,71591697054|  9,71591697054|  9,71591697054|  9,71591697054|  7,29271827164|  0,00000000000|  9,71591697054|  9,71591697054|  9,63746878557|  9,63746878557|  9,63746878557|  9,63746878557| 10,32232312060| 10,62083077897| 10,05916743161| 10,05916743161|  9,71591697054
Indian_Rhino              | 10,66520822752| 10,66520822752| 10,66520822752| 10,66520822752| 10,66520822752| 10,66520822752| 10,66520822752| 10,66520822752| 10,66520822752| 10,66520822752|  9,71591697054|  9,53275690829|  9,32938433977|  9,32938433977|  9,32938433977|  9,32938433977|  9,32938433977|  9,53275690829|  9,71591697054|  9,71591697054|  0,00000000000|  6,75250395844|  9,71591697054|  9,71591697054|  9,71591697054|  9,71591697054| 10,32232312060| 10,62083077897| 10,05916743161| 10,05916743161|  9,32938433977
White_Rhino               | 10,66520822752| 10,66520822752| 10,66520822752| 10,66520822752| 10,66520822752| 10,66520822752| 10,66520822752| 10,66520822752| 10,66520822752| 10,66520822752|  9,71591697054|  9,53275690829|  9,32938433977|  9,32938433977|  9,32938433977|  9,32938433977|  9,32938433977|  9,53275690829|  9,71591697054|  9,71591697054|  6,75250395844|  0,00000000000|  9,71591697054|  9,71591697054|  9,71591697054|  9,71591697054| 10,32232312060| 10,62083077897| 10,05916743161| 10,05916743161|  9,32938433977
Black_Bear                | 10,66520822752| 10,66520822752| 10,66520822752| 10,66520822752| 10,66520822752| 10,66520822752| 10,66520822752| 10,66520822752| 10,66520822752| 10,66520822752|  9,63746878557|  9,71591697054|  9,71591697054|  9,71591697054|  9,71591697054|  9,71591697054|  9,71591697054|  9,71591697054|  9,63746878557|  9,63746878557|  9,71591697054|  9,71591697054|  0,00000000000|  6,86332923976|  6,86332923976|  8,57399935492| 10,32232312060| 10,62083077897| 10,05916743161| 10,05916743161|  9,71591697054
Brown_Bear                | 10,66520822752| 10,66520822752| 10,66520822752| 10,66520822752| 10,66520822752| 10,66520822752| 10,66520822752| 10,66520822752| 10,66520822752| 10,66520822752|  9,63746878557|  9,71591697054|  9,71591697054|  9,71591697054|  9,71591697054|  9,71591697054|  9,71591697054|  9,71591697054|  9,63746878557|  9,63746878557|  9,71591697054|  9,71591697054|  6,86332923976|  0,00000000000|  3,43686677265|  8,57399935492| 10,32232312060| 10,62083077897| 10,05916743161| 10,05916743161|  9,71591697054
Polar_Bear                | 10,66520822752| 10,66520822752| 10,66520822752| 10,66520822752| 10,66520822752| 10,66520822752| 10,66520822752| 10,66520822752| 10,66520822752| 10,66520822752|  9,63746878557|  9,71591697054|  9,71591697054|  9,71591697054|  9,71591697054|  9,71591697054|  9,71591697054|  9,71591697054|  9,63746878557|  9,63746878557|  9,71591697054|  9,71591697054|  6,86332923976|  3,43686677265|  0,00000000000|  8,57399935492| 10,32232312060| 10,62083077897| 10,05916743161| 10,05916743161|  9,71591697054
Giant_Panda               | 10,66520822752| 10,66520822752| 10,66520822752| 10,66520822752| 10,66520822752| 10,66520822752| 10,66520822752| 10,66520822752| 10,66520822752| 10,66520822752|  9,63746878557|  9,71591697054|  9,71591697054|  9,71591697054|  9,71591697054|  9,71591697054|  9,71591697054|  9,71591697054|  9,63746878557|  9,63746878557|  9,71591697054|  9,71591697054|  8,57399935492|  8,57399935492|  8,57399935492|  0,00000000000| 10,32232312060| 10,62083077897| 10,05916743161| 10,05916743161|  9,71591697054
Rabbit                    | 10,66520822752| 10,66520822752| 10,66520822752| 10,66520822752| 10,66520822752| 10,66520822752| 10,66520822752| 10,66520822752| 10,66520822752| 10,66520822752| 10,32232312060| 10,32232312060| 10,32232312060| 10,32232312060| 10,32232312060| 10,32232312060| 10,32232312060| 10,32232312060| 10,32232312060| 10,32232312060| 10,32232312060| 10,32232312060| 10,32232312060| 10,32232312060| 10,32232312060| 10,32232312060|  0,00000000000| 10,62083077897| 10,32232312060| 10,32232312060| 10,32232312060
Hedgehog                  | 10,66520822752| 10,66520822752| 10,66520822752| 10,66520822752| 10,66520822752| 10,66520822752| 10,66520822752| 10,66520822752| 10,66520822752| 10,66520822752| 10,62083077897| 10,62083077897| 10,62083077897| 10,62083077897| 10,62083077897| 10,62083077897| 10,62083077897| 10,62083077897| 10,62083077897| 10,62083077897| 10,62083077897| 10,62083077897| 10,62083077897| 10,62083077897| 10,62083077897| 10,62083077897| 10,62083077897|  0,00000000000| 10,62083077897| 10,62083077897| 10,62083077897
Dormouse                  | 10,66520822752| 10,66520822752| 10,66520822752| 10,66520822752| 10,66520822752| 10,66520822752| 10,66520822752| 10,66520822752| 10,66520822752| 10,66520822752| 10,05916743161| 10,05916743161| 10,05916743161| 10,05916743161| 10,05916743161| 10,05916743161| 10,05916743161| 10,05916743161| 10,05916743161| 10,05916743161| 10,05916743161| 10,05916743161| 10,05916743161| 10,05916743161| 10,05916743161| 10,05916743161| 10,32232312060| 10,62083077897|  0,00000000000| 10,00786097479| 10,05916743161
Squirrel                  | 10,66520822752| 10,66520822752| 10,66520822752| 10,66520822752| 10,66520822752| 10,66520822752| 10,66520822752| 10,66520822752| 10,66520822752| 10,66520822752| 10,05916743161| 10,05916743161| 10,05916743161| 10,05916743161| 10,05916743161| 10,05916743161| 10,05916743161| 10,05916743161| 10,05916743161| 10,05916743161| 10,05916743161| 10,05916743161| 10,05916743161| 10,05916743161| 10,05916743161| 10,05916743161| 10,32232312060| 10,62083077897| 10,00786097479|  0,00000000000| 10,05916743161
Blue_Whale                | 10,66520822752| 10,66520822752| 10,66520822752| 10,66520822752| 10,66520822752| 10,66520822752| 10,66520822752| 10,66520822752| 10,66520822752| 10,66520822752|  9,71591697054|  9,53275690829|  9,17354958274|  9,17354958274|  9,17354958274|  9,17354958274|  9,17354958274|  9,53275690829|  9,71591697054|  9,71591697054|  9,32938433977|  9,32938433977|  9,71591697054|  9,71591697054|  9,71591697054|  9,71591697054| 10,32232312060| 10,62083077897| 10,05916743161| 10,05916743161|  0,00000000000
                           |Human          |Pig_Chim       |Com_Chim       |Gibbon         |Baboon         |Ver_Monkey     |Macaca_Thibet  |Bor_Oran       |Sum_Oran       |Gorilla        |Cat            |Dog            |Pig            |Sheep          |Goat           |Cow            |Buffalo        |Wolf           |Tiger          |Leopard        |Indian_Rhino   |White_Rhino    |Black_Bear     |Brown_Bear     |Polar_Bear     |Giant_Panda    |Rabbit         |Hedgehog       |Dormouse       |Squirrel       |Blue_Whale     
Human                     |  0,00000000000|  4,00000000000|  4,00000000000|  3,00000000000|  7,00000000000|  6,00000000000|  7,00000000000|  5,00000000000|  5,00000000000|  3,00000000000| 12,00000000000| 12,00000000000| 14,00000000000| 16,00000000000| 16,00000000000| 16,00000000000| 16,00000000000| 12,00000000000| 13,00000000000| 13,00000000000| 13,00000000000| 13,00000000000| 13,00000000000| 14,00000000000| 14,00000000000| 12,00000000000|  8,00000000000|  7,00000000000| 10,00000000000| 10,00000000000| 13,00000000000
Pig_Chim                  |  4,00000000000|  0,00000000000|  2,00000000000|  5,00000000000|  9,00000000000|  8,00000000000|  9,00000000000|  7,00000000000|  7,00000000000|  3,00000000000| 14,00000000000| 14,00000000000| 16,00000000000| 18,00000000000| 18,00000000000| 18,00000000000| 18,00000000000| 14,00000000000| 15,00000000000| 15,00000000000| 15,00000000000| 15,00000000000| 15,00000000000| 16,00000000000| 16,00000000000| 14,00000000000| 10,00000000000|  9,00000000000| 12,00000000000| 12,00000000000| 15,00000000000
Com_Chim                  |  4,00000000000|  2,00000000000|  0,00000000000|  5,00000000000|  9,00000000000|  8,00000000000|  9,00000000000|  7,00000000000|  7,00000000000|  3,00000000000| 14,00000000000| 14,00000000000| 16,00000000000| 18,00000000000| 18,00000000000| 18,00000000000| 18,00000000000| 14,00000000000| 15,00000000000| 15,00000000000| 15,00000000000| 15,00000000000| 15,00000000000| 16,00000000000| 16,00000000000| 14,00000000000| 10,00000000000|  9,00000000000| 12,00000000000| 12,00000000000| 15,00000000000
Gibbon                    |  3,00000000000|  5,00000000000|  5,00000000000|  0,00000000000|  6,00000000000|  5,00000000000|  6,00000000000|  4,00000000000|  4,00000000000|  4,00000000000| 11,00000000000| 11,00000000000| 13,00000000000| 15,00000000000| 15,00000000000| 15,00000000000| 15,00000000000| 11,00000000000| 12,00000000000| 12,00000000000| 12,00000000000| 12,00000000000| 12,00000000000| 13,00000000000| 13,00000000000| 11,00000000000|  7,00000000000|  6,00000000000|  9,00000000000|  9,00000000000| 12,00000000000
Baboon                    |  7,00000000000|  9,00000000000|  9,00000000000|  6,00000000000|  0,00000000000|  3,00000000000|  2,00000000000|  6,00000000000|  6,00000000000|  8,00000000000| 11,00000000000| 11,00000000000| 13,00000000000| 15,00000000000| 15,00000000000| 15,00000000000| 15,00000000000| 11,00000000000| 12,00000000000| 12,00000000000| 12,00000000000| 12,00000000000| 12,00000000000| 13,00000000000| 13,00000000000| 11,00000000000|  7,00000000000|  6,00000000000|  9,00000000000|  9,00000000000| 12,00000000000
Ver_Monkey                |  6,00000000000|  8,00000000000|  8,00000000000|  5,00000000000|  3,00000000000|  0,00000000000|  3,00000000000|  5,00000000000|  5,00000000000|  7,00000000000| 10,00000000000| 10,00000000000| 12,00000000000| 14,00000000000| 14,00000000000| 14,00000000000| 14,00000000000| 10,00000000000| 11,00000000000| 11,00000000000| 11,00000000000| 11,00000000000| 11,00000000000| 12,00000000000| 12,00000000000| 10,00000000000|  6,00000000000|  5,00000000000|  8,00000000000|  8,00000000000| 11,00000000000
Macaca_Thibet             |  7,00000000000|  9,00000000000|  9,00000000000|  6,00000000000|  2,00000000000|  3,00000000000|  0,00000000000|  6,00000000000|  6,00000000000|  8,00000000000| 11,00000000000| 11,00000000000| 13,00000000000| 15,00000000000| 15,00000000000| 15,00000000000| 15,00000000000| 11,00000000000| 12,00000000000| 12,00000000000| 12,00000000000| 12,00000000000| 12,00000000000| 13,00000000000| 13,00000000000| 11,00000000000|  7,00000000000|  6,00000000000|  9,00000000000|  9,00000000000| 12,00000000000
Bor_Oran                  |  5,00000000000|  7,00000000000|  7,00000000000|  4,00000000000|  6,00000000000|  5,00000000000|  6,00000000000|  0,00000000000|  2,00000000000|  6,00000000000| 11,00000000000| 11,00000000000| 13,00000000000| 15,00000000000| 15,00000000000| 15,00000000000| 15,00000000000| 11,00000000000| 12,00000000000| 12,00000000000| 12,00000000000| 12,00000000000| 12,00000000000| 13,00000000000| 13,00000000000| 11,00000000000|  7,00000000000|  6,00000000000|  9,00000000000|  9,00000000000| 12,00000000000
Sum_Oran                  |  5,00000000000|  7,00000000000|  7,00000000000|  4,00000000000|  6,00000000000|  5,00000000000|  6,00000000000|  2,00000000000|  0,00000000000|  6,00000000000| 11,00000000000| 11,00000000000| 13,00000000000| 15,00000000000| 15,00000000000| 15,00000000000| 15,00000000000| 11,00000000000| 12,00000000000| 12,00000000000| 12,00000000000| 12,00000000000| 12,00000000000| 13,00000000000| 13,00000000000| 11,00000000000|  7,00000000000|  6,00000000000|  9,00000000000|  9,00000000000| 12,00000000000
Gorilla                   |  3,00000000000|  3,00000000000|  3,00000000000|  4,00000000000|  8,00000000000|  7,00000000000|  8,00000000000|  6,00000000000|  6,00000000000|  0,00000000000| 13,00000000000| 13,00000000000| 15,00000000000| 17,00000000000| 17,00000000000| 17,00000000000| 17,00000000000| 13,00000000000| 14,00000000000| 14,00000000000| 14,00000000000| 14,00000000000| 14,00000000000| 15,00000000000| 15,00000000000| 13,00000000000|  9,00000000000|  8,00000000000| 11,00000000000| 11,00000000000| 14,00000000000
Cat                       | 12,00000000000| 14,00000000000| 14,00000000000| 11,00000000000| 11,00000000000| 10,00000000000| 11,00000000000| 11,00000000000| 11,00000000000| 13,00000000000|  0,00000000000|  6,00000000000|  8,00000000000| 10,00000000000| 10,00000000000| 10,00000000000| 10,00000000000|  6,00000000000|  3,00000000000|  3,00000000000|  7,00000000000|  7,00000000000|  5,00000000000|  6,00000000000|  6,00000000000|  4,00000000000|  6,00000000000|  7,00000000000|  6,00000000000|  6,00000000000|  7,00000000000
Dog                       | 12,00000000000| 14,00000000000| 14,00000000000| 11,00000000000| 11,00000000000| 10,00000000000| 11,00000000000| 11,00000000000| 11,00000000000| 13,00000000000|  6,00000000000|  0,00000000000|  6,00000000000|  8,00000000000|  8,00000000000|  8,00000000000|  8,00000000000|  2,00000000000|  7,00000000000|  7,00000000000|  5,00000000000|  5,00000000000|  7,00000000000|  8,00000000000|  8,00000000000|  6,00000000000|  6,00000000000|  7,00000000000|  6,00000000000|  6,00000000000|  5,00000000000
Pig                       | 14,00000000000| 16,00000000000| 16,00000000000| 13,00000000000| 13,00000000000| 12,00000000000| 13,00000000000| 13,00000000000| 13,00000000000| 15,00000000000|  8,00000000000|  6,00000000000|  0,00000000000|  4,00000000000|  4,00000000000|  4,00000000000|  4,00000000000|  6,00000000000|  9,00000000000|  9,00000000000|  5,00000000000|  5,00000000000|  9,00000000000| 10,00000000000| 10,00000000000|  8,00000000000|  8,00000000000|  9,00000000000|  8,00000000000|  8,00000000000|  3,00000000000
Sheep                     | 16,00000000000| 18,00000000000| 18,00000000000| 15,00000000000| 15,00000000000| 14,00000000000| 15,00000000000| 15,00000000000| 15,00000000000| 17,00000000000| 10,00000000000|  8,00000000000|  4,00000000000|  0,00000000000|  2,00000000000|  4,00000000000|  4,00000000000|  8,00000000000| 11,00000000000| 11,00000000000|  7,00000000000|  7,00000000000| 11,00000000000| 12,00000000000| 12,00000000000| 10,00000000000| 10,00000000000| 11,00000000000| 10,00000000000| 10,00000000000|  5,00000000000
Goat                      | 16,00000000000| 18,00000000000| 18,00000000000| 15,00000000000| 15,00000000000| 14,00000000000| 15,00000000000| 15,00000000000| 15,00000000000| 17,00000000000| 10,00000000000|  8,00000000000|  4,00000000000|  2,00000000000|  0,00000000000|  4,00000000000|  4,00000000000|  8,00000000000| 11,00000000000| 11,00000000000|  7,00000000000|  7,00000000000| 11,00000000000| 12,00000000000| 12,00000000000| 10,00000000000| 10,00000000000| 11,00000000000| 10,00000000000| 10,00000000000|  5,00000000000
Cow                       | 16,00000000000| 18,00000000000| 18,00000000000| 15,00000000000| 15,00000000000| 14,00000000000| 15,00000000000| 15,00000000000| 15,00000000000| 17,00000000000| 10,00000000000|  8,00000000000|  4,00000000000|  4,00000000000|  4,00000000000|  0,00000000000|  2,00000000000|  8,00000000000| 11,00000000000| 11,00000000000|  7,00000000000|  7,00000000000| 11,00000000000| 12,00000000000| 12,00000000000| 10,00000000000| 10,00000000000| 11,00000000000| 10,00000000000| 10,00000000000|  5,00000000000
Buffalo                   | 16,00000000000| 18,00000000000| 18,00000000000| 15,00000000000| 15,00000000000| 14,00000000000| 15,00000000000| 15,00000000000| 15,00000000000| 17,00000000000| 10,00000000000|  8,00000000000|  4,00000000000|  4,00000000000|  4,00000000000|  2,00000000000|  0,00000000000|  8,00000000000| 11,00000000000| 11,00000000000|  7,00000000000|  7,00000000000| 11,00000000000| 12,00000000000| 12,00000000000| 10,00000000000| 10,00000000000| 11,00000000000| 10,00000000000| 10,00000000000|  5,00000000000
Wolf                      | 12,00000000000| 14,00000000000| 14,00000000000| 11,00000000000| 11,00000000000| 10,00000000000| 11,00000000000| 11,00000000000| 11,00000000000| 13,00000000000|  6,00000000000|  2,00000000000|  6,00000000000|  8,00000000000|  8,00000000000|  8,00000000000|  8,00000000000|  0,00000000000|  7,00000000000|  7,00000000000|  5,00000000000|  5,00000000000|  7,00000000000|  8,00000000000|  8,00000000000|  6,00000000000|  6,00000000000|  7,00000000000|  6,00000000000|  6,00000000000|  5,00000000000
Tiger                     | 13,00000000000| 15,00000000000| 15,00000000000| 12,00000000000| 12,00000000000| 11,00000000000| 12,00000000000| 12,00000000000| 12,00000000000| 14,00000000000|  3,00000000000|  7,00000000000|  9,00000000000| 11,00000000000| 11,00000000000| 11,00000000000| 11,00000000000|  7,00000000000|  0,00000000000|  2,00000000000|  8,00000000000|  8,00000000000|  6,00000000000|  7,00000000000|  7,00000000000|  5,00000000000|  7,00000000000|  8,00000000000|  7,00000000000|  7,00000000000|  8,00000000000
Leopard                   | 13,00000000000| 15,00000000000| 15,00000000000| 12,00000000000| 12,00000000000| 11,00000000000| 12,00000000000| 12,00000000000| 12,00000000000| 14,00000000000|  3,00000000000|  7,00000000000|  9,00000000000| 11,00000000000| 11,00000000000| 11,00000000000| 11,00000000000|  7,00000000000|  2,00000000000|  0,00000000000|  8,00000000000|  8,00000000000|  6,00000000000|  7,00000000000|  7,00000000000|  5,00000000000|  7,00000000000|  8,00000000000|  7,00000000000|  7,00000000000|  8,00000000000
Indian_Rhino              | 13,00000000000| 15,00000000000| 15,00000000000| 12,00000000000| 12,00000000000| 11,00000000000| 12,00000000000| 12,00000000000| 12,00000000000| 14,00000000000|  7,00000000000|  5,00000000000|  5,00000000000|  7,00000000000|  7,00000000000|  7,00000000000|  7,00000000000|  5,00000000000|  8,00000000000|  8,00000000000|  0,00000000000|  2,00000000000|  8,00000000000|  9,00000000000|  9,00000000000|  7,00000000000|  7,00000000000|  8,00000000000|  7,00000000000|  7,00000000000|  4,00000000000
White_Rhino               | 13,00000000000| 15,00000000000| 15,00000000000| 12,00000000000| 12,00000000000| 11,00000000000| 12,00000000000| 12,00000000000| 12,00000000000| 14,00000000000|  7,00000000000|  5,00000000000|  5,00000000000|  7,00000000000|  7,00000000000|  7,00000000000|  7,00000000000|  5,00000000000|  8,00000000000|  8,00000000000|  2,00000000000|  0,00000000000|  8,00000000000|  9,00000000000|  9,00000000000|  7,00000000000|  7,00000000000|  8,00000000000|  7,00000000000|  7,00000000000|  4,00000000000
Black_Bear                | 13,00000000000| 15,00000000000| 15,00000000000| 12,00000000000| 12,00000000000| 11,00000000000| 12,00000000000| 12,00000000000| 12,00000000000| 14,00000000000|  5,00000000000|  7,00000000000|  9,00000000000| 11,00000000000| 11,00000000000| 11,00000000000| 11,00000000000|  7,00000000000|  6,00000000000|  6,00000000000|  8,00000000000|  8,00000000000|  0,00000000000|  3,00000000000|  3,00000000000|  3,00000000000|  7,00000000000|  8,00000000000|  7,00000000000|  7,00000000000|  8,00000000000
Brown_Bear                | 14,00000000000| 16,00000000000| 16,00000000000| 13,00000000000| 13,00000000000| 12,00000000000| 13,00000000000| 13,00000000000| 13,00000000000| 15,00000000000|  6,00000000000|  8,00000000000| 10,00000000000| 12,00000000000| 12,00000000000| 12,00000000000| 12,00000000000|  8,00000000000|  7,00000000000|  7,00000000000|  9,00000000000|  9,00000000000|  3,00000000000|  0,00000000000|  2,00000000000|  4,00000000000|  8,00000000000|  9,00000000000|  8,00000000000|  8,00000000000|  9,00000000000
Polar_Bear                | 14,00000000000| 16,00000000000| 16,00000000000| 13,00000000000| 13,00000000000| 12,00000000000| 13,00000000000| 13,00000000000| 13,00000000000| 15,00000000000|  6,00000000000|  8,00000000000| 10,00000000000| 12,00000000000| 12,00000000000| 12,00000000000| 12,00000000000|  8,00000000000|  7,00000000000|  7,00000000000|  9,00000000000|  9,00000000000|  3,00000000000|  2,00000000000|  0,00000000000|  4,00000000000|  8,00000000000|  9,00000000000|  8,00000000000|  8,00000000000|  9,00000000000
Giant_Panda               | 12,00000000000| 14,00000000000| 14,00000000000| 11,00000000000| 11,00000000000| 10,00000000000| 11,00000000000| 11,00000000000| 11,00000000000| 13,00000000000|  4,00000000000|  6,00000000000|  8,00000000000| 10,00000000000| 10,00000000000| 10,00000000000| 10,00000000000|  6,00000000000|  5,00000000000|  5,00000000000|  7,00000000000|  7,00000000000|  3,00000000000|  4,00000000000|  4,00000000000|  0,00000000000|  6,00000000000|  7,00000000000|  6,00000000000|  6,00000000000|  7,00000000000
Rabbit                    |  8,00000000000| 10,00000000000| 10,00000000000|  7,00000000000|  7,00000000000|  6,00000000000|  7,00000000000|  7,00000000000|  7,00000000000|  9,00000000000|  6,00000000000|  6,00000000000|  8,00000000000| 10,00000000000| 10,00000000000| 10,00000000000| 10,00000000000|  6,00000000000|  7,00000000000|  7,00000000000|  7,00000000000|  7,00000000000|  7,00000000000|  8,00000000000|  8,00000000000|  6,00000000000|  0,00000000000|  3,00000000000|  4,00000000000|  4,00000000000|  7,00000000000
Hedgehog                  |  7,00000000000|  9,00000000000|  9,00000000000|  6,00000000000|  6,00000000000|  5,00000000000|  6,00000000000|  6,00000000000|  6,00000000000|  8,00000000000|  7,00000000000|  7,00000000000|  9,00000000000| 11,00000000000| 11,00000000000| 11,00000000000| 11,00000000000|  7,00000000000|  8,00000000000|  8,00000000000|  8,00000000000|  8,00000000000|  8,00000000000|  9,00000000000|  9,00000000000|  7,00000000000|  3,00000000000|  0,00000000000|  5,00000000000|  5,00000000000|  8,00000000000
Dormouse                  | 10,00000000000| 12,00000000000| 12,00000000000|  9,00000000000|  9,00000000000|  8,00000000000|  9,00000000000|  9,00000000000|  9,00000000000| 11,00000000000|  6,00000000000|  6,00000000000|  8,00000000000| 10,00000000000| 10,00000000000| 10,00000000000| 10,00000000000|  6,00000000000|  7,00000000000|  7,00000000000|  7,00000000000|  7,00000000000|  7,00000000000|  8,00000000000|  8,00000000000|  6,00000000000|  4,00000000000|  5,00000000000|  0,00000000000|  2,00000000000|  7,00000000000
Squirrel                  | 10,00000000000| 12,00000000000| 12,00000000000|  9,00000000000|  9,00000000000|  8,00000000000|  9,00000000000|  9,00000000000|  9,00000000000| 11,00000000000|  6,00000000000|  6,00000000000|  8,00000000000| 10,00000000000| 10,00000000000| 10,00000000000| 10,00000000000|  6,00000000000|  7,00000000000|  7,00000000000|  7,00000000000|  7,00000000000|  7,00000000000|  8,00000000000|  8,00000000000|  6,00000000000|  4,00000000000|  5,00000000000|  2,00000000000|  0,00000000000|  7,00000000000
Blue_Whale                | 13,00000000000| 15,00000000000| 15,00000000000| 12,00000000000| 12,00000000000| 11,00000000000| 12,00000000000| 12,00000000000| 12,00000000000| 14,00000000000|  7,00000000000|  5,00000000000|  3,00000000000|  5,00000000000|  5,00000000000|  5,00000000000|  5,00000000000|  5,00000000000|  8,00000000000|  8,00000000000|  4,00000000000|  4,00000000000|  8,00000000000|  9,00000000000|  9,00000000000|  7,00000000000|  7,00000000000|  8,00000000000|  7,00000000000|  7,00000000000|  0,00000000000
