                           |Human          |Pig_Chim       |Com_Chim       |Gibbon         |Baboon         |Ver_Monkey     |Macaca_Thibet  |Bor_Oran       |Sum_Oran       |Gorilla        |Cat            |Dog            |Pig            |Sheep          |Goat           |Cow            |Buffalo        |Wolf           |Tiger          |Leopard        |Indian_Rhino   |White_Rhino    |Black_Bear     |Brown_Bear     |Polar_Bear     |Giant_Panda    |Rabbit         |Hedgehog       |Dormouse       |Squirrel       |Blue_Whale     
Human                     |  0,00000000000|50781,51568712912|50781,51568712912|52843,21783577329|58697,91982193780|58697,91982193780|58697,91982193780|54413,04148890672|54413,04148890672|50781,51568712912|67852,09051010691|67852,09051010692|67852,09051010692|67852,09051010692|67852,09051010692|67852,09051010692|67852,09051010692|67852,09051010692|67852,09051010691|67852,09051010691|67852,09051010692|67852,09051010692|67852,09051010691|67852,09051010692|67852,09051010692|67852,09051010691|67852,09051010691|67852,09051010691|67852,09051010691|67852,09051010691|67852,09051010692
Pig_Chim                  |50781,51568712912|  0,00000000000|30632,72670248985|52843,21783577329|58697,91982193781|58697,91982193781|58697,91982193781|54413,04148890672|54413,04148890672|37850,04461285049|67852,09051010691|67852,09051010692|67852,09051010692|67852,09051010692|67852,09051010692|67852,09051010692|67852,09051010692|67852,09051010692|67852,09051010691|67852,09051010691|67852,09051010692|67852,09051010692|67852,09051010691|67852,09051010692|67852,09051010692|67852,09051010691|67852,09051010691|67852,09051010691|67852,09051010691|67852,09051010691|67852,09051010692
Com_Chim                  |50781,51568712912|30632,72670248985|  0,00000000000|52843,21783577329|58697,91982193781|58697,91982193781|58697,91982193781|54413,04148890672|54413,04148890672|37850,04461285049|67852,09051010691|67852,09051010692|67852,09051010692|67852,09051010692|67852,09051010692|67852,09051010692|67852,09051010692|67852,09051010692|67852,09051010691|67852,09051010691|67852,09051010692|67852,09051010692|67852,09051010691|67852,09051010692|67852,09051010692|67852,09051010691|67852,09051010691|67852,09051010691|67852,09051010691|67852,09051010691|67852,09051010692
Gibbon                    |52843,21783577329|52843,21783577329|52843,21783577329|  0,00000000000|58697,91982193781|58697,91982193781|58697,91982193781|54413,04148890672|54413,04148890672|52843,21783577329|67852,09051010691|67852,09051010692|67852,09051010692|67852,09051010692|67852,09051010692|67852,09051010692|67852,09051010692|67852,09051010692|67852,09051010691|67852,09051010691|67852,09051010692|67852,09051010692|67852,09051010691|67852,09051010692|67852,09051010692|67852,09051010691|67852,09051010691|67852,09051010691|67852,09051010691|67852,09051010691|67852,09051010692
Baboon                    |58697,91982193780|58697,91982193781|58697,91982193781|58697,91982193781|  0,00000000000|57944,34957036362|55189,56653346848|58697,91982193781|58697,91982193781|58697,91982193781|67852,09051010691|67852,09051010692|67852,09051010692|67852,09051010692|67852,09051010692|67852,09051010692|67852,09051010692|67852,09051010692|67852,09051010691|67852,09051010691|67852,09051010692|67852,09051010692|67852,09051010691|67852,09051010692|67852,09051010692|67852,09051010691|67852,09051010691|67852,09051010691|67852,09051010691|67852,09051010691|67852,09051010692
Ver_Monkey                |58697,91982193780|58697,91982193781|58697,91982193781|58697,91982193781|57944,34957036362|  0,00000000000|57944,34957036362|58697,91982193781|58697,91982193781|58697,91982193781|67852,09051010691|67852,09051010692|67852,09051010692|67852,09051010692|67852,09051010692|67852,09051010692|67852,09051010692|67852,09051010692|67852,09051010691|67852,09051010691|67852,09051010692|67852,09051010692|67852,09051010691|67852,09051010692|67852,09051010692|67852,09051010691|67852,09051010691|67852,09051010691|67852,09051010691|67852,09051010691|67852,09051010692
Macaca_Thibet             |58697,91982193780|58697,91982193781|58697,91982193781|58697,91982193781|55189,56653346848|57944,34957036362|  0,00000000000|58697,91982193781|58697,91982193781|58697,91982193781|67852,09051010691|67852,09051010692|67852,09051010692|67852,09051010692|67852,09051010692|67852,09051010692|67852,09051010692|67852,09051010692|67852,09051010691|67852,09051010691|67852,09051010692|67852,09051010692|67852,09051010691|67852,09051010692|67852,09051010692|67852,09051010691|67852,09051010691|67852,09051010691|67852,09051010691|67852,09051010691|67852,09051010692
Bor_Oran                  |54413,04148890672|54413,04148890672|54413,04148890672|54413,04148890672|58697,91982193781|58697,91982193781|58697,91982193781|  0,00000000000|42772,18693070323|54413,04148890672|67852,09051010691|67852,09051010692|67852,09051010692|67852,09051010692|67852,09051010692|67852,09051010692|67852,09051010692|67852,09051010692|67852,09051010691|67852,09051010691|67852,09051010692|67852,09051010692|67852,09051010691|67852,09051010692|67852,09051010692|67852,09051010691|67852,09051010691|67852,09051010691|67852,09051010691|67852,09051010691|67852,09051010692
Sum_Oran                  |54413,04148890672|54413,04148890672|54413,04148890672|54413,04148890672|58697,91982193781|58697,91982193781|58697,91982193781|42772,18693070323|  0,00000000000|54413,04148890672|67852,09051010691|67852,09051010692|67852,09051010692|67852,09051010692|67852,09051010692|67852,09051010692|67852,09051010692|67852,09051010692|67852,09051010691|67852,09051010691|67852,09051010692|67852,09051010692|67852,09051010691|67852,09051010692|67852,09051010692|67852,09051010691|67852,09051010691|67852,09051010691|67852,09051010691|67852,09051010691|67852,09051010692
Gorilla                   |50781,51568712912|37850,04461285049|37850,04461285049|52843,21783577329|58697,91982193781|58697,91982193781|58697,91982193781|54413,04148890672|54413,04148890672|  0,00000000000|67852,09051010691|67852,09051010692|67852,09051010692|67852,09051010692|67852,09051010692|67852,09051010692|67852,09051010692|67852,09051010692|67852,09051010691|67852,09051010691|67852,09051010692|67852,09051010692|67852,09051010691|67852,09051010692|67852,09051010692|67852,09051010691|67852,09051010691|67852,09051010691|67852,09051010691|67852,09051010691|67852,09051010692
Cat                       |67852,09051010691|67852,09051010691|67852,09051010691|67852,09051010691|67852,09051010691|67852,09051010691|67852,09051010691|67852,09051010691|67852,09051010691|67852,09051010691|  0,00000000000|62927,11298614247|62927,11298614247|62927,11298614247|62927,11298614247|62927,11298614247|62927,11298614247|62927,11298614247|50498,55985417936|50498,55985417936|62927,11298614247|62927,11298614247|62498,24791276814|62498,24791276814|62498,24791276814|62498,24791276814|64272,81418978485|66545,11626891440|62927,11298614247|62927,11298614247|62927,11298614247
Dog                       |67852,09051010692|67852,09051010692|67852,09051010692|67852,09051010692|67852,09051010692|67852,09051010692|67852,09051010692|67852,09051010692|67852,09051010692|67852,09051010692|62927,11298614247|  0,00000000000|61311,60997898591|61311,60997898591|61311,60997898591|61311,60997898591|61311,60997898591|30021,35139338872|62927,11298614247|62927,11298614247|58479,60872599833|58479,60872599833|62927,11298614247|62927,11298614247|62927,11298614247|62927,11298614247|64272,81418978486|66545,11626891440|62879,29411253517|61463,17605602388|61311,60997898591
Pig                       |67852,09051010692|67852,09051010692|67852,09051010692|67852,09051010692|67852,09051010692|67852,09051010692|67852,09051010692|67852,09051010692|67852,09051010692|67852,09051010692|62927,11298614247|61311,60997898591|  0,00000000000|58385,15136659992|58385,15136659992|58385,15136659992|58385,15136659992|61311,60997898591|62927,11298614247|62927,11298614247|61311,60997898591|61311,60997898591|62927,11298614247|62927,11298614247|62927,11298614247|62927,11298614247|64272,81418978486|66545,11626891440|62879,29411253518|61463,17605602388|59743,79149716638
Sheep                     |67852,09051010692|67852,09051010692|67852,09051010692|67852,09051010692|67852,09051010692|67852,09051010692|67852,09051010692|67852,09051010692|67852,09051010692|67852,09051010692|62927,11298614247|61311,60997898591|58385,15136659992|  0,00000000000|43765,80174461952|55550,88222528178|52187,21284831598|61311,60997898591|62927,11298614247|62927,11298614247|61311,60997898591|61311,60997898591|62927,11298614247|62927,11298614247|62927,11298614247|62927,11298614247|64272,81418978486|66545,11626891440|62879,29411253518|61463,17605602388|59743,79149716638
Goat                      |67852,09051010692|67852,09051010692|67852,09051010692|67852,09051010692|67852,09051010692|67852,09051010692|67852,09051010692|67852,09051010692|67852,09051010692|67852,09051010692|62927,11298614247|61311,60997898591|58385,15136659992|43765,80174461952|  0,00000000000|55550,88222528178|52187,21284831598|61311,60997898591|62927,11298614247|62927,11298614247|61311,60997898591|61311,60997898591|62927,11298614247|62927,11298614247|62927,11298614247|62927,11298614247|64272,81418978486|66545,11626891440|62879,29411253518|61463,17605602388|59743,79149716638
Cow                       |67852,09051010692|67852,09051010692|67852,09051010692|67852,09051010692|67852,09051010692|67852,09051010692|67852,09051010692|67852,09051010692|67852,09051010692|67852,09051010692|62927,11298614247|61311,60997898591|58385,15136659992|55550,88222528178|55550,88222528178|  0,00000000000|55550,88222528178|61311,60997898591|62927,11298614247|62927,11298614247|61311,60997898591|61311,60997898591|62927,11298614247|62927,11298614247|62927,11298614247|62927,11298614247|64272,81418978486|66545,11626891440|62879,29411253518|61463,17605602388|59743,79149716638
Buffalo                   |67852,09051010692|67852,09051010692|67852,09051010692|67852,09051010692|67852,09051010692|67852,09051010692|67852,09051010692|67852,09051010692|67852,09051010692|67852,09051010692|62927,11298614247|61311,60997898591|58385,15136659992|52187,21284831598|52187,21284831598|55550,88222528178|  0,00000000000|61311,60997898591|62927,11298614247|62927,11298614247|61311,60997898591|61311,60997898591|62927,11298614247|62927,11298614247|62927,11298614247|62927,11298614247|64272,81418978486|66545,11626891440|62879,29411253518|61463,17605602388|59743,79149716638
Wolf                      |67852,09051010692|67852,09051010692|67852,09051010692|67852,09051010692|67852,09051010692|67852,09051010692|67852,09051010692|67852,09051010692|67852,09051010692|67852,09051010692|62927,11298614247|30021,35139338872|61311,60997898591|61311,60997898591|61311,60997898591|61311,60997898591|61311,60997898591|  0,00000000000|62927,11298614247|62927,11298614247|58479,60872599833|58479,60872599833|62927,11298614247|62927,11298614247|62927,11298614247|62927,11298614247|64272,81418978486|66545,11626891440|62879,29411253517|61463,17605602388|61311,60997898591
Tiger                     |67852,09051010691|67852,09051010691|67852,09051010691|67852,09051010691|67852,09051010691|67852,09051010691|67852,09051010691|67852,09051010691|67852,09051010691|67852,09051010691|50498,55985417936|62927,11298614247|62927,11298614247|62927,11298614247|62927,11298614247|62927,11298614247|62927,11298614247|62927,11298614247|  0,00000000000|49199,10769966189|62927,11298614247|62927,11298614247|62498,24791276814|62498,24791276814|62498,24791276814|62498,24791276814|64272,81418978485|66545,11626891440|62927,11298614247|62927,11298614247|62927,11298614247
Leopard                   |67852,09051010691|67852,09051010691|67852,09051010691|67852,09051010691|67852,09051010691|67852,09051010691|67852,09051010691|67852,09051010691|67852,09051010691|67852,09051010691|50498,55985417936|62927,11298614247|62927,11298614247|62927,11298614247|62927,11298614247|62927,11298614247|62927,11298614247|62927,11298614247|49199,10769966189|  0,00000000000|62927,11298614247|62927,11298614247|62498,24791276814|62498,24791276814|62498,24791276814|62498,24791276814|64272,81418978485|66545,11626891440|62927,11298614247|62927,11298614247|62927,11298614247
Indian_Rhino              |67852,09051010692|67852,09051010692|67852,09051010692|67852,09051010692|67852,09051010692|67852,09051010692|67852,09051010692|67852,09051010692|67852,09051010692|67852,09051010692|62927,11298614247|58479,60872599833|61311,60997898591|61311,60997898591|61311,60997898591|61311,60997898591|61311,60997898591|58479,60872599833|62927,11298614247|62927,11298614247|  0,00000000000|45187,14580680811|62927,11298614247|62927,11298614247|62927,11298614247|62927,11298614247|64272,81418978486|66545,11626891440|62879,29411253517|61463,17605602388|61311,60997898591
White_Rhino               |67852,09051010692|67852,09051010692|67852,09051010692|67852,09051010692|67852,09051010692|67852,09051010692|67852,09051010692|67852,09051010692|67852,09051010692|67852,09051010692|62927,11298614247|58479,60872599833|61311,60997898591|61311,60997898591|61311,60997898591|61311,60997898591|61311,60997898591|58479,60872599833|62927,11298614247|62927,11298614247|45187,14580680811|  0,00000000000|62927,11298614247|62927,11298614247|62927,11298614247|62927,11298614247|64272,81418978486|66545,11626891440|62879,29411253517|61463,17605602388|61311,60997898591
Black_Bear                |67852,09051010691|67852,09051010691|67852,09051010691|67852,09051010691|67852,09051010691|67852,09051010691|67852,09051010691|67852,09051010691|67852,09051010691|67852,09051010691|62498,24791276814|62927,11298614247|62927,11298614247|62927,11298614247|62927,11298614247|62927,11298614247|62927,11298614247|62927,11298614247|62498,24791276814|62498,24791276814|62927,11298614247|62927,11298614247|  0,00000000000|52269,34018734365|52269,34018734365|61927,75033319718|64272,81418978485|66545,11626891440|62927,11298614247|62927,11298614247|62927,11298614247
Brown_Bear                |67852,09051010692|67852,09051010692|67852,09051010692|67852,09051010692|67852,09051010692|67852,09051010692|67852,09051010692|67852,09051010692|67852,09051010692|67852,09051010692|62498,24791276814|62927,11298614247|62927,11298614247|62927,11298614247|62927,11298614247|62927,11298614247|62927,11298614247|62927,11298614247|62498,24791276814|62498,24791276814|62927,11298614247|62927,11298614247|52269,34018734365|  0,00000000000|28785,56360584775|61927,75033319718|64272,81418978486|66545,11626891440|62927,11298614247|62927,11298614247|62927,11298614247
Polar_Bear                |67852,09051010692|67852,09051010692|67852,09051010692|67852,09051010692|67852,09051010692|67852,09051010692|67852,09051010692|67852,09051010692|67852,09051010692|67852,09051010692|62498,24791276814|62927,11298614247|62927,11298614247|62927,11298614247|62927,11298614247|62927,11298614247|62927,11298614247|62927,11298614247|62498,24791276814|62498,24791276814|62927,11298614247|62927,11298614247|52269,34018734365|28785,56360584775|  0,00000000000|61927,75033319718|64272,81418978486|66545,11626891440|62927,11298614247|62927,11298614247|62927,11298614247
Giant_Panda               |67852,09051010691|67852,09051010691|67852,09051010691|67852,09051010691|67852,09051010691|67852,09051010691|67852,09051010691|67852,09051010691|67852,09051010691|67852,09051010691|62498,24791276814|62927,11298614247|62927,11298614247|62927,11298614247|62927,11298614247|62927,11298614247|62927,11298614247|62927,11298614247|62498,24791276814|62498,24791276814|62927,11298614247|62927,11298614247|61927,75033319718|61927,75033319718|61927,75033319718|  0,00000000000|64272,81418978485|66545,11626891440|62927,11298614247|62927,11298614247|62927,11298614247
Rabbit                    |67852,09051010691|67852,09051010691|67852,09051010691|67852,09051010691|67852,09051010691|67852,09051010691|67852,09051010691|67852,09051010691|67852,09051010691|67852,09051010691|64272,81418978485|64272,81418978486|64272,81418978486|64272,81418978486|64272,81418978486|64272,81418978486|64272,81418978486|64272,81418978486|64272,81418978485|64272,81418978485|64272,81418978486|64272,81418978486|64272,81418978485|64272,81418978486|64272,81418978486|64272,81418978485|  0,00000000000|66545,11626891438|64272,81418978484|64272,81418978485|64272,81418978486
Hedgehog                  |67852,09051010691|67852,09051010691|67852,09051010691|67852,09051010691|67852,09051010691|67852,09051010691|67852,09051010691|67852,09051010691|67852,09051010691|67852,09051010691|66545,11626891440|66545,11626891440|66545,11626891440|66545,11626891440|66545,11626891440|66545,11626891440|66545,11626891440|66545,11626891440|66545,11626891440|66545,11626891440|66545,11626891440|66545,11626891440|66545,11626891440|66545,11626891440|66545,11626891440|66545,11626891440|66545,11626891438|  0,00000000000|66545,11626891438|66545,11626891440|66545,11626891440
Dormouse                  |67852,09051010691|67852,09051010691|67852,09051010691|67852,09051010691|67852,09051010691|67852,09051010691|67852,09051010691|67852,09051010691|67852,09051010691|67852,09051010691|62927,11298614247|62879,29411253517|62879,29411253518|62879,29411253518|62879,29411253518|62879,29411253518|62879,29411253518|62879,29411253517|62927,11298614247|62927,11298614247|62879,29411253517|62879,29411253517|62927,11298614247|62927,11298614247|62927,11298614247|62927,11298614247|64272,81418978484|66545,11626891438|  0,00000000000|62879,29411253517|62879,29411253518
Squirrel                  |67852,09051010691|67852,09051010691|67852,09051010691|67852,09051010691|67852,09051010691|67852,09051010691|67852,09051010691|67852,09051010691|67852,09051010691|67852,09051010691|62927,11298614247|61463,17605602388|61463,17605602388|61463,17605602388|61463,17605602388|61463,17605602388|61463,17605602388|61463,17605602388|62927,11298614247|62927,11298614247|61463,17605602388|61463,17605602388|62927,11298614247|62927,11298614247|62927,11298614247|62927,11298614247|64272,81418978485|66545,11626891440|62879,29411253517|  0,00000000000|61463,17605602388
Blue_Whale                |67852,09051010692|67852,09051010692|67852,09051010692|67852,09051010692|67852,09051010692|67852,09051010692|67852,09051010692|67852,09051010692|67852,09051010692|67852,09051010692|62927,11298614247|61311,60997898591|59743,79149716638|59743,79149716638|59743,79149716638|59743,79149716638|59743,79149716638|61311,60997898591|62927,11298614247|62927,11298614247|61311,60997898591|61311,60997898591|62927,11298614247|62927,11298614247|62927,11298614247|62927,11298614247|64272,81418978486|66545,11626891440|62879,29411253518|61463,17605602388|  0,00000000000
                           |Human          |Pig_Chim       |Com_Chim       |Gibbon         |Baboon         |Ver_Monkey     |Macaca_Thibet  |Bor_Oran       |Sum_Oran       |Gorilla        |Cat            |Dog            |Pig            |Sheep          |Goat           |Cow            |Buffalo        |Wolf           |Tiger          |Leopard        |Indian_Rhino   |White_Rhino    |Black_Bear     |Brown_Bear     |Polar_Bear     |Giant_Panda    |Rabbit         |Hedgehog       |Dormouse       |Squirrel       |Blue_Whale     
Human                     |  0,00000000000|  7,62182947062|  7,62182947062|  7,99636059672|  9,05993233004|  9,05993233004|  9,05993233004|  8,28153652330|  8,28153652330|  7,62182947062| 10,72288925064| 10,72288925064| 10,72288925064| 10,72288925064| 10,72288925064| 10,72288925064| 10,72288925064| 10,72288925064| 10,72288925064| 10,72288925064| 10,72288925064| 10,72288925064| 10,72288925064| 10,72288925064| 10,72288925064| 10,72288925064| 10,72288925064| 10,72288925064| 10,72288925064| 10,72288925064| 10,72288925064
Pig_Chim                  |  7,62182947062|  0,00000000000|  3,96157785144|  7,99636059672|  9,05993233004|  9,05993233004|  9,05993233004|  8,28153652330|  8,28153652330|  5,27268392276| 10,72288925064| 10,72288925064| 10,72288925064| 10,72288925064| 10,72288925064| 10,72288925064| 10,72288925064| 10,72288925064| 10,72288925064| 10,72288925064| 10,72288925064| 10,72288925064| 10,72288925064| 10,72288925064| 10,72288925064| 10,72288925064| 10,72288925064| 10,72288925064| 10,72288925064| 10,72288925064| 10,72288925064
Com_Chim                  |  7,62182947062|  3,96157785144|  0,00000000000|  7,99636059672|  9,05993233004|  9,05993233004|  9,05993233004|  8,28153652330|  8,28153652330|  5,27268392276| 10,72288925064| 10,72288925064| 10,72288925064| 10,72288925064| 10,72288925064| 10,72288925064| 10,72288925064| 10,72288925064| 10,72288925064| 10,72288925064| 10,72288925064| 10,72288925064| 10,72288925064| 10,72288925064| 10,72288925064| 10,72288925064| 10,72288925064| 10,72288925064| 10,72288925064| 10,72288925064| 10,72288925064
Gibbon                    |  7,99636059672|  7,99636059672|  7,99636059672|  0,00000000000|  9,05993233004|  9,05993233004|  9,05993233004|  8,28153652330|  8,28153652330|  7,99636059672| 10,72288925064| 10,72288925064| 10,72288925064| 10,72288925064| 10,72288925064| 10,72288925064| 10,72288925064| 10,72288925064| 10,72288925064| 10,72288925064| 10,72288925064| 10,72288925064| 10,72288925064| 10,72288925064| 10,72288925064| 10,72288925064| 10,72288925064| 10,72288925064| 10,72288925064| 10,72288925064| 10,72288925064
Baboon                    |  9,05993233004|  9,05993233004|  9,05993233004|  9,05993233004|  0,00000000000|  8,92303791243|  8,42260093436|  9,05993233004|  9,05993233004|  9,05993233004| 10,72288925064| 10,72288925064| 10,72288925064| 10,72288925064| 10,72288925064| 10,72288925064| 10,72288925064| 10,72288925064| 10,72288925064| 10,72288925064| 10,72288925064| 10,72288925064| 10,72288925064| 10,72288925064| 10,72288925064| 10,72288925064| 10,72288925064| 10,72288925064| 10,72288925064| 10,72288925064| 10,72288925064
Ver_Monkey                |  9,05993233004|  9,05993233004|  9,05993233004|  9,05993233004|  8,92303791243|  0,00000000000|  8,92303791243|  9,05993233004|  9,05993233004|  9,05993233004| 10,72288925064| 10,72288925064| 10,72288925064| 10,72288925064| 10,72288925064| 10,72288925064| 10,72288925064| 10,72288925064| 10,72288925064| 10,72288925064| 10,72288925064| 10,72288925064| 10,72288925064| 10,72288925064| 10,72288925064| 10,72288925064| 10,72288925064| 10,72288925064| 10,72288925064| 10,72288925064| 10,72288925064
Macaca_Thibet             |  9,05993233004|  9,05993233004|  9,05993233004|  9,05993233004|  8,42260093436|  8,92303791243|  0,00000000000|  9,05993233004|  9,05993233004|  9,05993233004| 10,72288925064| 10,72288925064| 10,72288925064| 10,72288925064| 10,72288925064| 10,72288925064| 10,72288925064| 10,72288925064| 10,72288925064| 10,72288925064| 10,72288925064| 10,72288925064| 10,72288925064| 10,72288925064| 10,72288925064| 10,72288925064| 10,72288925064| 10,72288925064| 10,72288925064| 10,72288925064| 10,72288925064
Bor_Oran                  |  8,28153652330|  8,28153652330|  8,28153652330|  8,28153652330|  9,05993233004|  9,05993233004|  9,05993233004|  0,00000000000|  6,16684582016|  8,28153652330| 10,72288925064| 10,72288925064| 10,72288925064| 10,72288925064| 10,72288925064| 10,72288925064| 10,72288925064| 10,72288925064| 10,72288925064| 10,72288925064| 10,72288925064| 10,72288925064| 10,72288925064| 10,72288925064| 10,72288925064| 10,72288925064| 10,72288925064| 10,72288925064| 10,72288925064| 10,72288925064| 10,72288925064
Sum_Oran                  |  8,28153652330|  8,28153652330|  8,28153652330|  8,28153652330|  9,05993233004|  9,05993233004|  9,05993233004|  6,16684582016|  0,00000000000|  8,28153652330| 10,72288925064| 10,72288925064| 10,72288925064| 10,72288925064| 10,72288925064| 10,72288925064| 10,72288925064| 10,72288925064| 10,72288925064| 10,72288925064| 10,72288925064| 10,72288925064| 10,72288925064| 10,72288925064| 10,72288925064| 10,72288925064| 10,72288925064| 10,72288925064| 10,72288925064| 10,72288925064| 10,72288925064
Gorilla                   |  7,62182947062|  5,27268392276|  5,27268392276|  7,99636059672|  9,05993233004|  9,05993233004|  9,05993233004|  8,28153652330|  8,28153652330|  0,00000000000| 10,72288925064| 10,72288925064| 10,72288925064| 10,72288925064| 10,72288925064| 10,72288925064| 10,72288925064| 10,72288925064| 10,72288925064| 10,72288925064| 10,72288925064| 10,72288925064| 10,72288925064| 10,72288925064| 10,72288925064| 10,72288925064| 10,72288925064| 10,72288925064| 10,72288925064| 10,72288925064| 10,72288925064
Cat                       | 10,72288925064| 10,72288925064| 10,72288925064| 10,72288925064| 10,72288925064| 10,72288925064| 10,72288925064| 10,72288925064| 10,72288925064| 10,72288925064|  0,00000000000|  9,82821230651|  9,82821230651|  9,82821230651|  9,82821230651|  9,82821230651|  9,82821230651|  9,82821230651|  7,57042739646|  7,57042739646|  9,82821230651|  9,82821230651|  9,75030419598|  9,75030419598|  9,75030419598|  9,75030419598| 10,07267389740| 10,48546284321|  9,82821230651|  9,82821230651|  9,82821230651
Dog                       | 10,72288925064| 10,72288925064| 10,72288925064| 10,72288925064| 10,72288925064| 10,72288925064| 10,72288925064| 10,72288925064| 10,72288925064| 10,72288925064|  9,82821230651|  0,00000000000|  9,53473821721|  9,53473821721|  9,53473821721|  9,53473821721|  9,53473821721|  3,85051472666|  9,82821230651|  9,82821230651|  9,02027369135|  9,02027369135|  9,82821230651|  9,82821230651|  9,82821230651|  9,82821230651| 10,07267389740| 10,48546284321|  9,81952547627|  9,56227188087|  9,53473821721
Pig                       | 10,72288925064| 10,72288925064| 10,72288925064| 10,72288925064| 10,72288925064| 10,72288925064| 10,72288925064| 10,72288925064| 10,72288925064| 10,72288925064|  9,82821230651|  9,53473821721|  0,00000000000|  9,00311446143|  9,00311446143|  9,00311446143|  9,00311446143|  9,53473821721|  9,82821230651|  9,82821230651|  9,53473821721|  9,53473821721|  9,82821230651|  9,82821230651|  9,82821230651|  9,82821230651| 10,07267389740| 10,48546284321|  9,81952547627|  9,56227188087|  9,24992655230
Sheep                     | 10,72288925064| 10,72288925064| 10,72288925064| 10,72288925064| 10,72288925064| 10,72288925064| 10,72288925064| 10,72288925064| 10,72288925064| 10,72288925064|  9,82821230651|  9,53473821721|  9,00311446143|  0,00000000000|  6,34734700235|  8,48823794843|  7,87718999448|  9,53473821721|  9,82821230651|  9,82821230651|  9,53473821721|  9,53473821721|  9,82821230651|  9,82821230651|  9,82821230651|  9,82821230651| 10,07267389740| 10,48546284321|  9,81952547627|  9,56227188087|  9,24992655230
Goat                      | 10,72288925064| 10,72288925064| 10,72288925064| 10,72288925064| 10,72288925064| 10,72288925064| 10,72288925064| 10,72288925064| 10,72288925064| 10,72288925064|  9,82821230651|  9,53473821721|  9,00311446143|  6,34734700235|  0,00000000000|  8,48823794843|  7,87718999448|  9,53473821721|  9,82821230651|  9,82821230651|  9,53473821721|  9,53473821721|  9,82821230651|  9,82821230651|  9,82821230651|  9,82821230651| 10,07267389740| 10,48546284321|  9,81952547627|  9,56227188087|  9,24992655230
Cow                       | 10,72288925064| 10,72288925064| 10,72288925064| 10,72288925064| 10,72288925064| 10,72288925064| 10,72288925064| 10,72288925064| 10,72288925064| 10,72288925064|  9,82821230651|  9,53473821721|  9,00311446143|  8,48823794843|  8,48823794843|  0,00000000000|  8,48823794843|  9,53473821721|  9,82821230651|  9,82821230651|  9,53473821721|  9,53473821721|  9,82821230651|  9,82821230651|  9,82821230651|  9,82821230651| 10,07267389740| 10,48546284321|  9,81952547627|  9,56227188087|  9,24992655230
Buffalo                   | 10,72288925064| 10,72288925064| 10,72288925064| 10,72288925064| 10,72288925064| 10,72288925064| 10,72288925064| 10,72288925064| 10,72288925064| 10,72288925064|  9,82821230651|  9,53473821721|  9,00311446143|  7,87718999448|  7,87718999448|  8,48823794843|  0,00000000000|  9,53473821721|  9,82821230651|  9,82821230651|  9,53473821721|  9,53473821721|  9,82821230651|  9,82821230651|  9,82821230651|  9,82821230651| 10,07267389740| 10,48546284321|  9,81952547627|  9,56227188087|  9,24992655230
Wolf                      | 10,72288925064| 10,72288925064| 10,72288925064| 10,72288925064| 10,72288925064| 10,72288925064| 10,72288925064| 10,72288925064| 10,72288925064| 10,72288925064|  9,82821230651|  3,85051472666|  9,53473821721|  9,53473821721|  9,53473821721|  9,53473821721|  9,53473821721|  0,00000000000|  9,82821230651|  9,82821230651|  9,02027369135|  9,02027369135|  9,82821230651|  9,82821230651|  9,82821230651|  9,82821230651| 10,07267389740| 10,48546284321|  9,81952547627|  9,56227188087|  9,53473821721
Tiger                     | 10,72288925064| 10,72288925064| 10,72288925064| 10,72288925064| 10,72288925064| 10,72288925064| 10,72288925064| 10,72288925064| 10,72288925064| 10,72288925064|  7,57042739646|  9,82821230651|  9,82821230651|  9,82821230651|  9,82821230651|  9,82821230651|  9,82821230651|  9,82821230651|  0,00000000000|  7,33436745974|  9,82821230651|  9,82821230651|  9,75030419598|  9,75030419598|  9,75030419598|  9,75030419598| 10,07267389740| 10,48546284321|  9,82821230651|  9,82821230651|  9,82821230651
Leopard                   | 10,72288925064| 10,72288925064| 10,72288925064| 10,72288925064| 10,72288925064| 10,72288925064| 10,72288925064| 10,72288925064| 10,72288925064| 10,72288925064|  7,57042739646|  9,82821230651|  9,82821230651|  9,82821230651|  9,82821230651|  9,82821230651|  9,82821230651|  9,82821230651|  7,33436745974|  0,00000000000|  9,82821230651|  9,82821230651|  9,75030419598|  9,75030419598|  9,75030419598|  9,75030419598| 10,07267389740| 10,48546284321|  9,82821230651|  9,82821230651|  9,82821230651
Indian_Rhino              | 10,72288925064| 10,72288925064| 10,72288925064| 10,72288925064| 10,72288925064| 10,72288925064| 10,72288925064| 10,72288925064| 10,72288925064| 10,72288925064|  9,82821230651|  9,02027369135|  9,53473821721|  9,53473821721|  9,53473821721|  9,53473821721|  9,53473821721|  9,02027369135|  9,82821230651|  9,82821230651|  0,00000000000|  6,60554995981|  9,82821230651|  9,82821230651|  9,82821230651|  9,82821230651| 10,07267389740| 10,48546284321|  9,81952547627|  9,56227188087|  9,53473821721
White_Rhino               | 10,72288925064| 10,72288925064| 10,72288925064| 10,72288925064| 10,72288925064| 10,72288925064| 10,72288925064| 10,72288925064| 10,72288925064| 10,72288925064|  9,82821230651|  9,02027369135|  9,53473821721|  9,53473821721|  9,53473821721|  9,53473821721|  9,53473821721|  9,02027369135|  9,82821230651|  9,82821230651|  6,60554995981|  0,00000000000|  9,82821230651|  9,82821230651|  9,82821230651|  9,82821230651| 10,07267389740| 10,48546284321|  9,81952547627|  9,56227188087|  9,53473821721
Black_Bear                | 10,72288925064| 10,72288925064| 10,72288925064| 10,72288925064| 10,72288925064| 10,72288925064| 10,72288925064| 10,72288925064| 10,72288925064| 10,72288925064|  9,75030419598|  9,82821230651|  9,82821230651|  9,82821230651|  9,82821230651|  9,82821230651|  9,82821230651|  9,82821230651|  9,75030419598|  9,75030419598|  9,82821230651|  9,82821230651|  0,00000000000|  7,89210933906|  7,89210933906|  9,64666696543| 10,07267389740| 10,48546284321|  9,82821230651|  9,82821230651|  9,82821230651
Brown_Bear                | 10,72288925064| 10,72288925064| 10,72288925064| 10,72288925064| 10,72288925064| 10,72288925064| 10,72288925064| 10,72288925064| 10,72288925064| 10,72288925064|  9,75030419598|  9,82821230651|  9,82821230651|  9,82821230651|  9,82821230651|  9,82821230651|  9,82821230651|  9,82821230651|  9,75030419598|  9,75030419598|  9,82821230651|  9,82821230651|  7,89210933906|  0,00000000000|  3,62602013030|  9,64666696543| 10,07267389740| 10,48546284321|  9,82821230651|  9,82821230651|  9,82821230651
Polar_Bear                | 10,72288925064| 10,72288925064| 10,72288925064| 10,72288925064| 10,72288925064| 10,72288925064| 10,72288925064| 10,72288925064| 10,72288925064| 10,72288925064|  9,75030419598|  9,82821230651|  9,82821230651|  9,82821230651|  9,82821230651|  9,82821230651|  9,82821230651|  9,82821230651|  9,75030419598|  9,75030419598|  9,82821230651|  9,82821230651|  7,89210933906|  3,62602013030|  0,00000000000|  9,64666696543| 10,07267389740| 10,48546284321|  9,82821230651|  9,82821230651|  9,82821230651
Giant_Panda               | 10,72288925064| 10,72288925064| 10,72288925064| 10,72288925064| 10,72288925064| 10,72288925064| 10,72288925064| 10,72288925064| 10,72288925064| 10,72288925064|  9,75030419598|  9,82821230651|  9,82821230651|  9,82821230651|  9,82821230651|  9,82821230651|  9,82821230651|  9,82821230651|  9,75030419598|  9,75030419598|  9,82821230651|  9,82821230651|  9,64666696543|  9,64666696543|  9,64666696543|  0,00000000000| 10,07267389740| 10,48546284321|  9,82821230651|  9,82821230651|  9,82821230651
Rabbit                    | 10,72288925064| 10,72288925064| 10,72288925064| 10,72288925064| 10,72288925064| 10,72288925064| 10,72288925064| 10,72288925064| 10,72288925064| 10,72288925064| 10,07267389740| 10,07267389740| 10,07267389740| 10,07267389740| 10,07267389740| 10,07267389740| 10,07267389740| 10,07267389740| 10,07267389740| 10,07267389740| 10,07267389740| 10,07267389740| 10,07267389740| 10,07267389740| 10,07267389740| 10,07267389740|  0,00000000000| 10,48546284321| 10,07267389740| 10,07267389740| 10,07267389740
Hedgehog                  | 10,72288925064| 10,72288925064| 10,72288925064| 10,72288925064| 10,72288925064| 10,72288925064| 10,72288925064| 10,72288925064| 10,72288925064| 10,72288925064| 10,48546284321| 10,48546284321| 10,48546284321| 10,48546284321| 10,48546284321| 10,48546284321| 10,48546284321| 10,48546284321| 10,48546284321| 10,48546284321| 10,48546284321| 10,48546284321| 10,48546284321| 10,48546284321| 10,48546284321| 10,48546284321| 10,48546284321|  0,00000000000| 10,48546284321| 10,48546284321| 10,48546284321
Dormouse                  | 10,72288925064| 10,72288925064| 10,72288925064| 10,72288925064| 10,72288925064| 10,72288925064| 10,72288925064| 10,72288925064| 10,72288925064| 10,72288925064|  9,82821230651|  9,81952547627|  9,81952547627|  9,81952547627|  9,81952547627|  9,81952547627|  9,81952547627|  9,81952547627|  9,82821230651|  9,82821230651|  9,81952547627|  9,81952547627|  9,82821230651|  9,82821230651|  9,82821230651|  9,82821230651| 10,07267389740| 10,48546284321|  0,00000000000|  9,81952547627|  9,81952547627
Squirrel                  | 10,72288925064| 10,72288925064| 10,72288925064| 10,72288925064| 10,72288925064| 10,72288925064| 10,72288925064| 10,72288925064| 10,72288925064| 10,72288925064|  9,82821230651|  9,56227188087|  9,56227188087|  9,56227188087|  9,56227188087|  9,56227188087|  9,56227188087|  9,56227188087|  9,82821230651|  9,82821230651|  9,56227188087|  9,56227188087|  9,82821230651|  9,82821230651|  9,82821230651|  9,82821230651| 10,07267389740| 10,48546284321|  9,81952547627|  0,00000000000|  9,56227188087
Blue_Whale                | 10,72288925064| 10,72288925064| 10,72288925064| 10,72288925064| 10,72288925064| 10,72288925064| 10,72288925064| 10,72288925064| 10,72288925064| 10,72288925064|  9,82821230651|  9,53473821721|  9,24992655230|  9,24992655230|  9,24992655230|  9,24992655230|  9,24992655230|  9,53473821721|  9,82821230651|  9,82821230651|  9,53473821721|  9,53473821721|  9,82821230651|  9,82821230651|  9,82821230651|  9,82821230651| 10,07267389740| 10,48546284321|  9,81952547627|  9,56227188087|  0,00000000000
                           |Human          |Pig_Chim       |Com_Chim       |Gibbon         |Baboon         |Ver_Monkey     |Macaca_Thibet  |Bor_Oran       |Sum_Oran       |Gorilla        |Cat            |Dog            |Pig            |Sheep          |Goat           |Cow            |Buffalo        |Wolf           |Tiger          |Leopard        |Indian_Rhino   |White_Rhino    |Black_Bear     |Brown_Bear     |Polar_Bear     |Giant_Panda    |Rabbit         |Hedgehog       |Dormouse       |Squirrel       |Blue_Whale     
Human                     |  0,00000000000|  4,00000000000|  4,00000000000|  3,00000000000|  7,00000000000|  6,00000000000|  7,00000000000|  5,00000000000|  5,00000000000|  3,00000000000| 11,00000000000| 14,00000000000| 14,00000000000| 17,00000000000| 17,00000000000| 15,00000000000| 16,00000000000| 14,00000000000| 12,00000000000| 12,00000000000| 14,00000000000| 14,00000000000| 12,00000000000| 13,00000000000| 13,00000000000| 11,00000000000|  8,00000000000|  7,00000000000| 10,00000000000| 11,00000000000| 13,00000000000
Pig_Chim                  |  4,00000000000|  0,00000000000|  2,00000000000|  5,00000000000|  9,00000000000|  8,00000000000|  9,00000000000|  7,00000000000|  7,00000000000|  3,00000000000| 13,00000000000| 16,00000000000| 16,00000000000| 19,00000000000| 19,00000000000| 17,00000000000| 18,00000000000| 16,00000000000| 14,00000000000| 14,00000000000| 16,00000000000| 16,00000000000| 14,00000000000| 15,00000000000| 15,00000000000| 13,00000000000| 10,00000000000|  9,00000000000| 12,00000000000| 13,00000000000| 15,00000000000
Com_Chim                  |  4,00000000000|  2,00000000000|  0,00000000000|  5,00000000000|  9,00000000000|  8,00000000000|  9,00000000000|  7,00000000000|  7,00000000000|  3,00000000000| 13,00000000000| 16,00000000000| 16,00000000000| 19,00000000000| 19,00000000000| 17,00000000000| 18,00000000000| 16,00000000000| 14,00000000000| 14,00000000000| 16,00000000000| 16,00000000000| 14,00000000000| 15,00000000000| 15,00000000000| 13,00000000000| 10,00000000000|  9,00000000000| 12,00000000000| 13,00000000000| 15,00000000000
Gibbon                    |  3,00000000000|  5,00000000000|  5,00000000000|  0,00000000000|  6,00000000000|  5,00000000000|  6,00000000000|  4,00000000000|  4,00000000000|  4,00000000000| 10,00000000000| 13,00000000000| 13,00000000000| 16,00000000000| 16,00000000000| 14,00000000000| 15,00000000000| 13,00000000000| 11,00000000000| 11,00000000000| 13,00000000000| 13,00000000000| 11,00000000000| 12,00000000000| 12,00000000000| 10,00000000000|  7,00000000000|  6,00000000000|  9,00000000000| 10,00000000000| 12,00000000000
Baboon                    |  7,00000000000|  9,00000000000|  9,00000000000|  6,00000000000|  0,00000000000|  3,00000000000|  2,00000000000|  6,00000000000|  6,00000000000|  8,00000000000| 10,00000000000| 13,00000000000| 13,00000000000| 16,00000000000| 16,00000000000| 14,00000000000| 15,00000000000| 13,00000000000| 11,00000000000| 11,00000000000| 13,00000000000| 13,00000000000| 11,00000000000| 12,00000000000| 12,00000000000| 10,00000000000|  7,00000000000|  6,00000000000|  9,00000000000| 10,00000000000| 12,00000000000
Ver_Monkey                |  6,00000000000|  8,00000000000|  8,00000000000|  5,00000000000|  3,00000000000|  0,00000000000|  3,00000000000|  5,00000000000|  5,00000000000|  7,00000000000|  9,00000000000| 12,00000000000| 12,00000000000| 15,00000000000| 15,00000000000| 13,00000000000| 14,00000000000| 12,00000000000| 10,00000000000| 10,00000000000| 12,00000000000| 12,00000000000| 10,00000000000| 11,00000000000| 11,00000000000|  9,00000000000|  6,00000000000|  5,00000000000|  8,00000000000|  9,00000000000| 11,00000000000
Macaca_Thibet             |  7,00000000000|  9,00000000000|  9,00000000000|  6,00000000000|  2,00000000000|  3,00000000000|  0,00000000000|  6,00000000000|  6,00000000000|  8,00000000000| 10,00000000000| 13,00000000000| 13,00000000000| 16,00000000000| 16,00000000000| 14,00000000000| 15,00000000000| 13,00000000000| 11,00000000000| 11,00000000000| 13,00000000000| 13,00000000000| 11,00000000000| 12,00000000000| 12,00000000000| 10,00000000000|  7,00000000000|  6,00000000000|  9,00000000000| 10,00000000000| 12,00000000000
Bor_Oran                  |  5,00000000000|  7,00000000000|  7,00000000000|  4,00000000000|  6,00000000000|  5,00000000000|  6,00000000000|  0,00000000000|  2,00000000000|  6,00000000000| 10,00000000000| 13,00000000000| 13,00000000000| 16,00000000000| 16,00000000000| 14,00000000000| 15,00000000000| 13,00000000000| 11,00000000000| 11,00000000000| 13,00000000000| 13,00000000000| 11,00000000000| 12,00000000000| 12,00000000000| 10,00000000000|  7,00000000000|  6,00000000000|  9,00000000000| 10,00000000000| 12,00000000000
Sum_Oran                  |  5,00000000000|  7,00000000000|  7,00000000000|  4,00000000000|  6,00000000000|  5,00000000000|  6,00000000000|  2,00000000000|  0,00000000000|  6,00000000000| 10,00000000000| 13,00000000000| 13,00000000000| 16,00000000000| 16,00000000000| 14,00000000000| 15,00000000000| 13,00000000000| 11,00000000000| 11,00000000000| 13,00000000000| 13,00000000000| 11,00000000000| 12,00000000000| 12,00000000000| 10,00000000000|  7,00000000000|  6,00000000000|  9,00000000000| 10,00000000000| 12,00000000000
Gorilla                   |  3,00000000000|  3,00000000000|  3,00000000000|  4,00000000000|  8,00000000000|  7,00000000000|  8,00000000000|  6,00000000000|  6,00000000000|  0,00000000000| 12,00000000000| 15,00000000000| 15,00000000000| 18,00000000000| 18,00000000000| 16,00000000000| 17,00000000000| 15,00000000000| 13,00000000000| 13,00000000000| 15,00000000000| 15,00000000000| 13,00000000000| 14,00000000000| 14,00000000000| 12,00000000000|  9,00000000000|  8,00000000000| 11,00000000000| 12,00000000000| 14,00000000000
Cat                       | 11,00000000000| 13,00000000000| 13,00000000000| 10,00000000000| 10,00000000000|  9,00000000000| 10,00000000000| 10,00000000000| 10,00000000000| 12,00000000000|  0,00000000000|  9,00000000000|  9,00000000000| 12,00000000000| 12,00000000000| 10,00000000000| 11,00000000000|  9,00000000000|  3,00000000000|  3,00000000000|  9,00000000000|  9,00000000000|  5,00000000000|  6,00000000000|  6,00000000000|  4,00000000000|  5,00000000000|  6,00000000000|  5,00000000000|  6,00000000000|  8,00000000000
Dog                       | 14,00000000000| 16,00000000000| 16,00000000000| 13,00000000000| 13,00000000000| 12,00000000000| 13,00000000000| 13,00000000000| 13,00000000000| 15,00000000000|  9,00000000000|  0,00000000000|  6,00000000000|  9,00000000000|  9,00000000000|  7,00000000000|  8,00000000000|  2,00000000000| 10,00000000000| 10,00000000000|  4,00000000000|  4,00000000000| 10,00000000000| 11,00000000000| 11,00000000000|  9,00000000000|  8,00000000000|  9,00000000000|  6,00000000000|  5,00000000000|  5,00000000000
Pig                       | 14,00000000000| 16,00000000000| 16,00000000000| 13,00000000000| 13,00000000000| 12,00000000000| 13,00000000000| 13,00000000000| 13,00000000000| 15,00000000000|  9,00000000000|  6,00000000000|  0,00000000000|  5,00000000000|  5,00000000000|  3,00000000000|  4,00000000000|  6,00000000000| 10,00000000000| 10,00000000000|  6,00000000000|  6,00000000000| 10,00000000000| 11,00000000000| 11,00000000000|  9,00000000000|  8,00000000000|  9,00000000000|  6,00000000000|  5,00000000000|  3,00000000000
Sheep                     | 17,00000000000| 19,00000000000| 19,00000000000| 16,00000000000| 16,00000000000| 15,00000000000| 16,00000000000| 16,00000000000| 16,00000000000| 18,00000000000| 12,00000000000|  9,00000000000|  5,00000000000|  0,00000000000|  2,00000000000|  4,00000000000|  3,00000000000|  9,00000000000| 13,00000000000| 13,00000000000|  9,00000000000|  9,00000000000| 13,00000000000| 14,00000000000| 14,00000000000| 12,00000000000| 11,00000000000| 12,00000000000|  9,00000000000|  8,00000000000|  6,00000000000
Goat                      | 17,00000000000| 19,00000000000| 19,00000000000| 16,00000000000| 16,00000000000| 15,00000000000| 16,00000000000| 16,00000000000| 16,00000000000| 18,00000000000| 12,00000000000|  9,00000000000|  5,00000000000|  2,00000000000|  0,00000000000|  4,00000000000|  3,00000000000|  9,00000000000| 13,00000000000| 13,00000000000|  9,00000000000|  9,00000000000| 13,00000000000| 14,00000000000| 14,00000000000| 12,00000000000| 11,00000000000| 12,00000000000|  9,00000000000|  8,00000000000|  6,00000000000
Cow                       | 15,00000000000| 17,00000000000| 17,00000000000| 14,00000000000| 14,00000000000| 13,00000000000| 14,00000000000| 14,00000000000| 14,00000000000| 16,00000000000| 10,00000000000|  7,00000000000|  3,00000000000|  4,00000000000|  4,00000000000|  0,00000000000|  3,00000000000|  7,00000000000| 11,00000000000| 11,00000000000|  7,00000000000|  7,00000000000| 11,00000000000| 12,00000000000| 12,00000000000| 10,00000000000|  9,00000000000| 10,00000000000|  7,00000000000|  6,00000000000|  4,00000000000
Buffalo                   | 16,00000000000| 18,00000000000| 18,00000000000| 15,00000000000| 15,00000000000| 14,00000000000| 15,00000000000| 15,00000000000| 15,00000000000| 17,00000000000| 11,00000000000|  8,00000000000|  4,00000000000|  3,00000000000|  3,00000000000|  3,00000000000|  0,00000000000|  8,00000000000| 12,00000000000| 12,00000000000|  8,00000000000|  8,00000000000| 12,00000000000| 13,00000000000| 13,00000000000| 11,00000000000| 10,00000000000| 11,00000000000|  8,00000000000|  7,00000000000|  5,00000000000
Wolf                      | 14,00000000000| 16,00000000000| 16,00000000000| 13,00000000000| 13,00000000000| 12,00000000000| 13,00000000000| 13,00000000000| 13,00000000000| 15,00000000000|  9,00000000000|  2,00000000000|  6,00000000000|  9,00000000000|  9,00000000000|  7,00000000000|  8,00000000000|  0,00000000000| 10,00000000000| 10,00000000000|  4,00000000000|  4,00000000000| 10,00000000000| 11,00000000000| 11,00000000000|  9,00000000000|  8,00000000000|  9,00000000000|  6,00000000000|  5,00000000000|  5,00000000000
Tiger                     | 12,00000000000| 14,00000000000| 14,00000000000| 11,00000000000| 11,00000000000| 10,00000000000| 11,00000000000| 11,00000000000| 11,00000000000| 13,00000000000|  3,00000000000| 10,00000000000| 10,00000000000| 13,00000000000| 13,00000000000| 11,00000000000| 12,00000000000| 10,00000000000|  0,00000000000|  2,00000000000| 10,00000000000| 10,00000000000|  6,00000000000|  7,00000000000|  7,00000000000|  5,00000000000|  6,00000000000|  7,00000000000|  6,00000000000|  7,00000000000|  9,00000000000
Leopard                   | 12,00000000000| 14,00000000000| 14,00000000000| 11,00000000000| 11,00000000000| 10,00000000000| 11,00000000000| 11,00000000000| 11,00000000000| 13,00000000000|  3,00000000000| 10,00000000000| 10,00000000000| 13,00000000000| 13,00000000000| 11,00000000000| 12,00000000000| 10,00000000000|  2,00000000000|  0,00000000000| 10,00000000000| 10,00000000000|  6,00000000000|  7,00000000000|  7,00000000000|  5,00000000000|  6,00000000000|  7,00000000000|  6,00000000000|  7,00000000000|  9,00000000000
Indian_Rhino              | 14,00000000000| 16,00000000000| 16,00000000000| 13,00000000000| 13,00000000000| 12,00000000000| 13,00000000000| 13,00000000000| 13,00000000000| 15,00000000000|  9,00000000000|  4,00000000000|  6,00000000000|  9,00000000000|  9,00000000000|  7,00000000000|  8,00000000000|  4,00000000000| 10,00000000000| 10,00000000000|  0,00000000000|  2,00000000000| 10,00000000000| 11,00000000000| 11,00000000000|  9,00000000000|  8,00000000000|  9,00000000000|  6,00000000000|  5,00000000000|  5,00000000000
White_Rhino               | 14,00000000000| 16,00000000000| 16,00000000000| 13,00000000000| 13,00000000000| 12,00000000000| 13,00000000000| 13,00000000000| 13,00000000000| 15,00000000000|  9,00000000000|  4,00000000000|  6,00000000000|  9,00000000000|  9,00000000000|  7,00000000000|  8,00000000000|  4,00000000000| 10,00000000000| 10,00000000000|  2,00000000000|  0,00000000000| 10,00000000000| 11,00000000000| 11,00000000000|  9,00000000000|  8,00000000000|  9,00000000000|  6,00000000000|  5,00000000000|  5,00000000000
Black_Bear                | 12,00000000000| 14,00000000000| 14,00000000000| 11,00000000000| 11,00000000000| 10,00000000000| 11,00000000000| 11,00000000000| 11,00000000000| 13,00000000000|  5,00000000000| 10,00000000000| 10,00000000000| 13,00000000000| 13,00000000000| 11,00000000000| 12,00000000000| 10,00000000000|  6,00000000000|  6,00000000000| 10,00000000000| 10,00000000000|  0,00000000000|  3,00000000000|  3,00000000000|  3,00000000000|  6,00000000000|  7,00000000000|  6,00000000000|  7,00000000000|  9,00000000000
Brown_Bear                | 13,00000000000| 15,00000000000| 15,00000000000| 12,00000000000| 12,00000000000| 11,00000000000| 12,00000000000| 12,00000000000| 12,00000000000| 14,00000000000|  6,00000000000| 11,00000000000| 11,00000000000| 14,00000000000| 14,00000000000| 12,00000000000| 13,00000000000| 11,00000000000|  7,00000000000|  7,00000000000| 11,00000000000| 11,00000000000|  3,00000000000|  0,00000000000|  2,00000000000|  4,00000000000|  7,00000000000|  8,00000000000|  7,00000000000|  8,00000000000| 10,00000000000
Polar_Bear                | 13,00000000000| 15,00000000000| 15,00000000000| 12,00000000000| 12,00000000000| 11,00000000000| 12,00000000000| 12,00000000000| 12,00000000000| 14,00000000000|  6,00000000000| 11,00000000000| 11,00000000000| 14,00000000000| 14,00000000000| 12,00000000000| 13,00000000000| 11,00000000000|  7,00000000000|  7,00000000000| 11,00000000000| 11,00000000000|  3,00000000000|  2,00000000000|  0,00000000000|  4,00000000000|  7,00000000000|  8,00000000000|  7,00000000000|  8,00000000000| 10,00000000000
Giant_Panda               | 11,00000000000| 13,00000000000| 13,00000000000| 10,00000000000| 10,00000000000|  9,00000000000| 10,00000000000| 10,00000000000| 10,00000000000| 12,00000000000|  4,00000000000|  9,00000000000|  9,00000000000| 12,00000000000| 12,00000000000| 10,00000000000| 11,00000000000|  9,00000000000|  5,00000000000|  5,00000000000|  9,00000000000|  9,00000000000|  3,00000000000|  4,00000000000|  4,00000000000|  0,00000000000|  5,00000000000|  6,00000000000|  5,00000000000|  6,00000000000|  8,00000000000
Rabbit                    |  8,00000000000| 10,00000000000| 10,00000000000|  7,00000000000|  7,00000000000|  6,00000000000|  7,00000000000|  7,00000000000|  7,00000000000|  9,00000000000|  5,00000000000|  8,00000000000|  8,00000000000| 11,00000000000| 11,00000000000|  9,00000000000| 10,00000000000|  8,00000000000|  6,00000000000|  6,00000000000|  8,00000000000|  8,00000000000|  6,00000000000|  7,00000000000|  7,00000000000|  5,00000000000|  0,00000000000|  3,00000000000|  4,00000000000|  5,00000000000|  7,00000000000
Hedgehog                  |  7,00000000000|  9,00000000000|  9,00000000000|  6,00000000000|  6,00000000000|  5,00000000000|  6,00000000000|  6,00000000000|  6,00000000000|  8,00000000000|  6,00000000000|  9,00000000000|  9,00000000000| 12,00000000000| 12,00000000000| 10,00000000000| 11,00000000000|  9,00000000000|  7,00000000000|  7,00000000000|  9,00000000000|  9,00000000000|  7,00000000000|  8,00000000000|  8,00000000000|  6,00000000000|  3,00000000000|  0,00000000000|  5,00000000000|  6,00000000000|  8,00000000000
Dormouse                  | 10,00000000000| 12,00000000000| 12,00000000000|  9,00000000000|  9,00000000000|  8,00000000000|  9,00000000000|  9,00000000000|  9,00000000000| 11,00000000000|  5,00000000000|  6,00000000000|  6,00000000000|  9,00000000000|  9,00000000000|  7,00000000000|  8,00000000000|  6,00000000000|  6,00000000000|  6,00000000000|  6,00000000000|  6,00000000000|  6,00000000000|  7,00000000000|  7,00000000000|  5,00000000000|  4,00000000000|  5,00000000000|  0,00000000000|  3,00000000000|  5,00000000000
Squirrel                  | 11,00000000000| 13,00000000000| 13,00000000000| 10,00000000000| 10,00000000000|  9,00000000000| 10,00000000000| 10,00000000000| 10,00000000000| 12,00000000000|  6,00000000000|  5,00000000000|  5,00000000000|  8,00000000000|  8,00000000000|  6,00000000000|  7,00000000000|  5,00000000000|  7,00000000000|  7,00000000000|  5,00000000000|  5,00000000000|  7,00000000000|  8,00000000000|  8,00000000000|  6,00000000000|  5,00000000000|  6,00000000000|  3,00000000000|  0,00000000000|  4,00000000000
Blue_Whale                | 13,00000000000| 15,00000000000| 15,00000000000| 12,00000000000| 12,00000000000| 11,00000000000| 12,00000000000| 12,00000000000| 12,00000000000| 14,00000000000|  8,00000000000|  5,00000000000|  3,00000000000|  6,00000000000|  6,00000000000|  4,00000000000|  5,00000000000|  5,00000000000|  9,00000000000|  9,00000000000|  5,00000000000|  5,00000000000|  9,00000000000| 10,00000000000| 10,00000000000|  8,00000000000|  7,00000000000|  8,00000000000|  5,00000000000|  4,00000000000|  0,00000000000
