<?xml version="1.0" encoding="UTF-8"?>
<svg xmlns="http://www.w3.org/2000/svg" xmlns:xlink="http://www.w3.org/1999/xlink" contentScriptType="text/ecmascript" width="20cm" zoomAndPan="magnify" contentStyleType="text/css" height="15.037593984962406cm" viewBox="0 0 1.33 1.0" preserveAspectRatio="xMidYMid meet" version="1.0">
<defs/>
<style type="text/css" xml:space="preserve">
.axis-label{fill:black;
font-family:'Times New Roman', serif;
font-size:2.0;
}

.key-caption{font-size:0.7000000000000001;
font-family:'Times New Roman', serif;
fill:black;
font-weight:bold;
}

.key-hierarchy{stroke:black;
stroke-width:0.4170323914242463;
stroke-linecap:round;
fill:none;
}

.axis{stroke:black;
stroke-width:0.2;
}

.key-hierarchy_0{stroke:#ed420e;
stroke-width:0.4170323914242463;
stroke-linecap:round;
fill:none;
}

.key-hierarchy_1{stroke:#fdca19;
stroke-width:0.4170323914242463;
stroke-linecap:round;
fill:none;
}

.axis-tick{stroke:grey;
stroke-width:0.2;
}
</style>
<g transform="scale(0.0105055292) translate(13.3 10)">
<line y2="0" x1="0" x2="0" class="axis" y1="75.1879699248"/>
<line y2="75.1879699248" x1="0.7518796992" x2="-0.7518796992" class="axis-tick" y1="75.1879699248"/>
<text x="-1.8796992481" y="75.8879699248" class="axis-label" text-anchor="end">0</text>
<line y2="68.3526999316" x1="0.7518796992" x2="-0.7518796992" class="axis-tick" y1="68.3526999316"/>
<text x="-1.8796992481" y="69.0526999316" class="axis-label" text-anchor="end">1</text>
<line y2="61.5174299385" x1="0.7518796992" x2="-0.7518796992" class="axis-tick" y1="61.5174299385"/>
<text x="-1.8796992481" y="62.2174299385" class="axis-label" text-anchor="end">2</text>
<line y2="54.6821599453" x1="0.7518796992" x2="-0.7518796992" class="axis-tick" y1="54.6821599453"/>
<text x="-1.8796992481" y="55.3821599453" class="axis-label" text-anchor="end">3</text>
<line y2="47.8468899522" x1="0.7518796992" x2="-0.7518796992" class="axis-tick" y1="47.8468899522"/>
<text x="-1.8796992481" y="48.5468899522" class="axis-label" text-anchor="end">4</text>
<line y2="41.011619959" x1="0.7518796992" x2="-0.7518796992" class="axis-tick" y1="41.011619959"/>
<text x="-1.8796992481" y="41.711619959" class="axis-label" text-anchor="end">5</text>
<line y2="34.1763499658" x1="0.7518796992" x2="-0.7518796992" class="axis-tick" y1="34.1763499658"/>
<text x="-1.8796992481" y="34.8763499658" class="axis-label" text-anchor="end">6</text>
<line y2="27.3410799727" x1="0.7518796992" x2="-0.7518796992" class="axis-tick" y1="27.3410799727"/>
<text x="-1.8796992481" y="28.0410799727" class="axis-label" text-anchor="end">7</text>
<line y2="20.5058099795" x1="0.7518796992" x2="-0.7518796992" class="axis-tick" y1="20.5058099795"/>
<text x="-1.8796992481" y="21.2058099795" class="axis-label" text-anchor="end">8</text>
<line y2="13.6705399863" x1="0.7518796992" x2="-0.7518796992" class="axis-tick" y1="13.6705399863"/>
<text x="-1.8796992481" y="14.3705399863" class="axis-label" text-anchor="end">9</text>
<line y2="6.8352699932" x1="0.7518796992" x2="-0.7518796992" class="axis-tick" y1="6.8352699932"/>
<text x="-1.8796992481" y="7.5352699932" class="axis-label" text-anchor="end">10</text>
<line y2="0" x1="0.7518796992" x2="-0.7518796992" class="axis-tick" y1="0"/>
<text x="-1.8796992481" y="0.7" class="axis-label" text-anchor="end">11</text>
<text x="45" y="78.9473684211" style="font-size: 2.5; font-family:'Times New Roman';" transform="rotate(60 45.0 78.94736842105263)">canAlb</text>
<text x="25" y="78.9473684211" style="font-size: 2.5; font-family:'Times New Roman';" transform="rotate(60 25.0 78.94736842105263)">canDub</text>
<text x="35" y="78.9473684211" style="font-size: 2.5; font-family:'Times New Roman';" transform="rotate(60 35.0 78.94736842105263)">canSoj</text>
<text x="15" y="78.9473684211" style="font-size: 2.5; font-family:'Times New Roman';" transform="rotate(60 15.0 78.94736842105263)">canMal</text>
<text x="85" y="78.9473684211" style="font-size: 2.5; font-family:'Times New Roman';" transform="rotate(60 85.0 78.94736842105263)">debHan</text>
<text x="75" y="78.9473684211" style="font-size: 2.5; font-family:'Times New Roman';" transform="rotate(60 75.0 78.94736842105263)">sacPas</text>
<text x="65" y="78.9473684211" style="font-size: 2.5; font-family:'Times New Roman';" transform="rotate(60 65.0 78.94736842105263)">canPar</text>
<text x="55" y="78.9473684211" style="font-size: 2.5; font-family:'Times New Roman';" transform="rotate(60 55.0 78.94736842105263)">canTro</text>
<text x="5" y="78.9473684211" style="font-size: 2.5; font-family:'Times New Roman';" transform="rotate(60 5.0 78.94736842105263)">aspNig</text>
<text x="95" y="78.9473684211" style="font-size: 2.5; font-family:'Times New Roman';" transform="rotate(60 95.0 78.94736842105263)">sacCer</text>
<path class="key-hierarchy_0" d="M45 75.1879699248 V58.0488842526 H55 V75.1879699248 M25 75.1879699248 V58.0155333804 H35 V75.1879699248 M30 58.0155333804 V57.597317793 H50 V58.0488842526 M15 75.1879699248 V52.2244057605 H40 V57.597317793 M85 75.1879699248 V48.3099996978 H95 V75.1879699248 M75 75.1879699248 V45.713274122 H90 V48.3099996978 M65 75.1879699248 V39.5044645428 H82.5 V45.713274122 M27.5 52.2244057605 V29.730788608 H73.75 V39.5044645428 M5 75.1879699248 V3.9282388255 H50.625 V29.730788608 M27.8125 3.9282388255 "/>
</g>
</svg>
