<?xml version="1.0" encoding="UTF-8"?>
<svg xmlns="http://www.w3.org/2000/svg" xmlns:xlink="http://www.w3.org/1999/xlink" contentScriptType="text/ecmascript" width="20cm" zoomAndPan="magnify" contentStyleType="text/css" height="15.037593984962406cm" viewBox="0 0 1.33 1.0" preserveAspectRatio="xMidYMid meet" version="1.0">
<defs/>
<style type="text/css" xml:space="preserve">
.axis-label{fill:black;
font-family:'Times New Roman', serif;
font-size:2.0;
}

.key-caption{font-size:0.7000000000000001;
font-family:'Times New Roman', serif;
fill:black;
font-weight:bold;
}

.key-hierarchy{stroke:black;
stroke-width:0.4170323914242463;
stroke-linecap:round;
fill:none;
}

.axis{stroke:black;
stroke-width:0.2;
}

.key-hierarchy_0{stroke:#ed420e;
stroke-width:0.4170323914242463;
stroke-linecap:round;
fill:none;
}

.key-hierarchy_1{stroke:#fdca19;
stroke-width:0.4170323914242463;
stroke-linecap:round;
fill:none;
}

.axis-tick{stroke:grey;
stroke-width:0.2;
}
</style>
<g transform="scale(0.0105055292) translate(13.3 10)">
<line y2="0" x1="0" x2="0" class="axis" y1="75.1879699248"/>
<line y2="75.1879699248" x1="0.7518796992" x2="-0.7518796992" class="axis-tick" y1="75.1879699248"/>
<text x="-1.8796992481" y="75.8879699248" class="axis-label" text-anchor="end">0</text>
<line y2="72.5026852846" x1="0.7518796992" x2="-0.7518796992" class="axis-tick" y1="72.5026852846"/>
<text x="-1.8796992481" y="73.2026852846" class="axis-label" text-anchor="end">1</text>
<line y2="69.8174006445" x1="0.7518796992" x2="-0.7518796992" class="axis-tick" y1="69.8174006445"/>
<text x="-1.8796992481" y="70.5174006445" class="axis-label" text-anchor="end">2</text>
<line y2="67.1321160043" x1="0.7518796992" x2="-0.7518796992" class="axis-tick" y1="67.1321160043"/>
<text x="-1.8796992481" y="67.8321160043" class="axis-label" text-anchor="end">3</text>
<line y2="64.4468313641" x1="0.7518796992" x2="-0.7518796992" class="axis-tick" y1="64.4468313641"/>
<text x="-1.8796992481" y="65.1468313641" class="axis-label" text-anchor="end">4</text>
<line y2="61.761546724" x1="0.7518796992" x2="-0.7518796992" class="axis-tick" y1="61.761546724"/>
<text x="-1.8796992481" y="62.461546724" class="axis-label" text-anchor="end">5</text>
<line y2="59.0762620838" x1="0.7518796992" x2="-0.7518796992" class="axis-tick" y1="59.0762620838"/>
<text x="-1.8796992481" y="59.7762620838" class="axis-label" text-anchor="end">6</text>
<line y2="56.3909774436" x1="0.7518796992" x2="-0.7518796992" class="axis-tick" y1="56.3909774436"/>
<text x="-1.8796992481" y="57.0909774436" class="axis-label" text-anchor="end">7</text>
<line y2="53.7056928034" x1="0.7518796992" x2="-0.7518796992" class="axis-tick" y1="53.7056928034"/>
<text x="-1.8796992481" y="54.4056928034" class="axis-label" text-anchor="end">8</text>
<line y2="51.0204081633" x1="0.7518796992" x2="-0.7518796992" class="axis-tick" y1="51.0204081633"/>
<text x="-1.8796992481" y="51.7204081633" class="axis-label" text-anchor="end">9</text>
<line y2="48.3351235231" x1="0.7518796992" x2="-0.7518796992" class="axis-tick" y1="48.3351235231"/>
<text x="-1.8796992481" y="49.0351235231" class="axis-label" text-anchor="end">10</text>
<line y2="45.6498388829" x1="0.7518796992" x2="-0.7518796992" class="axis-tick" y1="45.6498388829"/>
<text x="-1.8796992481" y="46.3498388829" class="axis-label" text-anchor="end">11</text>
<line y2="42.9645542427" x1="0.7518796992" x2="-0.7518796992" class="axis-tick" y1="42.9645542427"/>
<text x="-1.8796992481" y="43.6645542427" class="axis-label" text-anchor="end">12</text>
<line y2="40.2792696026" x1="0.7518796992" x2="-0.7518796992" class="axis-tick" y1="40.2792696026"/>
<text x="-1.8796992481" y="40.9792696026" class="axis-label" text-anchor="end">13</text>
<line y2="37.5939849624" x1="0.7518796992" x2="-0.7518796992" class="axis-tick" y1="37.5939849624"/>
<text x="-1.8796992481" y="38.2939849624" class="axis-label" text-anchor="end">14</text>
<line y2="34.9087003222" x1="0.7518796992" x2="-0.7518796992" class="axis-tick" y1="34.9087003222"/>
<text x="-1.8796992481" y="35.6087003222" class="axis-label" text-anchor="end">15</text>
<line y2="32.2234156821" x1="0.7518796992" x2="-0.7518796992" class="axis-tick" y1="32.2234156821"/>
<text x="-1.8796992481" y="32.9234156821" class="axis-label" text-anchor="end">16</text>
<line y2="29.5381310419" x1="0.7518796992" x2="-0.7518796992" class="axis-tick" y1="29.5381310419"/>
<text x="-1.8796992481" y="30.2381310419" class="axis-label" text-anchor="end">17</text>
<line y2="26.8528464017" x1="0.7518796992" x2="-0.7518796992" class="axis-tick" y1="26.8528464017"/>
<text x="-1.8796992481" y="27.5528464017" class="axis-label" text-anchor="end">18</text>
<line y2="24.1675617615" x1="0.7518796992" x2="-0.7518796992" class="axis-tick" y1="24.1675617615"/>
<text x="-1.8796992481" y="24.8675617615" class="axis-label" text-anchor="end">19</text>
<line y2="21.4822771214" x1="0.7518796992" x2="-0.7518796992" class="axis-tick" y1="21.4822771214"/>
<text x="-1.8796992481" y="22.1822771214" class="axis-label" text-anchor="end">20</text>
<line y2="18.7969924812" x1="0.7518796992" x2="-0.7518796992" class="axis-tick" y1="18.7969924812"/>
<text x="-1.8796992481" y="19.4969924812" class="axis-label" text-anchor="end">21</text>
<line y2="16.111707841" x1="0.7518796992" x2="-0.7518796992" class="axis-tick" y1="16.111707841"/>
<text x="-1.8796992481" y="16.811707841" class="axis-label" text-anchor="end">22</text>
<line y2="13.4264232009" x1="0.7518796992" x2="-0.7518796992" class="axis-tick" y1="13.4264232009"/>
<text x="-1.8796992481" y="14.1264232009" class="axis-label" text-anchor="end">23</text>
<line y2="10.7411385607" x1="0.7518796992" x2="-0.7518796992" class="axis-tick" y1="10.7411385607"/>
<text x="-1.8796992481" y="11.4411385607" class="axis-label" text-anchor="end">24</text>
<line y2="8.0558539205" x1="0.7518796992" x2="-0.7518796992" class="axis-tick" y1="8.0558539205"/>
<text x="-1.8796992481" y="8.7558539205" class="axis-label" text-anchor="end">25</text>
<line y2="5.3705692803" x1="0.7518796992" x2="-0.7518796992" class="axis-tick" y1="5.3705692803"/>
<text x="-1.8796992481" y="6.0705692803" class="axis-label" text-anchor="end">26</text>
<line y2="2.6852846402" x1="0.7518796992" x2="-0.7518796992" class="axis-tick" y1="2.6852846402"/>
<text x="-1.8796992481" y="3.3852846402" class="axis-label" text-anchor="end">27</text>
<line y2="0" x1="0.7518796992" x2="-0.7518796992" class="axis-tick" y1="0"/>
<text x="-1.8796992481" y="0.7" class="axis-label" text-anchor="end">28</text>
<text x="45" y="78.9473684211" style="font-size: 2.5; font-family:'Times New Roman';" transform="rotate(60 45.0 78.94736842105263)">canAlb</text>
<text x="35" y="78.9473684211" style="font-size: 2.5; font-family:'Times New Roman';" transform="rotate(60 35.0 78.94736842105263)">canMal</text>
<text x="25" y="78.9473684211" style="font-size: 2.5; font-family:'Times New Roman';" transform="rotate(60 25.0 78.94736842105263)">canDub</text>
<text x="15" y="78.9473684211" style="font-size: 2.5; font-family:'Times New Roman';" transform="rotate(60 15.0 78.94736842105263)">canSoj</text>
<text x="85" y="78.9473684211" style="font-size: 2.5; font-family:'Times New Roman';" transform="rotate(60 85.0 78.94736842105263)">canPar</text>
<text x="75" y="78.9473684211" style="font-size: 2.5; font-family:'Times New Roman';" transform="rotate(60 75.0 78.94736842105263)">sacPas</text>
<text x="65" y="78.9473684211" style="font-size: 2.5; font-family:'Times New Roman';" transform="rotate(60 65.0 78.94736842105263)">debHan</text>
<text x="55" y="78.9473684211" style="font-size: 2.5; font-family:'Times New Roman';" transform="rotate(60 55.0 78.94736842105263)">canTro</text>
<text x="5" y="78.9473684211" style="font-size: 2.5; font-family:'Times New Roman';" transform="rotate(60 5.0 78.94736842105263)">aspNig</text>
<text x="95" y="78.9473684211" style="font-size: 2.5; font-family:'Times New Roman';" transform="rotate(60 95.0 78.94736842105263)">sacCer</text>
<path class="key-hierarchy_0" d="M45 75.1879699248 V67.1017358516 H55 V75.1879699248 M35 75.1879699248 V66.884146078 H50 V67.1017358516 M25 75.1879699248 V65.269130866 H42.5 V66.884146078 M15 75.1879699248 V64.8994345085 H33.75 V65.269130866 M85 75.1879699248 V63.5361653379 H95 V75.1879699248 M75 75.1879699248 V60.7342104666 H90 V63.5361653379 M65 75.1879699248 V57.5881064237 H82.5 V60.7342104666 M24.375 64.8994345085 V41.0269449589 H73.75 V57.5881064237 M5 75.1879699248 V1.0229682371 H49.0625 V41.0269449589 M27.03125 1.0229682371 "/>
</g>
</svg>
