<?xml version="1.0" encoding="UTF-8"?>
<svg xmlns="http://www.w3.org/2000/svg" xmlns:xlink="http://www.w3.org/1999/xlink" contentScriptType="text/ecmascript" width="20cm" zoomAndPan="magnify" contentStyleType="text/css" height="15.037593984962406cm" viewBox="0 0 1.33 1.0" preserveAspectRatio="xMidYMid meet" version="1.0">
<defs/>
<style type="text/css" xml:space="preserve">
.axis-label{fill:black;
font-family:'Times New Roman', serif;
font-size:2.0;
}

.key-caption{font-size:0.7000000000000001;
font-family:'Times New Roman', serif;
fill:black;
font-weight:bold;
}

.key-hierarchy{stroke:black;
stroke-width:0.4170323914242463;
stroke-linecap:round;
fill:none;
}

.axis{stroke:black;
stroke-width:0.2;
}

.key-hierarchy_0{stroke:#ed420e;
stroke-width:0.4170323914242463;
stroke-linecap:round;
fill:none;
}

.key-hierarchy_1{stroke:#fdca19;
stroke-width:0.4170323914242463;
stroke-linecap:round;
fill:none;
}

.axis-tick{stroke:grey;
stroke-width:0.2;
}
</style>
<g transform="scale(0.0105055292) translate(13.3 10)">
<line y2="0" x1="0" x2="0" class="axis" y1="75.1879699248"/>
<line y2="75.1879699248" x1="0.7518796992" x2="-0.7518796992" class="axis-tick" y1="75.1879699248"/>
<text x="-1.8796992481" y="75.8879699248" class="axis-label" text-anchor="end">0</text>
<line y2="71.7703349282" x1="0.7518796992" x2="-0.7518796992" class="axis-tick" y1="71.7703349282"/>
<text x="-1.8796992481" y="72.4703349282" class="axis-label" text-anchor="end">0.01</text>
<line y2="68.3526999316" x1="0.7518796992" x2="-0.7518796992" class="axis-tick" y1="68.3526999316"/>
<text x="-1.8796992481" y="69.0526999316" class="axis-label" text-anchor="end">0.02</text>
<line y2="64.9350649351" x1="0.7518796992" x2="-0.7518796992" class="axis-tick" y1="64.9350649351"/>
<text x="-1.8796992481" y="65.6350649351" class="axis-label" text-anchor="end">0.03</text>
<line y2="61.5174299385" x1="0.7518796992" x2="-0.7518796992" class="axis-tick" y1="61.5174299385"/>
<text x="-1.8796992481" y="62.2174299385" class="axis-label" text-anchor="end">0.04</text>
<line y2="58.0997949419" x1="0.7518796992" x2="-0.7518796992" class="axis-tick" y1="58.0997949419"/>
<text x="-1.8796992481" y="58.7997949419" class="axis-label" text-anchor="end">0.05</text>
<line y2="54.6821599453" x1="0.7518796992" x2="-0.7518796992" class="axis-tick" y1="54.6821599453"/>
<text x="-1.8796992481" y="55.3821599453" class="axis-label" text-anchor="end">0.06</text>
<line y2="51.2645249487" x1="0.7518796992" x2="-0.7518796992" class="axis-tick" y1="51.2645249487"/>
<text x="-1.8796992481" y="51.9645249487" class="axis-label" text-anchor="end">0.07</text>
<line y2="47.8468899522" x1="0.7518796992" x2="-0.7518796992" class="axis-tick" y1="47.8468899522"/>
<text x="-1.8796992481" y="48.5468899522" class="axis-label" text-anchor="end">0.08</text>
<line y2="44.4292549556" x1="0.7518796992" x2="-0.7518796992" class="axis-tick" y1="44.4292549556"/>
<text x="-1.8796992481" y="45.1292549556" class="axis-label" text-anchor="end">0.09</text>
<line y2="41.011619959" x1="0.7518796992" x2="-0.7518796992" class="axis-tick" y1="41.011619959"/>
<text x="-1.8796992481" y="41.711619959" class="axis-label" text-anchor="end">0.1</text>
<line y2="37.5939849624" x1="0.7518796992" x2="-0.7518796992" class="axis-tick" y1="37.5939849624"/>
<text x="-1.8796992481" y="38.2939849624" class="axis-label" text-anchor="end">0.11</text>
<line y2="34.1763499658" x1="0.7518796992" x2="-0.7518796992" class="axis-tick" y1="34.1763499658"/>
<text x="-1.8796992481" y="34.8763499658" class="axis-label" text-anchor="end">0.12</text>
<line y2="30.7587149692" x1="0.7518796992" x2="-0.7518796992" class="axis-tick" y1="30.7587149692"/>
<text x="-1.8796992481" y="31.4587149692" class="axis-label" text-anchor="end">0.13</text>
<line y2="27.3410799727" x1="0.7518796992" x2="-0.7518796992" class="axis-tick" y1="27.3410799727"/>
<text x="-1.8796992481" y="28.0410799727" class="axis-label" text-anchor="end">0.14</text>
<line y2="23.9234449761" x1="0.7518796992" x2="-0.7518796992" class="axis-tick" y1="23.9234449761"/>
<text x="-1.8796992481" y="24.6234449761" class="axis-label" text-anchor="end">0.15</text>
<line y2="20.5058099795" x1="0.7518796992" x2="-0.7518796992" class="axis-tick" y1="20.5058099795"/>
<text x="-1.8796992481" y="21.2058099795" class="axis-label" text-anchor="end">0.16</text>
<line y2="17.0881749829" x1="0.7518796992" x2="-0.7518796992" class="axis-tick" y1="17.0881749829"/>
<text x="-1.8796992481" y="17.7881749829" class="axis-label" text-anchor="end">0.17</text>
<line y2="13.6705399863" x1="0.7518796992" x2="-0.7518796992" class="axis-tick" y1="13.6705399863"/>
<text x="-1.8796992481" y="14.3705399863" class="axis-label" text-anchor="end">0.18</text>
<line y2="10.2529049897" x1="0.7518796992" x2="-0.7518796992" class="axis-tick" y1="10.2529049897"/>
<text x="-1.8796992481" y="10.9529049897" class="axis-label" text-anchor="end">0.19</text>
<line y2="6.8352699932" x1="0.7518796992" x2="-0.7518796992" class="axis-tick" y1="6.8352699932"/>
<text x="-1.8796992481" y="7.5352699932" class="axis-label" text-anchor="end">0.2</text>
<line y2="3.4176349966" x1="0.7518796992" x2="-0.7518796992" class="axis-tick" y1="3.4176349966"/>
<text x="-1.8796992481" y="4.1176349966" class="axis-label" text-anchor="end">0.21</text>
<line y2="-0" x1="0.7518796992" x2="-0.7518796992" class="axis-tick" y1="-0"/>
<text x="-1.8796992481" y="0.7" class="axis-label" text-anchor="end">0.22</text>
<text x="75" y="78.9473684211" style="font-size: 2.5; font-family:'Times New Roman';" transform="rotate(60 75.0 78.94736842105263)">aspNig</text>
<text x="65" y="78.9473684211" style="font-size: 2.5; font-family:'Times New Roman';" transform="rotate(60 65.0 78.94736842105263)">canTro</text>
<text x="55" y="78.9473684211" style="font-size: 2.5; font-family:'Times New Roman';" transform="rotate(60 55.0 78.94736842105263)">canDub</text>
<text x="45" y="78.9473684211" style="font-size: 2.5; font-family:'Times New Roman';" transform="rotate(60 45.0 78.94736842105263)">canAlb</text>
<text x="35" y="78.9473684211" style="font-size: 2.5; font-family:'Times New Roman';" transform="rotate(60 35.0 78.94736842105263)">debHan</text>
<text x="25" y="78.9473684211" style="font-size: 2.5; font-family:'Times New Roman';" transform="rotate(60 25.0 78.94736842105263)">canPar</text>
<text x="85" y="78.9473684211" style="font-size: 2.5; font-family:'Times New Roman';" transform="rotate(60 85.0 78.94736842105263)">sacPas</text>
<text x="15" y="78.9473684211" style="font-size: 2.5; font-family:'Times New Roman';" transform="rotate(60 15.0 78.94736842105263)">canMal</text>
<text x="5" y="78.9473684211" style="font-size: 2.5; font-family:'Times New Roman';" transform="rotate(60 5.0 78.94736842105263)">canSoj</text>
<text x="95" y="78.9473684211" style="font-size: 2.5; font-family:'Times New Roman';" transform="rotate(60 95.0 78.94736842105263)">sacCer</text>
<path class="key-hierarchy_0" d="M75 75.1879699248 V18.5749214256 H85 V75.1879699248 M65 75.1879699248 V9.8249268654 H80 V18.5749214256 M55 75.1879699248 V9.4935760608 H72.5 V9.8249268654 M45 75.1879699248 V8.9978881786 H63.75 V9.4935760608 M35 75.1879699248 V7.0999509095 H54.375 V8.9978881786 M25 75.1879699248 V5.6466909667 H44.6875 V7.0999509095 M34.84375 5.6466909667 V4.882915979 H95 V75.1879699248 M15 75.1879699248 V4.3803503082 H64.921875 V4.882915979 M5 75.1879699248 V2.5683165914 H39.9609375 V4.3803503082 M22.48046875 2.5683165914 "/>
</g>
</svg>
