                           |aspNig         |debHan         |canMal         |canAlb         |canDub         |canSoj         |canTro         |canPar         |sacPas         |sacCer         
aspNig                    |  0,00000000000|  0,15358991902|  0,19507805272|  0,17963689240|  0,18399478435|  0,19209178645|  0,17597188490|  0,17844332915|  0,14063458817|  0,17096969001
debHan                    |  0,15358991902|  0,00000000000|  0,19507805272|  0,17963689240|  0,18399478435|  0,19209178645|  0,17597188490|  0,17844332915|  0,15358991902|  0,17096969001
canMal                    |  0,19507805272|  0,19507805272|  0,00000000000|  0,19507805272|  0,19507805272|  0,19507805272|  0,19507805272|  0,19507805272|  0,19507805272|  0,19507805272
canAlb                    |  0,17963689240|  0,17963689240|  0,19507805272|  0,00000000000|  0,18399478435|  0,19209178645|  0,17963689240|  0,17963689240|  0,17963689240|  0,17963689240
canDub                    |  0,18399478435|  0,18399478435|  0,19507805272|  0,18399478435|  0,00000000000|  0,19209178645|  0,18399478435|  0,18399478435|  0,18399478435|  0,18399478435
canSoj                    |  0,19209178645|  0,19209178645|  0,19507805272|  0,19209178645|  0,19209178645|  0,00000000000|  0,19209178645|  0,19209178645|  0,19209178645|  0,19209178645
canTro                    |  0,17597188490|  0,17597188490|  0,19507805272|  0,17963689240|  0,18399478435|  0,19209178645|  0,00000000000|  0,17844332915|  0,17597188490|  0,17597188490
canPar                    |  0,17844332915|  0,17844332915|  0,19507805272|  0,17963689240|  0,18399478435|  0,19209178645|  0,17844332915|  0,00000000000|  0,17844332915|  0,17844332915
sacPas                    |  0,14063458817|  0,15358991902|  0,19507805272|  0,17963689240|  0,18399478435|  0,19209178645|  0,17597188490|  0,17844332915|  0,00000000000|  0,17096969001
sacCer                    |  0,17096969001|  0,17096969001|  0,19507805272|  0,17963689240|  0,18399478435|  0,19209178645|  0,17597188490|  0,17844332915|  0,17096969001|  0,00000000000
                           |aspNig         |debHan         |canMal         |canAlb         |canDub         |canSoj         |canTro         |canPar         |sacPas         |sacCer         
aspNig                    |  0,00000000000|  7,55195304521| 11,05821324798|  9,75324430692| 10,12154005231| 10,80583683015|  9,44350586351|  9,65237345679|  6,45706742541|  9,02075855518
debHan                    |  7,55195304521|  0,00000000000| 11,05821324798|  9,75324430692| 10,12154005231| 10,80583683015|  9,44350586351|  9,65237345679|  7,55195304521|  9,02075855518
canMal                    | 11,05821324798| 11,05821324798|  0,00000000000| 11,05821324798| 11,05821324798| 11,05821324798| 11,05821324798| 11,05821324798| 11,05821324798| 11,05821324798
canAlb                    |  9,75324430692|  9,75324430692| 11,05821324798|  0,00000000000| 10,12154005231| 10,80583683015|  9,75324430692|  9,75324430692|  9,75324430692|  9,75324430692
canDub                    | 10,12154005231| 10,12154005231| 11,05821324798| 10,12154005231|  0,00000000000| 10,80583683015| 10,12154005231| 10,12154005231| 10,12154005231| 10,12154005231
canSoj                    | 10,80583683015| 10,80583683015| 11,05821324798| 10,80583683015| 10,80583683015|  0,00000000000| 10,80583683015| 10,80583683015| 10,80583683015| 10,80583683015
canTro                    |  9,44350586351|  9,44350586351| 11,05821324798|  9,75324430692| 10,12154005231| 10,80583683015|  0,00000000000|  9,65237345679|  9,44350586351|  9,44350586351
canPar                    |  9,65237345679|  9,65237345679| 11,05821324798|  9,75324430692| 10,12154005231| 10,80583683015|  9,65237345679|  0,00000000000|  9,65237345679|  9,65237345679
sacPas                    |  6,45706742541|  7,55195304521| 11,05821324798|  9,75324430692| 10,12154005231| 10,80583683015|  9,44350586351|  9,65237345679|  0,00000000000|  9,02075855518
sacCer                    |  9,02075855518|  9,02075855518| 11,05821324798|  9,75324430692| 10,12154005231| 10,80583683015|  9,44350586351|  9,65237345679|  9,02075855518|  0,00000000000
                           |aspNig         |debHan         |canMal         |canAlb         |canDub         |canSoj         |canTro         |canPar         |sacPas         |sacCer         
aspNig                    |  0,00000000000|  3,00000000000| 10,00000000000|  7,00000000000|  8,00000000000|  9,00000000000|  5,00000000000|  6,00000000000|  2,00000000000|  4,00000000000
debHan                    |  3,00000000000|  0,00000000000|  9,00000000000|  6,00000000000|  7,00000000000|  8,00000000000|  4,00000000000|  5,00000000000|  3,00000000000|  3,00000000000
canMal                    | 10,00000000000|  9,00000000000|  0,00000000000|  5,00000000000|  4,00000000000|  3,00000000000|  7,00000000000|  6,00000000000| 10,00000000000|  8,00000000000
canAlb                    |  7,00000000000|  6,00000000000|  5,00000000000|  0,00000000000|  3,00000000000|  4,00000000000|  4,00000000000|  3,00000000000|  7,00000000000|  5,00000000000
canDub                    |  8,00000000000|  7,00000000000|  4,00000000000|  3,00000000000|  0,00000000000|  3,00000000000|  5,00000000000|  4,00000000000|  8,00000000000|  6,00000000000
canSoj                    |  9,00000000000|  8,00000000000|  3,00000000000|  4,00000000000|  3,00000000000|  0,00000000000|  6,00000000000|  5,00000000000|  9,00000000000|  7,00000000000
canTro                    |  5,00000000000|  4,00000000000|  7,00000000000|  4,00000000000|  5,00000000000|  6,00000000000|  0,00000000000|  3,00000000000|  5,00000000000|  3,00000000000
canPar                    |  6,00000000000|  5,00000000000|  6,00000000000|  3,00000000000|  4,00000000000|  5,00000000000|  3,00000000000|  0,00000000000|  6,00000000000|  4,00000000000
sacPas                    |  2,00000000000|  3,00000000000| 10,00000000000|  7,00000000000|  8,00000000000|  9,00000000000|  5,00000000000|  6,00000000000|  0,00000000000|  4,00000000000
sacCer                    |  4,00000000000|  3,00000000000|  8,00000000000|  5,00000000000|  6,00000000000|  7,00000000000|  3,00000000000|  4,00000000000|  4,00000000000|  0,00000000000
