                           |aspNig         |debHan         |canMal         |canAlb         |canDub         |canSoj         |canTro         |canPar         |sacPas         |sacCer         
aspNig                    |  0,00000000000|20756,13810574063|20756,13810574063|20756,13810574063|20756,13810574063|20756,13810574063|20756,13810574063|20756,13810574063|20756,13810574063|20756,13810574063
debHan                    |20756,13810574063|  0,00000000000|11184,71365334450|11184,71365334450|11184,71365334450|11184,71365334450|11184,71365334450|11184,71365334450|11184,71365334450|11184,71365334450
canMal                    |20756,13810574063|11184,71365334450|  0,00000000000|7257,49579758329|7257,49579758329|7257,49579758329|7257,49579758329|7257,49579758329|9670,58024493123|9670,58024493123
canAlb                    |20756,13810574063|11184,71365334450|7257,49579758329|  0,00000000000|5498,85719615731|5667,12411339112|6143,27443935848|7199,24011918971|9670,58024493123|9670,58024493123
canDub                    |20756,13810574063|11184,71365334450|7257,49579758329|5498,85719615731|  0,00000000000|5667,12411339112|6143,27443935848|7199,24011918971|9670,58024493123|9670,58024493123
canSoj                    |20756,13810574063|11184,71365334450|7257,49579758329|5667,12411339112|5667,12411339112|  0,00000000000|6143,27443935848|7199,24011918971|9670,58024493123|9670,58024493123
canTro                    |20756,13810574063|11184,71365334450|7257,49579758329|6143,27443935848|6143,27443935848|6143,27443935848|  0,00000000000|7199,24011918971|9670,58024493123|9670,58024493123
canPar                    |20756,13810574063|11184,71365334450|7257,49579758329|7199,24011918971|7199,24011918971|7199,24011918971|7199,24011918971|  0,00000000000|9670,58024493123|9670,58024493123
sacPas                    |20756,13810574063|11184,71365334450|9670,58024493123|9670,58024493123|9670,58024493123|9670,58024493123|9670,58024493123|9670,58024493123|  0,00000000000|4306,30993737658
sacCer                    |20756,13810574063|11184,71365334450|9670,58024493123|9670,58024493123|9670,58024493123|9670,58024493123|9670,58024493123|9670,58024493123|4306,30993737658|  0,00000000000
                           |aspNig         |debHan         |canMal         |canAlb         |canDub         |canSoj         |canTro         |canPar         |sacPas         |sacCer         
aspNig                    |  0,00000000000| 11,87406034118| 11,87406034118| 11,87406034118| 11,87406034118| 11,87406034118| 11,87406034118| 11,87406034118| 11,87406034118| 11,87406034118
debHan                    | 11,87406034118|  0,00000000000| 10,02713701114| 10,02713701114| 10,02713701114| 10,02713701114| 10,02713701114| 10,02713701114| 10,02713701114| 10,02713701114
canMal                    | 11,87406034118| 10,02713701114|  0,00000000000|  9,26933232741|  9,26933232741|  9,26933232741|  9,26933232741|  9,26933232741|  9,73496646424|  9,73496646424
canAlb                    | 11,87406034118| 10,02713701114|  9,26933232741|  0,00000000000|  8,92998151518|  8,96245067342|  9,05432969832|  9,25809118226|  9,73496646424|  9,73496646424
canDub                    | 11,87406034118| 10,02713701114|  9,26933232741|  8,92998151518|  0,00000000000|  8,96245067342|  9,05432969832|  9,25809118226|  9,73496646424|  9,73496646424
canSoj                    | 11,87406034118| 10,02713701114|  9,26933232741|  8,96245067342|  8,96245067342|  0,00000000000|  9,05432969832|  9,25809118226|  9,73496646424|  9,73496646424
canTro                    | 11,87406034118| 10,02713701114|  9,26933232741|  9,05432969832|  9,05432969832|  9,05432969832|  0,00000000000|  9,25809118226|  9,73496646424|  9,73496646424
canPar                    | 11,87406034118| 10,02713701114|  9,26933232741|  9,25809118226|  9,25809118226|  9,25809118226|  9,25809118226|  0,00000000000|  9,73496646424|  9,73496646424
sacPas                    | 11,87406034118| 10,02713701114|  9,73496646424|  9,73496646424|  9,73496646424|  9,73496646424|  9,73496646424|  9,73496646424|  0,00000000000|  8,69986494628
sacCer                    | 11,87406034118| 10,02713701114|  9,73496646424|  9,73496646424|  9,73496646424|  9,73496646424|  9,73496646424|  9,73496646424|  8,69986494628|  0,00000000000
                           |aspNig         |debHan         |canMal         |canAlb         |canDub         |canSoj         |canTro         |canPar         |sacPas         |sacCer         
aspNig                    |  0,00000000000|  3,00000000000|  5,00000000000|  9,00000000000|  9,00000000000|  8,00000000000|  7,00000000000|  6,00000000000|  5,00000000000|  5,00000000000
debHan                    |  3,00000000000|  0,00000000000|  4,00000000000|  8,00000000000|  8,00000000000|  7,00000000000|  6,00000000000|  5,00000000000|  4,00000000000|  4,00000000000
canMal                    |  5,00000000000|  4,00000000000|  0,00000000000|  6,00000000000|  6,00000000000|  5,00000000000|  4,00000000000|  3,00000000000|  4,00000000000|  4,00000000000
canAlb                    |  9,00000000000|  8,00000000000|  6,00000000000|  0,00000000000|  2,00000000000|  3,00000000000|  4,00000000000|  5,00000000000|  8,00000000000|  8,00000000000
canDub                    |  9,00000000000|  8,00000000000|  6,00000000000|  2,00000000000|  0,00000000000|  3,00000000000|  4,00000000000|  5,00000000000|  8,00000000000|  8,00000000000
canSoj                    |  8,00000000000|  7,00000000000|  5,00000000000|  3,00000000000|  3,00000000000|  0,00000000000|  3,00000000000|  4,00000000000|  7,00000000000|  7,00000000000
canTro                    |  7,00000000000|  6,00000000000|  4,00000000000|  4,00000000000|  4,00000000000|  3,00000000000|  0,00000000000|  3,00000000000|  6,00000000000|  6,00000000000
canPar                    |  6,00000000000|  5,00000000000|  3,00000000000|  5,00000000000|  5,00000000000|  4,00000000000|  3,00000000000|  0,00000000000|  5,00000000000|  5,00000000000
sacPas                    |  5,00000000000|  4,00000000000|  4,00000000000|  8,00000000000|  8,00000000000|  7,00000000000|  6,00000000000|  5,00000000000|  0,00000000000|  2,00000000000
sacCer                    |  5,00000000000|  4,00000000000|  4,00000000000|  8,00000000000|  8,00000000000|  7,00000000000|  6,00000000000|  5,00000000000|  2,00000000000|  0,00000000000
