                           |aspNig         |debHan         |canMal         |canAlb         |canDub         |canSoj         |canTro         |canPar         |sacPas         |sacCer         
aspNig                    |  0,00000000000| 11,17803635739| 11,71869259767| 11,08655737057| 11,37292661296| 11,14778954539| 11,36601042077| 10,84252017130| 10,96335905518| 11,07479132323
debHan                    | 11,17803635739|  0,00000000000| 11,57253692008| 11,02415850608| 11,59626260195| 10,67737720257| 10,93322737748| 10,33631787328|  9,56089918384|  9,39841567287
canMal                    | 11,71869259767| 11,57253692008|  0,00000000000|  8,97033884872|  8,93501988696|  9,09716660049|  8,84317656424|  9,61793226786| 10,71270133811| 10,76322654056
canAlb                    | 11,08655737057| 11,02415850608|  8,97033884872|  0,00000000000|  8,60465888883|  8,55435435622|  8,63688817672|  9,01768219681| 10,04742457174| 10,13505300651
canDub                    | 11,37292661296| 11,59626260195|  8,93501988696|  8,60465888883|  0,00000000000|  9,00099963499|  8,87334272883|  9,54812924315| 10,59310646483| 10,68320265549
canSoj                    | 11,14778954539| 10,67737720257|  9,09716660049|  8,55435435622|  9,00099963499|  0,00000000000|  8,57072331851|  8,85614028035|  9,76235449249|  9,82935696968
canTro                    | 11,36601042077| 10,93322737748|  8,84317656424|  8,63688817672|  8,87334272883|  8,57072331851|  0,00000000000|  9,23570005276| 10,16353631448| 10,19861846942
canPar                    | 10,84252017130| 10,33631787328|  9,61793226786|  9,01768219681|  9,54812924315|  8,85614028035|  9,23570005276|  0,00000000000|  9,20187826749|  9,30648358698
sacPas                    | 10,96335905518|  9,56089918384| 10,71270133811| 10,04742457174| 10,59310646483|  9,76235449249| 10,16353631448|  9,20187826749|  0,00000000000|  8,39092548420
sacCer                    | 11,07479132323|  9,39841567287| 10,76322654056| 10,13505300651| 10,68320265549|  9,82935696968| 10,19861846942|  9,30648358698|  8,39092548420|  0,00000000000
