                           |aspNig         |debHan         |canMal         |canAlb         |canDub         |canSoj         |canTro         |canPar         |sacPas         |sacCer         
aspNig                    |  0,00000000000|6487,66162231391|6487,66162231391|6487,66162231391|6487,66162231391|6487,66162231391|6487,66162231391|6487,66162231391|6487,66162231391|6487,66162231391
debHan                    |6487,66162231391|  0,00000000000|3544,15636285564|3544,15636285564|3544,15636285564|3544,15636285564|3544,15636285564|3544,15636285564|3544,15636285564|3544,15636285564
canMal                    |6487,66162231391|3544,15636285564|  0,00000000000|2228,85707663102|2228,85707663102|2228,85707663102|2228,85707663102|2397,94376547590|3013,75052150731|3013,75052150731
canAlb                    |6487,66162231391|3544,15636285564|2228,85707663102|  0,00000000000|1708,84997084557|1587,15404999146|1623,20354120339|2397,94376547590|3013,75052150731|3013,75052150731
canDub                    |6487,66162231391|3544,15636285564|2228,85707663102|1708,84997084557|  0,00000000000|1708,84997084557|1708,84997084557|2397,94376547590|3013,75052150731|3013,75052150731
canSoj                    |6487,66162231391|3544,15636285564|2228,85707663102|1587,15404999146|1708,84997084557|  0,00000000000|1623,20354120339|2397,94376547590|3013,75052150731|3013,75052150731
canTro                    |6487,66162231391|3544,15636285564|2228,85707663102|1623,20354120339|1708,84997084557|1623,20354120339|  0,00000000000|2397,94376547590|3013,75052150731|3013,75052150731
canPar                    |6487,66162231391|3544,15636285564|2397,94376547590|2397,94376547590|2397,94376547590|2397,94376547590|2397,94376547590|  0,00000000000|3013,75052150731|3013,75052150731
sacPas                    |6487,66162231391|3544,15636285564|3013,75052150731|3013,75052150731|3013,75052150731|3013,75052150731|3013,75052150731|3013,75052150731|  0,00000000000|1267,58588376565
sacCer                    |6487,66162231391|3544,15636285564|3013,75052150731|3013,75052150731|3013,75052150731|3013,75052150731|3013,75052150731|3013,75052150731|1267,58588376565|  0,00000000000
                           |aspNig         |debHan         |canMal         |canAlb         |canDub         |canSoj         |canTro         |canPar         |sacPas         |sacCer         
aspNig                    |  0,00000000000| 11,85607930126| 11,85607930126| 11,85607930126| 11,85607930126| 11,85607930126| 11,85607930126| 11,85607930126| 11,85607930126| 11,85607930126
debHan                    | 11,85607930126|  0,00000000000| 10,06028973024| 10,06028973024| 10,06028973024| 10,06028973024| 10,06028973024| 10,06028973024| 10,06028973024| 10,06028973024
canMal                    | 11,85607930126| 10,06028973024|  0,00000000000|  9,25784484471|  9,25784484471|  9,25784484471|  9,25784484471|  9,36100216418|  9,73669687263|  9,73669687263
canAlb                    | 11,85607930126| 10,06028973024|  9,25784484471|  0,00000000000|  8,94059610380|  8,86635119977|  8,88834446788|  9,36100216418|  9,73669687263|  9,73669687263
canDub                    | 11,85607930126| 10,06028973024|  9,25784484471|  8,94059610380|  0,00000000000|  8,94059610380|  8,94059610380|  9,36100216418|  9,73669687263|  9,73669687263
canSoj                    | 11,85607930126| 10,06028973024|  9,25784484471|  8,86635119977|  8,94059610380|  0,00000000000|  8,88834446788|  9,36100216418|  9,73669687263|  9,73669687263
canTro                    | 11,85607930126| 10,06028973024|  9,25784484471|  8,88834446788|  8,94059610380|  8,88834446788|  0,00000000000|  9,36100216418|  9,73669687263|  9,73669687263
canPar                    | 11,85607930126| 10,06028973024|  9,36100216418|  9,36100216418|  9,36100216418|  9,36100216418|  9,36100216418|  0,00000000000|  9,73669687263|  9,73669687263
sacPas                    | 11,85607930126| 10,06028973024|  9,73669687263|  9,73669687263|  9,73669687263|  9,73669687263|  9,73669687263|  9,73669687263|  0,00000000000|  8,67138732862
sacCer                    | 11,85607930126| 10,06028973024|  9,73669687263|  9,73669687263|  9,73669687263|  9,73669687263|  9,73669687263|  9,73669687263|  8,67138732862|  0,00000000000
                           |aspNig         |debHan         |canMal         |canAlb         |canDub         |canSoj         |canTro         |canPar         |sacPas         |sacCer         
aspNig                    |  0,00000000000|  3,00000000000|  6,00000000000|  9,00000000000|  7,00000000000|  9,00000000000|  8,00000000000|  5,00000000000|  5,00000000000|  5,00000000000
debHan                    |  3,00000000000|  0,00000000000|  5,00000000000|  8,00000000000|  6,00000000000|  8,00000000000|  7,00000000000|  4,00000000000|  4,00000000000|  4,00000000000
canMal                    |  6,00000000000|  5,00000000000|  0,00000000000|  5,00000000000|  3,00000000000|  5,00000000000|  4,00000000000|  3,00000000000|  5,00000000000|  5,00000000000
canAlb                    |  9,00000000000|  8,00000000000|  5,00000000000|  0,00000000000|  4,00000000000|  2,00000000000|  3,00000000000|  6,00000000000|  8,00000000000|  8,00000000000
canDub                    |  7,00000000000|  6,00000000000|  3,00000000000|  4,00000000000|  0,00000000000|  4,00000000000|  3,00000000000|  4,00000000000|  6,00000000000|  6,00000000000
canSoj                    |  9,00000000000|  8,00000000000|  5,00000000000|  2,00000000000|  4,00000000000|  0,00000000000|  3,00000000000|  6,00000000000|  8,00000000000|  8,00000000000
canTro                    |  8,00000000000|  7,00000000000|  4,00000000000|  3,00000000000|  3,00000000000|  3,00000000000|  0,00000000000|  5,00000000000|  7,00000000000|  7,00000000000
canPar                    |  5,00000000000|  4,00000000000|  3,00000000000|  6,00000000000|  4,00000000000|  6,00000000000|  5,00000000000|  0,00000000000|  4,00000000000|  4,00000000000
sacPas                    |  5,00000000000|  4,00000000000|  5,00000000000|  8,00000000000|  6,00000000000|  8,00000000000|  7,00000000000|  4,00000000000|  0,00000000000|  2,00000000000
sacCer                    |  5,00000000000|  4,00000000000|  5,00000000000|  8,00000000000|  6,00000000000|  8,00000000000|  7,00000000000|  4,00000000000|  2,00000000000|  0,00000000000
