                           |aspNig         |debHan         |canMal         |canAlb         |canDub         |canSoj         |canTro         |canPar         |sacPas         |sacCer         
aspNig                    |  0,00000000000| 10,86284852136| 11,74151235962| 11,07758595086| 11,42213261724| 11,08169472174| 11,30368703148| 10,78884061851| 10,75718344079| 10,82892481994
debHan                    | 10,86284852136|  0,00000000000| 11,67376064319| 11,12871183639| 11,73473932672| 10,79646983835| 11,05424056369| 10,39158117557|  9,62685097798|  9,46384882636
canMal                    | 11,74151235962| 11,67376064319|  0,00000000000|  8,94202101347|  8,91806123577|  9,03808642092|  8,82789214258|  9,63303390612| 10,68111803653| 10,74108894526
canAlb                    | 11,07758595086| 11,12871183639|  8,94202101347|  0,00000000000|  8,62574947413|  8,52742211530|  8,60948963774|  9,07016276799| 10,06501060700| 10,15068623083
canDub                    | 11,42213261724| 11,73473932672|  8,91806123577|  8,62574947413|  0,00000000000|  9,02051627857|  8,87538501270|  9,64246038362| 10,64085347565| 10,73115647435
canSoj                    | 11,08169472174| 10,79646983835|  9,03808642092|  8,52742211530|  9,02051627857|  0,00000000000|  8,53508890429|  8,88922968816|  9,79668096823|  9,86929254144
canTro                    | 11,30368703148| 11,05424056369|  8,82789214258|  8,60948963774|  8,87538501270|  8,53508890429|  0,00000000000|  9,26596105956| 10,17002544652| 10,21069298922
canPar                    | 10,78884061851| 10,39158117557|  9,63303390612|  9,07016276799|  9,64246038362|  8,88922968816|  9,26596105956|  0,00000000000|  9,15569235169|  9,26021009242
sacPas                    | 10,75718344079|  9,62685097798| 10,68111803653| 10,06501060700| 10,64085347565|  9,79668096823| 10,17002544652|  9,15569235169|  0,00000000000|  8,37231853016
sacCer                    | 10,82892481994|  9,46384882636| 10,74108894526| 10,15068623083| 10,73115647435|  9,86929254144| 10,21069298922|  9,26021009242|  8,37231853016|  0,00000000000
