                           |aspNig         |canZem         |yarLip         |canSub         |canAlb         |canNer         |canFri         |canPar         |sacPas         |sacCer         |sacSer         
aspNig                    |  0,00000000000|844,16477343979|837,74947558927|984,32925674678|837,74947558927|837,74947558927|837,74947558927|837,74947558927|837,74947558927|837,74947558927|837,74947558927
canZem                    |844,16477343979|  0,00000000000|844,16477343979|984,32925674678|844,16477343979|844,16477343979|844,16477343979|844,16477343979|844,16477343979|844,16477343979|844,16477343979
yarLip                    |837,74947558927|844,16477343979|  0,00000000000|984,32925674678|833,20511062319|833,20511062319|833,20511062319|833,20511062319|833,20511062319|833,20511062319|833,20511062319
canSub                    |984,32925674678|984,32925674678|984,32925674678|  0,00000000000|984,32925674678|984,32925674678|984,32925674678|984,32925674678|984,32925674678|984,32925674678|984,32925674678
canAlb                    |837,74947558927|844,16477343979|833,20511062319|984,32925674678|  0,00000000000|759,44128301915|759,44128301915|759,44128301915|819,18716500769|819,18716500769|819,18716500769
canNer                    |837,74947558927|844,16477343979|833,20511062319|984,32925674678|759,44128301915|  0,00000000000|624,14570994053|739,31985862573|819,18716500769|819,18716500769|819,18716500769
canFri                    |837,74947558927|844,16477343979|833,20511062319|984,32925674678|759,44128301915|624,14570994053|  0,00000000000|739,31985862573|819,18716500769|819,18716500769|819,18716500769
canPar                    |837,74947558927|844,16477343979|833,20511062319|984,32925674678|759,44128301915|739,31985862573|739,31985862573|  0,00000000000|819,18716500769|819,18716500769|819,18716500769
sacPas                    |837,74947558927|844,16477343979|833,20511062319|984,32925674678|819,18716500769|819,18716500769|819,18716500769|819,18716500769|  0,00000000000|525,44190256214|739,22025724254
sacCer                    |837,74947558927|844,16477343979|833,20511062319|984,32925674678|819,18716500769|819,18716500769|819,18716500769|819,18716500769|525,44190256214|  0,00000000000|739,22025724254
sacSer                    |837,74947558927|844,16477343979|833,20511062319|984,32925674678|819,18716500769|819,18716500769|819,18716500769|819,18716500769|739,22025724254|739,22025724254|  0,00000000000
                           |aspNig         |canZem         |yarLip         |canSub         |canAlb         |canNer         |canFri         |canPar         |sacPas         |sacCer         |sacSer         
aspNig                    |  0,00000000000| 10,04966986448|  9,97622359736| 11,65435889404|  9,97622359736|  9,97622359736|  9,97622359736|  9,97622359736|  9,97622359736|  9,97622359736|  9,97622359736
canZem                    | 10,04966986448|  0,00000000000| 10,04966986448| 11,65435889404| 10,04966986448| 10,04966986448| 10,04966986448| 10,04966986448| 10,04966986448| 10,04966986448| 10,04966986448
yarLip                    |  9,97622359736| 10,04966986448|  0,00000000000| 11,65435889404|  9,92419691816|  9,92419691816|  9,92419691816|  9,92419691816|  9,92419691816|  9,92419691816|  9,92419691816
canSub                    | 11,65435889404| 11,65435889404| 11,65435889404|  0,00000000000| 11,65435889404| 11,65435889404| 11,65435889404| 11,65435889404| 11,65435889404| 11,65435889404| 11,65435889404
canAlb                    |  9,97622359736| 10,04966986448|  9,92419691816| 11,65435889404|  0,00000000000|  9,07970334788|  9,07970334788|  9,07970334788|  9,76371087337|  9,76371087337|  9,76371087337
canNer                    |  9,97622359736| 10,04966986448|  9,92419691816| 11,65435889404|  9,07970334788|  0,00000000000|  7,53075659087|  8,84934093209|  9,76371087337|  9,76371087337|  9,76371087337
canFri                    |  9,97622359736| 10,04966986448|  9,92419691816| 11,65435889404|  9,07970334788|  7,53075659087|  0,00000000000|  8,84934093209|  9,76371087337|  9,76371087337|  9,76371087337
canPar                    |  9,97622359736| 10,04966986448|  9,92419691816| 11,65435889404|  9,07970334788|  8,84934093209|  8,84934093209|  0,00000000000|  9,76371087337|  9,76371087337|  9,76371087337
sacPas                    |  9,97622359736| 10,04966986448|  9,92419691816| 11,65435889404|  9,76371087337|  9,76371087337|  9,76371087337|  9,76371087337|  0,00000000000|  6,40073482544|  8,84820063432
sacCer                    |  9,97622359736| 10,04966986448|  9,92419691816| 11,65435889404|  9,76371087337|  9,76371087337|  9,76371087337|  9,76371087337|  6,40073482544|  0,00000000000|  8,84820063432
sacSer                    |  9,97622359736| 10,04966986448|  9,92419691816| 11,65435889404|  9,76371087337|  9,76371087337|  9,76371087337|  9,76371087337|  8,84820063432|  8,84820063432|  0,00000000000
                           |aspNig         |canZem         |yarLip         |canSub         |canAlb         |canNer         |canFri         |canPar         |sacPas         |sacCer         |sacSer         
aspNig                    |  0,00000000000|  3,00000000000|  3,00000000000|  4,00000000000|  5,00000000000|  7,00000000000|  7,00000000000|  6,00000000000|  6,00000000000|  6,00000000000|  5,00000000000
canZem                    |  3,00000000000|  0,00000000000|  4,00000000000|  3,00000000000|  6,00000000000|  8,00000000000|  8,00000000000|  7,00000000000|  7,00000000000|  7,00000000000|  6,00000000000
yarLip                    |  3,00000000000|  4,00000000000|  0,00000000000|  5,00000000000|  4,00000000000|  6,00000000000|  6,00000000000|  5,00000000000|  5,00000000000|  5,00000000000|  4,00000000000
canSub                    |  4,00000000000|  3,00000000000|  5,00000000000|  0,00000000000|  7,00000000000|  9,00000000000|  9,00000000000|  8,00000000000|  8,00000000000|  8,00000000000|  7,00000000000
canAlb                    |  5,00000000000|  6,00000000000|  4,00000000000|  7,00000000000|  0,00000000000|  4,00000000000|  4,00000000000|  3,00000000000|  5,00000000000|  5,00000000000|  4,00000000000
canNer                    |  7,00000000000|  8,00000000000|  6,00000000000|  9,00000000000|  4,00000000000|  0,00000000000|  2,00000000000|  3,00000000000|  7,00000000000|  7,00000000000|  6,00000000000
canFri                    |  7,00000000000|  8,00000000000|  6,00000000000|  9,00000000000|  4,00000000000|  2,00000000000|  0,00000000000|  3,00000000000|  7,00000000000|  7,00000000000|  6,00000000000
canPar                    |  6,00000000000|  7,00000000000|  5,00000000000|  8,00000000000|  3,00000000000|  3,00000000000|  3,00000000000|  0,00000000000|  6,00000000000|  6,00000000000|  5,00000000000
sacPas                    |  6,00000000000|  7,00000000000|  5,00000000000|  8,00000000000|  5,00000000000|  7,00000000000|  7,00000000000|  6,00000000000|  0,00000000000|  2,00000000000|  3,00000000000
sacCer                    |  6,00000000000|  7,00000000000|  5,00000000000|  8,00000000000|  5,00000000000|  7,00000000000|  7,00000000000|  6,00000000000|  2,00000000000|  0,00000000000|  3,00000000000
sacSer                    |  5,00000000000|  6,00000000000|  4,00000000000|  7,00000000000|  4,00000000000|  6,00000000000|  6,00000000000|  5,00000000000|  3,00000000000|  3,00000000000|  0,00000000000
