                           |aspNig         |canZem         |yarLip         |canSub         |canAlb         |canNer         |canFri         |canPar         |sacPas         |sacCer         |sacSer         
aspNig                    |  0,00000000000|  9,48967048400|  9,48967048400| 11,58896971855|  9,48967048400|  9,48967048400|  9,48967048400|  9,48967048400|  9,48967048400|  9,48967048400|  9,48967048400
canZem                    |  9,48967048400|  0,00000000000|  9,35870573408| 11,58896971855|  9,33838278634|  9,33838278634|  9,33838278634|  9,33838278634|  8,84578913513|  8,84578913513|  8,84578913513
yarLip                    |  9,48967048400|  9,35870573408|  0,00000000000| 11,58896971855|  9,35870573408|  9,35870573408|  9,35870573408|  9,35870573408|  9,35870573408|  9,35870573408|  9,35870573408
canSub                    | 11,58896971855| 11,58896971855| 11,58896971855|  0,00000000000| 11,58896971855| 11,58896971855| 11,58896971855| 11,58896971855| 11,58896971855| 11,58896971855| 11,58896971855
canAlb                    |  9,48967048400|  9,33838278634|  9,35870573408| 11,58896971855|  0,00000000000|  7,01174191649|  7,01174191649|  7,01174191649|  9,33838278634|  9,33838278634|  9,33838278634
canNer                    |  9,48967048400|  9,33838278634|  9,35870573408| 11,58896971855|  7,01174191649|  0,00000000000|  5,68420121785|  6,85026660696|  9,33838278634|  9,33838278634|  9,33838278634
canFri                    |  9,48967048400|  9,33838278634|  9,35870573408| 11,58896971855|  7,01174191649|  5,68420121785|  0,00000000000|  6,85026660696|  9,33838278634|  9,33838278634|  9,33838278634
canPar                    |  9,48967048400|  9,33838278634|  9,35870573408| 11,58896971855|  7,01174191649|  6,85026660696|  6,85026660696|  0,00000000000|  9,33838278634|  9,33838278634|  9,33838278634
sacPas                    |  9,48967048400|  8,84578913513|  9,35870573408| 11,58896971855|  9,33838278634|  9,33838278634|  9,33838278634|  9,33838278634|  0,00000000000|  5,25493278693|  7,23589817382
sacCer                    |  9,48967048400|  8,84578913513|  9,35870573408| 11,58896971855|  9,33838278634|  9,33838278634|  9,33838278634|  9,33838278634|  5,25493278693|  0,00000000000|  7,23589817382
sacSer                    |  9,48967048400|  8,84578913513|  9,35870573408| 11,58896971855|  9,33838278634|  9,33838278634|  9,33838278634|  9,33838278634|  7,23589817382|  7,23589817382|  0,00000000000
                           |aspNig         |canZem         |yarLip         |canSub         |canAlb         |canNer         |canFri         |canPar         |sacPas         |sacCer         |sacSer         
aspNig                    |  0,00000000000| 10,11947260875| 10,11947260875| 11,54639181460| 10,11947260875| 10,11947260875| 10,11947260875| 10,11947260875| 10,11947260875| 10,11947260875| 10,11947260875
canZem                    | 10,11947260875|  0,00000000000| 10,03045427640| 11,54639181460| 10,01664052181| 10,01664052181| 10,01664052181| 10,01664052181|  9,68181862980|  9,68181862980|  9,68181862980
yarLip                    | 10,11947260875| 10,03045427640|  0,00000000000| 11,54639181460| 10,03045427640| 10,03045427640| 10,03045427640| 10,03045427640| 10,03045427640| 10,03045427640| 10,03045427640
canSub                    | 11,54639181460| 11,54639181460| 11,54639181460|  0,00000000000| 11,54639181460| 11,54639181460| 11,54639181460| 11,54639181460| 11,54639181460| 11,54639181460| 11,54639181460
canAlb                    | 10,11947260875| 10,01664052181| 10,03045427640| 11,54639181460|  0,00000000000|  8,43519444320|  8,43519444320|  8,43519444320| 10,01664052181| 10,01664052181| 10,01664052181
canNer                    | 10,11947260875| 10,01664052181| 10,03045427640| 11,54639181460|  8,43519444320|  0,00000000000|  7,53284889462|  8,32543771264| 10,01664052181| 10,01664052181| 10,01664052181
canFri                    | 10,11947260875| 10,01664052181| 10,03045427640| 11,54639181460|  8,43519444320|  7,53284889462|  0,00000000000|  8,32543771264| 10,01664052181| 10,01664052181| 10,01664052181
canPar                    | 10,11947260875| 10,01664052181| 10,03045427640| 11,54639181460|  8,43519444320|  8,32543771264|  8,32543771264|  0,00000000000| 10,01664052181| 10,01664052181| 10,01664052181
sacPas                    | 10,11947260875|  9,68181862980| 10,03045427640| 11,54639181460| 10,01664052181| 10,01664052181| 10,01664052181| 10,01664052181|  0,00000000000|  7,24106992454|  8,58755617584
sacCer                    | 10,11947260875|  9,68181862980| 10,03045427640| 11,54639181460| 10,01664052181| 10,01664052181| 10,01664052181| 10,01664052181|  7,24106992454|  0,00000000000|  8,58755617584
sacSer                    | 10,11947260875|  9,68181862980| 10,03045427640| 11,54639181460| 10,01664052181| 10,01664052181| 10,01664052181| 10,01664052181|  8,58755617584|  8,58755617584|  0,00000000000
                           |aspNig         |canZem         |yarLip         |canSub         |canAlb         |canNer         |canFri         |canPar         |sacPas         |sacCer         |sacSer         
aspNig                    |  0,00000000000|  5,00000000000|  3,00000000000|  3,00000000000|  5,00000000000|  7,00000000000|  7,00000000000|  6,00000000000|  7,00000000000|  7,00000000000|  6,00000000000
canZem                    |  5,00000000000|  0,00000000000|  4,00000000000|  6,00000000000|  4,00000000000|  6,00000000000|  6,00000000000|  5,00000000000|  4,00000000000|  4,00000000000|  3,00000000000
yarLip                    |  3,00000000000|  4,00000000000|  0,00000000000|  4,00000000000|  4,00000000000|  6,00000000000|  6,00000000000|  5,00000000000|  6,00000000000|  6,00000000000|  5,00000000000
canSub                    |  3,00000000000|  6,00000000000|  4,00000000000|  0,00000000000|  6,00000000000|  8,00000000000|  8,00000000000|  7,00000000000|  8,00000000000|  8,00000000000|  7,00000000000
canAlb                    |  5,00000000000|  4,00000000000|  4,00000000000|  6,00000000000|  0,00000000000|  4,00000000000|  4,00000000000|  3,00000000000|  6,00000000000|  6,00000000000|  5,00000000000
canNer                    |  7,00000000000|  6,00000000000|  6,00000000000|  8,00000000000|  4,00000000000|  0,00000000000|  2,00000000000|  3,00000000000|  8,00000000000|  8,00000000000|  7,00000000000
canFri                    |  7,00000000000|  6,00000000000|  6,00000000000|  8,00000000000|  4,00000000000|  2,00000000000|  0,00000000000|  3,00000000000|  8,00000000000|  8,00000000000|  7,00000000000
canPar                    |  6,00000000000|  5,00000000000|  5,00000000000|  7,00000000000|  3,00000000000|  3,00000000000|  3,00000000000|  0,00000000000|  7,00000000000|  7,00000000000|  6,00000000000
sacPas                    |  7,00000000000|  4,00000000000|  6,00000000000|  8,00000000000|  6,00000000000|  8,00000000000|  8,00000000000|  7,00000000000|  0,00000000000|  2,00000000000|  3,00000000000
sacCer                    |  7,00000000000|  4,00000000000|  6,00000000000|  8,00000000000|  6,00000000000|  8,00000000000|  8,00000000000|  7,00000000000|  2,00000000000|  0,00000000000|  3,00000000000
sacSer                    |  6,00000000000|  3,00000000000|  5,00000000000|  7,00000000000|  5,00000000000|  7,00000000000|  7,00000000000|  6,00000000000|  3,00000000000|  3,00000000000|  0,00000000000
