                           |aspNig         |canZem         |yarLip         |canSub         |canAlb         |canNer         |canFri         |canPar         |sacPas         |sacCer         |sacSer         
aspNig                    |  0,00000000000|3861,52644567757|3476,36806966106|3992,86489143474|3589,41455178259|3589,41455178259|3589,41455178259|3589,41455178259|3530,52416037661|3530,52416037661|3530,52416037661
canZem                    |3861,52644567757|  0,00000000000|3861,52644567757|3992,86489143475|3861,52644567757|3861,52644567757|3861,52644567757|3861,52644567757|3861,52644567757|3861,52644567757|3861,52644567757
yarLip                    |3476,36806966106|3861,52644567757|  0,00000000000|3992,86489143474|3589,41455178259|3589,41455178259|3589,41455178259|3589,41455178259|3530,52416037661|3530,52416037661|3530,52416037661
canSub                    |3992,86489143474|3992,86489143475|3992,86489143474|  0,00000000000|3992,86489143475|3992,86489143475|3992,86489143475|3992,86489143475|3992,86489143475|3992,86489143475|3992,86489143475
canAlb                    |3589,41455178259|3861,52644567757|3589,41455178259|3992,86489143475|  0,00000000000|3173,59813560129|3173,59813560129|3173,59813560129|3589,41455178259|3589,41455178259|3589,41455178259
canNer                    |3589,41455178259|3861,52644567757|3589,41455178259|3992,86489143475|3173,59813560129|  0,00000000000|2970,38878164377|3140,22199607165|3589,41455178259|3589,41455178259|3589,41455178259
canFri                    |3589,41455178259|3861,52644567757|3589,41455178259|3992,86489143475|3173,59813560129|2970,38878164377|  0,00000000000|3140,22199607165|3589,41455178259|3589,41455178259|3589,41455178259
canPar                    |3589,41455178259|3861,52644567757|3589,41455178259|3992,86489143475|3173,59813560129|3140,22199607165|3140,22199607165|  0,00000000000|3589,41455178259|3589,41455178259|3589,41455178259
sacPas                    |3530,52416037661|3861,52644567757|3530,52416037661|3992,86489143475|3589,41455178259|3589,41455178259|3589,41455178259|3589,41455178259|  0,00000000000|2386,32108722449|2945,04190297406
sacCer                    |3530,52416037661|3861,52644567757|3530,52416037661|3992,86489143475|3589,41455178259|3589,41455178259|3589,41455178259|3589,41455178259|2386,32108722449|  0,00000000000|2945,04190297406
sacSer                    |3530,52416037661|3861,52644567757|3530,52416037661|3992,86489143475|3589,41455178259|3589,41455178259|3589,41455178259|3589,41455178259|2945,04190297406|2945,04190297406|  0,00000000000
                           |aspNig         |canZem         |yarLip         |canSub         |canAlb         |canNer         |canFri         |canPar         |sacPas         |sacCer         |sacSer         
aspNig                    |  0,00000000000| 10,78856450292|  9,61265023570| 11,18954955691|  9,95778870201|  9,95778870201|  9,95778870201|  9,95778870201|  9,77799240062|  9,77799240062|  9,77799240062
canZem                    | 10,78856450292|  0,00000000000| 10,78856450292| 11,18954955691| 10,78856450292| 10,78856450292| 10,78856450292| 10,78856450292| 10,78856450292| 10,78856450292| 10,78856450292
yarLip                    |  9,61265023570| 10,78856450292|  0,00000000000| 11,18954955691|  9,95778870201|  9,95778870201|  9,95778870201|  9,95778870201|  9,77799240062|  9,77799240062|  9,77799240062
canSub                    | 11,18954955691| 11,18954955691| 11,18954955691|  0,00000000000| 11,18954955691| 11,18954955691| 11,18954955691| 11,18954955691| 11,18954955691| 11,18954955691| 11,18954955691
canAlb                    |  9,95778870201| 10,78856450292|  9,95778870201| 11,18954955691|  0,00000000000|  8,68827338888|  8,68827338888|  8,68827338888|  9,95778870201|  9,95778870201|  9,95778870201
canNer                    |  9,95778870201| 10,78856450292|  9,95778870201| 11,18954955691|  8,68827338888|  0,00000000000|  8,06786164807|  8,58637380393|  9,95778870201|  9,95778870201|  9,95778870201
canFri                    |  9,95778870201| 10,78856450292|  9,95778870201| 11,18954955691|  8,68827338888|  8,06786164807|  0,00000000000|  8,58637380393|  9,95778870201|  9,95778870201|  9,95778870201
canPar                    |  9,95778870201| 10,78856450292|  9,95778870201| 11,18954955691|  8,68827338888|  8,58637380393|  8,58637380393|  0,00000000000|  9,95778870201|  9,95778870201|  9,95778870201
sacPas                    |  9,77799240062| 10,78856450292|  9,77799240062| 11,18954955691|  9,95778870201|  9,95778870201|  9,95778870201|  9,95778870201|  0,00000000000|  6,28466393601|  7,99047593322
sacCer                    |  9,77799240062| 10,78856450292|  9,77799240062| 11,18954955691|  9,95778870201|  9,95778870201|  9,95778870201|  9,95778870201|  6,28466393601|  0,00000000000|  7,99047593322
sacSer                    |  9,77799240062| 10,78856450292|  9,77799240062| 11,18954955691|  9,95778870201|  9,95778870201|  9,95778870201|  9,95778870201|  7,99047593322|  7,99047593322|  0,00000000000
                           |aspNig         |canZem         |yarLip         |canSub         |canAlb         |canNer         |canFri         |canPar         |sacPas         |sacCer         |sacSer         
aspNig                    |  0,00000000000|  5,00000000000|  2,00000000000|  6,00000000000|  5,00000000000|  7,00000000000|  7,00000000000|  6,00000000000|  5,00000000000|  5,00000000000|  4,00000000000
canZem                    |  5,00000000000|  0,00000000000|  5,00000000000|  3,00000000000|  4,00000000000|  6,00000000000|  6,00000000000|  5,00000000000|  6,00000000000|  6,00000000000|  5,00000000000
yarLip                    |  2,00000000000|  5,00000000000|  0,00000000000|  6,00000000000|  5,00000000000|  7,00000000000|  7,00000000000|  6,00000000000|  5,00000000000|  5,00000000000|  4,00000000000
canSub                    |  6,00000000000|  3,00000000000|  6,00000000000|  0,00000000000|  5,00000000000|  7,00000000000|  7,00000000000|  6,00000000000|  7,00000000000|  7,00000000000|  6,00000000000
canAlb                    |  5,00000000000|  4,00000000000|  5,00000000000|  5,00000000000|  0,00000000000|  4,00000000000|  4,00000000000|  3,00000000000|  6,00000000000|  6,00000000000|  5,00000000000
canNer                    |  7,00000000000|  6,00000000000|  7,00000000000|  7,00000000000|  4,00000000000|  0,00000000000|  2,00000000000|  3,00000000000|  8,00000000000|  8,00000000000|  7,00000000000
canFri                    |  7,00000000000|  6,00000000000|  7,00000000000|  7,00000000000|  4,00000000000|  2,00000000000|  0,00000000000|  3,00000000000|  8,00000000000|  8,00000000000|  7,00000000000
canPar                    |  6,00000000000|  5,00000000000|  6,00000000000|  6,00000000000|  3,00000000000|  3,00000000000|  3,00000000000|  0,00000000000|  7,00000000000|  7,00000000000|  6,00000000000
sacPas                    |  5,00000000000|  6,00000000000|  5,00000000000|  7,00000000000|  6,00000000000|  8,00000000000|  8,00000000000|  7,00000000000|  0,00000000000|  2,00000000000|  3,00000000000
sacCer                    |  5,00000000000|  6,00000000000|  5,00000000000|  7,00000000000|  6,00000000000|  8,00000000000|  8,00000000000|  7,00000000000|  2,00000000000|  0,00000000000|  3,00000000000
sacSer                    |  4,00000000000|  5,00000000000|  4,00000000000|  6,00000000000|  5,00000000000|  7,00000000000|  7,00000000000|  6,00000000000|  3,00000000000|  3,00000000000|  0,00000000000
