aspNig, -f=C:\D\fiit\DP-ELKI\data\mrna\ATP6.fa, aspNig, -f=C:\D\fiit\DP-ELKI\data\mrna\ATP8.fa, aspNig, -f=C:\D\fiit\DP-ELKI\data\mrna\ATP9.fa, aspNig, -f=C:\D\fiit\DP-ELKI\data\mrna\COB.fa, aspNig, -f=C:\D\fiit\DP-ELKI\data\mrna\COX1.fa, aspNig, -f=C:\D\fiit\DP-ELKI\data\mrna\COX2.fa, aspNig, -f=C:\D\fiit\DP-ELKI\data\mrna\COX3.fa, aspNig
canZem, -f=C:\D\fiit\DP-ELKI\data\mrna\ATP6.fa, canZem, -f=C:\D\fiit\DP-ELKI\data\mrna\ATP8.fa, canZem, -f=C:\D\fiit\DP-ELKI\data\mrna\ATP9.fa, canZem, -f=C:\D\fiit\DP-ELKI\data\mrna\COB.fa, canZem, -f=C:\D\fiit\DP-ELKI\data\mrna\COX1.fa, canZem, -f=C:\D\fiit\DP-ELKI\data\mrna\COX2.fa, canZem, -f=C:\D\fiit\DP-ELKI\data\mrna\COX3.fa, canZem
yarLip, -f=C:\D\fiit\DP-ELKI\data\mrna\ATP6.fa, yarLip, -f=C:\D\fiit\DP-ELKI\data\mrna\ATP8.fa, yarLip, -f=C:\D\fiit\DP-ELKI\data\mrna\ATP9.fa, yarLip, -f=C:\D\fiit\DP-ELKI\data\mrna\COB.fa, yarLip, -f=C:\D\fiit\DP-ELKI\data\mrna\COX1.fa, yarLip, -f=C:\D\fiit\DP-ELKI\data\mrna\COX2.fa, yarLip, -f=C:\D\fiit\DP-ELKI\data\mrna\COX3.fa, yarLip
canSub, -f=C:\D\fiit\DP-ELKI\data\mrna\ATP6.fa, canSub, -f=C:\D\fiit\DP-ELKI\data\mrna\ATP8.fa, canSub, -f=C:\D\fiit\DP-ELKI\data\mrna\ATP9.fa, canSub, -f=C:\D\fiit\DP-ELKI\data\mrna\COB.fa, canSub, -f=C:\D\fiit\DP-ELKI\data\mrna\COX1.fa, canSub, -f=C:\D\fiit\DP-ELKI\data\mrna\COX2.fa, canSub, -f=C:\D\fiit\DP-ELKI\data\mrna\COX3.fa, canSub
canAlb, -f=C:\D\fiit\DP-ELKI\data\mrna\ATP6.fa, canAlb, -f=C:\D\fiit\DP-ELKI\data\mrna\ATP8.fa, canAlb, -f=C:\D\fiit\DP-ELKI\data\mrna\ATP9.fa, canAlb, -f=C:\D\fiit\DP-ELKI\data\mrna\COB.fa, canAlb, -f=C:\D\fiit\DP-ELKI\data\mrna\COX1.fa, canAlb, -f=C:\D\fiit\DP-ELKI\data\mrna\COX2.fa, canAlb, -f=C:\D\fiit\DP-ELKI\data\mrna\COX3.fa, canAlb
canNer, -f=C:\D\fiit\DP-ELKI\data\mrna\ATP6.fa, canNer, -f=C:\D\fiit\DP-ELKI\data\mrna\ATP8.fa, canNer, -f=C:\D\fiit\DP-ELKI\data\mrna\ATP9.fa, canNer, -f=C:\D\fiit\DP-ELKI\data\mrna\COB.fa, canNer, -f=C:\D\fiit\DP-ELKI\data\mrna\COX1.fa, canNer, -f=C:\D\fiit\DP-ELKI\data\mrna\COX2.fa, canNer, -f=C:\D\fiit\DP-ELKI\data\mrna\COX3.fa, canNer
canFri, -f=C:\D\fiit\DP-ELKI\data\mrna\ATP6.fa, canFri, -f=C:\D\fiit\DP-ELKI\data\mrna\ATP8.fa, canFri, -f=C:\D\fiit\DP-ELKI\data\mrna\ATP9.fa, canFri, -f=C:\D\fiit\DP-ELKI\data\mrna\COB.fa, canFri, -f=C:\D\fiit\DP-ELKI\data\mrna\COX1.fa, canFri, -f=C:\D\fiit\DP-ELKI\data\mrna\COX2.fa, canFri, -f=C:\D\fiit\DP-ELKI\data\mrna\COX3.fa, canFri
canPar, -f=C:\D\fiit\DP-ELKI\data\mrna\ATP6.fa, canPar, -f=C:\D\fiit\DP-ELKI\data\mrna\ATP8.fa, canPar, -f=C:\D\fiit\DP-ELKI\data\mrna\ATP9.fa, canPar, -f=C:\D\fiit\DP-ELKI\data\mrna\COB.fa, canPar, -f=C:\D\fiit\DP-ELKI\data\mrna\COX1.fa, canPar, -f=C:\D\fiit\DP-ELKI\data\mrna\COX2.fa, canPar, -f=C:\D\fiit\DP-ELKI\data\mrna\COX3.fa, canPar
sacPas, -f=C:\D\fiit\DP-ELKI\data\mrna\ATP6.fa, sacPas, -f=C:\D\fiit\DP-ELKI\data\mrna\ATP8.fa, sacPas, -f=C:\D\fiit\DP-ELKI\data\mrna\ATP9.fa, sacPas, -f=C:\D\fiit\DP-ELKI\data\mrna\COB.fa, sacPas, -f=C:\D\fiit\DP-ELKI\data\mrna\COX1.fa, sacPas, -f=C:\D\fiit\DP-ELKI\data\mrna\COX2.fa, sacPas, -f=C:\D\fiit\DP-ELKI\data\mrna\COX3.fa, sacPas
sacCer, -f=C:\D\fiit\DP-ELKI\data\mrna\ATP6.fa, sacCer, -f=C:\D\fiit\DP-ELKI\data\mrna\ATP8.fa, sacCer, -f=C:\D\fiit\DP-ELKI\data\mrna\ATP9.fa, sacCer, -f=C:\D\fiit\DP-ELKI\data\mrna\COB.fa, sacCer, -f=C:\D\fiit\DP-ELKI\data\mrna\COX1.fa, sacCer, -f=C:\D\fiit\DP-ELKI\data\mrna\COX2.fa, sacCer, -f=C:\D\fiit\DP-ELKI\data\mrna\COX3.fa, sacCer
sacSer, -f=C:\D\fiit\DP-ELKI\data\mrna\ATP6.fa, sacSer, -f=C:\D\fiit\DP-ELKI\data\mrna\ATP8.fa, sacSer, -f=C:\D\fiit\DP-ELKI\data\mrna\ATP9.fa, sacSer, -f=C:\D\fiit\DP-ELKI\data\mrna\COB.fa, sacSer, -f=C:\D\fiit\DP-ELKI\data\mrna\COX1.fa, sacSer, -f=C:\D\fiit\DP-ELKI\data\mrna\COX2.fa, sacSer, -f=C:\D\fiit\DP-ELKI\data\mrna\COX3.fa, sacSer