canTro, -f=C:\D\fiit\DP-ELKI\data\mrna\ATP6.fa, canTro, -f=C:\D\fiit\DP-ELKI\data\mrna\ATP8.fa, canTro, -f=C:\D\fiit\DP-ELKI\data\mrna\ATP9.fa, canTro, -f=C:\D\fiit\DP-ELKI\data\mrna\COB.fa, canTro, -f=C:\D\fiit\DP-ELKI\data\mrna\COX1.fa, canTro, -f=C:\D\fiit\DP-ELKI\data\mrna\COX2.fa, canTro, -f=C:\D\fiit\DP-ELKI\data\mrna\COX3.fa, canTro
canSoj, -f=C:\D\fiit\DP-ELKI\data\mrna\ATP6.fa, canSoj, -f=C:\D\fiit\DP-ELKI\data\mrna\ATP8.fa, canSoj, -f=C:\D\fiit\DP-ELKI\data\mrna\ATP9.fa, canSoj, -f=C:\D\fiit\DP-ELKI\data\mrna\COB.fa, canSoj, -f=C:\D\fiit\DP-ELKI\data\mrna\COX1.fa, canSoj, -f=C:\D\fiit\DP-ELKI\data\mrna\COX2.fa, canSoj, -f=C:\D\fiit\DP-ELKI\data\mrna\COX3.fa, canSoj
canVis, -f=C:\D\fiit\DP-ELKI\data\mrna\ATP6.fa, canVis, -f=C:\D\fiit\DP-ELKI\data\mrna\ATP8.fa, canVis, -f=C:\D\fiit\DP-ELKI\data\mrna\ATP9.fa, canVis, -f=C:\D\fiit\DP-ELKI\data\mrna\COB.fa, canVis, -f=C:\D\fiit\DP-ELKI\data\mrna\COX1.fa, canVis, -f=C:\D\fiit\DP-ELKI\data\mrna\COX2.fa, canVis, -f=C:\D\fiit\DP-ELKI\data\mrna\COX3.fa, canVis
canFri, -f=C:\D\fiit\DP-ELKI\data\mrna\ATP6.fa, canFri, -f=C:\D\fiit\DP-ELKI\data\mrna\ATP8.fa, canFri, -f=C:\D\fiit\DP-ELKI\data\mrna\ATP9.fa, canFri, -f=C:\D\fiit\DP-ELKI\data\mrna\COB.fa, canFri, -f=C:\D\fiit\DP-ELKI\data\mrna\COX1.fa, canFri, -f=C:\D\fiit\DP-ELKI\data\mrna\COX2.fa, canFri, -f=C:\D\fiit\DP-ELKI\data\mrna\COX3.fa, canFri
canNer, -f=C:\D\fiit\DP-ELKI\data\mrna\ATP6.fa, canNer, -f=C:\D\fiit\DP-ELKI\data\mrna\ATP8.fa, canNer, -f=C:\D\fiit\DP-ELKI\data\mrna\ATP9.fa, canNer, -f=C:\D\fiit\DP-ELKI\data\mrna\COB.fa, canNer, -f=C:\D\fiit\DP-ELKI\data\mrna\COX1.fa, canNer, -f=C:\D\fiit\DP-ELKI\data\mrna\COX2.fa, canNer, -f=C:\D\fiit\DP-ELKI\data\mrna\COX3.fa, canNer
canDub, -f=C:\D\fiit\DP-ELKI\data\mrna\ATP6.fa, canDub, -f=C:\D\fiit\DP-ELKI\data\mrna\ATP8.fa, canDub, -f=C:\D\fiit\DP-ELKI\data\mrna\ATP9.fa, canDub, -f=C:\D\fiit\DP-ELKI\data\mrna\COB.fa, canDub, -f=C:\D\fiit\DP-ELKI\data\mrna\COX1.fa, canDub, -f=C:\D\fiit\DP-ELKI\data\mrna\COX2.fa, canDub, -f=C:\D\fiit\DP-ELKI\data\mrna\COX3.fa, canDub
canAlb, -f=C:\D\fiit\DP-ELKI\data\mrna\ATP6.fa, canAlb, -f=C:\D\fiit\DP-ELKI\data\mrna\ATP8.fa, canAlb, -f=C:\D\fiit\DP-ELKI\data\mrna\ATP9.fa, canAlb, -f=C:\D\fiit\DP-ELKI\data\mrna\COB.fa, canAlb, -f=C:\D\fiit\DP-ELKI\data\mrna\COX1.fa, canAlb, -f=C:\D\fiit\DP-ELKI\data\mrna\COX2.fa, canAlb, -f=C:\D\fiit\DP-ELKI\data\mrna\COX3.fa, canAlb
canMal, -f=C:\D\fiit\DP-ELKI\data\mrna\ATP6.fa, canMal, -f=C:\D\fiit\DP-ELKI\data\mrna\ATP8.fa, canMal, -f=C:\D\fiit\DP-ELKI\data\mrna\ATP9.fa, canMal, -f=C:\D\fiit\DP-ELKI\data\mrna\COB.fa, canMal, -f=C:\D\fiit\DP-ELKI\data\mrna\COX1.fa, canMal, -f=C:\D\fiit\DP-ELKI\data\mrna\COX2.fa, canMal, -f=C:\D\fiit\DP-ELKI\data\mrna\COX3.fa, canMal
debHan, -f=C:\D\fiit\DP-ELKI\data\mrna\ATP6.fa, debHan, -f=C:\D\fiit\DP-ELKI\data\mrna\ATP8.fa, debHan, -f=C:\D\fiit\DP-ELKI\data\mrna\ATP9.fa, debHan, -f=C:\D\fiit\DP-ELKI\data\mrna\COB.fa, debHan, -f=C:\D\fiit\DP-ELKI\data\mrna\COX1.fa, debHan, -f=C:\D\fiit\DP-ELKI\data\mrna\COX2.fa, debHan, -f=C:\D\fiit\DP-ELKI\data\mrna\COX3.fa, debHan
picFar, -f=C:\D\fiit\DP-ELKI\data\mrna\ATP6.fa, picFar, -f=C:\D\fiit\DP-ELKI\data\mrna\ATP8.fa, picFar, -f=C:\D\fiit\DP-ELKI\data\mrna\ATP9.fa, picFar, -f=C:\D\fiit\DP-ELKI\data\mrna\COB.fa, picFar, -f=C:\D\fiit\DP-ELKI\data\mrna\COX1.fa, picFar, -f=C:\D\fiit\DP-ELKI\data\mrna\COX2.fa, picFar, -f=C:\D\fiit\DP-ELKI\data\mrna\COX3.fa, picFar
