Yarrowia_lipolytica, C:\D\fiit\DP-ELKI\data\Saccharomyces.fasta, Yarrowia lipolytica
Pichia_pastoris, C:\D\fiit\DP-ELKI\data\Saccharomyces.fasta, Pichia pastoris
Clavispora_lusitaniae, C:\D\fiit\DP-ELKI\data\Saccharomyces.fasta, Clavispora lusitaniae
Debaryomyces_hansenii, C:\D\fiit\DP-ELKI\data\Saccharomyces.fasta, Debaryomyces hansenii
Meyerozyma_guilliermondii, C:\D\fiit\DP-ELKI\data\Saccharomyces.fasta, Meyerozyma guilliermondii
Candida_parapsilosis, C:\D\fiit\DP-ELKI\data\Saccharomyces.fasta, Candida parapsilosis
Candida_tropicalis, C:\D\fiit\DP-ELKI\data\Saccharomyces.fasta, Candida tropicalis
Candida_albicans, C:\D\fiit\DP-ELKI\data\Saccharomyces.fasta, Candida albicans
Kluyveromyces_lactis, C:\D\fiit\DP-ELKI\data\Saccharomyces.fasta, Kluyveromyces lactis
Ashbya_gossypii, C:\D\fiit\DP-ELKI\data\Saccharomyces.fasta, Ashbya gossypii
Lachancea_kluyveri, C:\D\fiit\DP-ELKI\data\Saccharomyces.fasta, Lachancea kluyveri
